"","Term","Overlap","P.value","Adjusted.P.value","Old.P.value","Old.Adjusted.P.value","Odds.Ratio","Combined.Score","Genes","Overlap_Number"
"1","fanconi_anemia","34/90",0.654220982186435,1,0,0,0.96138892423407,0.407927022261345,"OPRD1;PTPRU;CEBPA;HDAC2;GTF2B;ADCY5;GNAI2;SLC9A3R1;BRIP1;CCND1;KPNA2;PRKACA;JAK2;BUB1;JAK1;FANCI;HSP90AA1;PTGIR;CSNK2A1;FANCM;FUS;CAV1;FANCA;NR2F1;HMGA2;FANCC;FOS;FANCE;PALB2;NFKB1;CREB1;FANCD2;GNAS;CTNNB1",34
"2","disorder_of_glycosylation","36/96",0.677070762810518,1,0,0,0.954319888026466,0.372165180786148,"OPRD1;PTPRU;CEBPA;HDAC2;B4GALT1;GTF2B;RTF1;ADCY5;GNAI2;SLC9A3R1;CCND1;KPNA2;PRKACA;JAK2;BUB1;JAK1;MPDU1;SLC35A1;HSP90AA1;PTGIR;ALG8;ALG9;CSNK2A1;ALG6;FUS;CAV1;ALG2;NR2F1;HMGA2;FOS;NFKB1;DPM1;CREB1;RFT1;GNAS;CTNNB1",36
"3","charcot-marie-tooth_disease","39/104",0.681029590164822,1,0,0,0.954319888026466,0.366601529514183,"OPRD1;PTPRU;CEBPA;PRPS1;MTMR2;HDAC2;GTF2B;HSPB8;HSPB1;ADCY5;GNAI2;SLC9A3R1;CCND1;SH3TC2;MPZ;LMNA;NEFL;MFN2;KPNA2;PRKACA;JAK2;BUB1;JAK1;YARS;HSP90AA1;PTGIR;CSNK2A1;FUS;CAV1;NR2F1;HMGA2;FOS;GDAP1;NFKB1;FIG4;CREB1;GNAS;PMP22;CTNNB1",39
"4","porphyria","31/84",0.710737152427614,1,0,0,0.939171953295888,0.320682709706862,"OPRD1;PTPRU;CEBPA;HDAC2;GTF2B;HFE;PPOX;ADCY5;GNAI2;SLC9A3R1;CCND1;UROD;KPNA2;PRKACA;JAK2;BUB1;JAK1;HSP90AA1;PTGIR;CSNK2A1;FUS;CAV1;UROS;NR2F1;HMGA2;FOS;NFKB1;CREB1;HMBS;GNAS;CTNNB1",31
"5","joubert_syndrome","31/85",0.739091477922339,1,0,0,0.928122871492406,0.28060271004909,"OPRD1;PTPRU;CEBPA;HDAC2;GTF2B;ADCY5;GNAI2;SLC9A3R1;CCND1;ARL13B;TMEM67;NPHP1;KPNA2;PRKACA;JAK2;CC2D2A;BUB1;JAK1;HSP90AA1;PTGIR;CSNK2A1;FUS;CAV1;NR2F1;HMGA2;RPGRIP1L;FOS;NFKB1;CREB1;GNAS;CTNNB1",31
"6","renal_cell_carcinoma","31/85",0.739091477922339,1,0,0,0.928122871492406,0.28060271004909,"OPRD1;PTPRU;CEBPA;HDAC2;GTF2B;OGG1;PRCC;ADCY5;GNAI2;SLC9A3R1;CCND1;RNF139;KPNA2;PRKACA;JAK2;BUB1;JAK1;HSP90AA1;PTGIR;CSNK2A1;FUS;CAV1;TFE3;NR2F1;HMGA2;FOS;NFKB1;CREB1;GNAS;CTNNB1;MET",31
"7","ehlers-danlos","32/88",0.748255913921653,1,0,0,0.925401103540816,0.268375785593628,"OPRD1;PTPRU;CEBPA;HDAC2;GTF2B;ADCY5;GNAI2;SLC9A3R1;CCND1;KPNA2;PRKACA;JAK2;BUB1;JAK1;HSP90AA1;PTGIR;CSNK2A1;FUS;CAV1;NR2F1;HMGA2;FOS;NFKB1;COL1A1;COL3A1;CREB1;COL1A2;COL5A1;COL5A2;GNAS;CTNNB1;B4GALT7",32
"8","chondrodysplasia","31/86",0.76568731657423,1,0,0,0.917330745079704,0.244910242442433,"OPRD1;PTPRU;CEBPA;HDAC2;GTF2B;ADCY5;GNAI2;SLC9A3R1;EBP;CCND1;KPNA2;PRKACA;JAK2;ARSE;BUB1;JAK1;HSP90AA1;PTGIR;CSNK2A1;FUS;CAV1;NR2F1;HMGA2;FOS;GDF5;NFKB1;PEX7;GNPAT;CREB1;GNAS;CTNNB1",31
"9","breast_cancer","38/105",0.773335203409809,1,0,0,0.920994431619193,0.236734881380475,"OPRD1;PTPRU;CEBPA;HDAC2;TSG101;GTF2B;HMMR;BRCA2;ADCY5;GNAI2;SLC9A3R1;BRIP1;CASP8;CCND1;CHEK2;RAD54L;KPNA2;PRKACA;JAK2;BUB1;JAK1;BARD1;NQO1;HSP90AA1;PTGIR;CSNK2A1;FUS;CAV1;XRCC3;NR2F1;HMGA2;FOS;PALB2;NFKB1;CREB1;GNAS;CTNNB1;TP53",38
"10","cutis_laxa","30/84",0.782867043082719,1,0,0,0.90887608383473,0.222485959593011,"OPRD1;PTPRU;CEBPA;HDAC2;GTF2B;ELN;ADCY5;GNAI2;SLC9A3R1;EFEMP2;CCND1;KPNA2;PRKACA;JAK2;BUB1;JAK1;HSP90AA1;PTGIR;CSNK2A1;FUS;CAV1;NR2F1;HMGA2;LAMB1;FOS;NFKB1;CREB1;LOX;GNAS;CTNNB1",30
"11","thyroid_carcinoma","33/93",0.804694536780047,1,0,0,0.903012367164828,0.196217842778185,"OPRD1;PTPRU;CEBPA;HDAC2;GTF2B;ADCY5;GNAI2;SLC9A3R1;PCM1;NRAS;CCND1;TRIM24;KPNA2;PRKACA;JAK2;HRAS;BUB1;JAK1;HSP90AA1;PTGIR;CSNK2A1;FUS;CAV1;NCOA4;NR2F1;HMGA2;FOS;NFKB1;MINPP1;CREB1;PRKAR1A;GNAS;CTNNB1",33
"12","hepatocellular_carcinoma","30/85",0.806744600089125,1,0,0,0.89818342402491,0.192883221022332,"OPRD1;PTPRU;CEBPA;HDAC2;GTF2B;ADCY5;GNAI2;SLC9A3R1;CASP8;CCND1;KPNA2;PRKACA;JAK2;BUB1;JAK1;HSP90AA1;PTGIR;CSNK2A1;FUS;CAV1;NR2F1;HMGA2;FOS;IGF2R;NFKB1;CREB1;GNAS;CTNNB1;TP53;MET",30
"13","hermansky-pudlak_syndrome","30/85",0.806744600089125,1,0,0,0.89818342402491,0.192883221022332,"OPRD1;PTPRU;CEBPA;HDAC2;GTF2B;ADCY5;GNAI2;SLC9A3R1;CCND1;KPNA2;PRKACA;JAK2;BUB1;JAK1;HSP90AA1;PTGIR;CSNK2A1;FUS;CAV1;HPS1;DTNBP1;NR2F1;HMGA2;HPS6;FOS;HPS5;NFKB1;CREB1;GNAS;CTNNB1",30
"14","adenoma","28/80",0.816242705387407,1,0,0,0.890698562158035,0.180850584831113,"OPRD1;PTPRU;CEBPA;HDAC2;GTF2B;ODC1;ADCY5;GNAI2;SLC9A3R1;CCND1;KPNA2;PRKACA;JAK2;BUB1;JAK1;MUTYH;HSP90AA1;PTGIR;CSNK2A1;FUS;CAV1;NR2F1;HMGA2;FOS;NFKB1;CREB1;GNAS;CTNNB1",28
"15","lipodystrophy","29/83",0.822633233786246,1,0,0,0.889165518161206,0.173604964295317,"OPRD1;PTPRU;CEBPA;HDAC2;GTF2B;LMNB2;ADCY5;ZMPSTE24;GNAI2;SLC9A3R1;CCND1;LMNA;KPNA2;PRKACA;JAK2;BUB1;JAK1;HSP90AA1;PTGIR;CSNK2A1;FUS;CAV1;NR2F1;HMGA2;FOS;NFKB1;CREB1;GNAS;CTNNB1",29
"16","lymphedema","29/83",0.822633233786246,1,0,0,0.889165518161206,0.173604964295317,"OPRD1;PTPRU;FOXC2;CEBPA;HDAC2;GTF2B;ADCY5;GNAI2;SLC9A3R1;CCND1;SOX18;IKBKG;KPNA2;PRKACA;JAK2;BUB1;JAK1;HSP90AA1;PTGIR;CSNK2A1;FUS;CAV1;NR2F1;HMGA2;FOS;NFKB1;CREB1;GNAS;CTNNB1",29
"17","paget_disease","29/83",0.822633233786246,1,0,0,0.889165518161206,0.173604964295317,"OPRD1;PTPRU;CEBPA;VCP;HDAC2;GTF2B;TNFRSF11B;ADCY5;GNAI2;SLC9A3R1;CCND1;KPNA2;PRKACA;JAK2;BUB1;JAK1;HSP90AA1;PTGIR;CSNK2A1;FUS;CAV1;NR2F1;HMGA2;FOS;NFKB1;CREB1;GNAS;CTNNB1;SQSTM1",29
"18","dystonia","33/94",0.825959670047003,1,0,0,0.893405852620522,0.170827536518643,"OPRD1;PTPRU;CEBPA;HDAC2;GTF2B;SLC2A1;ADCY5;GNAI2;SGCE;SLC9A3R1;SPR;CCND1;SCP2;KPNA2;PRKACA;JAK2;BUB1;JAK1;HSP90AA1;PTGIR;CSNK2A1;GCH1;FUS;CAV1;NR2F1;HMGA2;FOS;NFKB1;THAP1;CREB1;PRKRA;GNAS;CTNNB1",33
"19","colon_cancer","29/84",0.843600836200679,1,0,0,0.878580214373572,0.149425267219412,"OPRD1;PTPRU;CEBPA;HDAC2;SRC;GTF2B;BCL10;ADCY5;GNAI2;SLC9A3R1;CCND1;KPNA2;PRKACA;JAK2;BUB1;JAK1;HSP90AA1;PTGIR;CSNK2A1;FUS;CAV1;NR2F1;HMGA2;FOS;NFKB1;MLH3;CREB1;GNAS;CTNNB1",29
"20","hypoglycemia","29/84",0.843600836200679,1,0,0,0.878580214373572,0.149425267219412,"OPRD1;PTPRU;CEBPA;HDAC2;GTF2B;ADCY5;GNAI2;SLC9A3R1;CCND1;KPNA2;PRKACA;JAK2;PCK1;BUB1;JAK1;HSP90AA1;PTGIR;SLC16A1;CSNK2A1;FUS;CAV1;INSR;NR2F1;HMGA2;FOS;NFKB1;CREB1;GNAS;CTNNB1",29
"21","arrhythmogenic_right_ventricular_dysplasia","31/90",0.853933703076469,1,0,0,0.876560489742828,0.138410408370174,"OPRD1;PTPRU;CEBPA;HDAC2;GTF2B;ADCY5;GNAI2;SLC9A3R1;TMEM43;CCND1;KPNA2;PRKACA;JAK2;BUB1;JAK1;DSP;HSP90AA1;PTGIR;CSNK2A1;JUP;FUS;CAV1;NR2F1;HMGA2;FOS;NFKB1;CREB1;PKP2;GNAS;CTNNB1;DSG2",31
"22","epidermolysis_bullosa","31/90",0.853933703076469,1,0,0,0.876560489742828,0.138410408370174,"OPRD1;PTPRU;CEBPA;HDAC2;GTF2B;LAMA3;ADCY5;GNAI2;SLC9A3R1;CCND1;KPNA2;PRKACA;JAK2;BUB1;JAK1;DSP;HSP90AA1;PTGIR;CSNK2A1;LAMB3;FUS;CAV1;NR2F1;HMGA2;FOS;NFKB1;CREB1;COL7A1;GNAS;CTNNB1;ITGA6",31
"23","myocardial_infarction","32/93",0.858779776549075,1,0,0,0.875648356038622,0.133311124048462,"OPRD1;PTPRU;CEBPA;HDAC2;GTF2B;LRP8;ADCY5;GNAI2;SLC9A3R1;LGALS2;CCND1;APOE;KPNA2;PRKACA;JAK2;BUB1;JAK1;HSP90AA1;PTGIR;CSNK2A1;FUS;CAV1;NR2F1;HMGA2;FOS;MIAT;NFKB1;CREB1;TNFSF4;GNAS;CTNNB1;GCLM",32
"24","leukodystrophy","29/85",0.8626870755463,1,0,0,0.868243976557413,0.128242460960915,"OPRD1;PTPRU;CEBPA;HDAC2;GTF2B;LMNB1;ADCY5;HSPD1;GNAI2;SLC9A3R1;CCND1;KPNA2;PRKACA;JAK2;BUB1;JAK1;HSP90AA1;PTGIR;CSNK2A1;FUS;CAV1;NR2F1;HMGA2;FOS;FAM126A;NFKB1;CREB1;GNAS;CTNNB1",29
"25","leukoencephalopathy","29/85",0.8626870755463,1,0,0,0.868243976557413,0.128242460960915,"OPRD1;PTPRU;CEBPA;HDAC2;GTF2B;MLC1;ADCY5;GNAI2;SLC9A3R1;CCND1;SCP2;KPNA2;PRKACA;JAK2;BUB1;JAK1;HSP90AA1;PTGIR;EIF2B3;CSNK2A1;FUS;CAV1;NR2F1;HMGA2;FOS;NFKB1;CREB1;GNAS;CTNNB1",29
"26","corneal_dystrophy","31/91",0.871550665170824,1,0,0,0.866927956888512,0.119186365282352,"OPRD1;PTPRU;CEBPA;UBIAD1;HDAC2;GTF2B;ADCY5;GNAI2;SLC9A3R1;CCND1;KPNA2;PRKACA;JAK2;BUB1;JAK1;HSP90AA1;PTGIR;CSNK2A1;FUS;CAV1;NR2F1;SLC4A11;HMGA2;PAX6;FOS;DCN;NFKB1;CREB1;GNAS;CTNNB1;TGFBI",31
"27","encephalopathy","31/91",0.871550665170824,1,0,0,0.866927956888512,0.119186365282352,"OPRD1;PTPRU;CEBPA;HDAC2;GLDC;GTF2B;ARX;ADCY5;GNAI2;SLC9A3R1;CCND1;SLC19A3;KPNA2;PRKACA;JAK2;BUB1;COX10;JAK1;RANBP2;HSP90AA1;PTGIR;CSNK2A1;FUS;CAV1;NR2F1;HMGA2;FOS;NFKB1;CREB1;GNAS;CTNNB1",31
"28","leigh_syndrome","31/91",0.871550665170824,1,0,0,0.866927956888512,0.119186365282352,"OPRD1;PTPRU;CEBPA;HDAC2;GTF2B;ADCY5;GNAI2;SLC9A3R1;CCND1;KPNA2;PRKACA;JAK2;BUB1;JAK1;HSP90AA1;PTGIR;PDHA1;CSNK2A1;FUS;CAV1;NDUFA2;NR2F1;HMGA2;FOS;LRPPRC;NFKB1;CREB1;NDUFS3;GNAS;CTNNB1;DLD",31
"29","microcephaly","31/91",0.871550665170824,1,0,0,0.866927956888512,0.119186365282352,"OPRD1;PTPRU;CEBPA;HDAC2;GTF2B;ADCY5;GNAI2;SLC9A3R1;CCND1;KPNA2;PRKACA;JAK2;BUB1;JAK1;HSP90AA1;PTGIR;STIL;CSNK2A1;FUS;CAV1;NR2F1;CASK;HMGA2;FOS;NFKB1;ASPM;CREB1;SLC25A19;GNAS;CTNNB1;MCPH1",31
"30","adenocarcinoma","28/83",0.875961278766332,1,0,0,0.858504638224612,0.113694680724842,"OPRD1;PTPRU;CEBPA;HDAC2;GTF2B;ADCY5;GNAI2;SLC9A3R1;CCND1;ERBB2;RAD54L;KPNA2;PRKACA;JAK2;BUB1;JAK1;HSP90AA1;PTGIR;CSNK2A1;FUS;CAV1;NR2F1;HMGA2;FOS;NFKB1;CREB1;GNAS;CTNNB1",28
"31","adrenoleukodystrophy","28/83",0.875961278766332,1,0,0,0.858504638224612,0.113694680724842,"OPRD1;PTPRU;CEBPA;HDAC2;GTF2B;ADCY5;GNAI2;SLC9A3R1;CCND1;KPNA2;PRKACA;JAK2;BUB1;JAK1;HSP90AA1;PTGIR;CSNK2A1;FUS;CAV1;NR2F1;HMGA2;PEX10;FOS;PEX13;NFKB1;CREB1;GNAS;CTNNB1",28
"32","bare_lymphocyte_syndrome","28/83",0.875961278766332,1,0,0,0.858504638224612,0.113694680724842,"OPRD1;PTPRU;CEBPA;HDAC2;GTF2B;ADCY5;GNAI2;SLC9A3R1;CCND1;KPNA2;PRKACA;JAK2;BUB1;JAK1;HSP90AA1;PTGIR;CSNK2A1;FUS;CAV1;NR2F1;HMGA2;FOS;NFKB1;CREB1;RFX5;RFXAP;GNAS;CTNNB1",28
"33","dyskeratosis","28/83",0.875961278766332,1,0,0,0.858504638224612,0.113694680724842,"OPRD1;PTPRU;CEBPA;HDAC2;GTF2B;ADCY5;GNAI2;SLC9A3R1;CCND1;TERT;KPNA2;PRKACA;JAK2;BUB1;JAK1;HSP90AA1;PTGIR;CSNK2A1;FUS;CAV1;NR2F1;HMGA2;FOS;NFKB1;CREB1;DKC1;GNAS;CTNNB1",28
"34","lissencephaly","28/83",0.875961278766332,1,0,0,0.858504638224612,0.113694680724842,"YWHAE;OPRD1;PTPRU;CEBPA;HDAC2;GTF2B;ADCY5;GNAI2;SLC9A3R1;TUBA1A;CCND1;KPNA2;PRKACA;JAK2;BUB1;JAK1;HSP90AA1;PTGIR;CSNK2A1;FUS;CAV1;NR2F1;HMGA2;FOS;NFKB1;CREB1;GNAS;CTNNB1",28
"35","lymphoproliferative_syndrome","28/83",0.875961278766332,1,0,0,0.858504638224612,0.113694680724842,"OPRD1;PTPRU;CEBPA;HDAC2;GTF2B;ADCY5;GNAI2;SLC9A3R1;NRAS;CASP8;CCND1;KPNA2;PRKACA;JAK2;BUB1;JAK1;HSP90AA1;PTGIR;CSNK2A1;FUS;CAV1;NR2F1;HMGA2;FOS;NFKB1;CREB1;GNAS;CTNNB1",28
"36","meckel_syndrome","28/83",0.875961278766332,1,0,0,0.858504638224612,0.113694680724842,"OPRD1;PTPRU;CEBPA;HDAC2;GTF2B;ADCY5;GNAI2;SLC9A3R1;CCND1;TMEM67;KPNA2;PRKACA;JAK2;BUB1;JAK1;HSP90AA1;PTGIR;CSNK2A1;FUS;CAV1;NR2F1;HMGA2;RPGRIP1L;FOS;NFKB1;CREB1;GNAS;CTNNB1",28
"37","mitochondrial_dna_depletion_syndrome","28/83",0.875961278766332,1,0,0,0.858504638224612,0.113694680724842,"OPRD1;PTPRU;CEBPA;HDAC2;GTF2B;ADCY5;GNAI2;SLC9A3R1;DGUOK;CCND1;KPNA2;PRKACA;JAK2;BUB1;JAK1;HSP90AA1;PTGIR;CSNK2A1;FUS;CAV1;NR2F1;HMGA2;FOS;NFKB1;CREB1;SUCLA2;GNAS;CTNNB1",28
"38","preeclampsia","28/83",0.875961278766332,1,0,0,0.858504638224612,0.113694680724842,"OPRD1;PTPRU;CEBPA;HDAC2;GTF2B;ADCY5;GNAI2;SLC9A3R1;CCND1;KPNA2;PRKACA;JAK2;BUB1;STOX1;JAK1;HSP90AA1;PTGIR;CSNK2A1;FUS;CAV1;EPHX1;NR2F1;HMGA2;FOS;NFKB1;CREB1;GNAS;CTNNB1",28
"39","complex_i","29/86",0.879958598245444,1,0,0,0.858148116364885,0.109740341598739,"OPRD1;PTPRU;CEBPA;HDAC2;GTF2B;ADCY5;GNAI2;SLC9A3R1;CCND1;KPNA2;PRKACA;JAK2;BUB1;JAK1;HSP90AA1;PTGIR;CSNK2A1;FUS;CAV1;NDUFA1;NR2F1;HMGA2;FOS;NFKB1;CREB1;GNAS;NDUFS2;CTNNB1;NDUFS1",29
"40","hypercholesterolemia","29/86",0.879958598245444,1,0,0,0.858148116364885,0.109740341598739,"OPRD1;PTPRU;CEBPA;HDAC2;GTF2B;ADCY5;GNAI2;SLC9A3R1;CCND1;KPNA2;LDLRAP1;PRKACA;JAK2;LDLR;BUB1;JAK1;HSP90AA1;PTGIR;CSNK2A1;FUS;CAV1;EPHX2;NR2F1;HMGA2;FOS;NFKB1;CREB1;GNAS;CTNNB1",29
"41","dementia","30/89",0.883801637932979,1,0,0,0.857815629686711,0.10595964520965,"OPRD1;PTPRU;CEBPA;VCP;HDAC2;GTF2B;ADCY5;GNAI2;SLC9A3R1;CCND1;TRPM7;KPNA2;PRKACA;JAK2;BUB1;JAK1;SNCA;HSP90AA1;PTGIR;CSNK2A1;FUS;CAV1;NR2F1;HMGA2;FOS;NFKB1;CREB1;CHMP2B;GNAS;CTNNB1",30
"42","ovarian_cancer","30/89",0.883801637932979,1,0,0,0.857815629686711,0.10595964520965,"OPRD1;PTPRU;CEBPA;HDAC2;GTF2B;BRCA1;BRCA2;ADCY5;GNAI2;SLC9A3R1;CCND1;ERBB2;KPNA2;PRKACA;JAK2;BUB1;JAK1;HSP90AA1;PTGIR;CSNK2A1;FUS;CAV1;NR2F1;RRAS2;HMGA2;FOS;NFKB1;CREB1;GNAS;CTNNB1",30
"43","zellweger_syndrome","30/89",0.883801637932979,1,0,0,0.857815629686711,0.10595964520965,"OPRD1;PTPRU;CEBPA;HDAC2;GTF2B;ADCY5;GNAI2;SLC9A3R1;CCND1;KPNA2;PRKACA;JAK2;BUB1;JAK1;HSP90AA1;PTGIR;CSNK2A1;FUS;CAV1;NR2F1;HMGA2;PEX10;FOS;PEX13;PEX14;NFKB1;CREB1;PEX3;GNAS;CTNNB1",30
"44","amyloidosis","28/84",0.892141473298059,1,0,0,0.848284344912415,0.0968151644620323,"OPRD1;PTPRU;CEBPA;HDAC2;GTF2B;ADCY5;GNAI2;SLC9A3R1;CCND1;KPNA2;PRKACA;JAK2;BUB1;JAK1;HSP90AA1;PTGIR;GSN;CSNK2A1;FUS;CAV1;NR2F1;HMGA2;FOS;OSMR;NFKB1;CREB1;GNAS;CTNNB1",28
"45","epiphyseal_dysplasia,_multiple","28/84",0.892141473298059,1,0,0,0.848284344912415,0.0968151644620323,"OPRD1;PTPRU;CEBPA;HDAC2;GTF2B;ADCY5;GNAI2;SLC9A3R1;CCND1;KPNA2;PRKACA;JAK2;BUB1;JAK1;HSP90AA1;PTGIR;CSNK2A1;FUS;CAV1;NR2F1;HMGA2;FOS;NFKB1;CREB1;GNAS;CTNNB1;COL9A3;COL9A2",28
"46","neutropenia","28/84",0.892141473298059,1,0,0,0.848284344912415,0.0968151644620323,"OPRD1;PTPRU;CEBPA;HDAC2;GTF2B;ADCY5;GNAI2;SLC9A3R1;CCND1;KPNA2;PRKACA;JAK2;BUB1;JAK1;HSP90AA1;PTGIR;CSNK2A1;FUS;CAV1;NR2F1;HMGA2;FOS;NFKB1;HAX1;CREB1;G6PC3;GNAS;CTNNB1",28
"47","nevus","28/84",0.892141473298059,1,0,0,0.848284344912415,0.0968151644620323,"OPRD1;PTPRU;CEBPA;HDAC2;GTF2B;ADCY5;GNAI2;SLC9A3R1;CCND1;KPNA2;PRKACA;JAK2;BUB1;JAK1;HSP90AA1;PTGIR;CSNK2A1;FUS;CAV1;PTCH1;NR2F1;HMGA2;FOS;KRT10;NFKB1;CREB1;GNAS;CTNNB1",28
"48","sarcoma","28/84",0.892141473298059,1,0,0,0.848284344912415,0.0968151644620323,"OPRD1;PTPRU;CEBPA;HDAC2;GTF2B;ADCY5;GNAI2;SLC9A3R1;CCND1;KPNA2;PRKACA;JAK2;BUB1;JAK1;SS18;HSP90AA1;PTGIR;CSNK2A1;FUS;CAV1;NR2F1;HMGA2;FOS;NFKB1;IL6;CREB1;GNAS;CTNNB1",28
"49","coronary_artery_disease","29/87",0.895498673812412,1,0,0,0.848284344912415,0.093628993026224,"OPRD1;PTPRU;CEBPA;HDAC2;IRS1;GTF2B;PON2;ADCY5;GNAI2;SLC9A3R1;CCND1;CCL2;KPNA2;PRKACA;JAK2;BUB1;JAK1;HSP90AA1;PTGIR;CSNK2A1;FUS;CAV1;NR2F1;HMGA2;FOS;NFKB1;CREB1;GNAS;CTNNB1",29
"50","gastric_cancer","29/87",0.895498673812412,1,0,0,0.848284344912415,0.093628993026224,"OPRD1;PTPRU;CEBPA;HDAC2;GTF2B;ADCY5;GNAI2;SLC9A3R1;CCND1;ERBB2;KPNA2;PRKACA;JAK2;BUB1;JAK1;MUTYH;HSP90AA1;PTGIR;CSNK2A1;FUS;CAV1;NR2F1;HMGA2;FOS;NFKB1;CREB1;IL1B;GNAS;CTNNB1",29
"51","hypotrichosis","29/87",0.895498673812412,1,0,0,0.848284344912415,0.093628993026224,"OPRD1;PTPRU;CEBPA;HDAC2;GTF2B;HR;ADCY5;GNAI2;SLC9A3R1;CCND1;SOX18;LIPH;KPNA2;PRKACA;JAK2;BUB1;JAK1;HSP90AA1;PTGIR;CSNK2A1;FUS;CAV1;NR2F1;HMGA2;FOS;NFKB1;CREB1;GNAS;CTNNB1",29
"52","osteoporosis","29/87",0.895498673812412,1,0,0,0.848284344912415,0.093628993026224,"OPRD1;PTPRU;CEBPA;HDAC2;GTF2B;ADCY5;GNAI2;SLC9A3R1;CCND1;KPNA2;PRKACA;JAK2;BUB1;JAK1;HSP90AA1;PTGIR;CSNK2A1;FUS;VDR;CAV1;NR2F1;HMGA2;FOS;NFKB1;COL1A1;CREB1;COL1A2;GNAS;CTNNB1",29
"53","melanoma","30/90",0.898735579905291,1,0,0,0.848284344912415,0.090568278141608,"OPRD1;PTPRU;CEBPA;HDAC2;GTF2B;ADCY5;GNAI2;SLC9A3R1;CCND1;KPNA2;PRKACA;JAK2;BUB1;JAK1;HSP90AA1;PTGIR;CSNK2A1;FUS;CAV1;XRCC3;NR2F1;HMGA2;FOS;NFKB1;CREB1;CDK4;NF1;GNAS;SNAI2;CTNNB1",30
"54","optic_atrophy","28/85",0.906610273438607,1,0,0,0.838304529089916,0.0821895629236279,"OPRD1;PTPRU;CEBPA;HDAC2;GTF2B;ADCY5;GNAI2;SLC9A3R1;CCND1;OPA1;OPA3;KPNA2;PRKACA;JAK2;BUB1;JAK1;HSP90AA1;PTGIR;CSNK2A1;FUS;CAV1;NR2F1;HMGA2;FOS;NFKB1;CREB1;GNAS;CTNNB1",28
"55","rickets","28/85",0.906610273438607,1,0,0,0.838304529089916,0.0821895629236279,"OPRD1;PTPRU;CEBPA;HDAC2;GTF2B;ADCY5;GNAI2;SLC9A3R1;CCND1;CYP2R1;KPNA2;PRKACA;JAK2;BUB1;JAK1;HSP90AA1;PTGIR;CSNK2A1;FUS;VDR;CAV1;NR2F1;HMGA2;FOS;NFKB1;CREB1;GNAS;CTNNB1",28
"56","pancreatic_cancer","29/88",0.90940326616907,1,0,0,0.838644750083864,0.0796432791285069,"OPRD1;PTPRU;CEBPA;HDAC2;GTF2B;BRCA2;ADCY5;GNAI2;SLC9A3R1;CCND1;RBBP8;KPNA2;PRKACA;JAK2;BUB1;JAK1;HSP90AA1;PTGIR;CSNK2A1;FUS;CAV1;NR2F1;HMGA2;FOS;NFKB1;CREB1;GNAS;CTNNB1;TP53",29
"57","malaria","30/91",0.91210518457949,1,0,0,0.838962538924366,0.0771845213560858,"OPRD1;PTPRU;CEBPA;HDAC2;GYPC;GTF2B;ICAM1;ADCY5;GNAI2;SLC9A3R1;CCND1;KPNA2;PRKACA;JAK2;BUB1;JAK1;HSP90AA1;PTGIR;CSNK2A1;FUS;CAV1;NR2F1;HMGA2;FOS;TIRAP;NFKB1;CREB1;GNAS;CTNNB1;FCGR2B",30
"58","ichthyosis","31/94",0.914719216970227,1,0,0,0.839260043370793,0.074810068750837,"OPRD1;PTPRU;CEBPA;HDAC2;GTF2B;CLDN1;ADCY5;GNAI2;SLC9A3R1;STS;CCND1;KPNA2;PRKACA;JAK2;SNAP29;BUB1;JAK1;HSP90AA1;PTGIR;CSNK2A1;FUS;CAV1;NR2F1;HMGA2;FOS;KRT10;NFKB1;GJB2;CREB1;GNAS;CTNNB1",31
"59","arthrogryposis","27/83",0.917108001424495,1,0,0,0.827843758288019,0.0716333508303883,"OPRD1;PTPRU;CEBPA;HDAC2;GTF2B;ADCY5;GNAI2;SLC9A3R1;CCND1;KPNA2;PRKACA;JAK2;BUB1;JAK1;HSP90AA1;PTGIR;CSNK2A1;FUS;TPM2;CAV1;NR2F1;HMGA2;FOS;NFKB1;CREB1;GNAS;CTNNB1",27
"60","atopy","27/83",0.917108001424495,1,0,0,0.827843758288019,0.0716333508303883,"OPRD1;PTPRU;CEBPA;HDAC2;GTF2B;ADCY5;GNAI2;SLC9A3R1;CCND1;KPNA2;PRKACA;JAK2;BUB1;JAK1;HSP90AA1;PTGIR;IL4R;CSNK2A1;FUS;CAV1;NR2F1;HMGA2;FOS;NFKB1;CREB1;GNAS;CTNNB1",27
"61","autoimmune_disease","27/83",0.917108001424495,1,0,0,0.827843758288019,0.0716333508303883,"OPRD1;PTPRU;CEBPA;HDAC2;GTF2B;ADCY5;GNAI2;SLC9A3R1;CCND1;KPNA2;PRKACA;JAK2;BUB1;JAK1;FOXD3;HSP90AA1;PTGIR;CSNK2A1;FUS;CAV1;NR2F1;HMGA2;FOS;NFKB1;CREB1;GNAS;CTNNB1",27
"62","episodic_ataxia","27/83",0.917108001424495,1,0,0,0.827843758288019,0.0716333508303883,"OPRD1;PTPRU;CEBPA;HDAC2;GTF2B;SLC1A3;ADCY5;GNAI2;SLC9A3R1;CCND1;KPNA2;PRKACA;JAK2;BUB1;JAK1;HSP90AA1;PTGIR;CSNK2A1;FUS;CAV1;NR2F1;HMGA2;FOS;NFKB1;CREB1;GNAS;CTNNB1",27
"63","glioblastoma","27/83",0.917108001424495,1,0,0,0.827843758288019,0.0716333508303883,"OPRD1;PTPRU;CEBPA;HDAC2;GTF2B;ADCY5;GNAI2;SLC9A3R1;CCND1;ERBB2;KPNA2;PRKACA;JAK2;BUB1;JAK1;HSP90AA1;PTGIR;CSNK2A1;FUS;CAV1;NR2F1;HMGA2;FOS;NFKB1;CREB1;GNAS;CTNNB1",27
"64","hemochromatosis","27/83",0.917108001424495,1,0,0,0.827843758288019,0.0716333508303883,"OPRD1;PTPRU;CEBPA;HDAC2;GTF2B;HFE;ADCY5;GNAI2;SLC9A3R1;CCND1;KPNA2;PRKACA;JAK2;BUB1;JAK1;HSP90AA1;PTGIR;CSNK2A1;FUS;CAV1;NR2F1;HMGA2;FOS;NFKB1;CREB1;GNAS;CTNNB1",27
"65","homocystinuria","27/83",0.917108001424495,1,0,0,0.827843758288019,0.0716333508303883,"OPRD1;PTPRU;CEBPA;HDAC2;GTF2B;ADCY5;GNAI2;SLC9A3R1;CCND1;KPNA2;PRKACA;JAK2;BUB1;JAK1;HSP90AA1;PTGIR;CSNK2A1;FUS;CAV1;NR2F1;HMGA2;FOS;NFKB1;CREB1;GNAS;CTNNB1;MMACHC",27
"66","infections","27/83",0.917108001424495,1,0,0,0.827843758288019,0.0716333508303883,"OPRD1;PTPRU;CEBPA;HDAC2;GTF2B;ADCY5;GNAI2;SLC9A3R1;CCND1;KPNA2;PRKACA;JAK2;BUB1;JAK1;HSP90AA1;PTGIR;CSNK2A1;FUS;CAV1;NR2F1;HMGA2;FOS;NFKB1;CREB1;GNAS;CTNNB1;MYD88",27
"67","kallmann_syndrome","27/83",0.917108001424495,1,0,0,0.827843758288019,0.0716333508303883,"OPRD1;PTPRU;CEBPA;HDAC2;GTF2B;ADCY5;GNAI2;SLC9A3R1;CCND1;KPNA2;PRKACA;JAK2;BUB1;JAK1;HSP90AA1;PTGIR;CSNK2A1;FUS;CAV1;NR2F1;HMGA2;FOS;NFKB1;CREB1;GNAS;CTNNB1;FGFR1",27
"68","keratosis","27/83",0.917108001424495,1,0,0,0.827843758288019,0.0716333508303883,"OPRD1;PTPRU;CEBPA;HDAC2;GTF2B;ADCY5;GNAI2;SLC9A3R1;CCND1;KPNA2;PRKACA;JAK2;BUB1;JAK1;DSP;HSP90AA1;PTGIR;CSNK2A1;FUS;CAV1;NR2F1;HMGA2;FOS;NFKB1;CREB1;GNAS;CTNNB1",27
"69","mucopolysaccharidosis","27/83",0.917108001424495,1,0,0,0.827843758288019,0.0716333508303883,"OPRD1;PTPRU;CEBPA;HDAC2;GTF2B;GNS;ADCY5;GNAI2;SLC9A3R1;CCND1;KPNA2;PRKACA;JAK2;BUB1;JAK1;HSP90AA1;PTGIR;CSNK2A1;FUS;CAV1;NR2F1;HMGA2;FOS;NFKB1;CREB1;GNAS;CTNNB1",27
"70","nephronophthisis","27/83",0.917108001424495,1,0,0,0.827843758288019,0.0716333508303883,"OPRD1;PTPRU;CEBPA;HDAC2;GTF2B;ADCY5;GNAI2;SLC9A3R1;CCND1;NPHP1;KPNA2;PRKACA;JAK2;BUB1;JAK1;HSP90AA1;PTGIR;CSNK2A1;FUS;CAV1;NR2F1;HMGA2;FOS;NFKB1;CREB1;GNAS;CTNNB1",27
"71","pheochromocytoma","27/83",0.917108001424495,1,0,0,0.827843758288019,0.0716333508303883,"OPRD1;PTPRU;CEBPA;HDAC2;GTF2B;ADCY5;GNAI2;SLC9A3R1;CCND1;KPNA2;PRKACA;JAK2;BUB1;JAK1;HSP90AA1;PTGIR;CSNK2A1;FUS;CAV1;NR2F1;HMGA2;FOS;SDHB;NFKB1;CREB1;GNAS;CTNNB1",27
"72","refsum_disease","27/83",0.917108001424495,1,0,0,0.827843758288019,0.0716333508303883,"OPRD1;PTPRU;CEBPA;HDAC2;GTF2B;ADCY5;GNAI2;SLC9A3R1;CCND1;KPNA2;PRKACA;JAK2;BUB1;JAK1;HSP90AA1;PTGIR;CSNK2A1;FUS;CAV1;NR2F1;HMGA2;FOS;NFKB1;PEX7;CREB1;GNAS;CTNNB1",27
"73","vitreoretinopathy","27/83",0.917108001424495,1,0,0,0.827843758288019,0.0716333508303883,"OPRD1;PTPRU;CEBPA;HDAC2;GTF2B;ADCY5;GNAI2;SLC9A3R1;CCND1;NDP;KPNA2;PRKACA;JAK2;BUB1;JAK1;HSP90AA1;PTGIR;CSNK2A1;FUS;CAV1;NR2F1;HMGA2;FOS;NFKB1;CREB1;GNAS;CTNNB1",27
"74","lung_cancer","32/97",0.917248464230309,1,0,0,0.839539145480328,0.0725167804767597,"OPRD1;PTPRU;CEBPA;CHRNA3;HDAC2;CHRNA5;GTF2B;ADCY5;GNAI2;SLC9A3R1;CASP8;CCND1;PPP2R1B;MAP3K8;KPNA2;PRKACA;JAK2;BUB1;JAK1;HSP90AA1;PTGIR;CSNK2A1;FUS;CAV1;NR2F1;HMGA2;FOS;NFKB1;CREB1;GNAS;CTNNB1;ERCC6",32
"75","colorectal_cancer","37/111",0.918437274365035,1,0,0,0.848284344912415,0.0721734470386987,"OPRD1;PTPRU;CEBPA;HDAC2;GTF2B;BUB1B;ADCY5;GNAI2;SLC9A3R1;NRAS;CCND1;CHEK2;KPNA2;PRKACA;JAK2;BUB1;PMS1;JAK1;HSP90AA1;PTGIR;CSNK2A1;FUS;CAV1;NR2F1;HMGA2;FOS;MLH1;NFKB1;MLH3;TGFBR2;CREB1;MSH2;DLC1;GNAS;CTNNB1;TP53;FGFR3",37
"76","brachydactyly","28/86",0.919476572728313,1,0,0,0.828556802007475,0.0695579347327822,"OPRD1;PTPRU;CEBPA;HDAC2;GTF2B;ADCY5;GNAI2;SLC9A3R1;CCND1;KPNA2;PRKACA;JAK2;BUB1;JAK1;HSP90AA1;PTGIR;CSNK2A1;FUS;CAV1;NR2F1;HMGA2;FOS;GDF5;NFKB1;CREB1;GNAS;CTNNB1;BMPR1B",28
"77","tuberculosis","28/86",0.919476572728313,1,0,0,0.828556802007475,0.0695579347327822,"OPRD1;PTPRU;CEBPA;HDAC2;GTF2B;ADCY5;GNAI2;SLC9A3R1;CCND1;KPNA2;PRKACA;JAK2;BUB1;JAK1;HSP90AA1;PTGIR;CSNK2A1;IFNGR1;FUS;CAV1;NR2F1;HMGA2;FOS;TIRAP;NFKB1;CREB1;GNAS;CTNNB1",28
"78","bardet-biedl_syndrome","30/92",0.924011723796429,1,0,0,0.829843380892579,0.0655829533541489,"OPRD1;PTPRU;CEBPA;HDAC2;GTF2B;ADCY5;GNAI2;SLC9A3R1;CCND1;TMEM67;BBS7;KPNA2;PRKACA;JAK2;BUB1;JAK1;MKKS;HSP90AA1;PTGIR;CSNK2A1;FUS;CAV1;NR2F1;HMGA2;FOS;NFKB1;CREB1;BBS12;GNAS;CTNNB1",30
"79","cholesterol_level","30/92",0.924011723796429,1,0,0,0.829843380892579,0.0655829533541489,"OPRD1;PTPRU;CEBPA;HDAC2;GTF2B;LPL;HMGCR;ADCY5;GNAI2;SLC9A3R1;CCND1;KPNA2;PRKACA;JAK2;PLTP;BUB1;JAK1;EDN1;HSP90AA1;PTGIR;CSNK2A1;FUS;CAV1;NR2F1;HMGA2;FOS;NFKB1;CREB1;GNAS;CTNNB1",30
"80","macular_degeneration","31/95",0.926181132038041,1,0,0,0.830425727124785,0.0636815759838534,"OPRD1;PTPRU;CEBPA;HDAC2;GTF2B;HTRA1;ADCY5;GNAI2;C3;SLC9A3R1;CCND1;APOE;KPNA2;PRKACA;JAK2;BUB1;JAK1;HSP90AA1;PTGIR;CSNK2A1;FUS;CAV1;NR2F1;HMGA2;FOS;NFKB1;CREB1;GNAS;CTNNB1;ERCC6;TLR3",31
"81","neuropathy","37/112",0.928724702469655,1,0,0,0.840710377547125,0.0621645815161288,"OPRD1;PTPRU;CEBPA;HDAC2;CTDP1;DCTN1;GTF2B;HSPB8;HSPB1;ADCY5;GNAI2;SLC9A3R1;SPTLC1;CCND1;SCP2;MPZ;MFN2;KPNA2;PRKACA;JAK2;SNAP29;BUB1;CCT5;JAK1;HSP90AA1;PTGIR;CSNK2A1;FUS;CAV1;NR2F1;HMGA2;FOS;NFKB1;CREB1;GNAS;PMP22;CTNNB1",37
"82","aids","27/84",0.928934224242746,1,0,0,0.817988475451257,0.0602999390006586,"OPRD1;PTPRU;CEBPA;HDAC2;GTF2B;ADCY5;GNAI2;SLC9A3R1;CCND1;KPNA2;PRKACA;JAK2;BUB1;JAK1;HSP90AA1;PTGIR;IL4R;CSNK2A1;FUS;CAV1;NR2F1;HMGA2;FOS;NFKB1;CREB1;GNAS;CTNNB1",27
"83","amelogenesis_imperfecta","27/84",0.928934224242746,1,0,0,0.817988475451257,0.0602999390006586,"OPRD1;PTPRU;CEBPA;HDAC2;GTF2B;ADCY5;GNAI2;FAM83H;SLC9A3R1;CCND1;KPNA2;PRKACA;JAK2;BUB1;JAK1;HSP90AA1;PTGIR;CSNK2A1;FUS;CAV1;NR2F1;HMGA2;FOS;NFKB1;CREB1;GNAS;CTNNB1",27
"84","dermatitis","27/84",0.928934224242746,1,0,0,0.817988475451257,0.0602999390006586,"OPRD1;PTPRU;CEBPA;HDAC2;GTF2B;ADCY5;GNAI2;SOCS3;SLC9A3R1;CCND1;KPNA2;PRKACA;JAK2;BUB1;JAK1;HSP90AA1;PTGIR;CSNK2A1;FUS;CAV1;NR2F1;HMGA2;FOS;NFKB1;CREB1;GNAS;CTNNB1",27
"85","dyslexia","27/84",0.928934224242746,1,0,0,0.817988475451257,0.0602999390006586,"OPRD1;PTPRU;CEBPA;HDAC2;GTF2B;ADCY5;GNAI2;SLC9A3R1;CCND1;KPNA2;PRKACA;JAK2;KIAA0319;BUB1;JAK1;HSP90AA1;PTGIR;CSNK2A1;FUS;CAV1;NR2F1;HMGA2;FOS;NFKB1;CREB1;GNAS;CTNNB1",27
"86","endometrial_cancer","27/84",0.928934224242746,1,0,0,0.817988475451257,0.0602999390006586,"OPRD1;PTPRU;CEBPA;HDAC2;GTF2B;ADCY5;GNAI2;SLC9A3R1;CCND1;KPNA2;PRKACA;JAK2;BUB1;JAK1;HSP90AA1;PTGIR;CSNK2A1;FUS;CAV1;NR2F1;HMGA2;FOS;NFKB1;CREB1;MSH3;GNAS;CTNNB1",27
"87","squamous_cell_carcinoma","27/84",0.928934224242746,1,0,0,0.817988475451257,0.0602999390006586,"OPRD1;PTPRU;CEBPA;HDAC2;GTF2B;ADCY5;GNAI2;SLC9A3R1;CCND1;KPNA2;PRKACA;JAK2;LZTS1;BUB1;JAK1;HSP90AA1;PTGIR;CSNK2A1;FUS;CAV1;NR2F1;HMGA2;FOS;NFKB1;CREB1;GNAS;CTNNB1",27
"88","hirschsprung_disease","28/87",0.93085588794179,1,0,0,0.81903316060509,0.0586843864627608,"OPRD1;PTPRU;CEBPA;HDAC2;GTF2B;ADCY5;GNAI2;SLC9A3R1;EDNRB;CCND1;KPNA2;PRKACA;JAK2;BUB1;JAK1;HSP90AA1;PTGIR;CSNK2A1;FUS;CAV1;NR2F1;HMGA2;FOS;L1CAM;NFKB1;CREB1;GNAS;CTNNB1",28
"89","xeroderma_pigmentosum","28/87",0.93085588794179,1,0,0,0.81903316060509,0.0586843864627608,"OPRD1;PTPRU;CEBPA;HDAC2;GTF2B;ADCY5;GNAI2;SLC9A3R1;CCND1;KPNA2;PRKACA;JAK2;BUB1;JAK1;HSP90AA1;PTGIR;CSNK2A1;PARP1;FUS;CAV1;NR2F1;HMGA2;FOS;NFKB1;CREB1;ERCC4;GNAS;CTNNB1",28
"90","lateral_sclerosis","31/96",0.936345118684514,1,0,0,0.821775459133902,0.0540491202107864,"OPRD1;PTPRU;CEBPA;HDAC2;DCTN1;GTF2B;ADCY5;GNAI2;SLC9A3R1;CCND1;TRPM7;KPNA2;PRKACA;JAK2;BUB1;JAK1;HSP90AA1;PTGIR;CSNK2A1;FUS;CAV1;NR2F1;HMGA2;FOS;NFKB1;FIG4;CREB1;VAPB;CHMP2B;GNAS;CTNNB1",31
"91","orofacial_cleft","31/96",0.936345118684514,1,0,0,0.821775459133902,0.0540491202107864,"OPRD1;PTPRU;CEBPA;HDAC2;GTF2B;ADCY5;GNAI2;SLC9A3R1;CCND1;SUMO1;UBB;MSX1;KPNA2;PRKACA;JAK2;BUB1;JAK1;HSP90AA1;PTGIR;CSNK2A1;FUS;CAV1;NR2F1;HMGA2;FOS;L1CAM;NFKB1;CREB1;GNAS;CTNNB1;IRF6",31
"92","parkinson_disease","32/99",0.938083340178482,1,0,0,0.822578758702948,0.0525763429893335,"OPRD1;PTPRU;CEBPA;HDAC2;GTF2B;HTRA2;ADCY5;GNAI2;SLC9A3R1;UCHL1;CCND1;KPNA2;PRKACA;JAK2;FBXO7;BUB1;JAK1;SNCA;HSP90AA1;PTGIR;TBP;CSNK2A1;FUS;CAV1;NR2F1;HMGA2;FOS;NFKB1;CREB1;GNAS;CTNNB1;ATP13A2",32
"93","atrial_fibrillation","27/85",0.939326381072902,1,0,0,0.808365081622419,0.05059741069367,"OPRD1;PTPRU;CEBPA;HDAC2;GTF2B;ADCY5;GNAI2;SLC9A3R1;CCND1;GJA5;KPNA2;PRKACA;JAK2;BUB1;JAK1;HSP90AA1;PTGIR;CSNK2A1;FUS;CAV1;NR2F1;HMGA2;FOS;NFKB1;CREB1;GNAS;CTNNB1",27
"94","ceroid-lipofuscinosis,_neuronal","27/85",0.939326381072902,1,0,0,0.808365081622419,0.05059741069367,"OPRD1;PTPRU;CEBPA;HDAC2;GTF2B;ADCY5;GNAI2;SLC9A3R1;CCND1;KPNA2;PRKACA;JAK2;BUB1;JAK1;HSP90AA1;PTGIR;CSNK2A1;FUS;CAV1;NR2F1;HMGA2;FOS;NFKB1;CREB1;GNAS;PPT1;CTNNB1",27
"95","diamond-blackfan_anemia","27/85",0.939326381072902,1,0,0,0.808365081622419,0.05059741069367,"OPRD1;PTPRU;CEBPA;HDAC2;GTF2B;ADCY5;GNAI2;SLC9A3R1;CCND1;KPNA2;PRKACA;JAK2;BUB1;JAK1;HSP90AA1;PTGIR;RPS7;CSNK2A1;FUS;CAV1;NR2F1;HMGA2;FOS;NFKB1;CREB1;GNAS;CTNNB1",27
"96","myasthenic_syndrome","27/85",0.939326381072902,1,0,0,0.808365081622419,0.05059741069367,"OPRD1;PTPRU;CEBPA;HDAC2;GTF2B;ADCY5;GNAI2;SLC9A3R1;CCND1;KPNA2;PRKACA;JAK2;BUB1;JAK1;CHRNB1;HSP90AA1;PTGIR;CSNK2A1;FUS;CAV1;NR2F1;HMGA2;FOS;NFKB1;CREB1;GNAS;CTNNB1",27
"97","osteoarthritis","27/85",0.939326381072902,1,0,0,0.808365081622419,0.05059741069367,"OPRD1;PTPRU;CEBPA;HDAC2;GTF2B;ADCY5;GNAI2;SLC9A3R1;CCND1;FRZB;KPNA2;PRKACA;JAK2;BUB1;JAK1;HSP90AA1;PTGIR;CSNK2A1;FUS;CAV1;NR2F1;HMGA2;FOS;NFKB1;CREB1;GNAS;CTNNB1",27
"98","osteopetrosis","27/85",0.939326381072902,1,0,0,0.808365081622419,0.05059741069367,"OPRD1;PTPRU;CEBPA;HDAC2;GTF2B;ADCY5;GNAI2;SLC9A3R1;CCND1;KPNA2;PRKACA;JAK2;BUB1;JAK1;HSP90AA1;PTGIR;CSNK2A1;FUS;CAV1;NR2F1;HMGA2;FOS;NFKB1;CREB1;OSTM1;GNAS;CTNNB1",27
"99","waardenburg_syndrome","27/85",0.939326381072902,1,0,0,0.808365081622419,0.05059741069367,"OPRD1;PTPRU;CEBPA;HDAC2;GTF2B;ADCY5;GNAI2;SLC9A3R1;CCND1;KPNA2;PRKACA;JAK2;BUB1;JAK1;HSP90AA1;PTGIR;CSNK2A1;FUS;CAV1;NR2F1;HMGA2;FOS;NFKB1;CREB1;GNAS;SNAI2;CTNNB1",27
"100","alopecia","28/88",0.940867085077839,1,0,0,0.809725965598214,0.0493555490214223,"OPRD1;PTPRU;CEBPA;HDAC2;GTF2B;HR;CLDN1;ADCY5;GNAI2;SLC9A3R1;CCND1;KPNA2;PRKACA;JAK2;BUB1;JAK1;HSP90AA1;PTGIR;CSNK2A1;FUS;CAV1;NR2F1;HMGA2;FOS;NFKB1;CREB1;GNAS;CTNNB1",28
"101","long_qt_syndrome","28/88",0.940867085077839,1,0,0,0.809725965598214,0.0493555490214223,"OPRD1;PTPRU;CEBPA;HDAC2;GTF2B;ADCY5;GNAI2;SLC9A3R1;CCND1;KPNA2;PRKACA;JAK2;BUB1;JAK1;KCNH2;HSP90AA1;PTGIR;CSNK2A1;FUS;CAV1;NR2F1;HMGA2;FOS;NFKB1;CREB1;GNAS;CTNNB1;SCN4B",28
"102","thrombophilia","28/88",0.940867085077839,1,0,0,0.809725965598214,0.0493555490214223,"OPRD1;PTPRU;CEBPA;HDAC2;GTF2B;PROS1;PLAT;ADCY5;GNAI2;SLC9A3R1;CCND1;KPNA2;PRKACA;JAK2;BUB1;JAK1;HSP90AA1;PTGIR;CSNK2A1;FUS;CAV1;NR2F1;HMGA2;FOS;NFKB1;CREB1;GNAS;CTNNB1",28
"103","asperger_syndrome","26/83",0.947178612332962,1,0,0,0.797182878351426,0.0432611975771628,"OPRD1;PTPRU;CEBPA;HDAC2;GTF2B;ADCY5;GNAI2;SLC9A3R1;CCND1;KPNA2;PRKACA;JAK2;BUB1;JAK1;HSP90AA1;PTGIR;CSNK2A1;FUS;CAV1;NR2F1;HMGA2;FOS;NFKB1;CREB1;GNAS;CTNNB1",26
"104","bartter_syndrome","26/83",0.947178612332962,1,0,0,0.797182878351426,0.0432611975771628,"OPRD1;PTPRU;CEBPA;HDAC2;GTF2B;ADCY5;GNAI2;SLC9A3R1;CCND1;KPNA2;PRKACA;JAK2;BUB1;JAK1;HSP90AA1;PTGIR;CSNK2A1;FUS;CAV1;NR2F1;HMGA2;FOS;NFKB1;CREB1;GNAS;CTNNB1",26
"105","central_hypoventilation_syndrome","26/83",0.947178612332962,1,0,0,0.797182878351426,0.0432611975771628,"OPRD1;PTPRU;CEBPA;HDAC2;GTF2B;ADCY5;GNAI2;SLC9A3R1;CCND1;KPNA2;PRKACA;JAK2;BUB1;JAK1;HSP90AA1;PTGIR;CSNK2A1;FUS;CAV1;NR2F1;HMGA2;FOS;NFKB1;CREB1;GNAS;CTNNB1",26
"106","cholestasis","26/83",0.947178612332962,1,0,0,0.797182878351426,0.0432611975771628,"OPRD1;PTPRU;CEBPA;HDAC2;GTF2B;ADCY5;GNAI2;SLC9A3R1;CCND1;KPNA2;PRKACA;JAK2;BUB1;JAK1;HSP90AA1;PTGIR;CSNK2A1;FUS;CAV1;NR2F1;HMGA2;FOS;NFKB1;CREB1;GNAS;CTNNB1",26
"107","fetal_hemoglobin_quantitative_trait_locus","26/83",0.947178612332962,1,0,0,0.797182878351426,0.0432611975771628,"OPRD1;PTPRU;CEBPA;HDAC2;GTF2B;ADCY5;GNAI2;SLC9A3R1;CCND1;KPNA2;PRKACA;JAK2;BUB1;JAK1;HSP90AA1;PTGIR;CSNK2A1;FUS;CAV1;NR2F1;HMGA2;FOS;NFKB1;CREB1;GNAS;CTNNB1",26
"108","goiter","26/83",0.947178612332962,1,0,0,0.797182878351426,0.0432611975771628,"OPRD1;PTPRU;CEBPA;HDAC2;GTF2B;ADCY5;GNAI2;SLC9A3R1;CCND1;KPNA2;PRKACA;JAK2;BUB1;JAK1;HSP90AA1;PTGIR;CSNK2A1;FUS;CAV1;NR2F1;HMGA2;FOS;NFKB1;CREB1;GNAS;CTNNB1",26
"109","malignant_hyperthermia","26/83",0.947178612332962,1,0,0,0.797182878351426,0.0432611975771628,"OPRD1;PTPRU;CEBPA;HDAC2;GTF2B;ADCY5;GNAI2;SLC9A3R1;CCND1;KPNA2;PRKACA;JAK2;BUB1;JAK1;HSP90AA1;PTGIR;CSNK2A1;FUS;CAV1;NR2F1;HMGA2;FOS;NFKB1;CREB1;GNAS;CTNNB1",26
"110","otosclerosis","26/83",0.947178612332962,1,0,0,0.797182878351426,0.0432611975771628,"OPRD1;PTPRU;CEBPA;HDAC2;GTF2B;ADCY5;GNAI2;SLC9A3R1;CCND1;KPNA2;PRKACA;JAK2;BUB1;JAK1;HSP90AA1;PTGIR;CSNK2A1;FUS;CAV1;NR2F1;HMGA2;FOS;NFKB1;CREB1;GNAS;CTNNB1",26
"111","restless_legs_syndrome","26/83",0.947178612332962,1,0,0,0.797182878351426,0.0432611975771628,"OPRD1;PTPRU;CEBPA;HDAC2;GTF2B;ADCY5;GNAI2;SLC9A3R1;CCND1;KPNA2;PRKACA;JAK2;BUB1;JAK1;HSP90AA1;PTGIR;CSNK2A1;FUS;CAV1;NR2F1;HMGA2;FOS;NFKB1;CREB1;GNAS;CTNNB1",26
"112","anemia","18/60",0.948276643359429,1,0,0,0.763455910421173,0.0405463810214897,"FANCI;TPI1;RPS7;FANCM;GLRX5;GSS;GSR;SLC2A1;FANCA;FANCC;BRCA2;FANCE;PALB2;DHFR;BRIP1;PFKL;TERT;FANCD2",18
"113","coloboma","27/86",0.948410164890527,1,0,0,0.798965487650065,0.042319769265633,"OPRD1;PTPRU;CEBPA;HDAC2;GTF2B;ADCY5;GNAI2;SLC9A3R1;CCND1;KPNA2;PRKACA;JAK2;BUB1;JAK1;HSP90AA1;PTGIR;CSNK2A1;FUS;CAV1;NR2F1;HMGA2;PAX6;FOS;NFKB1;CREB1;GNAS;CTNNB1",27
"114","hiv","27/86",0.948410164890527,1,0,0,0.798965487650065,0.042319769265633,"OPRD1;PTPRU;CEBPA;HDAC2;GTF2B;ADCY5;GNAI2;SLC9A3R1;CCND1;CCL2;KPNA2;PRKACA;JAK2;BUB1;JAK1;HSP90AA1;PTGIR;CSNK2A1;FUS;CAV1;NR2F1;HMGA2;FOS;NFKB1;CREB1;GNAS;CTNNB1",27
"115","holoprosencephaly","27/86",0.948410164890527,1,0,0,0.798965487650065,0.042319769265633,"OPRD1;PTPRU;CEBPA;HDAC2;GTF2B;ADCY5;GNAI2;SLC9A3R1;CCND1;KPNA2;PRKACA;JAK2;BUB1;JAK1;HSP90AA1;PTGIR;CSNK2A1;FUS;CAV1;PTCH1;NR2F1;HMGA2;FOS;NFKB1;CREB1;GNAS;CTNNB1",27
"116","spinal_muscular_atrophy","27/86",0.948410164890527,1,0,0,0.798965487650065,0.042319769265633,"OPRD1;PTPRU;CEBPA;HDAC2;GTF2B;ADCY5;GNAI2;SLC9A3R1;CCND1;KPNA2;PRKACA;JAK2;BUB1;JAK1;HSP90AA1;PTGIR;CSNK2A1;FUS;CAV1;NR2F1;HMGA2;FOS;NFKB1;CREB1;VAPB;GNAS;CTNNB1",27
"117","myopathy","39/120",0.949027711813601,1,0,0,0.827077236289604,0.0432704311296752,"OPRD1;PTPRU;CEBPA;VCP;HDAC2;GTF2B;MTM1;ADCY5;GNAI2;SLC9A3R1;CCND1;CPT2;CFL2;FLNC;KPNA2;PRKACA;JAK2;BUB1;JAK1;HSP90AA1;PTGIR;CSNK2A1;TPM3;FUS;TPM2;CAV1;NR2F1;HMGA2;FOS;NFKB1;CREB1;BIN1;TNNT1;COL6A2;COL6A1;GNAS;COL6A3;CTNNB1;COL9A3",39
"118","ciliary_dyskinesia","28/89",0.949629555496919,1,0,0,0.800627921040931,0.0413791026524643,"OPRD1;PTPRU;CEBPA;HDAC2;GTF2B;RSPH9;ADCY5;GNAI2;SLC9A3R1;CCND1;KPNA2;PRKACA;JAK2;BUB1;JAK1;HSP90AA1;PTGIR;RSPH4A;CSNK2A1;FUS;CAV1;NR2F1;HMGA2;FOS;NFKB1;CREB1;GNAS;CTNNB1",28
"119","body_mass_index","26/84",0.955357103843108,1,0,0,0.787692605990099,0.0359739824958964,"OPRD1;PTPRU;CEBPA;HDAC2;GTF2B;ADCY5;GNAI2;SLC9A3R1;CCND1;KPNA2;PRKACA;JAK2;BUB1;JAK1;HSP90AA1;PTGIR;CSNK2A1;FUS;CAV1;NR2F1;HMGA2;FOS;NFKB1;CREB1;GNAS;CTNNB1",26
"120","night_blindness","26/84",0.955357103843108,1,0,0,0.787692605990099,0.0359739824958964,"OPRD1;PTPRU;CEBPA;HDAC2;GTF2B;ADCY5;GNAI2;SLC9A3R1;CCND1;KPNA2;PRKACA;JAK2;BUB1;JAK1;HSP90AA1;PTGIR;CSNK2A1;FUS;CAV1;NR2F1;HMGA2;FOS;NFKB1;CREB1;GNAS;CTNNB1",26
"121","ovarian_failure","26/84",0.955357103843108,1,0,0,0.787692605990099,0.0359739824958964,"OPRD1;PTPRU;CEBPA;HDAC2;GTF2B;ADCY5;GNAI2;SLC9A3R1;CCND1;KPNA2;PRKACA;JAK2;BUB1;JAK1;HSP90AA1;PTGIR;CSNK2A1;FUS;CAV1;NR2F1;HMGA2;FOS;NFKB1;CREB1;GNAS;CTNNB1",26
"122","polydactyly","26/84",0.955357103843108,1,0,0,0.787692605990099,0.0359739824958964,"OPRD1;PTPRU;CEBPA;HDAC2;GTF2B;ADCY5;GNAI2;SLC9A3R1;CCND1;KPNA2;PRKACA;JAK2;BUB1;JAK1;HSP90AA1;PTGIR;CSNK2A1;FUS;CAV1;NR2F1;HMGA2;FOS;NFKB1;CREB1;GNAS;CTNNB1",26
"123","pseudohypoaldosteronism","26/84",0.955357103843108,1,0,0,0.787692605990099,0.0359739824958964,"OPRD1;PTPRU;CEBPA;HDAC2;GTF2B;ADCY5;GNAI2;SLC9A3R1;CCND1;KPNA2;PRKACA;JAK2;BUB1;JAK1;HSP90AA1;PTGIR;CSNK2A1;FUS;CAV1;NR2F1;HMGA2;FOS;NFKB1;CREB1;GNAS;CTNNB1",26
"124","wilms_tumor","26/84",0.955357103843108,1,0,0,0.787692605990099,0.0359739824958964,"OPRD1;PTPRU;CEBPA;HDAC2;GTF2B;ADCY5;GNAI2;SLC9A3R1;CCND1;KPNA2;PRKACA;JAK2;BUB1;JAK1;HSP90AA1;PTGIR;CSNK2A1;FUS;CAV1;NR2F1;HMGA2;FOS;NFKB1;CREB1;GNAS;CTNNB1",26
"125","major_affective_disorder","27/87",0.956309562961415,1,0,0,0.789781976297765,0.0352824101910732,"OPRD1;PTPRU;CEBPA;HDAC2;GTF2B;ADCY5;GNAI2;SLC9A3R1;CCND1;KPNA2;PRKACA;JAK2;BUB1;JAK1;HSP90AA1;PTGIR;XBP1;CSNK2A1;FUS;CAV1;NR2F1;HMGA2;FOS;NFKB1;CREB1;GNAS;CTNNB1",27
"126","nephropathy","27/87",0.956309562961415,1,0,0,0.789781976297765,0.0352824101910732,"OPRD1;PTPRU;CEBPA;HDAC2;GTF2B;ADCY5;GNAI2;SLC9A3R1;CCND1;KPNA2;PRKACA;JAK2;BUB1;JAK1;HSP90AA1;PTGIR;CSNK2A1;FUS;CAV1;NR2F1;HMGA2;FOS;NFKB1;CREB1;COL4A1;GNAS;CTNNB1",27
"127","thrombocytopenia","27/87",0.956309562961415,1,0,0,0.789781976297765,0.0352824101910732,"OPRD1;PTPRU;CEBPA;HDAC2;GTF2B;ADCY5;GNAI2;SLC9A3R1;CCND1;KPNA2;PRKACA;JAK2;BUB1;JAK1;HSP90AA1;PTGIR;CSNK2A1;FUS;ITGA2;CAV1;NR2F1;HMGA2;FOS;NFKB1;CREB1;GNAS;CTNNB1",27
"128","anomalies","28/90",0.957260853783915,1,0,0,0.791732055251587,0.03458234169324,"OPRD1;PTPRU;CEBPA;HDAC2;GTF2B;ADCY5;GNAI2;SLC9A3R1;CCND1;DNMT3B;KPNA2;PRKACA;JAK2;BUB1;JAK1;HSP90AA1;PTGIR;CSNK2A1;FUS;CAV1;NR2F1;HMGA2;FOS;RUNX2;NFKB1;CREB1;GNAS;CTNNB1",28
"129","cdeficiency","28/90",0.957260853783915,1,0,0,0.791732055251587,0.03458234169324,"OPRD1;PTPRU;CEBPA;HDAC2;GTF2B;ADCY5;GNAI2;C3;SLC9A3R1;CCND1;CD59;KPNA2;PRKACA;JAK2;BUB1;JAK1;HSP90AA1;PTGIR;CSNK2A1;FUS;CAV1;NR2F1;HMGA2;FOS;NFKB1;CREB1;GNAS;CTNNB1",28
"130","glycogen_storage_disease","28/90",0.957260853783915,1,0,0,0.791732055251587,0.03458234169324,"OPRD1;PTPRU;CEBPA;HDAC2;GTF2B;GBE1;ADCY5;GNAI2;SLC9A3R1;CCND1;LAMP2;KPNA2;PRKACA;JAK2;BUB1;JAK1;HSP90AA1;PTGIR;CSNK2A1;FUS;CAV1;NR2F1;HMGA2;FOS;NFKB1;CREB1;GNAS;CTNNB1",28
"131","hypogonadism","28/90",0.957260853783915,1,0,0,0.791732055251587,0.03458234169324,"OPRD1;PTPRU;CEBPA;HDAC2;GTF2B;ADCY5;GNAI2;SLC9A3R1;CCND1;TAC3;KPNA2;PRKACA;JAK2;BUB1;JAK1;HSP90AA1;PTGIR;CSNK2A1;FUS;CAV1;NR2F1;HMGA2;FOS;NFKB1;CREB1;GNAS;CTNNB1;FGFR1",28
"132","rheumatoid_arthritis","28/90",0.957260853783915,1,0,0,0.791732055251587,0.03458234169324,"OPRD1;PTPRU;CEBPA;HDAC2;GTF2B;ADCY5;GNAI2;SLC9A3R1;CCND1;KPNA2;PRKACA;JAK2;BUB1;JAK1;HSP90AA1;PTGIR;CSNK2A1;FUS;CAV1;NR2F1;HMGA2;FOS;NFKB1;RUNX1;IL6;CREB1;GNAS;CTNNB1",28
"133","asthma","31/99",0.960081428352283,1,0,0,0.79687317249348,0.0324623634083374,"OPRD1;PTPRU;CEBPA;HDAC2;GTF2B;PTGER2;HNMT;ADCY5;GNAI2;SLC9A3R1;CCND1;KPNA2;PRKACA;JAK2;BUB1;JAK1;HSP90AA1;PTGIR;CSNK2A1;FUS;CAV1;PHF11;NR2F1;HMGA2;FOS;HLA-G;NFKB1;CREB1;GNAS;SCGB3A2;CTNNB1",31
"134","seizures","26/85",0.962421463225542,1,0,0,0.778425634154922,0.0298158913423353,"OPRD1;PTPRU;CEBPA;HDAC2;GTF2B;ADCY5;GNAI2;SLC9A3R1;CCND1;KPNA2;PRKACA;JAK2;BUB1;JAK1;HSP90AA1;PTGIR;CSNK2A1;FUS;CAV1;NR2F1;HMGA2;FOS;NFKB1;CREB1;GNAS;CTNNB1",26
"135","split-hand/foot_malformation","26/85",0.962421463225542,1,0,0,0.778425634154922,0.0298158913423353,"OPRD1;PTPRU;CEBPA;HDAC2;GTF2B;ADCY5;GNAI2;SLC9A3R1;CCND1;KPNA2;PRKACA;JAK2;BUB1;JAK1;HSP90AA1;PTGIR;CSNK2A1;FUS;CAV1;NR2F1;HMGA2;FOS;NFKB1;CREB1;GNAS;CTNNB1",26
"136","thalassemia","26/85",0.962421463225542,1,0,0,0.778425634154922,0.0298158913423353,"OPRD1;PTPRU;CEBPA;HDAC2;GTF2B;ADCY5;GNAI2;SLC9A3R1;CCND1;KPNA2;PRKACA;JAK2;BUB1;JAK1;HSP90AA1;PTGIR;CSNK2A1;FUS;CAV1;NR2F1;HMGA2;FOS;NFKB1;CREB1;GNAS;CTNNB1",26
"137","ectodermal_dysplasia","27/88",0.963144731990088,1,0,0,0.780807181112563,0.0293205477394387,"OPRD1;PTPRU;CEBPA;HDAC2;GTF2B;ADCY5;GNAI2;SLC9A3R1;CCND1;IKBKG;KPNA2;PRKACA;JAK2;BUB1;JAK1;HSP90AA1;PTGIR;CSNK2A1;FUS;CAV1;NR2F1;HMGA2;FOS;NFKB1;CREB1;GNAS;CTNNB1",27
"138","muscular_dystrophy","34/109",0.9682534103798,1,0,0,0.793807368633636,0.0256093675115516,"OPRD1;PTPRU;CEBPA;HDAC2;GTF2B;ADCY5;GNAI2;SLC9A3R1;CCND1;SGCB;LMNA;DMD;KPNA2;PRKACA;JAK2;EMD;BUB1;JAK1;HSP90AA1;PTGIR;FKRP;CSNK2A1;FUS;CAV1;NR2F1;HMGA2;FOS;NFKB1;CREB1;COL6A2;COL6A1;GNAS;COL6A3;CTNNB1",34
"139","albinism","26/86",0.968492999457351,1,0,0,0.769374173292655,0.0246307635512632,"OPRD1;PTPRU;CEBPA;HDAC2;GTF2B;ADCY5;GNAI2;SLC9A3R1;CCND1;KPNA2;PRKACA;JAK2;BUB1;JAK1;HSP90AA1;PTGIR;CSNK2A1;FUS;CAV1;NR2F1;HMGA2;FOS;NFKB1;CREB1;GNAS;CTNNB1",26
"140","attention-deficit_hyperactivity_disorder","26/86",0.968492999457351,1,0,0,0.769374173292655,0.0246307635512632,"OPRD1;PTPRU;CEBPA;HDAC2;GTF2B;ADCY5;GNAI2;SLC9A3R1;CCND1;KPNA2;PRKACA;JAK2;BUB1;JAK1;HSP90AA1;PTGIR;CSNK2A1;FUS;CAV1;NR2F1;HMGA2;FOS;NFKB1;CREB1;GNAS;CTNNB1",26
"141","cone_dystrophy","26/86",0.968492999457351,1,0,0,0.769374173292655,0.0246307635512632,"OPRD1;PTPRU;CEBPA;HDAC2;GTF2B;ADCY5;GNAI2;SLC9A3R1;CCND1;KPNA2;PRKACA;JAK2;BUB1;JAK1;HSP90AA1;PTGIR;CSNK2A1;FUS;CAV1;NR2F1;HMGA2;FOS;NFKB1;CREB1;GNAS;CTNNB1",26
"142","coronary_heart_disease","26/86",0.968492999457351,1,0,0,0.769374173292655,0.0246307635512632,"OPRD1;PTPRU;CEBPA;HDAC2;GTF2B;ADCY5;GNAI2;SLC9A3R1;CCND1;KPNA2;PRKACA;JAK2;BUB1;JAK1;HSP90AA1;PTGIR;CSNK2A1;FUS;CAV1;NR2F1;HMGA2;FOS;NFKB1;CREB1;GNAS;CTNNB1",26
"143","hypothyroidism","26/86",0.968492999457351,1,0,0,0.769374173292655,0.0246307635512632,"OPRD1;PTPRU;CEBPA;HDAC2;GTF2B;ADCY5;GNAI2;SLC9A3R1;CCND1;KPNA2;PRKACA;JAK2;BUB1;JAK1;HSP90AA1;PTGIR;CSNK2A1;FUS;CAV1;NR2F1;HMGA2;FOS;NFKB1;CREB1;GNAS;CTNNB1",26
"144","multiple_sclerosis","26/86",0.968492999457351,1,0,0,0.769374173292655,0.0246307635512632,"OPRD1;PTPRU;CEBPA;HDAC2;GTF2B;ADCY5;GNAI2;SLC9A3R1;CCND1;KPNA2;PRKACA;JAK2;BUB1;JAK1;HSP90AA1;PTGIR;CSNK2A1;FUS;CAV1;NR2F1;HMGA2;FOS;NFKB1;CREB1;GNAS;CTNNB1",26
"145","fibrosis","27/89",0.9690303476227,1,0,0,0.77203406671804,0.0242876892109399,"OPRD1;PTPRU;CEBPA;HDAC2;GTF2B;ADCY5;GNAI2;SLC9A3R1;CCND1;TERT;KPNA2;PRKACA;JAK2;BUB1;JAK1;HSP90AA1;PTGIR;CSNK2A1;FUS;CAV1;NR2F1;HMGA2;FOS;NFKB1;CREB1;GNAS;CTNNB1",27
"146","skin/hair/eye_pigmentation","27/89",0.9690303476227,1,0,0,0.77203406671804,0.0242876892109399,"OPRD1;PTPRU;CEBPA;HDAC2;GTF2B;ADCY5;GNAI2;SLC9A3R1;CCND1;KPNA2;PRKACA;JAK2;BUB1;JAK1;HSP90AA1;PTGIR;CSNK2A1;FUS;CAV1;NR2F1;HMGA2;FOS;TPCN2;NFKB1;CREB1;GNAS;CTNNB1",27
"147","aneurysm","29/95",0.970138632064469,1,0,0,0.776849873761896,0.0235512123073667,"OPRD1;PTPRU;CEBPA;HDAC2;GTF2B;ADCY5;GNAI2;SLC9A3R1;CCND1;KPNA2;PRKACA;JAK2;BUB1;JAK1;HSP90AA1;PTGIR;CSNK2A1;FUS;CAV1;NR2F1;HMGA2;FOS;NFKB1;COL3A1;CREB1;COL4A1;GNAS;CTNNB1;FBN1",29
"148","macular_dystrophy","26/87",0.973685913583147,1,0,0,0.760530791990441,0.0202806928422563,"OPRD1;PTPRU;CEBPA;HDAC2;GTF2B;ADCY5;GNAI2;SLC9A3R1;CCND1;KPNA2;PRKACA;JAK2;BUB1;JAK1;HSP90AA1;PTGIR;CSNK2A1;FUS;CAV1;NR2F1;HMGA2;FOS;NFKB1;CREB1;GNAS;CTNNB1",26
"149","leber_amaurosis","27/90",0.974074391146541,1,0,0,0.763455910421173,0.0200541554719465,"OPRD1;PTPRU;CEBPA;HDAC2;GTF2B;ADCY5;GNAI2;SLC9A3R1;CCND1;KPNA2;PRKACA;JAK2;BUB1;JAK1;HSP90AA1;PTGIR;CSNK2A1;FUS;CAV1;NR2F1;HMGA2;FOS;NFKB1;RPE65;CREB1;GNAS;CTNNB1",27
"150","cardiomyopathy,_hypertrophic","28/93",0.9744785254075,1,0,0,0.766192311533794,0.0198082141407156,"OPRD1;PTPRU;MYLK2;CEBPA;HDAC2;GTF2B;ADCY5;GNAI2;SLC9A3R1;CCND1;KPNA2;PRKACA;JAK2;BUB1;JAK1;HSP90AA1;PTGIR;CSNK2A1;FUS;CAV1;TPM1;NR2F1;HMGA2;FOS;NFKB1;CREB1;GNAS;CTNNB1",28
"151","glaucoma","28/93",0.9744785254075,1,0,0,0.766192311533794,0.0198082141407156,"OPRD1;PTPRU;CEBPA;HDAC2;GTF2B;ADCY5;GNAI2;SLC9A3R1;CCND1;OPA1;KPNA2;PRKACA;JAK2;BUB1;JAK1;HSP90AA1;PTGIR;CSNK2A1;FUS;CAV1;NR2F1;HMGA2;FOS;NFKB1;CREB1;GNAS;CTNNB1;OPTN",28
"152","lymphoma","30/99",0.975322160872027,1,0,0,0.771167586284013,0.0192695046823091,"OPRD1;PTPRU;CEBPA;HDAC2;GTF2B;BCL10;ADCY5;GNAI2;SLC9A3R1;CCND1;MYC;IL21R;RAD54L;KPNA2;PRKACA;JAK2;BUB1;JAK1;HSP90AA1;PTGIR;CSNK2A1;FUS;CAV1;NR2F1;HMGA2;FOS;NFKB1;CREB1;GNAS;CTNNB1",30
"153","usher_syndrome","26/88",0.978106383632156,1,0,0,0.751888396626913,0.0166444317377916,"OPRD1;PTPRU;CEBPA;HDAC2;GTF2B;ADCY5;GNAI2;SLC9A3R1;CCND1;KPNA2;PRKACA;JAK2;BUB1;JAK1;HSP90AA1;PTGIR;CSNK2A1;FUS;CAV1;NR2F1;HMGA2;FOS;NFKB1;CREB1;GNAS;CTNNB1",26
"154","diabetes_mellitus,_type_2","32/106",0.97994340362573,1,0,0,0.768257519920677,0.0155652510497611,"OPRD1;PTPRU;CEBPA;HDAC2;IRS1;GTF2B;ADCY5;GNAI2;SLC9A3R1;CCND1;UCP3;ENPP1;KPNA2;PRKACA;JAK2;BUB1;JAK1;HSP90AA1;PTGIR;CSNK2A1;WFS1;FUS;INSR;CAV1;NR2F1;HMGA2;FOS;NFKB1;CREB1;GPD2;GNAS;CTNNB1",32
"155","bone_mineral_density","26/89",0.981852024266156,1,0,0,0.74344021239515,0.0136158622307789,"OPRD1;PTPRU;CEBPA;HDAC2;GTF2B;ADCY5;GNAI2;SLC9A3R1;CCND1;KPNA2;PRKACA;JAK2;BUB1;JAK1;HSP90AA1;PTGIR;CSNK2A1;FUS;CAV1;NR2F1;HMGA2;FOS;NFKB1;CREB1;GNAS;CTNNB1",26
"156","psoriasis","26/89",0.981852024266156,1,0,0,0.74344021239515,0.0136158622307789,"OPRD1;PTPRU;CEBPA;HDAC2;GTF2B;ADCY5;GNAI2;SLC9A3R1;CCND1;KPNA2;PRKACA;JAK2;BUB1;JAK1;HSP90AA1;PTGIR;CSNK2A1;FUS;CAV1;NR2F1;HMGA2;FOS;NFKB1;CREB1;GNAS;CTNNB1",26
"157","cone-rod_dystrophy","27/92",0.982031603880341,1,0,0,0.746859042803322,0.0135418898060944,"OPRD1;PTPRU;CEBPA;HDAC2;GTF2B;ADCY5;GNAI2;SLC9A3R1;CCND1;KPNA2;PRKACA;JAK2;BUB1;JAK1;HSP90AA1;PTGIR;CSNK2A1;FUS;CAV1;NR2F1;HMGA2;FOS;NFKB1;CREB1;PITPNM3;GNAS;CTNNB1",27
"158","prostate_cancer","32/107",0.983155057177485,1,0,0,0.761077543098989,0.0129295144974435,"OPRD1;PTPRU;CEBPA;HDAC2;HIP1;CD82;GTF2B;BRCA2;EHBP1;ADCY5;GNAI2;SLC9A3R1;CCND1;CHEK2;KPNA2;PRKACA;JAK2;BUB1;JAK1;HSP90AA1;PTGIR;CSNK2A1;FUS;CAV1;ELAC2;NR2F1;HMGA2;FOS;NFKB1;CREB1;GNAS;CTNNB1",32
"159","blood","34/113",0.983672865417725,1,0,0,0.765707992752799,0.012605001551807,"OPRD1;PTPRU;CEBPA;SEMA7A;HDAC2;CD151;GYPC;GTF2B;SLC2A1;ADCY5;GNAI2;SLC9A3R1;CCND1;GCNT2;KPNA2;PRKACA;JAK2;BUB1;CD55;JAK1;HSP90AA1;PTGIR;CSNK2A1;FUS;CAV1;NR2F1;HMGA2;FOS;ATP1B1;NFKB1;CREB1;GNAS;CTNNB1;CD44",34
"160","migraine","27/93",0.98512147574121,1,0,0,0.738828300407587,0.0110752724918548,"OPRD1;PTPRU;CEBPA;HDAC2;GTF2B;ADCY5;GNAI2;SLC9A3R1;EDNRA;CCND1;KPNA2;PRKACA;JAK2;BUB1;JAK1;HSP90AA1;PTGIR;CSNK2A1;FUS;CAV1;NR2F1;HMGA2;FOS;NFKB1;CREB1;GNAS;CTNNB1",27
"161","autism","28/96",0.985249173664847,1,0,0,0.742248801798363,0.0110303379664611,"OPRD1;PTPRU;CEBPA;HDAC2;GTF2B;GLO1;ADCY5;GNAI2;SLC9A3R1;CCND1;KPNA2;PRKACA;JAK2;BUB1;JAK1;HSP90AA1;PTGIR;CSNK2A1;FUS;CAV1;NR2F1;HMGA2;FOS;NFKB1;CREB1;GNAS;CTNNB1;MET",28
"162","microphthalmia","28/96",0.985249173664847,1,0,0,0.742248801798363,0.0110303379664611,"OPRD1;PTPRU;CEBPA;HDAC2;GTF2B;HCCS;ADCY5;GNAI2;SNX3;SLC9A3R1;CCND1;KPNA2;PRKACA;JAK2;BUB1;JAK1;HSP90AA1;PTGIR;CSNK2A1;FUS;CAV1;NR2F1;HMGA2;FOS;NFKB1;CREB1;GNAS;CTNNB1",28
"163","immunodeficiency","31/105",0.985718483928683,1,0,0,0.75133756263671,0.0108075989431747,"OPRD1;PTPRU;CEBPA;HDAC2;DCLRE1C;GTF2B;ADCY5;UNG;GNAI2;SLC9A3R1;CCND1;DNMT3B;RAC2;IKBKG;KPNA2;PRKACA;JAK2;BUB1;JAK1;HSP90AA1;PTGIR;CSNK2A1;FUS;CAV1;NR2F1;HMGA2;FOS;NFKB1;CREB1;GNAS;CTNNB1",31
"164","celiac_disease","26/91",0.987665374646466,1,0,0,0.727100867067784,0.0090242875186874,"OPRD1;PTPRU;CEBPA;HDAC2;GTF2B;ADCY5;GNAI2;SLC9A3R1;CCND1;KPNA2;PRKACA;JAK2;BUB1;JAK1;HSP90AA1;PTGIR;CSNK2A1;FUS;CAV1;NR2F1;HMGA2;FOS;NFKB1;CREB1;GNAS;CTNNB1",26
"165","convulsions","26/91",0.987665374646466,1,0,0,0.727100867067784,0.0090242875186874,"OPRD1;PTPRU;CEBPA;HDAC2;GTF2B;ADCY5;GNAI2;SLC9A3R1;CCND1;KPNA2;PRKACA;JAK2;BUB1;JAK1;HSP90AA1;PTGIR;CSNK2A1;FUS;CAV1;NR2F1;HMGA2;FOS;NFKB1;CREB1;GNAS;CTNNB1",26
"166","alzheimer_disease","30/103",0.987990561266015,1,0,0,0.741219330505993,0.00895551175960425,"OPRD1;PTPRU;CEBPA;HDAC2;GTF2B;HFE;ADCY5;GNAI2;SLC9A3R1;CCND1;APOE;KPNA2;PRKACA;JAK2;BUB1;JAK1;HSP90AA1;PTGIR;CSNK2A1;FUS;CAV1;NR2F1;HMGA2;FOS;SORL1;NFKB1;CREB1;GNAS;CTNNB1;BLMH",30
"167","hypertension","31/106",0.988105495913081,1,0,0,0.744249472423156,0.00890554755231643,"OPRD1;PTPRU;CEBPA;HDAC2;BMPR2;GTF2B;ECE1;ADD1;ADCY5;GNAI2;SLC9A3R1;CCND1;KPNA2;PRKACA;JAK2;BUB1;JAK1;HSP90AA1;PTGIR;CSNK2A1;FUS;CAV1;NR2F1;HMGA2;FOS;NFKB1;AGT;CREB1;AGTR1;GNAS;CTNNB1",31
"168","myopia","26/92",0.989884715413754,1,0,0,0.719197596773569,0.00731193216561957,"OPRD1;PTPRU;CEBPA;HDAC2;GTF2B;ADCY5;GNAI2;SLC9A3R1;CCND1;KPNA2;PRKACA;JAK2;BUB1;JAK1;HSP90AA1;PTGIR;CSNK2A1;FUS;CAV1;NR2F1;HMGA2;FOS;NFKB1;CREB1;GNAS;CTNNB1",26
"169","schizophrenia","31/107",0.990124732929674,1,0,0,0.737293869877145,0.00731716310443599,"OPRD1;PTPRU;CEBPA;HDAC2;GTF2B;COMT;ADCY5;GNAI2;SLC9A3R1;APOL4;CCND1;KPNA2;PRKACA;JAK2;APOL1;BUB1;JAK1;HSP90AA1;PTGIR;CSNK2A1;FUS;CAV1;NR2F1;DTNBP1;HMGA2;NRG1;FOS;NFKB1;CREB1;GNAS;CTNNB1",31
"170","cardiomyopathy,_dilated","32/110",0.990208262427141,1,0,0,0.740320882832653,0.00728475148256978,"OPRD1;PTPRU;CEBPA;HDAC2;GTF2B;ADCY5;GNAI2;SLC9A3R1;CCND1;LMNA;DMD;KPNA2;PRKACA;JAK2;BUB1;TMPO;JAK1;DSP;HSP90AA1;PTGIR;CSNK2A1;FUS;CAV1;TPM1;NR2F1;HMGA2;FOS;NFKB1;CREB1;GNAS;CTNNB1;VCL",32
"171","spastic_paraplegia","31/109",0.993255575510409,1,0,0,0.723765541989491,0.00489791749240644,"OPRD1;PTPRU;CEBPA;HDAC2;GTF2B;ADCY5;HSPD1;GNAI2;SLC9A3R1;SPAST;CCND1;KPNA2;PRKACA;JAK2;BUB1;CCT5;JAK1;HSP90AA1;PTGIR;CSNK2A1;FUS;CAV1;NR2F1;HMGA2;FOS;NFKB1;REEP1;CREB1;GNAS;PLP1;CTNNB1",31
"172","obesity","30/107",0.99444891077017,1,0,0,0.713510196655302,0.00397179288388386,"OPRD1;PTPRU;CEBPA;HDAC2;GTF2B;ADCY5;GNAI2;SLC9A3R1;CCND1;UCP3;UCP2;ENPP1;KPNA2;PRKACA;JAK2;BUB1;JAK1;HSP90AA1;PTGIR;CSNK2A1;FUS;CAV1;NR2F1;HMGA2;AKR1C2;FOS;NFKB1;CREB1;GNAS;CTNNB1",30
"173","leukemia","20/77",0.995039180764388,1,0,0,0.66100078824344,0.00328726594948461,"PDGFRB;CEBPA;NQO1;NPM1;RBM15;CBFB;RAP1GDS1;GMPS;DEK;BRCA2;MLF1;RUNX1;ETV6;TAL2;MYB;NF1;ABL2;NUP98;JAK2;SH3GL1",20
"174","cardiomyopathy","33/118",0.996261642849522,1,0,0,0.711696187680755,0.0026655600500735,"OPRD1;MYLK2;PTPRU;CEBPA;HDAC2;GTF2B;ADCY5;GNAI2;SLC9A3R1;CCND1;LMNA;DMD;KPNA2;PRKACA;JAK2;BUB1;TMPO;JAK1;DSP;HSP90AA1;PTGIR;CSNK2A1;FUS;CAV1;TPM1;NR2F1;HMGA2;FOS;NFKB1;CREB1;GNAS;CTNNB1;VCL",33
"175","diabetes_mellitus,_type_1","28/103",0.996347189722985,1,0,0,0.69180470847226,0.00253165800212994,"OPRD1;PTPRU;CEBPA;HDAC2;GTF2B;ITPR3;ADCY5;GNAI2;SLC9A3R1;CCND1;KPNA2;PRKACA;JAK2;BUB1;JAK1;HSP90AA1;PTGIR;CSNK2A1;FUS;CAV1;NR2F1;HMGA2;FOS;NFKB1;CREB1;OAS1;GNAS;CTNNB1",28
"176","inflammatory_bowel_disease","27/100",0.996385038002568,1,0,0,0.687110319379056,0.00248837810348108,"OPRD1;PTPRU;CEBPA;HDAC2;GTF2B;ADCY5;GNAI2;SLC9A3R1;CCND1;KPNA2;PRKACA;JAK2;BUB1;JAK1;HSP90AA1;PTGIR;CSNK2A1;FUS;CAV1;NR2F1;HMGA2;FOS;NFKB1;CREB1;ATG16L1;GNAS;CTNNB1",27
"177","spinocerebellar_ataxia","31/114",0.997529821228819,1,0,0,0.692021439270654,0.00171153143415533,"OPRD1;PTPRU;CEBPA;HDAC2;GTF2B;KCNC3;SYNE1;ADCY5;GNAI2;SLC9A3R1;CCND1;KPNA2;PRKACA;JAK2;BUB1;JAK1;PLEKHG4;HSP90AA1;PTGIR;TBP;CSNK2A1;FUS;CAV1;NR2F1;HMGA2;FOS;NFKB1;CREB1;GNAS;CTNNB1;ATXN10",31
"178","systemic_lupus_erythematosus","28/105",0.997615178068104,1,0,0,0.678627475929932,0.00162033856653359,"OPRD1;PTPRU;CEBPA;HDAC2;GTF2B;ADCY5;GNAI2;SLC9A3R1;CCND1;KPNA2;PRKACA;JAK2;BUB1;JAK1;HSP90AA1;PTGIR;CSNK2A1;FUS;CAV1;NR2F1;HMGA2;FOS;NFKB1;CREB1;GNAS;CTNNB1;PDCD1;FCGR2B",28
"179","stature","26/101",0.998532566387464,1,0,0,0.655110682209588,0.000962037470827938,"OPRD1;PTPRU;CEBPA;HDAC2;GTF2B;ADCY5;GNAI2;SLC9A3R1;CCND1;KPNA2;PRKACA;JAK2;BUB1;JAK1;HSP90AA1;PTGIR;CSNK2A1;FUS;CAV1;NR2F1;HMGA2;FOS;NFKB1;CREB1;GNAS;CTNNB1",26
"180","cataract","33/124",0.998910263408691,1,0,0,0.677259275373621,0.000738436638006616,"OPRD1;PTPRU;CEBPA;HDAC2;CTDP1;GTF2B;ADCY5;GNAI2;SLC9A3R1;CCND1;OPA3;GCNT2;KPNA2;PRKACA;JAK2;BUB1;JAK1;HSP90AA1;PTGIR;CSNK2A1;FUS;CAV1;NR2F1;SORD;CRYBB3;HMGA2;PAX6;FOS;NFKB1;CREB1;GNAS;CHMP4B;CTNNB1",33
"181","epilepsy","11/57",0.999647878289493,1,0,0,0.491111989159819,0.000172961647236329,"CSTB;JRK;CHRNA2;SRPX2;ATP6AP2;KCNMA1;ARX;EFHC1;ME2;PCDH19;SLC25A22",11
"182","mental_retardation","26/113",0.99991763057333,1,0,0,0.585541406222729,4.82326963989325e-05,"ARX;VLDLR;MAGT1;PCDH19;HSD17B10;SOX3;ZNF81;SRPX2;ZNF41;PAK3;ATP6AP2;ATRX;HUWE1;CASK;UPF3B;AMMECR1;UBE2A;FTSJ1;PRSS12;SHROOM4;SLC9A6;ZDHHC9;GNAS;ZNF674;MCPH1;CUL4B",26
"183","ataxia","9/59",0.999982157146172,1,0,0,0.388197920553139,6.92662054841466e-06,"PLEKHG4;TBP;KCNC3;FMR1;TTPA;SLC1A3;ATXN10;CP;SYNE1",9
"184","diabetes","12/74",0.999991757134871,1,0,0,0.412678870497931,3.40167029069966e-06,"FOXC2;IL6;SPINK1;OAS1;IRS1;WFS1;HFE;GPD2;UCP3;INSR;ENPP1;ITPR3",12
"185","deafness","13/110",0.9999953288186,1,0,0,0.300755358650765,1.40488611839307e-06,"TMC1;TIMM8A;CD151;RDX;SLC4A11;TRIOBP;POU3F4;GJB2;OPA1;MARVELD2;MYH14;MYH9;CCDC50",13
"186","retinitis_pigmentosa","5/50",0.999995746629417,1,0,0,0.254485303473724,1.08242260553712e-06,"CERKL;RP2;PRPF8;TOPORS;RPE65",5
"187","diabetes_mellitus","6/57",0.999995996187266,0.999995996187266,0,0,0.267879266814447,1.07254056666026e-06,"FOXC2;OAS1;IRS1;WFS1;INSR;ENPP1",6
