"","Gene","Category"
"1","RNU5B-1","QGBObyPGBO"
"2","RNU6-45P","QGBObyPGBO"
"3","RPS27P16","QGBObyPGBO"
"4","MIR30D","QGBObyPGBO"
"5","CTBP2P1","QGBObyPGBO"
"6","AC007849.2","QGBObyPGBO"
"7","RNU6-1266P","QGBObyPGBO"
"8","RNA5SP69","QGBObyPGBO"
"9","AC140113.3","QGBObyPGBO"
"10","RNU7-155P","QGBObyPGBO"
"11","RPL21P119","QGBObyPGBO"
"12","RNA5SP361","QGBObyPGBO"
"13","DYNLT3P2","QGBObyPGBO"
"14","RPS7P14","QGBObyPGBO"
"15","RNU6-304P","QGBObyPGBO"
"16","RN7SL58P","QGBObyPGBO"
"17","MIR376A1","QGBObyPGBO"
"18","HLA-S","QGBObyPGBO"
"19","AL021997.1","QGBObyPGBO"
"20","AC023141.8","QGBObyPGBO"
"21","HMGN2P22","QGBObyPGBO"
"22","RNMTL1P1","QGBObyPGBO"
"23","AC096638.1","QGBObyPGBO"
"24","AC025166.1","QGBObyPGBO"
"25","AC021087.4","QGBObyPGBO"
"26","RN7SKP185","QGBObyPGBO"
"27","AC069213.2","QGBObyPGBO"
"28","PRSS3P4","QGBObyPGBO"
"29","AC008403.3","QGBObyPGBO"
"30","RNU6-1251P","QGBObyPGBO"
"31","AC026585.1","QGBObyPGBO"
"32","MTCO3P39","QGBObyPGBO"
"33","RN7SL18P","QGBObyPGBO"
"34","AC012640.5","QGBObyPGBO"
"35","ACTG1P24","QGBObyPGBO"
"36","PRELID3BP7","QGBObyPGBO"
"37","AC004832.6","QGBObyPGBO"
"38","ATP5F1CP1","QGBObyPGBO"
"39","PCK1","QGBObyPGBO"
"40","AC011416.2","QGBObyPGBO"
"41","SUMO2P4","QGBObyPGBO"
"42","OR1L3","QGBObyPGBO"
"43","AC104581.1","QGBObyPGBO"
"44","TUBB4BP3","QGBObyPGBO"
"45","AC026741.1","QGBObyPGBO"
"46","HLA-Z","QGBObyPGBO"
"47","AC069218.2","QGBObyPGBO"
"48","AC128657.1","QGBObyPGBO"
"49","RN7SL769P","QGBObyPGBO"
"50","DYNLL1P3","QGBObyPGBO"
"51","AL031773.1","QGBObyPGBO"
"52","AC007952.5","QGBObyPGBO"
"53","AL031679.1","QGBObyPGBO"
"54","RNU1-36P","QGBObyPGBO"
"55","AC128713.1","QGBObyPGBO"
"56","RPLP0P1","QGBObyPGBO"
"57","AL136301.1","QGBObyPGBO"
"58","RN7SL644P","QGBObyPGBO"
"59","TAS2R6P","QGBObyPGBO"
"60","LDHAP5","QGBObyPGBO"
"61","RN7SL753P","QGBObyPGBO"
"62","AC135776.4","QGBObyPGBO"
"63","OR5B21","QGBObyPGBO"
"64","MIR8070","QGBObyPGBO"
"65","CHCHD2P3","QGBObyPGBO"
"66","MRPL40P1","QGBObyPGBO"
"67","AL357078.3","QGBObyPGBO"
"68","CEACAMP7","QGBObyPGBO"
"69","RF02272","QGBObyPGBO"
"70","AC027124.1","QGBObyPGBO"
"71","AL450990.1","QGBObyPGBO"
"72","MTND4LP22","QGBObyPGBO"
"73","H2AFZP2","QGBObyPGBO"
"74","AC092132.1","QGBObyPGBO"
"75","PPP1R2P1","QGBObyPGBO"
"76","AC091825.1","QGBObyPGBO"
"77","AP001630.1","QGBObyPGBO"
"78","AC002504.1","QGBObyPGBO"
"79","LINC01873","QGBObyPGBO"
"80","AC106789.1","QGBObyPGBO"
"81","HNRNPA1P63","QGBObyPGBO"
"82","AC105129.2","QGBObyPGBO"
"83","OR52M1","QGBObyPGBO"
"84","HMGN1P17","QGBObyPGBO"
"85","AC012629.3","QGBObyPGBO"
"86","OR6V1","QGBObyPGBO"
"87","AL451142.1","QGBObyPGBO"
"88","HMGN2P21","QGBObyPGBO"
"89","RNU6-520P","QGBObyPGBO"
"90","ARL5AP1","QGBObyPGBO"
"91","AC073534.1","QGBObyPGBO"
"92","AL162588.1","QGBObyPGBO"
"93","AC004847.1","QGBObyPGBO"
"94","RPL17P34","QGBObyPGBO"
"95","AP005212.1","QGBObyPGBO"
"96","IFNA20P","QGBObyPGBO"
"97","AC063943.1","QGBObyPGBO"
"98","AL359837.1","QGBObyPGBO"
"99","AC073352.2","QGBObyPGBO"
"100","TAS2R39","QGBObyPGBO"
"101","OR2W6P","QGBObyPGBO"
"102","AC233266.2","QGBObyPGBO"
"103","GAPDHP37","QGBObyPGBO"
"104","HMGB1P45","QGBObyPGBO"
"105","AC023538.1","QGBObyPGBO"
"106","RN7SL251P","QGBObyPGBO"
"107","AC010139.1","QGBObyPGBO"
"108","ACTG1P15","QGBObyPGBO"
"109","EEF1GP7","QGBObyPGBO"
"110","SLC32A1","QGBObyPGBO"
"111","PPIAP65","QGBObyPGBO"
"112","AL669983.1","QGBObyPGBO"
"113","AC137590.2","QGBObyPGBO"
"114","RN7SL43P","QGBObyPGBO"
"115","RN7SL837P","QGBObyPGBO"
"116","BX284613.1","QGBObyPGBO"
"117","AL138995.1","QGBObyPGBO"
"118","AC007622.1","QGBObyPGBO"
"119","HTR1D","QGBObyPGBO"
"120","PPM1AP1","QGBObyPGBO"
"121","RXFP4","QGBObyPGBO"
"122","AC013410.1","QGBObyPGBO"
"123","AL157414.3","QGBObyPGBO"
"124","AC093510.1","QGBObyPGBO"
"125","LINC01293","QGBObyPGBO"
"126","AC138907.8","QGBObyPGBO"
"127","AC104306.1","QGBObyPGBO"
"128","RPL36AP39","QGBObyPGBO"
"129","KCNA3","QGBObyPGBO"
"130","AC023983.2","QGBObyPGBO"
"131","AC233280.2","QGBObyPGBO"
"132","RNA5SP243","QGBObyPGBO"
"133","AL110115.2","QGBObyPGBO"
"134","AC091807.1","QGBObyPGBO"
"135","RSL24D1P3","QGBObyPGBO"
"136","HADHAP2","QGBObyPGBO"
"137","RPL23AP59","QGBObyPGBO"
"138","ADH5P2","QGBObyPGBO"
"139","AC138907.9","QGBObyPGBO"
"140","YBX2P1","QGBObyPGBO"
"141","AC245008.1","QGBObyPGBO"
"142","CR848007.3","QGBObyPGBO"
"143","AL034379.1","QGBObyPGBO"
"144","AC008494.2","QGBObyPGBO"
"145","AL732292.2","QGBObyPGBO"
"146","MFNG","QGBObyPGBO"
"147","AF111169.2","QGBObyPGBO"
"148","OR7E15P","QGBObyPGBO"
"149","AP000221.1","QGBObyPGBO"
"150","RPL39P40","QGBObyPGBO"
"151","RPL37AP8","QGBObyPGBO"
"152","RPS4XP1","QGBObyPGBO"
"153","MYL6P3","QGBObyPGBO"
"154","CHCHD2P9","QGBObyPGBO"
"155","AL161911.1","QGBObyPGBO"
"156","AP002373.2","QGBObyPGBO"
"157","AL590560.3","QGBObyPGBO"
"158","MTCO1P17","QGBObyPGBO"
"159","TOMM20P4","QGBObyPGBO"
"160","AL133270.1","QGBObyPGBO"
"161","AC080080.2","QGBObyPGBO"
"162","AC008494.3","QGBObyPGBO"
"163","SOX5P1","QGBObyPGBO"
"164","RN7SKP66","QGBObyPGBO"
"165","AP002982.1","QGBObyPGBO"
"166","AC068138.1","QGBObyPGBO"
"167","AL139125.2","QGBObyPGBO"
"168","MYCL","QGBObyPGBO"
"169","HNRNPA1P41","QGBObyPGBO"
"170","AC034236.3","QGBObyPGBO"
"171","AL358613.2","QGBObyPGBO"
"172","MIR331","QGBObyPGBO"
"173","AL096711.1","QGBObyPGBO"
"174","AC072052.1","QGBObyPGBO"
"175","LYPLA1P3","QGBObyPGBO"
"176","CDK2AP2P2","QGBObyPGBO"
"177","RNU2-62P","QGBObyPGBO"
"178","AC073610.1","QGBObyPGBO"
"179","AC002540.1","QGBObyPGBO"
"180","AC010631.1","QGBObyPGBO"
"181","LINC00896","QGBObyPGBO"
"182","ARX","QGBObyPGBO"
"183","MRPL30P1","QGBObyPGBO"
"184","LINC01960","QGBObyPGBO"
"185","HNRNPA1P60","QGBObyPGBO"
"186","RPL7P44","QGBObyPGBO"
"187","AC008759.2","QGBObyPGBO"
"188","AC092162.3","QGBObyPGBO"
"189","LMO1","QGBObyPGBO"
"190","AP006287.1","QGBObyPGBO"
"191","AC007952.7","QGBObyPGBO"
"192","RN7SL586P","QGBObyPGBO"
"193","AC091962.1","QGBObyPGBO"
"194","AC008549.2","QGBObyPGBO"
"195","ATCAY","QGBObyPGBO"
"196","RPSAP45","QGBObyPGBO"
"197","RNA5SP103","QGBObyPGBO"
"198","AC025754.2","QGBObyPGBO"
"199","RNA5SP75","QGBObyPGBO"
"200","TRBV20OR9-2","QGBObyPGBO"
"201","MTCO1P1","QGBObyPGBO"
"202","AC007992.1","QGBObyPGBO"
"203","AC008507.3","QGBObyPGBO"
"204","AC019103.1","QGBObyPGBO"
"205","AL359641.1","QGBObyPGBO"
"206","AL009176.1","QGBObyPGBO"
"207","AC015911.1","QGBObyPGBO"
"208","HMX2","QGBObyPGBO"
"209","SHD","QGBObyPGBO"
"210","AL359711.2","QGBObyPGBO"
"211","AC015660.2","QGBObyPGBO"
"212","AC022098.3","QGBObyPGBO"
"213","AL390037.1","QGBObyPGBO"
"214","STC1","QGBObyPGBO"
"215","RPL36AP26","QGBObyPGBO"
"216","PRDX4P1","QGBObyPGBO"
"217","SELENBP1","QGBObyPGBO"
"218","AC079089.2","QGBObyPGBO"
"219","PDSS1P2","QGBObyPGBO"
"220","AC018641.1","QGBObyPGBO"
"221","AC019129.1","QGBObyPGBO"
"222","RPSAP49","QGBObyPGBO"
"223","VN1R28P","QGBObyPGBO"
"224","AC234782.5","QGBObyPGBO"
"225","AP001264.1","QGBObyPGBO"
"226","Z97653.1","QGBObyPGBO"
"227","PPIAP43","QGBObyPGBO"
"228","CES3","QGBObyPGBO"
"229","HIST1H2BO","QGBObyPGBO"
"230","NUAK2","QGBObyPGBO"
"231","EIF4A1P9","QGBObyPGBO"
"232","AC005332.8","QGBObyPGBO"
"233","AL158063.1","QGBObyPGBO"
"234","RNU6-1064P","QGBObyPGBO"
"235","AC126768.3","QGBObyPGBO"
"236","AL023806.3","QGBObyPGBO"
"237","FAM220CP","QGBObyPGBO"
"238","RPL12P10","QGBObyPGBO"
"239","AC083906.1","QGBObyPGBO"
"240","AC016717.3","QGBObyPGBO"
"241","AC124947.2","QGBObyPGBO"
"242","DAP3P2","QGBObyPGBO"
"243","REXO1L1P","QGBObyPGBO"
"244","AC100771.1","QGBObyPGBO"
"245","AC008121.2","QGBObyPGBO"
"246","PPIAP77","QGBObyPGBO"
"247","RPS18P6","QGBObyPGBO"
"248","CXCR4","QGBObyPGBO"
"249","SIGLEC31P","QGBObyPGBO"
"250","AC093014.1","QGBObyPGBO"
"251","AC092814.1","QGBObyPGBO"
"252","AC021106.1","QGBObyPGBO"
"253","TUFMP1","QGBObyPGBO"
"254","RNA5SP242","QGBObyPGBO"
"255","NACAP7","QGBObyPGBO"
"256","AC087072.2","QGBObyPGBO"
"257","AP001059.3","QGBObyPGBO"
"258","NEFM","QGBObyPGBO"
"259","AL627223.1","QGBObyPGBO"
"260","AC005740.1","QGBObyPGBO"
"261","AL589765.7","QGBObyPGBO"
"262","RNA5SP99","QGBObyPGBO"
"263","EPO","QGBObyPGBO"
"264","BMPR1APS2","QGBObyPGBO"
"265","AP000343.1","QGBObyPGBO"
"266","AC013553.4","QGBObyPGBO"
"267","AC066615.1","QGBObyPGBO"
"268","AC099063.4","QGBObyPGBO"
"269","AC009220.1","QGBObyPGBO"
"270","OR4F17","QGBObyPGBO"
"271","LRCOL1","QGBObyPGBO"
"272","LINC01326","QGBObyPGBO"
"273","RPL21P120","QGBObyPGBO"
"274","RIMS4","QGBObyPGBO"
"275","AF131216.5","QGBObyPGBO"
"276","AC125494.2","QGBObyPGBO"
"277","AC017079.1","QGBObyPGBO"
"278","AC005906.1","QGBObyPGBO"
"279","HMGB1P37","QGBObyPGBO"
"280","CCT4P2","QGBObyPGBO"
"281","AC068448.1","QGBObyPGBO"
"282","RNU6-322P","QGBObyPGBO"
"283","ARMC10P1","QGBObyPGBO"
"284","GRIP2","QGBObyPGBO"
"285","OR10K1","QGBObyPGBO"
"286","PPIAP58","QGBObyPGBO"
"287","AP003041.1","QGBObyPGBO"
"288","AC136443.3","QGBObyPGBO"
"289","Z98752.4","QGBObyPGBO"
"290","AK4P4","QGBObyPGBO"
"291","AC108704.1","QGBObyPGBO"
"292","AC093582.1","QGBObyPGBO"
"293","AC245100.3","QGBObyPGBO"
"294","PPIAP89","QGBObyPGBO"
"295","RGR","QGBObyPGBO"
"296","BX005266.3","QGBObyPGBO"
"297","AL354877.1","QGBObyPGBO"
"298","RNASE2","QGBObyPGBO"
"299","GPR182","QGBObyPGBO"
"300","RNU6-62P","QGBObyPGBO"
"301","JADRR","QGBObyPGBO"
"302","AL672207.1","QGBObyPGBO"
"303","AL591926.3","QGBObyPGBO"
"304","AL589987.1","QGBObyPGBO"
"305","AF186192.3","QGBObyPGBO"
"306","TTR","QGBObyPGBO"
"307","AC092184.1","QGBObyPGBO"
"308","RN7SL525P","QGBObyPGBO"
"309","ZCCHC12","QGBObyPGBO"
"310","RN7SL585P","QGBObyPGBO"
"311","HMGB1P1","QGBObyPGBO"
"312","SMOC1","QGBObyPGBO"
"313","FABP6","QGBObyPGBO"
"314","RNU1-47P","QGBObyPGBO"
"315","TRBV8-2","QGBObyPGBO"
"316","LAG3","QGBObyPGBO"
"317","AC010326.1","QGBObyPGBO"
"318","RSL24D1P1","QGBObyPGBO"
"319","AC016405.2","QGBObyPGBO"
"320","AL157777.1","QGBObyPGBO"
"321","AC091305.1","QGBObyPGBO"
"322","RPS4XP13","QGBObyPGBO"
"323","AC006033.1","QGBObyPGBO"
"324","RBMX2P5","QGBObyPGBO"
"325","PGLYRP1","QGBObyPGBO"
"326","AL451064.1","QGBObyPGBO"
"327","FOXC2","QGBObyPGBO"
"328","AC005695.3","QGBObyPGBO"
"329","AL023773.1","QGBObyPGBO"
"330","SETP20","QGBObyPGBO"
"331","LINC01804","QGBObyPGBO"
"332","AL583856.1","QGBObyPGBO"
"333","HSPE1P6","QGBObyPGBO"
"334","AC021106.3","QGBObyPGBO"
"335","RAB3A","QGBObyPGBO"
"336","AC010904.2","QGBObyPGBO"
"337","METTL7A","QGBObyPGBO"
"338","FAM180B","QGBObyPGBO"
"339","AC106872.8","QGBObyPGBO"
"340","C15orf59-AS1","QGBObyPGBO"
"341","MCHR1","QGBObyPGBO"
"342","AC093072.1","QGBObyPGBO"
"343","FSCN1P1","QGBObyPGBO"
"344","NUDT9P1","QGBObyPGBO"
"345","NDUFA5P6","QGBObyPGBO"
"346","AC237221.2","QGBObyPGBO"
"347","TMEM191C","QGBObyPGBO"
"348","AL162431.1","QGBObyPGBO"
"349","SNX18P25","QGBObyPGBO"
"350","NCAN","QGBObyPGBO"
"351","RNU6-1004P","QGBObyPGBO"
"352","HNRNPA1P39","QGBObyPGBO"
"353","AL358942.1","QGBObyPGBO"
"354","AL365366.1","QGBObyPGBO"
"355","HMGN2P31","QGBObyPGBO"
"356","AC008543.4","QGBObyPGBO"
"357","AC103724.4","QGBObyPGBO"
"358","RPS15AP38","QGBObyPGBO"
"359","AC021739.5","QGBObyPGBO"
"360","AC068944.1","QGBObyPGBO"
"361","GAL3ST3","QGBObyPGBO"
"362","TNFAIP3","QGBObyPGBO"
"363","AL121890.5","QGBObyPGBO"
"364","AC018648.1","QGBObyPGBO"
"365","SSTR3","QGBObyPGBO"
"366","FGF23","QGBObyPGBO"
"367","SIX2","QGBObyPGBO"
"368","AP000432.2","QGBObyPGBO"
"369","CNOT6LP1","QGBObyPGBO"
"370","TAGLN3","QGBObyPGBO"
"371","RPL21P17","QGBObyPGBO"
"372","AC127024.1","QGBObyPGBO"
"373","AC011816.2","QGBObyPGBO"
"374","TMEM86B","QGBObyPGBO"
"375","AL627230.4","QGBObyPGBO"
"376","HIGD1AP18","QGBObyPGBO"
"377","MIR1299","QGBObyPGBO"
"378","AC098590.1","QGBObyPGBO"
"379","BST2","QGBObyPGBO"
"380","RN7SL70P","QGBObyPGBO"
"381","AC117490.1","QGBObyPGBO"
"382","RN7SL208P","QGBObyPGBO"
"383","OR10H1","QGBObyPGBO"
"384","DMRT3","QGBObyPGBO"
"385","AC060766.4","QGBObyPGBO"
"386","AC027338.1","QGBObyPGBO"
"387","AC104066.1","QGBObyPGBO"
"388","ASB9","QGBObyPGBO"
"389","MTND4P30","QGBObyPGBO"
"390","C10orf82","QGBObyPGBO"
"391","RPS10P3","QGBObyPGBO"
"392","AC012508.1","QGBObyPGBO"
"393","SNX18P7","QGBObyPGBO"
"394","AL450326.2","QGBObyPGBO"
"395","RNU6-1011P","QGBObyPGBO"
"396","AC079328.1","QGBObyPGBO"
"397","SOWAHD","QGBObyPGBO"
"398","RPSAP72","QGBObyPGBO"
"399","CDRT15L2","QGBObyPGBO"
"400","AC008549.3","QGBObyPGBO"
"401","AC147876.1","QGBObyPGBO"
"402","AL031121.1","QGBObyPGBO"
"403","RN7SL371P","QGBObyPGBO"
"404","AC009967.1","QGBObyPGBO"
"405","RN7SL191P","QGBObyPGBO"
"406","AP005671.1","QGBObyPGBO"
"407","AC027688.2","QGBObyPGBO"
"408","FAM241A","QGBObyPGBO"
"409","AC004069.1","QGBObyPGBO"
"410","ZAR1","QGBObyPGBO"
"411","AL021408.2","QGBObyPGBO"
"412","SOWAHB","QGBObyPGBO"
"413","RN7SL592P","QGBObyPGBO"
"414","PPIAP48","QGBObyPGBO"
"415","CR769775.4","QGBObyPGBO"
"416","RPL12P35","QGBObyPGBO"
"417","SULT1A2","QGBObyPGBO"
"418","AC022167.4","QGBObyPGBO"
"419","SUB1P1","QGBObyPGBO"
"420","SLC43A2","QGBObyPGBO"
"421","AL365356.5","QGBObyPGBO"
"422","CFH","QGBObyPGBO"
"423","AC008072.1","QGBObyPGBO"
"424","PLA2G3","QGBObyPGBO"
"425","AP003717.2","QGBObyPGBO"
"426","BTG1P1","QGBObyPGBO"
"427","AC122710.3","QGBObyPGBO"
"428","RPSAP12","QGBObyPGBO"
"429","AC010733.1","QGBObyPGBO"
"430","AC233279.1","QGBObyPGBO"
"431","YTHDF2P1","QGBObyPGBO"
"432","IER3-AS1","QGBObyPGBO"
"433","RN7SL156P","QGBObyPGBO"
"434","AC019322.4","QGBObyPGBO"
"435","BOLA2P3","QGBObyPGBO"
"436","AC080013.6","QGBObyPGBO"
"437","AC100847.1","QGBObyPGBO"
"438","AC020558.3","QGBObyPGBO"
"439","AC009533.2","QGBObyPGBO"
"440","AL445991.1","QGBObyPGBO"
"441","AC005479.2","QGBObyPGBO"
"442","VN1R20P","QGBObyPGBO"
"443","TRH","QGBObyPGBO"
"444","DLL1","QGBObyPGBO"
"445","AC006946.2","QGBObyPGBO"
"446","APOL4","QGBObyPGBO"
"447","LHB","QGBObyPGBO"
"448","CDK7P1","QGBObyPGBO"
"449","RPS18P12","QGBObyPGBO"
"450","RN7SL697P","QGBObyPGBO"
"451","LINC01563","QGBObyPGBO"
"452","RPL17P33","QGBObyPGBO"
"453","AL357515.1","QGBObyPGBO"
"454","CYP51A1P1","QGBObyPGBO"
"455","AC016877.3","QGBObyPGBO"
"456","MIR548A3","QGBObyPGBO"
"457","AP000253.1","QGBObyPGBO"
"458","PA2G4P2","QGBObyPGBO"
"459","AC099518.6","QGBObyPGBO"
"460","AL021937.4","QGBObyPGBO"
"461","H2BFM","QGBObyPGBO"
"462","AC022968.1","QGBObyPGBO"
"463","PGDP1","QGBObyPGBO"
"464","HAUS1P2","QGBObyPGBO"
"465","PCDH8","QGBObyPGBO"
"466","AC137695.1","QGBObyPGBO"
"467","LINC01666","QGBObyPGBO"
"468","ATP5MC2P4","QGBObyPGBO"
"469","AC134878.1","QGBObyPGBO"
"470","OR5AS1","QGBObyPGBO"
"471","LINC01659","QGBObyPGBO"
"472","LINC01649","QGBObyPGBO"
"473","AP000542.2","QGBObyPGBO"
"474","AC094104.2","QGBObyPGBO"
"475","LINC02080","QGBObyPGBO"
"476","AC009159.4","QGBObyPGBO"
"477","LNCPRESS1","QGBObyPGBO"
"478","AC015726.2","QGBObyPGBO"
"479","NME2P1","QGBObyPGBO"
"480","AC092175.1","QGBObyPGBO"
"481","AC012313.4","QGBObyPGBO"
"482","PDZRN3","QGBObyPGBO"
"483","TH","QGBObyPGBO"
"484","EEF1A1P1","QGBObyPGBO"
"485","MARK2P10","QGBObyPGBO"
"486","AL136141.1","QGBObyPGBO"
"487","AC010595.1","QGBObyPGBO"
"488","ACKR3","QGBObyPGBO"
"489","CCDC80","QGBObyPGBO"
"490","CRYM","QGBObyPGBO"
"491","AC005261.4","QGBObyPGBO"
"492","ELAVL3","QGBObyPGBO"
"493","ASCL1","QGBObyPGBO"
"494","POU3F1","QGBObyPGBO"
"495","RASL11A","QGBObyPGBO"
"496","GPM6A","QGBObyPGBO"
"497","HS6ST1P1","QGBObyPGBO"
"498","MT1G","QGBObyPGBO"
"499","HNRNPA1P61","QGBObyPGBO"
"500","AL133163.3","QGBObyPGBO"
"501","RPL12P4","QGBObyPGBO"
"502","AC026422.1","QGBObyPGBO"
"503","LRRN2","QGBObyPGBO"
"504","AL603750.1","QGBObyPGBO"
"505","AC073346.2","QGBObyPGBO"
"506","NYNRIN","QGBObyPGBO"
"507","BBC3","QGBObyPGBO"
"508","RN7SKP112","QGBObyPGBO"
"509","TMEM78","QGBObyPGBO"
"510","HSPB1P2","QGBObyPGBO"
"511","BEST3","QGBObyPGBO"
"512","AC007029.1","QGBObyPGBO"
"513","DUSP26","QGBObyPGBO"
"514","AL139008.1","QGBObyPGBO"
"515","AL512844.1","QGBObyPGBO"
"516","AC096536.1","QGBObyPGBO"
"517","AP000808.2","QGBObyPGBO"
"518","RIBC1","QGBObyPGBO"
"519","AC020661.1","QGBObyPGBO"
"520","BCL11A","QGBObyPGBO"
"521","AL139384.2","QGBObyPGBO"
"522","ICA1","QGBObyPGBO"
"523","NPM1P12","QGBObyPGBO"
"524","AC068057.1","QGBObyPGBO"
"525","OR6D1P","QGBObyPGBO"
"526","EIF4A1P4","QGBObyPGBO"
"527","LINC01993","QGBObyPGBO"
"528","AC055764.2","QGBObyPGBO"
"529","AC015911.9","QGBObyPGBO"
"530","MTND5P15","QGBObyPGBO"
"531","AC109347.1","QGBObyPGBO"
"532","AC091614.1","QGBObyPGBO"
"533","AC009127.2","QGBObyPGBO"
"534","AP000568.1","QGBObyPGBO"
"535","OR9H1P","QGBObyPGBO"
"536","AC004023.1","QGBObyPGBO"
"537","AL161669.3","QGBObyPGBO"
"538","AL139413.1","QGBObyPGBO"
"539","SLC9A4","QGBObyPGBO"
"540","OR2B6","QGBObyPGBO"
"541","AC020928.2","QGBObyPGBO"
"542","RN7SL767P","QGBObyPGBO"
"543","KCNH2","QGBObyPGBO"
"544","AC079598.1","QGBObyPGBO"
"545","RNY3P16","QGBObyPGBO"
"546","AC015983.1","QGBObyPGBO"
"547","AL442128.2","QGBObyPGBO"
"548","PRPS1","QGBObyPGBO"
"549","AC106053.1","QGBObyPGBO"
"550","RPS3AP5","QGBObyPGBO"
"551","AC138356.3","QGBObyPGBO"
"552","FCHO1","QGBObyPGBO"
"553","AC016739.1","QGBObyPGBO"
"554","LINC00506","QGBObyPGBO"
"555","CFAP58-AS1","QGBObyPGBO"
"556","AL391069.3","QGBObyPGBO"
"557","AC013244.1","QGBObyPGBO"
"558","HOXA1","QGBObyPGBO"
"559","MIR376B","QGBObyPGBO"
"560","CA9","QGBObyPGBO"
"561","CCT6P2","QGBObyPGBO"
"562","AL606534.5","QGBObyPGBO"
"563","LINC01018","QGBObyPGBO"
"564","HMGN2P17","QGBObyPGBO"
"565","ELOCP2","QGBObyPGBO"
"566","QPRT","QGBObyPGBO"
"567","FOXL1","QGBObyPGBO"
"568","AL365204.2","QGBObyPGBO"
"569","PRB3","QGBObyPGBO"
"570","OR52A1","QGBObyPGBO"
"571","NUDT2","QGBObyPGBO"
"572","RN7SL296P","QGBObyPGBO"
"573","HOXB13","QGBObyPGBO"
"574","AC010468.1","QGBObyPGBO"
"575","AC008278.1","QGBObyPGBO"
"576","KRTAP9-6","QGBObyPGBO"
"577","NPM1P39","QGBObyPGBO"
"578","DUSP9","QGBObyPGBO"
"579","AC007318.2","QGBObyPGBO"
"580","AC115284.2","QGBObyPGBO"
"581","AL357060.1","QGBObyPGBO"
"582","AL049780.3","QGBObyPGBO"
"583","AC008121.1","QGBObyPGBO"
"584","PRR30","QGBObyPGBO"
"585","MTND6P2","QGBObyPGBO"
"586","RGS8","QGBObyPGBO"
"587","RPL7P47","QGBObyPGBO"
"588","BARX1","QGBObyPGBO"
"589","THAP5P1","QGBObyPGBO"
"590","RPL7AP30","QGBObyPGBO"
"591","RN7SL475P","QGBObyPGBO"
"592","AC009831.4","QGBObyPGBO"
"593","MAGOH3P","QGBObyPGBO"
"594","AC018475.1","QGBObyPGBO"
"595","SLC26A4-AS1","QGBObyPGBO"
"596","HSPA1A","QGBObyPGBO"
"597","AC006238.1","QGBObyPGBO"
"598","OSR2","QGBObyPGBO"
"599","PRDX1P1","QGBObyPGBO"
"600","RN7SL472P","QGBObyPGBO"
"601","AKR1C3","QGBObyPGBO"
"602","SYBU","QGBObyPGBO"
"603","FALEC","QGBObyPGBO"
"604","AC124916.1","QGBObyPGBO"
"605","SALRNA3","QGBObyPGBO"
"606","AL391294.1","QGBObyPGBO"
"607","RPS7P4","QGBObyPGBO"
"608","AC013476.2","QGBObyPGBO"
"609","AL590065.1","QGBObyPGBO"
"610","MASP1","QGBObyPGBO"
"611","AL034346.1","QGBObyPGBO"
"612","AL357315.2","QGBObyPGBO"
"613","YBX1P4","QGBObyPGBO"
"614","AL353719.1","QGBObyPGBO"
"615","PRAME","QGBObyPGBO"
"616","AC092115.1","QGBObyPGBO"
"617","TOB2P1","QGBObyPGBO"
"618","AC092326.1","QGBObyPGBO"
"619","PCSK9","QGBObyPGBO"
"620","CDCA4P1","QGBObyPGBO"
"621","AC011468.4","QGBObyPGBO"
"622","DLL3","QGBObyPGBO"
"623","AP003548.1","QGBObyPGBO"
"624","RGPD4-AS1","QGBObyPGBO"
"625","RN7SL605P","QGBObyPGBO"
"626","SLC22A5","QGBObyPGBO"
"627","AC046176.1","QGBObyPGBO"
"628","GGTA2P","QGBObyPGBO"
"629","LINC01694","QGBObyPGBO"
"630","AL162412.1","QGBObyPGBO"
"631","PRELID1P1","QGBObyPGBO"
"632","USP27X-AS1","QGBObyPGBO"
"633","RPS15AP36","QGBObyPGBO"
"634","CYP2W1","QGBObyPGBO"
"635","TPT1P9","QGBObyPGBO"
"636","C15orf59","QGBObyPGBO"
"637","RPL26P6","QGBObyPGBO"
"638","DLX5","QGBObyPGBO"
"639","AL590552.1","QGBObyPGBO"
"640","AL022316.1","QGBObyPGBO"
"641","AC018521.7","QGBObyPGBO"
"642","AC008147.4","QGBObyPGBO"
"643","HSP90AA5P","QGBObyPGBO"
"644","TPT1P4","QGBObyPGBO"
"645","AL365181.1","QGBObyPGBO"
"646","LINC02108","QGBObyPGBO"
"647","AL355338.1","QGBObyPGBO"
"648","C2orf80","QGBObyPGBO"
"649","ZNF106","QGBObyPGBO"
"650","RPS27AP11","QGBObyPGBO"
"651","GADD45G","QGBObyPGBO"
"652","AL096828.3","QGBObyPGBO"
"653","GFRA1","QGBObyPGBO"
"654","MATN2","QGBObyPGBO"
"655","AC004941.1","QGBObyPGBO"
"656","HSPE1P4","QGBObyPGBO"
"657","AC005393.1","QGBObyPGBO"
"658","FRAT1","QGBObyPGBO"
"659","GRIA4","QGBObyPGBO"
"660","PTPRO","QGBObyPGBO"
"661","GJA1","QGBObyPGBO"
"662","AL162413.1","QGBObyPGBO"
"663","MPV17L2","QGBObyPGBO"
"664","BORCS6","QGBObyPGBO"
"665","PABPC1P3","QGBObyPGBO"
"666","GPR88","QGBObyPGBO"
"667","RNU6ATAC35P","QGBObyPGBO"
"668","AC022432.1","QGBObyPGBO"
"669","AC114491.1","QGBObyPGBO"
"670","LINC01963","QGBObyPGBO"
"671","ALCAM","QGBObyPGBO"
"672","FAM207BP","QGBObyPGBO"
"673","FABP7","QGBObyPGBO"
"674","AP001542.3","QGBObyPGBO"
"675","OSR1","QGBObyPGBO"
"676","AL935212.1","QGBObyPGBO"
"677","AC098828.2","QGBObyPGBO"
"678","KIF21A","QGBObyPGBO"
"679","AL121761.2","QGBObyPGBO"
"680","USP2","QGBObyPGBO"
"681","AC093510.2","QGBObyPGBO"
"682","MCFD2P1","QGBObyPGBO"
"683","CBLN1","QGBObyPGBO"
"684","AC007663.3","QGBObyPGBO"
"685","MAP2K6","QGBObyPGBO"
"686","HNRNPA1P12","QGBObyPGBO"
"687","PDGFB","QGBObyPGBO"
"688","GASAL1","QGBObyPGBO"
"689","Z83818.2","QGBObyPGBO"
"690","ANAPC15","QGBObyPGBO"
"691","SRP14P1","QGBObyPGBO"
"692","FAUP1","QGBObyPGBO"
"693","B3GNT4","QGBObyPGBO"
"694","GNMT","QGBObyPGBO"
"695","HSPD1P4","QGBObyPGBO"
"696","PIPSL","QGBObyPGBO"
"697","DBP","QGBObyPGBO"
"698","AL354718.1","QGBObyPGBO"
"699","CYB5A","QGBObyPGBO"
"700","AC073578.4","QGBObyPGBO"
"701","ACBD7","QGBObyPGBO"
"702","AC090152.1","QGBObyPGBO"
"703","HMGN5","QGBObyPGBO"
"704","AL731563.3","QGBObyPGBO"
"705","FKBP9P1","QGBObyPGBO"
"706","AC090643.1","QGBObyPGBO"
"707","DND1P1","QGBObyPGBO"
"708","GPR12","QGBObyPGBO"
"709","PTGES2-AS1","QGBObyPGBO"
"710","KREMEN1","QGBObyPGBO"
"711","CDKN1C","QGBObyPGBO"
"712","CACNG4","QGBObyPGBO"
"713","SUMO2P15","QGBObyPGBO"
"714","AC109347.2","QGBObyPGBO"
"715","AC010424.1","QGBObyPGBO"
"716","CCDC112","QGBObyPGBO"
"717","DLX2-AS1","QGBObyPGBO"
"718","AC126755.3","QGBObyPGBO"
"719","KANTR","QGBObyPGBO"
"720","RAB41","QGBObyPGBO"
"721","AC023796.1","QGBObyPGBO"
"722","HAVCR1P1","QGBObyPGBO"
"723","AC120042.1","QGBObyPGBO"
"724","AC087354.1","QGBObyPGBO"
"725","AC127002.1","QGBObyPGBO"
"726","TSPAN12","QGBObyPGBO"
"727","LIPG","QGBObyPGBO"
"728","AP003969.2","QGBObyPGBO"
"729","AL031777.1","QGBObyPGBO"
"730","AC135388.1","QGBObyPGBO"
"731","RPL37P2","QGBObyPGBO"
"732","CXorf40A","QGBObyPGBO"
"733","AC006960.3","QGBObyPGBO"
"734","PKMP1","QGBObyPGBO"
"735","FKBP1C","QGBObyPGBO"
"736","SMARCE1P6","QGBObyPGBO"
"737","PPIAP60","QGBObyPGBO"
"738","AC009220.3","QGBObyPGBO"
"739","FAM43B","QGBObyPGBO"
"740","PIK3R3","QGBObyPGBO"
"741","STAP2","QGBObyPGBO"
"742","AF250324.1","QGBObyPGBO"
"743","RUNDC3A","QGBObyPGBO"
"744","TBX3","QGBObyPGBO"
"745","RNF112","QGBObyPGBO"
"746","TPPP3","QGBObyPGBO"
"747","AC108025.2","QGBObyPGBO"
"748","AC011008.2","QGBObyPGBO"
"749","NSDHL","QGBObyPGBO"
"750","AL031008.1","QGBObyPGBO"
"751","AC004817.4","QGBObyPGBO"
"752","C1orf61","QGBObyPGBO"
"753","LENG9","QGBObyPGBO"
"754","LSMEM2","QGBObyPGBO"
"755","YWHAEP5","QGBObyPGBO"
"756","RAB33A","QGBObyPGBO"
"757","CYP4F26P","QGBObyPGBO"
"758","PIM2","QGBObyPGBO"
"759","CAMSAP3","QGBObyPGBO"
"760","AC099521.1","QGBObyPGBO"
"761","AC137630.3","QGBObyPGBO"
"762","RPL5P18","QGBObyPGBO"
"763","RPL3P7","QGBObyPGBO"
"764","RN7SL785P","QGBObyPGBO"
"765","C18orf32","QGBObyPGBO"
"766","AC108693.2","QGBObyPGBO"
"767","LINC02525","QGBObyPGBO"
"768","RPL37AP1","QGBObyPGBO"
"769","AC093535.2","QGBObyPGBO"
"770","RNF165","QGBObyPGBO"
"771","FAM110A","QGBObyPGBO"
"772","AC104521.1","QGBObyPGBO"
"773","RNU6-510P","QGBObyPGBO"
"774","AL008721.1","QGBObyPGBO"
"775","PARD6A","QGBObyPGBO"
"776","AC092337.1","QGBObyPGBO"
"777","ARRDC4","QGBObyPGBO"
"778","RPL35P1","QGBObyPGBO"
"779","MED14OS","QGBObyPGBO"
"780","AC023157.1","QGBObyPGBO"
"781","CDK18","QGBObyPGBO"
"782","NFE2L3P1","QGBObyPGBO"
"783","LEMD1","QGBObyPGBO"
"784","TSPYL2","QGBObyPGBO"
"785","NUDT10","QGBObyPGBO"
"786","AC116614.1","QGBObyPGBO"
"787","AC019131.2","QGBObyPGBO"
"788","AC078909.2","QGBObyPGBO"
"789","LINGO1","QGBObyPGBO"
"790","AL049873.1","QGBObyPGBO"
"791","FAM96AP2","QGBObyPGBO"
"792","GGN","QGBObyPGBO"
"793","AIFM1","QGBObyPGBO"
"794","HSD17B7P2","QGBObyPGBO"
"795","COQ3","QGBObyPGBO"
"796","RPL23AP2","QGBObyPGBO"
"797","OR6K1P","QGBObyPGBO"
"798","RTN4R","QGBObyPGBO"
"799","EBPL","QGBObyPGBO"
"800","TSPAN17","QGBObyPGBO"
"801","AC060766.1","QGBObyPGBO"
"802","NDUFA2","QGBObyPGBO"
"803","MNX1-AS1","QGBObyPGBO"
"804","TUBA1A","QGBObyPGBO"
"805","RBMXP2","QGBObyPGBO"
"806","DYNC1I1","QGBObyPGBO"
"807","DYNC1I2P1","QGBObyPGBO"
"808","GACAT3","QGBObyPGBO"
"809","AP001505.1","QGBObyPGBO"
"810","RTCA-AS1","QGBObyPGBO"
"811","ADAMTS4","QGBObyPGBO"
"812","CIART","QGBObyPGBO"
"813","NR0B1","QGBObyPGBO"
"814","RPS19P1","QGBObyPGBO"
"815","AL390195.2","QGBObyPGBO"
"816","FAM27D1","QGBObyPGBO"
"817","AKAP8P1","QGBObyPGBO"
"818","LGMNP1","QGBObyPGBO"
"819","RPL23AP43","QGBObyPGBO"
"820","LINC02576","QGBObyPGBO"
"821","EFNB1","QGBObyPGBO"
"822","TSPAN33","QGBObyPGBO"
"823","AC004990.1","QGBObyPGBO"
"824","AC131935.2","QGBObyPGBO"
"825","FUNDC2P1","QGBObyPGBO"
"826","Z69733.1","QGBObyPGBO"
"827","AC105020.2","QGBObyPGBO"
"828","SWSAP1","QGBObyPGBO"
"829","LINC00483","QGBObyPGBO"
"830","AC006967.3","QGBObyPGBO"
"831","AP003392.5","QGBObyPGBO"
"832","AC037459.2","QGBObyPGBO"
"833","SLC2A4","QGBObyPGBO"
"834","REC8","QGBObyPGBO"
"835","AL049637.2","QGBObyPGBO"
"836","PORCN","QGBObyPGBO"
"837","NUDT11","QGBObyPGBO"
"838","TMEM221","QGBObyPGBO"
"839","TMEM173","QGBObyPGBO"
"840","MYCNOS","QGBObyPGBO"
"841","AC108479.1","QGBObyPGBO"
"842","MAP2","QGBObyPGBO"
"843","AC118282.4","QGBObyPGBO"
"844","AL133338.1","QGBObyPGBO"
"845","AQP3","QGBObyPGBO"
"846","TUBB4A","QGBObyPGBO"
"847","RTL8C","QGBObyPGBO"
"848","RNU6-307P","QGBObyPGBO"
"849","AC007923.2","QGBObyPGBO"
"850","MIR124-2HG","QGBObyPGBO"
"851","AC117500.3","QGBObyPGBO"
"852","CYFIP2","QGBObyPGBO"
"853","C15orf39","QGBObyPGBO"
"854","SOX8","QGBObyPGBO"
"855","AC025262.2","QGBObyPGBO"
"856","AMER1","QGBObyPGBO"
"857","TMEM47","QGBObyPGBO"
"858","AC011773.4","QGBObyPGBO"
"859","PITX1","QGBObyPGBO"
"860","AC067838.1","QGBObyPGBO"
"861","AC092053.1","QGBObyPGBO"
"862","MARCKSL1P2","QGBObyPGBO"
"863","CA14","QGBObyPGBO"
"864","GPC2","QGBObyPGBO"
"865","GLRXP3","QGBObyPGBO"
"866","RN7SL711P","QGBObyPGBO"
"867","AC092999.1","QGBObyPGBO"
"868","RN7SL104P","QGBObyPGBO"
"869","MAP1A","QGBObyPGBO"
"870","AL158801.5","QGBObyPGBO"
"871","AC010980.2","QGBObyPGBO"
"872","CISH","QGBObyPGBO"
"873","BTG2","QGBObyPGBO"
"874","FUNDC2","QGBObyPGBO"
"875","SLC2A6","QGBObyPGBO"
"876","TBX1","QGBObyPGBO"
"877","AC126175.1","QGBObyPGBO"
"878","CUL4B","QGBObyPGBO"
"879","AL391834.2","QGBObyPGBO"
"880","RNF122","QGBObyPGBO"
"881","AC092017.1","QGBObyPGBO"
"882","AC112484.3","QGBObyPGBO"
"883","FCRLA","QGBObyPGBO"
"884","GPR85","QGBObyPGBO"
"885","CCNE1","QGBObyPGBO"
"886","AL354714.2","QGBObyPGBO"
"887","PLEKHB1","QGBObyPGBO"
"888","USP12PX","QGBObyPGBO"
"889","HIST3H2A","QGBObyPGBO"
"890","IGLV1-50","QGBObyPGBO"
"891","SYPL1P2","QGBObyPGBO"
"892","AC007969.1","QGBObyPGBO"
"893","PLP1","QGBObyPGBO"
"894","NDUFB11","QGBObyPGBO"
"895","CCDC167","QGBObyPGBO"
"896","PRR36","QGBObyPGBO"
"897","CAMKV","QGBObyPGBO"
"898","ST20-AS1","QGBObyPGBO"
"899","UXT","QGBObyPGBO"
"900","WSCD1","QGBObyPGBO"
"901","AC099850.2","QGBObyPGBO"
"902","NKAP","QGBObyPGBO"
"903","GAPDHP65","QGBObyPGBO"
"904","ALDH1B1","QGBObyPGBO"
"905","PPA1","QGBObyPGBO"
"906","C2CD2L","QGBObyPGBO"
"907","THG1L","QGBObyPGBO"
"908","GAPDHP1","QGBObyPGBO"
"909","AC009088.1","QGBObyPGBO"
"910","AP003499.2","QGBObyPGBO"
"911","APELA","QGBObyPGBO"
"912","COX6C","QGBObyPGBO"
"913","AL590762.3","QGBObyPGBO"
"914","NDUFB6","QGBObyPGBO"
"915","RCOR2","QGBObyPGBO"
"916","LINC01136","QGBObyPGBO"
"917","AC015818.2","QGBObyPGBO"
"918","AC107294.1","QGBObyPGBO"
"919","FERMT1","QGBObyPGBO"
"920","ARVCF","QGBObyPGBO"
"921","PNPO","QGBObyPGBO"
"922","AC127537.1","QGBObyPGBO"
"923","POLR3K","QGBObyPGBO"
"924","AP000944.1","QGBObyPGBO"
"925","LINC01058","QGBObyPGBO"
"926","AL133325.2","QGBObyPGBO"
"927","AC026403.1","QGBObyPGBO"
"928","NLE1","QGBObyPGBO"
"929","AL008635.1","QGBObyPGBO"
"930","HNRNPA1P4","QGBObyPGBO"
"931","RPL10","QGBObyPGBO"
"932","PQBP1","QGBObyPGBO"
"933","COX5A","QGBObyPGBO"
"934","RPL7P8","QGBObyPGBO"
"935","HINT1","QGBObyPGBO"
"936","AL592424.1","QGBObyPGBO"
"937","SEMA7A","QGBObyPGBO"
"938","AC127496.5","QGBObyPGBO"
"939","HMGB3","QGBObyPGBO"
"940","DYRK1B","QGBObyPGBO"
"941","AC117500.5","QGBObyPGBO"
"942","IMPDH1P5","QGBObyPGBO"
"943","LRRC37A7P","QGBObyPGBO"
"944","PRDX4","QGBObyPGBO"
"945","AP005432.2","QGBObyPGBO"
"946","EBP","QGBObyPGBO"
"947","CCND2","QGBObyPGBO"
"948","SBK1","QGBObyPGBO"
"949","HMOX2","QGBObyPGBO"
"950","AC087392.5","QGBObyPGBO"
"951","MYCN","QGBObyPGBO"
"952","HLA-T","QGBObyPGBO"
"953","CITED1","QGBObyPGBO"
"954","UBE2MP1","QGBObyPGBO"
"955","NDUFA1","QGBObyPGBO"
"956","SDF2L1","QGBObyPGBO"
"957","NPM1","QGBObyPGBO"
"958","AC083873.1","QGBObyPGBO"
"959","IGFBP6","QGBObyPGBO"
"960","AL591163.1","QGBObyPGBO"
"961","LDOC1","QGBObyPGBO"
"962","RAB40B","QGBObyPGBO"
"963","SAPCD2","QGBObyPGBO"
"964","AC024940.6","QGBObyPGBO"
"965","AC095057.3","QGBObyPGBO"
"966","AL139274.2","QGBObyPGBO"
"967","MAGEE1","QGBObyPGBO"
"968","YWHAZP4","QGBObyPGBO"
"969","MID1IP1","QGBObyPGBO"
"970","Z98043.1","QGBObyPGBO"
"971","AC123595.1","QGBObyPGBO"
"972","LINC01560","QGBObyPGBO"
"973","CDKN2AIPNL","QGBObyPGBO"
"974","SLC10A4","QGBObyPGBO"
"975","RPS14","QGBObyPGBO"
"976","PRKXP1","QGBObyPGBO"
"977","ZNF426-DT","QGBObyPGBO"
"978","LPAR4","QGBObyPGBO"
"979","HNRNPA3P5","QGBObyPGBO"
"980","AC080112.1","QGBObyPGBO"
"981","GJB1","QGBObyPGBO"
"982","AC109583.2","QGBObyPGBO"
"983","RPL10P9","QGBObyPGBO"
"984","SNRPF","QGBObyPGBO"
"985","LOXL1","QGBObyPGBO"
"986","EMC9","QGBObyPGBO"
"987","AL359752.1","QGBObyPGBO"
"988","ATP1B2","QGBObyPGBO"
"989","RPS9","QGBObyPGBO"
"990","AL136126.1","QGBObyPGBO"
"991","AC079250.1","QGBObyPGBO"
"992","PBDC1","QGBObyPGBO"
"993","MAGED2","QGBObyPGBO"
"994","LINC01896","QGBObyPGBO"
"995","SSR4","QGBObyPGBO"
"996","RPS24P8","QGBObyPGBO"
"997","FP671120.1","QGBObyPGBO"
"998","PCBD1","QGBObyPGBO"
"999","PPIAP72","QGBObyPGBO"
"1000","FDFT1","QGBObyPGBO"
"1001","AL589743.6","QGBObyPGBO"
"1002","SRPK3","QGBObyPGBO"
"1003","AC004890.1","QGBObyPGBO"
"1004","EEF1A1P13","QGBObyPGBO"
"1005","RPL39","QGBObyPGBO"
"1006","AL353572.2","QGBObyPGBO"
"1007","LRRC75A-AS1","QGBObyPGBO"
"1008","AL021068.1","QGBObyPGBO"
"1009","RPL17P36","QGBObyPGBO"
"1010","RPLP0","QGBObyPGBO"
"1011","RAP2B","QGBObyPGBO"
"1012","RPL13AP5","QGBObyPGBO"
"1013","ALKBH7","QGBObyPGBO"
"1014","TM7SF2","QGBObyPGBO"
"1015","POLR1E","QGBObyPGBO"
"1016","AC093673.2","QGBObyPGBO"
"1017","HSD17B10","QGBObyPGBO"
"1018","CISD3","QGBObyPGBO"
"1019","SPATA24","QGBObyPGBO"
"1020","UQCRFS1","QGBObyPGBO"
"1021","TMEM97","QGBObyPGBO"
"1022","AC002524.1","QGBObyPGBO"
"1023","RPL22L1","QGBObyPGBO"
"1024","GSR","QGBObyPGBO"
"1025","CCNG1","QGBObyPGBO"
"1026","PTMS","QGBObyPGBO"
"1027","RTL8B","QGBObyPGBO"
"1028","PLK1","QGBObyPGBO"
"1029","C12orf57","QGBObyPGBO"
"1030","AP003119.3","QGBObyPGBO"
"1031","C1QBP","QGBObyPGBO"
"1032","AP001816.1","QGBObyPGBO"
"1033","UQCRB","QGBObyPGBO"
"1034","SLC25A5","QGBObyPGBO"
"1035","TIMM22","QGBObyPGBO"
"1036","NIPSNAP1","QGBObyPGBO"
"1037","ELK1","QGBObyPGBO"
"1038","EPOP","QGBObyPGBO"
"1039","MLLT10P1","QGBObyPGBO"
"1040","RNU6-8","QGBObyPGBO"
"1041","RPL10P16","QGBObyPGBO"
"1042","RNU4-39P","QGBObyPGBO"
"1043","MDH2","QGBObyPGBO"
"1044","AC026410.3","QGBObyPGBO"
"1045","IDH3G","QGBObyPGBO"
"1046","RPS2","QGBObyPGBO"
"1047","SREBF1","QGBObyPGBO"
"1048","AC004383.1","QGBObyPGBO"
"1049","AC087623.3","QGBObyPGBO"
"1050","MIR382","QGBObyPGBO"
"1051","RPL13AP20","QGBObyPGBO"
"1052","SNRPA","QGBObyPGBO"
"1053","SNRNP25","QGBObyPGBO"
"1054","DDIT4","QGBObyPGBO"
"1055","RPL35P5","QGBObyPGBO"
"1056","AC103798.2","QGBObyPGBO"
"1057","EIF2B4","QGBObyPGBO"
"1058","CCDC188","QGBObyPGBO"
"1059","MREGP1","QGBObyPGBO"
"1060","LDB1","QGBObyPGBO"
"1061","ARL4D","QGBObyPGBO"
"1062","RPS3A","QGBObyPGBO"
"1063","RACK1","QGBObyPGBO"
"1064","SNRPD2","QGBObyPGBO"
"1065","HBQ1","QGBObyPGBO"
"1066","AC073261.1","QGBObyPGBO"
"1067","SNHG8","QGBObyPGBO"
"1068","RPS21","QGBObyPGBO"
"1069","AC011495.1","QGBObyPGBO"
"1070","RNU6-945P","QGBObyPGBO"
"1071","ASS1","QGBObyPGBO"
"1072","SF3B5","QGBObyPGBO"
"1073","AC104058.1","QGBObyPGBO"
"1074","FLOT2","QGBObyPGBO"
"1075","TCOF1","QGBObyPGBO"
"1076","AC009779.1","QGBObyPGBO"
"1077","RPL35","QGBObyPGBO"
"1078","ISCA1P1","QGBObyPGBO"
"1079","GSTP1","QGBObyPGBO"
"1080","RNPS1P1","QGBObyPGBO"
"1081","MARCKSL1","QGBObyPGBO"
"1082","AF129075.2","QGBObyPGBO"
"1083","AC006058.3","QGBObyPGBO"
"1084","RPP25L","QGBObyPGBO"
"1085","NDUFB10","QGBObyPGBO"
"1086","AC012640.2","QGBObyPGBO"
"1087","HOXD12","QGBObyPGBO"
"1088","TIMM13","QGBObyPGBO"
"1089","PRADC1","QGBObyPGBO"
"1090","AL035411.1","QGBObyPGBO"
"1091","RPS2P7","QGBObyPGBO"
"1092","MRPL35P2","QGBObyPGBO"
"1093","CES2","QGBObyPGBO"
"1094","CKB","QGBObyPGBO"
"1095","RPL23A","QGBObyPGBO"
"1096","QPCTL","QGBObyPGBO"
"1097","C19orf24","QGBObyPGBO"
"1098","UQCR10","QGBObyPGBO"
"1099","MIR503HG","QGBObyPGBO"
"1100","MED11","QGBObyPGBO"
"1101","FGFR4","QGBObyPGBO"
"1102","RPL14P1","QGBObyPGBO"
"1103","MRPL21","QGBObyPGBO"
"1104","MRPL27","QGBObyPGBO"
"1105","PSMB6","QGBObyPGBO"
"1106","RPL24P4","QGBObyPGBO"
"1107","ESRRA","QGBObyPGBO"
"1108","DBN1","QGBObyPGBO"
"1109","TMEM160","QGBObyPGBO"
"1110","RPL8","QGBObyPGBO"
"1111","PHF23","QGBObyPGBO"
"1112","TMSB15A","QGBObyPGBO"
"1113","HRAS","QGBObyPGBO"
"1114","USF1","QGBObyPGBO"
"1115","EMD","QGBObyPGBO"
"1116","ST13P6","QGBObyPGBO"
"1117","CYC1","QGBObyPGBO"
"1118","AC100812.1","QGBObyPGBO"
"1119","TTLL12","QGBObyPGBO"
"1120","CDK5","QGBObyPGBO"
"1121","CTXN1","QGBObyPGBO"
"1122","S100A4","QGBObyPGBO"
"1123","ARRB2","QGBObyPGBO"
"1124","AL627230.1","QGBObyPGBO"
"1125","ATP5MD","QGBObyPGBO"
"1126","MIR30B","QGBObyPGBO"
"1127","APRT","QGBObyPGBO"
"1128","AC005696.3","QGBObyPGBO"
"1129","NDUFAF8","QGBObyPGBO"
"1130","AL353807.2","QGBObyPGBO"
"1131","MRPS34","QGBObyPGBO"
"1132","HNRNPUP1","QGBObyPGBO"
"1133","RAC1P2","QGBObyPGBO"
"1134","MRPL41","QGBObyPGBO"
"1135","SSNA1","QGBObyPGBO"
"1136","PTGES2","QGBObyPGBO"
"1137","ATP5F1D","QGBObyPGBO"
"1138","MFSD3","QGBObyPGBO"
"1139","C4orf48","QGBObyPGBO"
"1140","C5orf38","QGBObyPGBO"
"1141","PPIAP22","QGBObyPGBO"
"1142","SCAND1","QGBObyPGBO"
"1143","VN1R42P","QGBObyPGBO"
"1144","SAMD1","QGBObyPGBO"
"1145","UFSP1","QGBObyPGBO"
"1146","RRS1","QGBObyPGBO"
"1147","NCBP2-AS2","QGBObyPGBO"
"1148","GPX1","QGBObyPGBO"
"1149","UBE2M","QGBObyPGBO"
"1150","TSR3","QGBObyPGBO"
"4405","AL049871.1","QGBObyPGBO"
"4459","SNAPC2","QGBObyPGBO"
"4465","YDJC","QGBObyPGBO"
"6933","AC022743.1","QGBObyPGBO"
"6979","AC233263.6","QGBObyPGBO"
"7079","SCDP1","QGBObyPGBO"
"7084","AC092954.2","QGBObyPGBO"
"7093","AP000542.3","QGBObyPGBO"
"7095","AL713866.1","QGBObyPGBO"
"7102","AC005899.6","QGBObyPGBO"
"7111","AC244452.3","QGBObyPGBO"
"7112","OR52I1","QGBObyPGBO"
"7115","PCMTD1P1","QGBObyPGBO"
"7120","OR7E94P","QGBObyPGBO"
"7129","AL589994.1","QGBObyPGBO"
"7131","AL359885.1","QGBObyPGBO"
"7138","PFN1P1","QGBObyPGBO"
"7140","RPS29P23","QGBObyPGBO"
"7155","AC087894.1","QGBObyPGBO"
"7164","AL136116.3","QGBObyPGBO"
"7167","AC007998.4","QGBObyPGBO"
"7174","OR1A1","QGBObyPGBO"
"7179","RHOQP2","QGBObyPGBO"
"7185","RPS6P20","QGBObyPGBO"
"7186","NPM1P42","QGBObyPGBO"
"7193","FTH1P10","QGBObyPGBO"
"7196","C1GALT1P1","QGBObyPGBO"
"7203","MIR4502","QGBObyPGBO"
"7210","MSGN1","QGBObyPGBO"
"7215","MRPL42P2","QGBObyPGBO"
"7220","AC015912.2","QGBObyPGBO"
"7223","MTND2P12","QGBObyPGBO"
"7232","AC245060.6","QGBObyPGBO"
"7234","AP000720.2","QGBObyPGBO"
"7243","APLN","QGBObyPGBO"
"7245","HNRNPKP4","QGBObyPGBO"
"7256","HNRNPA1P56","QGBObyPGBO"
"7258","TUBBP6","QGBObyPGBO"
"7259","AL121950.1","QGBObyPGBO"
"7262","AC092354.1","QGBObyPGBO"
"7264","AC104117.5","QGBObyPGBO"
"7269","VN1R80P","QGBObyPGBO"
"7273","MYBPC2","QGBObyPGBO"
"7275","RN7SL790P","QGBObyPGBO"
"7279","OR14J1","QGBObyPGBO"
"7281","RN7SKP106","QGBObyPGBO"
"7283","RPL21P67","QGBObyPGBO"
"7286","AC005479.1","QGBObyPGBO"
"7291","AL132709.1","QGBObyPGBO"
"7293","AL136038.5","QGBObyPGBO"
"7295","AC061975.5","QGBObyPGBO"
"7297","Z98751.1","QGBObyPGBO"
"7305","RN7SL543P","QGBObyPGBO"
"7313","AC078880.4","QGBObyPGBO"
"7317","RPS12P23","QGBObyPGBO"
"7321","ERVK-28","QGBObyPGBO"
"7332","LINC01761","QGBObyPGBO"
"7338","AC234917.1","QGBObyPGBO"
"7339","AL683813.2","QGBObyPGBO"
"7340","FAM149B1P1","QGBObyPGBO"
"7341","AL591122.1","QGBObyPGBO"
"7343","VDAC1P2","QGBObyPGBO"
"7348","AC079921.2","QGBObyPGBO"
"7350","AC007386.1","QGBObyPGBO"
"7351","AC137723.1","QGBObyPGBO"
"7352","OR56A4","QGBObyPGBO"
"7355","PABPC1P4","QGBObyPGBO"
"7357","LINC01063","QGBObyPGBO"
"7362","RPSAP5","QGBObyPGBO"
"7363","AP002906.1","QGBObyPGBO"
"7364","RPL30P4","QGBObyPGBO"
"7367","AC138907.10","QGBObyPGBO"
"7368","AC079341.2","QGBObyPGBO"
"7369","RPL36AP45","QGBObyPGBO"
"7371","PRADC1P1","QGBObyPGBO"
"7372","RPL9P18","QGBObyPGBO"
"7373","COLCA1","QGBObyPGBO"
"7378","AC135178.6","QGBObyPGBO"
"7381","RPL21P43","QGBObyPGBO"
"7385","AC091133.2","QGBObyPGBO"
"7386","RPL12P13","QGBObyPGBO"
"7387","Z98755.1","QGBObyPGBO"
"7389","HIST1H4G","QGBObyPGBO"
"7390","KRT8P29","QGBObyPGBO"
"7392","AC073342.2","QGBObyPGBO"
"7393","HNRNPDP1","QGBObyPGBO"
"7394","TEX46","QGBObyPGBO"
"7395","AL049597.2","QGBObyPGBO"
"7396","AL135786.1","QGBObyPGBO"
"7404","STRA6","QGBObyPGBO"
"7410","RAC1P4","QGBObyPGBO"
"7412","RNU6-1172P","QGBObyPGBO"
"7419","C12orf45","QGBObyPGBO"
"7421","CPSF1P1","QGBObyPGBO"
"7425","AL138781.2","QGBObyPGBO"
"7431","EIF4A1P6","QGBObyPGBO"
"7436","AC090506.2","QGBObyPGBO"
"7437","RPL7P6","QGBObyPGBO"
"7439","AL590139.1","QGBObyPGBO"
"7444","SLC16A11","QGBObyPGBO"
"7447","Z92846.1","QGBObyPGBO"
"7449","AC136944.2","QGBObyPGBO"
"7453","EIF1P3","QGBObyPGBO"
"7454","AC125604.1","QGBObyPGBO"
"7459","AC110597.1","QGBObyPGBO"
"7464","ADH5P4","QGBObyPGBO"
"7467","MEIS3P1","QGBObyPGBO"
"7469","AC097533.1","QGBObyPGBO"
"7470","ZNF835","QGBObyPGBO"
"7472","LINC02458","QGBObyPGBO"
"7476","OR7A17","QGBObyPGBO"
"7482","AC022167.5","QGBObyPGBO"
"7483","NPM1P47","QGBObyPGBO"
"7484","RPL11P5","QGBObyPGBO"
"7485","TSEN15P1","QGBObyPGBO"
"7487","AC092013.1","QGBObyPGBO"
"7490","AC087473.1","QGBObyPGBO"
"7492","AC121333.1","QGBObyPGBO"
"7493","ZNF560","QGBObyPGBO"
"7495","ZC3H11B","QGBObyPGBO"
"7497","Z99916.3","QGBObyPGBO"
"7500","ATRX","QGBObyPGBO"
"7501","PANO1","QGBObyPGBO"
"7506","KLHL13","QGBObyPGBO"
"7508","AC011592.1","QGBObyPGBO"
"7511","TMPRSS5","QGBObyPGBO"
"7514","ADA","QGBObyPGBO"
"7516","LBX1","QGBObyPGBO"
"7518","THA1P","QGBObyPGBO"
"7519","RPS3AP36","QGBObyPGBO"
"7520","RAB7B","QGBObyPGBO"
"7523","SULT1B1","QGBObyPGBO"
"7527","RPS18P13","QGBObyPGBO"
"7533","PNMA8C","QGBObyPGBO"
"7537","AC084033.1","QGBObyPGBO"
"7540","GPHB5","QGBObyPGBO"
"7541","AL008718.2","QGBObyPGBO"
"7543","HSPA1B","QGBObyPGBO"
"7544","AC007568.1","QGBObyPGBO"
"7546","SH3BGR","QGBObyPGBO"
"7547","ERICH2","QGBObyPGBO"
"7548","LINC00652","QGBObyPGBO"
"7550","AC137768.1","QGBObyPGBO"
"7552","AC073314.1","QGBObyPGBO"
"7557","PYROXD2","QGBObyPGBO"
"7561","FAM111A-DT","QGBObyPGBO"
"7562","RHBDL3","QGBObyPGBO"
"7563","RN7SL339P","QGBObyPGBO"
"7567","CDK8P2","QGBObyPGBO"
"7568","AC209154.2","QGBObyPGBO"
"7569","AC010980.1","QGBObyPGBO"
"7571","AC022762.2","QGBObyPGBO"
"7572","SLC7A4","QGBObyPGBO"
"7574","CASP6","QGBObyPGBO"
"7576","AC011458.1","QGBObyPGBO"
"7577","AL645937.2","QGBObyPGBO"
"7578","HSD17B7","QGBObyPGBO"
"7580","LAMP5","QGBObyPGBO"
"7583","ZNF602P","QGBObyPGBO"
"7584","OR2AE1","QGBObyPGBO"
"7586","AL121656.1","QGBObyPGBO"
"7587","AC010329.1","QGBObyPGBO"
"7588","MTDHP1","QGBObyPGBO"
"7589","AMD1P4","QGBObyPGBO"
"7591","AC239799.2","QGBObyPGBO"
"7592","RPS3AP25","QGBObyPGBO"
"7593","AL691403.2","QGBObyPGBO"
"7595","AC069503.1","QGBObyPGBO"
"7596","LINC00622","QGBObyPGBO"
"7598","ZNF491","QGBObyPGBO"
"7600","KRT18P52","QGBObyPGBO"
"7601","TSPAN15","QGBObyPGBO"
"7604","LINC01315","QGBObyPGBO"
"7607","KCNIP3","QGBObyPGBO"
"7610","LINC01268","QGBObyPGBO"
"7614","AC024587.1","QGBObyPGBO"
"7615","AC079054.1","QGBObyPGBO"
"7616","NKG7","QGBObyPGBO"
"7620","AC244255.1","QGBObyPGBO"
"7626","OLMALINC","QGBObyPGBO"
"7629","KLHL25","QGBObyPGBO"
"7632","FOXA1","QGBObyPGBO"
"7633","AL805961.2","QGBObyPGBO"
"7635","RARA","QGBObyPGBO"
"7636","OR7E117P","QGBObyPGBO"
"7637","AC013448.1","QGBObyPGBO"
"7638","TAF9B","QGBObyPGBO"
"7646","AC122713.2","QGBObyPGBO"
"7649","AC002056.1","QGBObyPGBO"
"7650","AL008638.5","QGBObyPGBO"
"7654","RNA5SP199","QGBObyPGBO"
"7655","RNU1-138P","QGBObyPGBO"
"7656","AC090103.1","QGBObyPGBO"
"7657","PDLIM1","QGBObyPGBO"
"7658","EEF1E1P1","QGBObyPGBO"
"7659","AC020604.1","QGBObyPGBO"
"7660","TRBVB","QGBObyPGBO"
"7663","TRIM36","QGBObyPGBO"
"7664","AC026884.1","QGBObyPGBO"
"7665","MCOLN2","QGBObyPGBO"
"7666","GNB1L","QGBObyPGBO"
"7668","ALPK2","QGBObyPGBO"
"7669","LINC00942","QGBObyPGBO"
"7670","PIK3IP1","QGBObyPGBO"
"7671","MTATP6P20","QGBObyPGBO"
"7672","AL137783.1","QGBObyPGBO"
"7675","AC130710.1","QGBObyPGBO"
"7676","AL360181.4","QGBObyPGBO"
"7679","AC006466.1","QGBObyPGBO"
"7680","ATP5MC1P3","QGBObyPGBO"
"7681","AC069209.1","QGBObyPGBO"
"7682","AC020917.3","QGBObyPGBO"
"7687","PLXDC2","QGBObyPGBO"
"7689","STK32A","QGBObyPGBO"
"7690","AC027801.5","QGBObyPGBO"
"7692","HNRNPA1P48","QGBObyPGBO"
"7695","AC138965.3","QGBObyPGBO"
"7696","AL139424.2","QGBObyPGBO"
"7697","AC083906.5","QGBObyPGBO"
"7698","AL121583.1","QGBObyPGBO"
"7699","AL139254.3","QGBObyPGBO"
"7705","RPS2P48","QGBObyPGBO"
"7706","AC006449.2","QGBObyPGBO"
"7708","DOC2GP","QGBObyPGBO"
"7709","STAT5A","QGBObyPGBO"
"7710","AC097359.2","QGBObyPGBO"
"7712","WNK2","QGBObyPGBO"
"7713","FGF22","QGBObyPGBO"
"7714","MIR4482","QGBObyPGBO"
"7716","RN7SL342P","QGBObyPGBO"
"7718","AC119751.5","QGBObyPGBO"
"7722","AC083899.2","QGBObyPGBO"
"7724","OR2L2","QGBObyPGBO"
"7725","STC2","QGBObyPGBO"
"7726","RSG1","QGBObyPGBO"
"7727","AC010168.2","QGBObyPGBO"
"7729","CTHRC1P1","QGBObyPGBO"
"7733","AC015819.1","QGBObyPGBO"
"7734","AC110285.5","QGBObyPGBO"
"7735","LINC00404","QGBObyPGBO"
"7737","AP001267.2","QGBObyPGBO"
"7739","AP000894.4","QGBObyPGBO"
"7740","STK24-AS1","QGBObyPGBO"
"7741","BNIP3P1","QGBObyPGBO"
"7742","TSPOAP1","QGBObyPGBO"
"7744","ATP1A2","QGBObyPGBO"
"7745","DPT","QGBObyPGBO"
"7747","AL139246.3","QGBObyPGBO"
"7748","AC105760.1","QGBObyPGBO"
"7751","HK2","QGBObyPGBO"
"7752","EIF4A2P3","QGBObyPGBO"
"7753","OLA1","QGBObyPGBO"
"7755","FGD1","QGBObyPGBO"
"7756","AP3S1","QGBObyPGBO"
"7758","AC068279.1","QGBObyPGBO"
"7759","PEMT","QGBObyPGBO"
"7761","SLC8A3","QGBObyPGBO"
"7762","SP9","QGBObyPGBO"
"7764","BCAS4","QGBObyPGBO"
"7765","TMEM53","QGBObyPGBO"
"7766","DAPK1","QGBObyPGBO"
"7767","AC010327.5","QGBObyPGBO"
"7768","RDH16","QGBObyPGBO"
"7770","PIR","QGBObyPGBO"
"7771","CR382287.2","QGBObyPGBO"
"7773","AC009108.5","QGBObyPGBO"
"7775","TMPRSS9","QGBObyPGBO"
"7776","HRASLS","QGBObyPGBO"
"7778","RPL7P48","QGBObyPGBO"
"7779","AC108860.2","QGBObyPGBO"
"7780","AC114947.2","QGBObyPGBO"
"7781","C12orf71","QGBObyPGBO"
"7782","AC015910.1","QGBObyPGBO"
"7783","MCTS1","QGBObyPGBO"
"7784","ISM2","QGBObyPGBO"
"7786","EPB41","QGBObyPGBO"
"7787","TRAPPC5","QGBObyPGBO"
"7788","AC012603.1","QGBObyPGBO"
"7789","GAS2","QGBObyPGBO"
"7791","RPL12P6","QGBObyPGBO"
"7793","DTNBP1","QGBObyPGBO"
"7795","HMGA1P7","QGBObyPGBO"
"7797","AC097359.3","QGBObyPGBO"
"7799","ARID4A","QGBObyPGBO"
"7800","NHSL2","QGBObyPGBO"
"7802","AC044802.1","QGBObyPGBO"
"7803","LINC02078","QGBObyPGBO"
"7805","AC136604.3","QGBObyPGBO"
"7806","TIGD3","QGBObyPGBO"
"7807","IGBP1","QGBObyPGBO"
"7808","AL512378.1","QGBObyPGBO"
"7809","DNAJC28","QGBObyPGBO"
"7810","AC084757.3","QGBObyPGBO"
"7811","BNIP3","QGBObyPGBO"
"7812","HNRNPA1P27","QGBObyPGBO"
"7813","MAGEH1","QGBObyPGBO"
"7814","AC068538.1","QGBObyPGBO"
"7816","SPSB4","QGBObyPGBO"
"7818","AL589666.2","QGBObyPGBO"
"7820","AC021755.3","QGBObyPGBO"
"7821","MTURN","QGBObyPGBO"
"7822","OR4D9","QGBObyPGBO"
"7824","FAM162A","QGBObyPGBO"
"7825","CHST7","QGBObyPGBO"
"7826","CD79A","QGBObyPGBO"
"7827","DOC2B","QGBObyPGBO"
"7828","AC135012.1","QGBObyPGBO"
"7829","AC091152.4","QGBObyPGBO"
"7831","AC007638.1","QGBObyPGBO"
"7832","HELLPAR","QGBObyPGBO"
"7833","RPL26P19","QGBObyPGBO"
"7834","ABCB9","QGBObyPGBO"
"7835","WFDC2","QGBObyPGBO"
"7836","RNU6-487P","QGBObyPGBO"
"7837","AC006023.1","QGBObyPGBO"
"7840","AC010401.2","QGBObyPGBO"
"7842","BAZ1A","QGBObyPGBO"
"7843","SEMA4B","QGBObyPGBO"
"7844","AL603766.1","QGBObyPGBO"
"7845","SDC2","QGBObyPGBO"
"7849","ZNF428","QGBObyPGBO"
"7850","AC093627.7","QGBObyPGBO"
"7851","LINC00895","QGBObyPGBO"
"7852","LRRC20","QGBObyPGBO"
"7854","RGS10","QGBObyPGBO"
"7855","AC021016.2","QGBObyPGBO"
"7856","AC022893.1","QGBObyPGBO"
"7858","LINC00354","QGBObyPGBO"
"7859","AL109936.2","QGBObyPGBO"
"7860","ISOC1","QGBObyPGBO"
"7861","HNRNPA1P1","QGBObyPGBO"
"7862","NKAIN1","QGBObyPGBO"
"7863","AL121890.2","QGBObyPGBO"
"7864","AL590094.1","QGBObyPGBO"
"7865","AC020904.2","QGBObyPGBO"
"7866","GMPR","QGBObyPGBO"
"7867","KPNA5","QGBObyPGBO"
"7868","AC098583.1","QGBObyPGBO"
"7870","TMEM45A","QGBObyPGBO"
"7871","SMIM11P1","QGBObyPGBO"
"7872","NACAP1","QGBObyPGBO"
"7873","ZNF454","QGBObyPGBO"
"7875","CCDC88B","QGBObyPGBO"
"7876","AC004910.1","QGBObyPGBO"
"7879","SLC25A41","QGBObyPGBO"
"7880","KCNT2","QGBObyPGBO"
"7881","RN7SL811P","QGBObyPGBO"
"7882","ZNF556","QGBObyPGBO"
"7883","AC010207.1","QGBObyPGBO"
"7884","TDRKH-AS1","QGBObyPGBO"
"7885","SLC25A5P7","QGBObyPGBO"
"7886","AL024474.1","QGBObyPGBO"
"7888","MNX1","QGBObyPGBO"
"7889","AP002761.1","QGBObyPGBO"
"7890","AL024507.2","QGBObyPGBO"
"7891","AC074143.1","QGBObyPGBO"
"7892","AL121652.1","QGBObyPGBO"
"7893","AC083801.2","QGBObyPGBO"
"7894","AL359715.3","QGBObyPGBO"
"7895","RPP40","QGBObyPGBO"
"7896","EDRF1","QGBObyPGBO"
"7899","TMEM206","QGBObyPGBO"
"7900","MCUB","QGBObyPGBO"
"7901","TERF1P5","QGBObyPGBO"
"7904","MSRB1P1","QGBObyPGBO"
"7906","AC005578.1","QGBObyPGBO"
"7908","AL356379.1","QGBObyPGBO"
"7909","AP001476.1","QGBObyPGBO"
"7910","PGK1","QGBObyPGBO"
"7911","AL512274.1","QGBObyPGBO"
"7913","AC092692.1","QGBObyPGBO"
"7914","ENPP4","QGBObyPGBO"
"7915","PGF","QGBObyPGBO"
"7916","OTUD6A","QGBObyPGBO"
"7917","DPPA4","QGBObyPGBO"
"7918","AC021151.1","QGBObyPGBO"
"7919","KISS1R","QGBObyPGBO"
"7920","EIF2B3","QGBObyPGBO"
"7921","LDHBP1","QGBObyPGBO"
"7922","RN7SL825P","QGBObyPGBO"
"7923","PABPC3","QGBObyPGBO"
"7924","L29074.1","QGBObyPGBO"
"7925","GTF2A2","QGBObyPGBO"
"7926","ADAM23","QGBObyPGBO"
"7927","AC096720.2","QGBObyPGBO"
"7928","AC008066.1","QGBObyPGBO"
"7929","PHKA2-AS1","QGBObyPGBO"
"7930","TOP1","QGBObyPGBO"
"7931","YBX3P1","QGBObyPGBO"
"7932","AC245060.5","QGBObyPGBO"
"7933","AC073111.5","QGBObyPGBO"
"7934","AC097534.2","QGBObyPGBO"
"7935","BTN3A2","QGBObyPGBO"
"7937","SDCBPP2","QGBObyPGBO"
"7938","GDPD1","QGBObyPGBO"
"7939","C1QTNF4","QGBObyPGBO"
"7940","GAPDHP16","QGBObyPGBO"
"7941","GPR62","QGBObyPGBO"
"7942","SHF","QGBObyPGBO"
"7943","AC025175.1","QGBObyPGBO"
"7944","C4BPB","QGBObyPGBO"
"7946","AC011374.2","QGBObyPGBO"
"7948","GABRQ","QGBObyPGBO"
"7951","SCGB1B2P","QGBObyPGBO"
"7954","TNIP1","QGBObyPGBO"
"7956","RPL5P11","QGBObyPGBO"
"7957","GPLD1","QGBObyPGBO"
"7958","SLC16A14","QGBObyPGBO"
"7959","AC118658.1","QGBObyPGBO"
"7960","Z95114.4","QGBObyPGBO"
"7964","MARC1","QGBObyPGBO"
"7966","MIR645","QGBObyPGBO"
"7968","C6orf141","QGBObyPGBO"
"7969","FZD2","QGBObyPGBO"
"7970","CCNJL","QGBObyPGBO"
"7971","ACOT7","QGBObyPGBO"
"7972","SPATC1L","QGBObyPGBO"
"7973","NEURL1B","QGBObyPGBO"
"7974","GPR157","QGBObyPGBO"
"7975","TLX1","QGBObyPGBO"
"7976","RF00438","QGBObyPGBO"
"7977","OLA1P2","QGBObyPGBO"
"7979","AC005899.7","QGBObyPGBO"
"7981","FXYD6P2","QGBObyPGBO"
"7984","FOXO6","QGBObyPGBO"
"7985","AC004112.1","QGBObyPGBO"
"7986","ACTR3B","QGBObyPGBO"
"7987","SERPINB1","QGBObyPGBO"
"7988","DDX39BP2","QGBObyPGBO"
"7990","GKAP1","QGBObyPGBO"
"7992","LGR5","QGBObyPGBO"
"7993","GATA2","QGBObyPGBO"
"7996","AL590235.2","QGBObyPGBO"
"7998","AL121956.4","QGBObyPGBO"
"7999","NBDY","QGBObyPGBO"
"8000","LYRM7","QGBObyPGBO"
"8001","OPRD1","QGBObyPGBO"
"8002","ST6GAL2","QGBObyPGBO"
"8003","EIF3E","QGBObyPGBO"
"8004","DPYSL5","QGBObyPGBO"
"8005","SNX18P13","QGBObyPGBO"
"8006","CMKLR1","QGBObyPGBO"
"8007","AC025254.1","QGBObyPGBO"
"8008","SORD","QGBObyPGBO"
"8009","AL136038.3","QGBObyPGBO"
"8010","C2orf40","QGBObyPGBO"
"8011","GAP43","QGBObyPGBO"
"8012","EIF4A1P5","QGBObyPGBO"
"8014","AL355482.1","QGBObyPGBO"
"8015","COX7B","QGBObyPGBO"
"8016","TFCP2","QGBObyPGBO"
"8017","AL139424.3","QGBObyPGBO"
"8018","C1orf115","QGBObyPGBO"
"8019","RPL13P2","QGBObyPGBO"
"8020","AL160286.2","QGBObyPGBO"
"8021","FUNDC1","QGBObyPGBO"
"8022","ANKRD18B","QGBObyPGBO"
"8023","AC008267.5","QGBObyPGBO"
"8024","LINC02245","QGBObyPGBO"
"8028","C9orf116","QGBObyPGBO"
"8029","AL441992.1","QGBObyPGBO"
"8031","AVPI1","QGBObyPGBO"
"8032","AC005703.5","QGBObyPGBO"
"8033","RPL39P5","QGBObyPGBO"
"8034","TIGD6","QGBObyPGBO"
"8035","SH3BGRL","QGBObyPGBO"
"8036","SALL3","QGBObyPGBO"
"8039","AL139094.1","QGBObyPGBO"
"8040","AC009432.1","QGBObyPGBO"
"8042","MT1XP1","QGBObyPGBO"
"8043","AC119751.4","QGBObyPGBO"
"8044","GNL3L","QGBObyPGBO"
"8045","AC007785.3","QGBObyPGBO"
"8046","AL034548.1","QGBObyPGBO"
"8047","SKP1","QGBObyPGBO"
"8048","PTTG1","QGBObyPGBO"
"8049","KCNA7","QGBObyPGBO"
"8050","AL133245.1","QGBObyPGBO"
"8051","AC104071.1","QGBObyPGBO"
"8053","SPRY3","QGBObyPGBO"
"8054","KCTD11","QGBObyPGBO"
"8055","AC017104.3","QGBObyPGBO"
"8056","LOXL1-AS1","QGBObyPGBO"
"8057","PRKX","QGBObyPGBO"
"8058","AC012441.2","QGBObyPGBO"
"8059","KIF5C","QGBObyPGBO"
"8061","AC092809.3","QGBObyPGBO"
"8063","AC114928.1","QGBObyPGBO"
"8064","SLC7A2","QGBObyPGBO"
"8065","Z74021.1","QGBObyPGBO"
"8066","PRKAR2B","QGBObyPGBO"
"8067","TLE6","QGBObyPGBO"
"8069","RPL13AP7","QGBObyPGBO"
"8070","GAL","QGBObyPGBO"
"8073","SYDE2","QGBObyPGBO"
"8075","RF00017","QGBObyPGBO"
"8076","RSL24D1P4","QGBObyPGBO"
"8078","ATP5MC2","QGBObyPGBO"
"8079","SNX12","QGBObyPGBO"
"8080","AC023424.2","QGBObyPGBO"
"8081","AC090241.3","QGBObyPGBO"
"8082","RN7SL66P","QGBObyPGBO"
"8083","RAC2","QGBObyPGBO"
"8085","CAMKK1","QGBObyPGBO"
"8086","TMEM81","QGBObyPGBO"
"8087","TBC1D7","QGBObyPGBO"
"8088","CALHM2","QGBObyPGBO"
"8091","AKAP7","QGBObyPGBO"
"8092","DPH5","QGBObyPGBO"
"8096","HSBP1L1","QGBObyPGBO"
"8097","AC080011.1","QGBObyPGBO"
"8098","MRPL22","QGBObyPGBO"
"8099","CHRD","QGBObyPGBO"
"8101","C6orf118","QGBObyPGBO"
"8102","AL031283.1","QGBObyPGBO"
"8103","NFIA","QGBObyPGBO"
"8104","RPL12P30","QGBObyPGBO"
"8105","DANCR","QGBObyPGBO"
"8106","AL132642.2","QGBObyPGBO"
"8107","POLR3H","QGBObyPGBO"
"8108","RPL35AP4","QGBObyPGBO"
"8109","FMOD","QGBObyPGBO"
"8111","TDRKH","QGBObyPGBO"
"8112","BMP4","QGBObyPGBO"
"8114","KLHL35","QGBObyPGBO"
"8117","ALG1L9P","QGBObyPGBO"
"8118","AL591503.1","QGBObyPGBO"
"8119","AC027682.6","QGBObyPGBO"
"8121","TMEM161A","QGBObyPGBO"
"8122","SLC25A43","QGBObyPGBO"
"8123","AC145098.2","QGBObyPGBO"
"8124","NKAIN4","QGBObyPGBO"
"8125","RNU6-758P","QGBObyPGBO"
"8126","AL590235.1","QGBObyPGBO"
"8127","RPL5P34","QGBObyPGBO"
"8128","AL591499.1","QGBObyPGBO"
"8129","AC022075.1","QGBObyPGBO"
"8130","HCG9","QGBObyPGBO"
"8131","RPAIN","QGBObyPGBO"
"8132","AC104653.2","QGBObyPGBO"
"8133","ADD2","QGBObyPGBO"
"8134","KBTBD11","QGBObyPGBO"
"8135","ATP23","QGBObyPGBO"
"8136","AL109917.1","QGBObyPGBO"
"8137","ETS2","QGBObyPGBO"
"8138","ZNF503","QGBObyPGBO"
"8139","CTSS","QGBObyPGBO"
"8140","HNRNPKP2","QGBObyPGBO"
"8141","EHD3","QGBObyPGBO"
"8142","AC102953.1","QGBObyPGBO"
"8144","HMGB1P40","QGBObyPGBO"
"8145","MIR1179","QGBObyPGBO"
"8146","LINC02073","QGBObyPGBO"
"8147","AC006378.2","QGBObyPGBO"
"8148","AC010271.2","QGBObyPGBO"
"8149","GOLGA2P7","QGBObyPGBO"
"8153","AL442663.4","QGBObyPGBO"
"8154","AL591926.7","QGBObyPGBO"
"8156","AL138831.1","QGBObyPGBO"
"8158","OTP","QGBObyPGBO"
"8160","AC012414.6","QGBObyPGBO"
"8161","FAM117B","QGBObyPGBO"
"8162","SLC19A3","QGBObyPGBO"
"8163","AC016745.1","QGBObyPGBO"
"8165","SEPT6","QGBObyPGBO"
"8166","APOO","QGBObyPGBO"
"8168","ENPP1","QGBObyPGBO"
"8170","BMP7","QGBObyPGBO"
"8171","UPF3B","QGBObyPGBO"
"8172","ZC4H2","QGBObyPGBO"
"8173","ARHGEF39","QGBObyPGBO"
"8174","RPS3AP2","QGBObyPGBO"
"8175","AL022326.1","QGBObyPGBO"
"8176","UQCRQ","QGBObyPGBO"
"8177","DANT2","QGBObyPGBO"
"8178","PRPSAP2","QGBObyPGBO"
"8179","LINC01587","QGBObyPGBO"
"8180","KLHDC8A","QGBObyPGBO"
"8181","AC011453.1","QGBObyPGBO"
"8183","AC091799.1","QGBObyPGBO"
"8184","AL355490.1","QGBObyPGBO"
"8185","AL109615.3","QGBObyPGBO"
"8186","PDHA1","QGBObyPGBO"
"8187","RNF113A","QGBObyPGBO"
"8188","RPL19P16","QGBObyPGBO"
"8189","AP000265.1","QGBObyPGBO"
"8190","CCDC88C","QGBObyPGBO"
"8191","AC004477.3","QGBObyPGBO"
"8192","AL139130.1","QGBObyPGBO"
"8194","EEF1GP5","QGBObyPGBO"
"8195","FBN2","QGBObyPGBO"
"8196","AC106799.3","QGBObyPGBO"
"8197","B3GLCT","QGBObyPGBO"
"8198","AC113145.1","QGBObyPGBO"
"8199","ZC3H12A","QGBObyPGBO"
"8200","PIGR","QGBObyPGBO"
"8201","INSM1","QGBObyPGBO"
"8202","DTD1","QGBObyPGBO"
"8203","AC107027.1","QGBObyPGBO"
"8204","GSC","QGBObyPGBO"
"8205","ANP32BP1","QGBObyPGBO"
"8206","AC063948.1","QGBObyPGBO"
"8207","DYNLL1","QGBObyPGBO"
"8208","TRMT2B","QGBObyPGBO"
"8209","AC097523.1","QGBObyPGBO"
"8210","MAF","QGBObyPGBO"
"8211","RN7SL385P","QGBObyPGBO"
"8213","RBMX2","QGBObyPGBO"
"8215","OLA1P3","QGBObyPGBO"
"8216","PROC","QGBObyPGBO"
"8218","PAIP2B","QGBObyPGBO"
"8220","ERGIC1","QGBObyPGBO"
"8221","AC073539.1","QGBObyPGBO"
"8222","AC144450.1","QGBObyPGBO"
"8223","MGST1","QGBObyPGBO"
"8224","TFDP2","QGBObyPGBO"
"8226","AL357055.2","QGBObyPGBO"
"8227","AP001065.1","QGBObyPGBO"
"8228","RASD2","QGBObyPGBO"
"8229","SNHG5","QGBObyPGBO"
"8230","SERPINH1","QGBObyPGBO"
"8231","PHKA1","QGBObyPGBO"
"8233","AC126474.1","QGBObyPGBO"
"8234","SAPCD1-AS1","QGBObyPGBO"
"8235","PRKCQ-AS1","QGBObyPGBO"
"8236","AL160275.2","QGBObyPGBO"
"8237","FAM120C","QGBObyPGBO"
"8240","ZCCHC10","QGBObyPGBO"
"8241","SOX4","QGBObyPGBO"
"8242","LINC01023","QGBObyPGBO"
"8243","PLEKHA8P1","QGBObyPGBO"
"8246","ZNF346","QGBObyPGBO"
"8247","EIF3K","QGBObyPGBO"
"8248","AC004130.1","QGBObyPGBO"
"8249","AC024560.3","QGBObyPGBO"
"8250","OTOR","QGBObyPGBO"
"8251","CHRM4","QGBObyPGBO"
"8252","ATP5IF1","QGBObyPGBO"
"8253","ACSL1","QGBObyPGBO"
"8254","AC105206.2","QGBObyPGBO"
"8255","AL353795.3","QGBObyPGBO"
"8256","C7orf50","QGBObyPGBO"
"8257","RPS15A","QGBObyPGBO"
"8260","AL450313.1","QGBObyPGBO"
"8261","CBFA2T3","QGBObyPGBO"
"8262","SEC11C","QGBObyPGBO"
"8263","VTRNA1-2","QGBObyPGBO"
"8264","TYSND1","QGBObyPGBO"
"8266","C18orf65","QGBObyPGBO"
"8267","CLEC18A","QGBObyPGBO"
"8268","NXN","QGBObyPGBO"
"8269","SMIM10L2A","QGBObyPGBO"
"8270","AC025259.2","QGBObyPGBO"
"8271","MDFI","QGBObyPGBO"
"8272","FUT9","QGBObyPGBO"
"8273","CD99L2","QGBObyPGBO"
"8274","PRR11","QGBObyPGBO"
"8275","TRIM69","QGBObyPGBO"
"8276","RPL7P17","QGBObyPGBO"
"8278","NDUFA4","QGBObyPGBO"
"8279","AC051619.1","QGBObyPGBO"
"8280","ZGLP1","QGBObyPGBO"
"8281","Z83847.1","QGBObyPGBO"
"8284","TSSC2","QGBObyPGBO"
"8285","NUDCD2","QGBObyPGBO"
"8286","RP2","QGBObyPGBO"
"8287","RPS26","QGBObyPGBO"
"8288","AC079922.1","QGBObyPGBO"
"8289","Z82244.2","QGBObyPGBO"
"8291","PCCB","QGBObyPGBO"
"8292","HNRNPLP2","QGBObyPGBO"
"8293","CKS2","QGBObyPGBO"
"8295","MIR17HG","QGBObyPGBO"
"8296","BX537318.2","QGBObyPGBO"
"8297","NANOG","QGBObyPGBO"
"8298","TP53I11","QGBObyPGBO"
"8300","UBE2NP1","QGBObyPGBO"
"8301","KDM6B","QGBObyPGBO"
"8302","AC137767.1","QGBObyPGBO"
"8303","PRKCG","QGBObyPGBO"
"8304","NDRG4","QGBObyPGBO"
"8306","WFDC1","QGBObyPGBO"
"8307","LPCAT2","QGBObyPGBO"
"8310","MPP1","QGBObyPGBO"
"8311","AC003092.2","QGBObyPGBO"
"8312","SRSF12","QGBObyPGBO"
"8313","EEF1A1P24","QGBObyPGBO"
"8314","CREG2","QGBObyPGBO"
"8315","HMGCS1","QGBObyPGBO"
"8316","AL159169.3","QGBObyPGBO"
"8317","MZT2A","QGBObyPGBO"
"8318","RPL7","QGBObyPGBO"
"8319","CENPE","QGBObyPGBO"
"8320","EPHB3","QGBObyPGBO"
"8321","UCP2","QGBObyPGBO"
"8322","FAM213A","QGBObyPGBO"
"8323","SCARB1","QGBObyPGBO"
"8324","AGT","QGBObyPGBO"
"8325","RIDA","QGBObyPGBO"
"8326","PDCD7","QGBObyPGBO"
"8327","NKX2-4","QGBObyPGBO"
"8328","AC246817.2","QGBObyPGBO"
"8329","ZNRF1","QGBObyPGBO"
"8330","UBA52","QGBObyPGBO"
"8331","CAMLG","QGBObyPGBO"
"8332","SRSF10P1","QGBObyPGBO"
"8333","SHC1P2","QGBObyPGBO"
"8334","ANXA6","QGBObyPGBO"
"8335","AC091390.2","QGBObyPGBO"
"8336","RCL1","QGBObyPGBO"
"8337","RAP2A","QGBObyPGBO"
"8338","MEOX2-AS1","QGBObyPGBO"
"8340","AKR1C2","QGBObyPGBO"
"8342","NR1D1","QGBObyPGBO"
"8343","RASAL1","QGBObyPGBO"
"8344","AC135977.1","QGBObyPGBO"
"8345","AC084035.1","QGBObyPGBO"
"8346","ATP5PF","QGBObyPGBO"
"8347","EMC10","QGBObyPGBO"
"8349","MIR194-2HG","QGBObyPGBO"
"8350","GEMIN5","QGBObyPGBO"
"8351","GRIN2D","QGBObyPGBO"
"8352","ECSIT","QGBObyPGBO"
"8355","LRIG3","QGBObyPGBO"
"8356","DUS2","QGBObyPGBO"
"8357","ISCA1P4","QGBObyPGBO"
"8358","HDAC3","QGBObyPGBO"
"8359","AL353726.2","QGBObyPGBO"
"8360","PPIAP9","QGBObyPGBO"
"8362","ILDR2","QGBObyPGBO"
"8363","SCAMP5","QGBObyPGBO"
"8364","RNU6-1328P","QGBObyPGBO"
"8365","UBE2D2","QGBObyPGBO"
"8366","DYRK3","QGBObyPGBO"
"8367","AC013726.1","QGBObyPGBO"
"8368","MSMO1","QGBObyPGBO"
"8369","AC060766.3","QGBObyPGBO"
"8370","AC118553.1","QGBObyPGBO"
"8371","ACAT2","QGBObyPGBO"
"8372","AL035458.2","QGBObyPGBO"
"8374","RNU6-483P","QGBObyPGBO"
"8375","AC114341.1","QGBObyPGBO"
"8376","NOP53-AS1","QGBObyPGBO"
"8377","GAPDHP63","QGBObyPGBO"
"8378","AC003101.2","QGBObyPGBO"
"8379","RF00272","QGBObyPGBO"
"8380","PON2","QGBObyPGBO"
"8381","KHK","QGBObyPGBO"
"8382","RPL13A","QGBObyPGBO"
"8383","AP003122.2","QGBObyPGBO"
"8384","MTFR1","QGBObyPGBO"
"8385","ZNF74","QGBObyPGBO"
"8386","GPD1L","QGBObyPGBO"
"8387","RN7SL317P","QGBObyPGBO"
"8388","MAPT","QGBObyPGBO"
"8389","RPL3P4","QGBObyPGBO"
"8390","AC239800.2","QGBObyPGBO"
"8391","AC106028.5","QGBObyPGBO"
"8392","NOA1","QGBObyPGBO"
"8393","AC009908.1","QGBObyPGBO"
"8394","CHCHD6","QGBObyPGBO"
"8395","ACACA","QGBObyPGBO"
"8397","RN7SKP246","QGBObyPGBO"
"8398","NFKBIE","QGBObyPGBO"
"8399","RPS2P55","QGBObyPGBO"
"8400","BCL7A","QGBObyPGBO"
"8402","RPL36AL","QGBObyPGBO"
"8403","CNOT6","QGBObyPGBO"
"8404","RPL19","QGBObyPGBO"
"8405","RNFT2","QGBObyPGBO"
"8406","STAG3L4","QGBObyPGBO"
"8407","APEX2","QGBObyPGBO"
"8408","DNAJC12","QGBObyPGBO"
"8410","GLCCI1","QGBObyPGBO"
"8411","MPND","QGBObyPGBO"
"8413","GAS5","QGBObyPGBO"
"8414","TMEM119","QGBObyPGBO"
"8415","OTX1","QGBObyPGBO"
"8417","AC008154.2","QGBObyPGBO"
"8418","AC109454.2","QGBObyPGBO"
"8419","AL031123.2","QGBObyPGBO"
"8420","KAT14","QGBObyPGBO"
"8421","INTS13","QGBObyPGBO"
"8422","AC092192.1","QGBObyPGBO"
"8423","AL136172.1","QGBObyPGBO"
"8424","MAP7D3","QGBObyPGBO"
"8425","AP000350.6","QGBObyPGBO"
"8426","DNM1P35","QGBObyPGBO"
"8427","BIK","QGBObyPGBO"
"8428","AL512594.1","QGBObyPGBO"
"8429","AP001347.1","QGBObyPGBO"
"8431","THOC2","QGBObyPGBO"
"8433","TPSB2","QGBObyPGBO"
"8434","NOTCH1","QGBObyPGBO"
"8435","AC060766.7","QGBObyPGBO"
"8436","ARHGAP42P4","QGBObyPGBO"
"8437","DARS-AS1","QGBObyPGBO"
"8438","PROB1","QGBObyPGBO"
"8439","RPS18P9","QGBObyPGBO"
"8441","MTND1P10","QGBObyPGBO"
"8442","AC016745.2","QGBObyPGBO"
"8443","LINC01158","QGBObyPGBO"
"8444","EXOSC4","QGBObyPGBO"
"8445","ALDH3A1","QGBObyPGBO"
"8446","RPSAP29","QGBObyPGBO"
"8447","LEMD1-AS1","QGBObyPGBO"
"8448","AP002852.1","QGBObyPGBO"
"8449","UBA1","QGBObyPGBO"
"8450","RPL6","QGBObyPGBO"
"8451","AC092724.1","QGBObyPGBO"
"8452","RNF130","QGBObyPGBO"
"8453","GPR173","QGBObyPGBO"
"8454","TXNDC17","QGBObyPGBO"
"8455","UIMC1","QGBObyPGBO"
"8457","OR10A3","QGBObyPGBO"
"8458","SOX1-OT","QGBObyPGBO"
"8459","GRPEL1","QGBObyPGBO"
"8463","EEF1A1P22","QGBObyPGBO"
"8465","AC005410.1","QGBObyPGBO"
"8466","KLF9","QGBObyPGBO"
"8468","AC243967.3","QGBObyPGBO"
"8469","NLRP1","QGBObyPGBO"
"8471","ETHE1","QGBObyPGBO"
"8472","CAMKK2","QGBObyPGBO"
"8473","COBLL1","QGBObyPGBO"
"8474","EIF3FP3","QGBObyPGBO"
"8476","LBX1-AS1","QGBObyPGBO"
"8477","RPL3","QGBObyPGBO"
"8478","SLC9A3R1","QGBObyPGBO"
"8479","CXorf57","QGBObyPGBO"
"8480","AC018553.2","QGBObyPGBO"
"8482","ZNF879","QGBObyPGBO"
"8483","SLC25A25-AS1","QGBObyPGBO"
"8484","COX6B1","QGBObyPGBO"
"8485","CDC25C","QGBObyPGBO"
"8486","HMGN2P25","QGBObyPGBO"
"8487","AL592071.1","QGBObyPGBO"
"8489","TEAD4","QGBObyPGBO"
"8490","PDCD2L","QGBObyPGBO"
"8491","SGF29","QGBObyPGBO"
"8492","ZNF786","QGBObyPGBO"
"8493","JADE3","QGBObyPGBO"
"8494","PDCL3","QGBObyPGBO"
"8495","ZNF165","QGBObyPGBO"
"8497","RN7SKP181","QGBObyPGBO"
"8500","INAVA","QGBObyPGBO"
"8501","AL121990.1","QGBObyPGBO"
"8502","NDUFS7","QGBObyPGBO"
"8503","CHCHD5","QGBObyPGBO"
"8504","KIF20A","QGBObyPGBO"
"8505","TRGV9","QGBObyPGBO"
"8506","PSEN2","QGBObyPGBO"
"8510","RNU6-1187P","QGBObyPGBO"
"8511","LINC02475","QGBObyPGBO"
"8512","HDAC11-AS1","QGBObyPGBO"
"8513","ABHD10","QGBObyPGBO"
"8514","FLYWCH2","QGBObyPGBO"
"8515","RPS12","QGBObyPGBO"
"8516","AC116407.1","QGBObyPGBO"
"8517","IRX3","QGBObyPGBO"
"8518","TRERF1","QGBObyPGBO"
"8519","AC130343.2","QGBObyPGBO"
"8520","BEX1","QGBObyPGBO"
"8521","RAB9A","QGBObyPGBO"
"8522","MPC2","QGBObyPGBO"
"8523","HIST1H2BH","QGBObyPGBO"
"8524","AL591848.3","QGBObyPGBO"
"8525","RPL24","QGBObyPGBO"
"8526","AC024896.1","QGBObyPGBO"
"8527","CTSW","QGBObyPGBO"
"8528","AC015813.4","QGBObyPGBO"
"8529","LINC01703","QGBObyPGBO"
"8531","ODF3B","QGBObyPGBO"
"8532","AL360270.3","QGBObyPGBO"
"8533","SMIM10","QGBObyPGBO"
"8535","UNC13B","QGBObyPGBO"
"8536","ETFA","QGBObyPGBO"
"8537","LINC01772","QGBObyPGBO"
"8538","MYD88","QGBObyPGBO"
"8540","AQP7","QGBObyPGBO"
"8541","RPS27A","QGBObyPGBO"
"8542","TXN","QGBObyPGBO"
"8543","C1GALT1C1","QGBObyPGBO"
"8544","AC068700.1","QGBObyPGBO"
"8545","CETN2","QGBObyPGBO"
"8546","FO538757.1","QGBObyPGBO"
"8548","RPL7P9","QGBObyPGBO"
"8549","TST","QGBObyPGBO"
"8550","AC024257.2","QGBObyPGBO"
"8551","SLC25A42","QGBObyPGBO"
"8552","DCPS","QGBObyPGBO"
"8553","AL138831.3","QGBObyPGBO"
"8554","ETV2","QGBObyPGBO"
"8555","SPAG7","QGBObyPGBO"
"8557","CPE","QGBObyPGBO"
"8558","RPL13P12","QGBObyPGBO"
"8559","AC008115.4","QGBObyPGBO"
"8560","RPS3AP6","QGBObyPGBO"
"8563","AP3M2","QGBObyPGBO"
"8565","CXorf56","QGBObyPGBO"
"8566","HMGN3","QGBObyPGBO"
"8567","ESPN","QGBObyPGBO"
"8569","MT1F","QGBObyPGBO"
"8570","ZNF232","QGBObyPGBO"
"8571","CTNNBL1","QGBObyPGBO"
"8572","RPS4XP6","QGBObyPGBO"
"8573","RADIL","QGBObyPGBO"
"8574","F12","QGBObyPGBO"
"8575","AL137784.3","QGBObyPGBO"
"8576","RPS29","QGBObyPGBO"
"8577","RPL23","QGBObyPGBO"
"8578","TMEM11","QGBObyPGBO"
"8579","POLR2F","QGBObyPGBO"
"8580","FAM104B","QGBObyPGBO"
"8581","FAIM2","QGBObyPGBO"
"8582","BCL2L12P1","QGBObyPGBO"
"8583","C20orf96","QGBObyPGBO"
"8584","FAM3A","QGBObyPGBO"
"8585","RPS20","QGBObyPGBO"
"8586","AL513497.1","QGBObyPGBO"
"8587","ARL14EP","QGBObyPGBO"
"8589","ABCB7","QGBObyPGBO"
"8590","TRMT9B","QGBObyPGBO"
"8591","TPI1","QGBObyPGBO"
"8593","AC002451.2","QGBObyPGBO"
"8596","LINC01067","QGBObyPGBO"
"8598","SNRPG","QGBObyPGBO"
"8599","MN1","QGBObyPGBO"
"8600","PTGR1","QGBObyPGBO"
"8602","OTUD5","QGBObyPGBO"
"8605","ICE2P1","QGBObyPGBO"
"8606","NAXE","QGBObyPGBO"
"8607","COPS9","QGBObyPGBO"
"8608","FBLIM1","QGBObyPGBO"
"8609","AL161431.1","QGBObyPGBO"
"8610","AC093323.3","QGBObyPGBO"
"8611","RTL8A","QGBObyPGBO"
"8612","AC016397.2","QGBObyPGBO"
"8613","AC027271.1","QGBObyPGBO"
"8614","INSIG1","QGBObyPGBO"
"8616","LRFN1","QGBObyPGBO"
"8617","KCNJ9","QGBObyPGBO"
"8618","AC018558.1","QGBObyPGBO"
"8619","BRSK2","QGBObyPGBO"
"8620","AL365181.4","QGBObyPGBO"
"8622","FBXO25","QGBObyPGBO"
"8623","EEF1GP3","QGBObyPGBO"
"8624","FAM60CP","QGBObyPGBO"
"8626","FTSJ1","QGBObyPGBO"
"8627","FBXL15","QGBObyPGBO"
"8628","SARM1","QGBObyPGBO"
"8629","ATP5MG","QGBObyPGBO"
"8630","TPI1P1","QGBObyPGBO"
"8631","AC021072.1","QGBObyPGBO"
"8632","AC083867.1","QGBObyPGBO"
"8633","CCNQ","QGBObyPGBO"
"8634","VBP1","QGBObyPGBO"
"8635","HIPK1-AS1","QGBObyPGBO"
"8636","RBM10","QGBObyPGBO"
"8637","CMPK2","QGBObyPGBO"
"8638","OAZ2","QGBObyPGBO"
"8639","NMRK1","QGBObyPGBO"
"8642","DLK2","QGBObyPGBO"
"8643","RPL28","QGBObyPGBO"
"8644","C2orf72","QGBObyPGBO"
"8645","PRKCZ","QGBObyPGBO"
"8646","RPL23AP48","QGBObyPGBO"
"8647","SAT1","QGBObyPGBO"
"8648","AC004801.7","QGBObyPGBO"
"8649","RPL7A","QGBObyPGBO"
"8650","PTPN2","QGBObyPGBO"
"8651","PUM3","QGBObyPGBO"
"8652","NACA3P","QGBObyPGBO"
"8653","NEIL2","QGBObyPGBO"
"8654","RIPPLY3","QGBObyPGBO"
"8655","SMPD2","QGBObyPGBO"
"8656","AL118505.1","QGBObyPGBO"
"8657","CLEC4F","QGBObyPGBO"
"8658","IGDCC3","QGBObyPGBO"
"8660","SELENOW","QGBObyPGBO"
"8661","SMS","QGBObyPGBO"
"8662","SNHG19","QGBObyPGBO"
"8663","RPL21","QGBObyPGBO"
"8664","ROMO1","QGBObyPGBO"
"8665","AL157935.1","QGBObyPGBO"
"8667","TBCA","QGBObyPGBO"
"8668","AGPAT1","QGBObyPGBO"
"8670","RNF222","QGBObyPGBO"
"8671","AC234782.2","QGBObyPGBO"
"8673","EEF1A1P12","QGBObyPGBO"
"8674","SFN","QGBObyPGBO"
"8675","FADS2","QGBObyPGBO"
"8676","AC126763.1","QGBObyPGBO"
"8677","CLNS1A","QGBObyPGBO"
"8678","EMG1","QGBObyPGBO"
"8680","AL009181.1","QGBObyPGBO"
"8681","JAK3","QGBObyPGBO"
"8682","EEF1A1","QGBObyPGBO"
"8683","PSMB2","QGBObyPGBO"
"8685","AC034229.1","QGBObyPGBO"
"8686","MT3","QGBObyPGBO"
"8687","AC003986.3","QGBObyPGBO"
"8688","EIF3H","QGBObyPGBO"
"8690","CABIN1","QGBObyPGBO"
"8692","RPL10A","QGBObyPGBO"
"8693","PARP16","QGBObyPGBO"
"8695","AC124798.1","QGBObyPGBO"
"8696","LINC01778","QGBObyPGBO"
"8697","BX470102.1","QGBObyPGBO"
"8698","AC060788.1","QGBObyPGBO"
"8699","SPDYE5","QGBObyPGBO"
"8700","LSM2","QGBObyPGBO"
"8701","SRR","QGBObyPGBO"
"8702","BDH2","QGBObyPGBO"
"8703","GOLGA8R","QGBObyPGBO"
"8704","C9orf72","QGBObyPGBO"
"8705","RIOK1","QGBObyPGBO"
"8706","AC093107.2","QGBObyPGBO"
"8707","TIMM17B","QGBObyPGBO"
"8708","UBE2NL","QGBObyPGBO"
"8710","LDHB","QGBObyPGBO"
"8711","MSI1","QGBObyPGBO"
"8712","ISOC2","QGBObyPGBO"
"8713","RPS15","QGBObyPGBO"
"8716","EEF1A1P33","QGBObyPGBO"
"8717","FAM218BP","QGBObyPGBO"
"8718","VDAC1","QGBObyPGBO"
"8719","B3GALT5","QGBObyPGBO"
"8720","POR","QGBObyPGBO"
"8721","FGFBP3","QGBObyPGBO"
"8722","MAP3K21","QGBObyPGBO"
"8723","EMID1","QGBObyPGBO"
"8724","RPS6KB2","QGBObyPGBO"
"8725","RPL26L1","QGBObyPGBO"
"8726","C5AR2","QGBObyPGBO"
"8727","THRA","QGBObyPGBO"
"8728","NFATC4","QGBObyPGBO"
"8729","AC090692.1","QGBObyPGBO"
"8730","FAM90A1","QGBObyPGBO"
"8731","GSTO1","QGBObyPGBO"
"8732","RABEP2","QGBObyPGBO"
"8733","AC104653.1","QGBObyPGBO"
"8734","SLC25A45","QGBObyPGBO"
"8735","CCDC194","QGBObyPGBO"
"8736","WDR77","QGBObyPGBO"
"8737","NANS","QGBObyPGBO"
"8738","CISD1","QGBObyPGBO"
"8739","COL20A1","QGBObyPGBO"
"8740","AC004264.2","QGBObyPGBO"
"8741","LTA4H","QGBObyPGBO"
"8742","AC004080.4","QGBObyPGBO"
"8743","RN7SKP213","QGBObyPGBO"
"8746","C11orf74","QGBObyPGBO"
"8747","AC027176.3","QGBObyPGBO"
"8748","ZFP64","QGBObyPGBO"
"8750","AGER","QGBObyPGBO"
"8751","SMIM20","QGBObyPGBO"
"8752","PNMA8A","QGBObyPGBO"
"8753","DNAJC1","QGBObyPGBO"
"8754","PML","QGBObyPGBO"
"8755","NARF","QGBObyPGBO"
"8756","RPSA","QGBObyPGBO"
"8757","PPIAP35","QGBObyPGBO"
"8759","DNAJC22","QGBObyPGBO"
"8760","TMEM120B","QGBObyPGBO"
"8761","ATP5F1B","QGBObyPGBO"
"8762","RBM38","QGBObyPGBO"
"8763","MSN","QGBObyPGBO"
"8764","IQSEC2","QGBObyPGBO"
"8765","PCYT1B","QGBObyPGBO"
"8766","DNAJB1","QGBObyPGBO"
"8767","ENHO","QGBObyPGBO"
"8768","PANK1","QGBObyPGBO"
"8769","AC007450.3","QGBObyPGBO"
"8770","ARHGAP39","QGBObyPGBO"
"8771","GRHL1","QGBObyPGBO"
"8772","RPL27A","QGBObyPGBO"
"8773","RPL9","QGBObyPGBO"
"8774","AC004233.3","QGBObyPGBO"
"8775","RARRES3","QGBObyPGBO"
"8776","NUCB2","QGBObyPGBO"
"8777","CEL","QGBObyPGBO"
"8778","AC087645.2","QGBObyPGBO"
"8779","CS","QGBObyPGBO"
"8780","NKX2-3","QGBObyPGBO"
"8781","LYRM4","QGBObyPGBO"
"8782","PPP1R3F","QGBObyPGBO"
"8783","TNFRSF13C","QGBObyPGBO"
"8784","SSBP3","QGBObyPGBO"
"8785","AC131235.1","QGBObyPGBO"
"8786","PAIP2","QGBObyPGBO"
"8787","SETD9","QGBObyPGBO"
"8788","MRPL13","QGBObyPGBO"
"8789","ANKRD26","QGBObyPGBO"
"8790","RPIA","QGBObyPGBO"
"8791","MYO5C","QGBObyPGBO"
"8792","RN7SL190P","QGBObyPGBO"
"8793","RPS7","QGBObyPGBO"
"8794","LINC02487","QGBObyPGBO"
"8795","APOF","QGBObyPGBO"
"8796","RNU4-1","QGBObyPGBO"
"8797","MAP1LC3C","QGBObyPGBO"
"8799","MPI","QGBObyPGBO"
"8800","EPHA4","QGBObyPGBO"
"8801","FMR1-AS1","QGBObyPGBO"
"8802","TSIX","QGBObyPGBO"
"8803","NINJ1","QGBObyPGBO"
"8804","RPL4","QGBObyPGBO"
"8805","NDUFB9","QGBObyPGBO"
"8806","RNU1-1","QGBObyPGBO"
"8808","PQLC1","QGBObyPGBO"
"8809","KLF10","QGBObyPGBO"
"8810","PTP4A3","QGBObyPGBO"
"8812","RN7SL353P","QGBObyPGBO"
"8813","ASB13","QGBObyPGBO"
"8814","PCOLCE2","QGBObyPGBO"
"8815","SMKR1","QGBObyPGBO"
"8816","SLC26A4","QGBObyPGBO"
"8817","GRHPR","QGBObyPGBO"
"8818","HDDC2","QGBObyPGBO"
"8819","AC007036.1","QGBObyPGBO"
"8820","LINC02175","QGBObyPGBO"
"8821","RPS27AP16","QGBObyPGBO"
"8822","MARCKS","QGBObyPGBO"
"8823","PLEKHA3P1","QGBObyPGBO"
"8824","PHF14","QGBObyPGBO"
"8825","AC007215.1","QGBObyPGBO"
"8826","SRM","QGBObyPGBO"
"8827","SIRT4","QGBObyPGBO"
"8828","ACOT9","QGBObyPGBO"
"8829","SLC25A6","QGBObyPGBO"
"8830","SLCO5A1","QGBObyPGBO"
"8832","FGFR2","QGBObyPGBO"
"8833","COPZ1","QGBObyPGBO"
"8834","NDUFA3","QGBObyPGBO"
"8835","RPL12","QGBObyPGBO"
"8836","PKIA","QGBObyPGBO"
"8837","ANKRD16","QGBObyPGBO"
"8838","RPL34","QGBObyPGBO"
"8839","CAAP1","QGBObyPGBO"
"8840","ZNF101P2","QGBObyPGBO"
"8841","PFDN4","QGBObyPGBO"
"8842","STX8","QGBObyPGBO"
"8843","ALDOA","QGBObyPGBO"
"8844","TCEAL4","QGBObyPGBO"
"8846","GLDC","QGBObyPGBO"
"8847","SH2D5","QGBObyPGBO"
"8848","MIR4530","QGBObyPGBO"
"8849","IZUMO4","QGBObyPGBO"
"8850","RPS25","QGBObyPGBO"
"8851","SHROOM2","QGBObyPGBO"
"8852","NOB1","QGBObyPGBO"
"8853","BNIP1","QGBObyPGBO"
"8854","AC098476.1","QGBObyPGBO"
"8855","NDUFAF2","QGBObyPGBO"
"8856","OR10G3","QGBObyPGBO"
"8857","PEX5","QGBObyPGBO"
"8858","SLC25A33","QGBObyPGBO"
"8859","HILS1","QGBObyPGBO"
"8860","ZNF18","QGBObyPGBO"
"8861","SPATA5L1","QGBObyPGBO"
"8862","PROM1","QGBObyPGBO"
"8863","SFRP2","QGBObyPGBO"
"8865","AC083806.1","QGBObyPGBO"
"8867","PWWP2B","QGBObyPGBO"
"8868","TMEM177","QGBObyPGBO"
"8869","DUSP22","QGBObyPGBO"
"8870","PTCH2","QGBObyPGBO"
"8871","EEF1A1P5","QGBObyPGBO"
"8872","AC093227.1","QGBObyPGBO"
"8873","PGD","QGBObyPGBO"
"8874","P4HA2-AS1","QGBObyPGBO"
"8875","USP11","QGBObyPGBO"
"8876","AC023141.12","QGBObyPGBO"
"8877","AL135924.2","QGBObyPGBO"
"8878","CCDC34","QGBObyPGBO"
"8879","AC018695.7","QGBObyPGBO"
"8880","NDUFB3","QGBObyPGBO"
"8881","HSPB1","QGBObyPGBO"
"8882","AC006547.1","QGBObyPGBO"
"8883","AL355353.1","QGBObyPGBO"
"8885","NDUFAF4","QGBObyPGBO"
"8886","MED28P3","QGBObyPGBO"
"8887","EEF1A1P9","QGBObyPGBO"
"8888","KCNIP2-AS1","QGBObyPGBO"
"8889","CTDP1","QGBObyPGBO"
"8890","U95743.1","QGBObyPGBO"
"8891","AL109918.2","QGBObyPGBO"
"8892","RPS18","QGBObyPGBO"
"8893","SEM1","QGBObyPGBO"
"8894","KYAT1","QGBObyPGBO"
"8895","AC009005.1","QGBObyPGBO"
"8896","ZIC2","QGBObyPGBO"
"8897","LSS","QGBObyPGBO"
"8898","NACA","QGBObyPGBO"
"8899","AC027373.1","QGBObyPGBO"
"8900","SMAD6","QGBObyPGBO"
"8901","RN7SL163P","QGBObyPGBO"
"8902","AL513534.1","QGBObyPGBO"
"8903","FAM25E","QGBObyPGBO"
"8904","RPS13","QGBObyPGBO"
"8905","HCCS","QGBObyPGBO"
"8906","HMX3","QGBObyPGBO"
"8907","RPS3","QGBObyPGBO"
"8908","AC073263.3","QGBObyPGBO"
"8909","AL512625.1","QGBObyPGBO"
"8911","AL589743.3","QGBObyPGBO"
"8912","DDX55P1","QGBObyPGBO"
"8913","PTENP1-AS","QGBObyPGBO"
"8914","HOMER3","QGBObyPGBO"
"8915","SNX18P9","QGBObyPGBO"
"8916","AC004982.2","QGBObyPGBO"
"8917","RPS5","QGBObyPGBO"
"8918","NDUFA8","QGBObyPGBO"
"8919","CCDC32","QGBObyPGBO"
"8920","BAD","QGBObyPGBO"
"8921","NPPC","QGBObyPGBO"
"8922","MGST2","QGBObyPGBO"
"8923","C14orf39","QGBObyPGBO"
"8924","RPL31","QGBObyPGBO"
"8925","CMC2","QGBObyPGBO"
"8926","CMBL","QGBObyPGBO"
"8927","RABEPK","QGBObyPGBO"
"8928","VCP","QGBObyPGBO"
"8929","MAT2B","QGBObyPGBO"
"8930","DCTN3","QGBObyPGBO"
"8932","MRM3","QGBObyPGBO"
"8933","MRPL43","QGBObyPGBO"
"8935","UQCC2","QGBObyPGBO"
"8936","PDZD11","QGBObyPGBO"
"8937","SMIM37","QGBObyPGBO"
"8938","APBA2","QGBObyPGBO"
"8939","UBQLN2","QGBObyPGBO"
"8940","THAP4","QGBObyPGBO"
"8941","MRPL58","QGBObyPGBO"
"8942","AC009275.1","QGBObyPGBO"
"8943","MXD4","QGBObyPGBO"
"8944","ATP5F1A","QGBObyPGBO"
"8945","FAR2","QGBObyPGBO"
"8946","AC060766.6","QGBObyPGBO"
"8947","PABPC1","QGBObyPGBO"
"8948","FAM229B","QGBObyPGBO"
"8949","MTND3P22","QGBObyPGBO"
"8950","SLC25A11","QGBObyPGBO"
"8951","AL162311.3","QGBObyPGBO"
"8952","SUMO2P1","QGBObyPGBO"
"8953","AC106795.1","QGBObyPGBO"
"8954","AC104339.1","QGBObyPGBO"
"8955","NEU4","QGBObyPGBO"
"8956","NSMCE1","QGBObyPGBO"
"8957","NKD2","QGBObyPGBO"
"8958","RPS28","QGBObyPGBO"
"8959","FAM78A","QGBObyPGBO"
"8960","AC104117.3","QGBObyPGBO"
"8961","AC103810.1","QGBObyPGBO"
"8962","NDUFS3","QGBObyPGBO"
"8963","RUVBL1","QGBObyPGBO"
"8964","ST13P5","QGBObyPGBO"
"8965","RPS6","QGBObyPGBO"
"8966","RASL12","QGBObyPGBO"
"8967","TFEB","QGBObyPGBO"
"8968","RAB11FIP4","QGBObyPGBO"
"8970","UCK2","QGBObyPGBO"
"8971","BYSL","QGBObyPGBO"
"8972","SUCLG2P2","QGBObyPGBO"
"8973","ACAT1","QGBObyPGBO"
"8974","TMED3","QGBObyPGBO"
"8975","AC021491.4","QGBObyPGBO"
"8976","FXR2","QGBObyPGBO"
"8977","MAGED1","QGBObyPGBO"
"8978","AL109659.3","QGBObyPGBO"
"8979","TXNL4A","QGBObyPGBO"
"8980","BRMS1L","QGBObyPGBO"
"8981","NUP93","QGBObyPGBO"
"8982","AL031864.2","QGBObyPGBO"
"8983","RN7SL356P","QGBObyPGBO"
"8984","NDRG3","QGBObyPGBO"
"8985","MANEAL","QGBObyPGBO"
"8986","IGKV1-6","QGBObyPGBO"
"8987","PAFAH1B3","QGBObyPGBO"
"8988","OCRL","QGBObyPGBO"
"8989","RPL27","QGBObyPGBO"
"8990","CNOT8","QGBObyPGBO"
"8991","AC012313.8","QGBObyPGBO"
"8992","PEBP1","QGBObyPGBO"
"8993","BTF3P4","QGBObyPGBO"
"8994","PEG10","QGBObyPGBO"
"8995","FKBP7","QGBObyPGBO"
"8996","ANP32A","QGBObyPGBO"
"8997","SLC25A19","QGBObyPGBO"
"8998","AC034229.4","QGBObyPGBO"
"8999","C2CD4D","QGBObyPGBO"
"9000","JPT1","QGBObyPGBO"
"9001","FBXO10","QGBObyPGBO"
"9002","P2RX4","QGBObyPGBO"
"9003","C20orf27","QGBObyPGBO"
"9004","AC007318.1","QGBObyPGBO"
"9005","AC013452.2","QGBObyPGBO"
"9006","COMMD6","QGBObyPGBO"
"9007","ALDH7A1","QGBObyPGBO"
"9008","SLITRK2","QGBObyPGBO"
"9009","CLEC11A","QGBObyPGBO"
"9010","TRIM16","QGBObyPGBO"
"9012","SLC27A5","QGBObyPGBO"
"9013","HDHD5","QGBObyPGBO"
"9014","RNU6-869P","QGBObyPGBO"
"9015","AC019109.1","QGBObyPGBO"
"9016","AC117394.1","QGBObyPGBO"
"9017","HLX","QGBObyPGBO"
"9018","EXPH5","QGBObyPGBO"
"9019","IL37","QGBObyPGBO"
"9020","LINC01181","QGBObyPGBO"
"9021","MVD","QGBObyPGBO"
"9022","ICA1L","QGBObyPGBO"
"9023","IMP4","QGBObyPGBO"
"9024","KRT18P34","QGBObyPGBO"
"9025","VMO1","QGBObyPGBO"
"9026","RPS7P10","QGBObyPGBO"
"9027","EIF3F","QGBObyPGBO"
"9028","NDUFAB1","QGBObyPGBO"
"9029","AIFM2","QGBObyPGBO"
"9030","CASK","QGBObyPGBO"
"9031","ABRACL","QGBObyPGBO"
"9032","NEPNP","QGBObyPGBO"
"9033","MAP1LC3B2","QGBObyPGBO"
"9034","TUBD1","QGBObyPGBO"
"9035","SEMA3A","QGBObyPGBO"
"9036","RPL24P7","QGBObyPGBO"
"9037","AC092354.2","QGBObyPGBO"
"9038","PPARGC1B","QGBObyPGBO"
"9039","DEDD2","QGBObyPGBO"
"9040","ZMAT5","QGBObyPGBO"
"9041","GPR139","QGBObyPGBO"
"9042","MRPS23","QGBObyPGBO"
"9043","ARMC12","QGBObyPGBO"
"9044","SLC29A4","QGBObyPGBO"
"9046","KLHL33","QGBObyPGBO"
"9047","MRPS17P1","QGBObyPGBO"
"9048","NHP2","QGBObyPGBO"
"9049","LINC01012","QGBObyPGBO"
"9050","PGAM1","QGBObyPGBO"
"9051","NDUFB5","QGBObyPGBO"
"9052","AL079352.1","QGBObyPGBO"
"9053","HMX1","QGBObyPGBO"
"9054","PGAM5","QGBObyPGBO"
"9055","MMP23B","QGBObyPGBO"
"9056","YWHAZP2","QGBObyPGBO"
"9058","NUP88","QGBObyPGBO"
"9059","FAM89B","QGBObyPGBO"
"9060","RPLP1","QGBObyPGBO"
"9062","PKP3","QGBObyPGBO"
"9063","PFDN5","QGBObyPGBO"
"9064","TGFBR3L","QGBObyPGBO"
"9065","RPL24P2","QGBObyPGBO"
"9066","AC124016.1","QGBObyPGBO"
"9067","CDK16","QGBObyPGBO"
"9068","MCRIP2","QGBObyPGBO"
"9069","TUBB2B","QGBObyPGBO"
"9071","UBL7","QGBObyPGBO"
"9072","RPS24","QGBObyPGBO"
"9073","L2HGDH","QGBObyPGBO"
"9074","GTSE1-AS1","QGBObyPGBO"
"9075","RPL18A","QGBObyPGBO"
"9076","BPGM","QGBObyPGBO"
"9077","FBL","QGBObyPGBO"
"9078","NXT1","QGBObyPGBO"
"9079","RPL38","QGBObyPGBO"
"9080","AC243830.2","QGBObyPGBO"
"9081","CTSZ","QGBObyPGBO"
"9082","RNY4","QGBObyPGBO"
"9083","NONO","QGBObyPGBO"
"9084","CFAP36","QGBObyPGBO"
"9085","PIMREG","QGBObyPGBO"
"9086","CCDC88A","QGBObyPGBO"
"9087","TRAP1","QGBObyPGBO"
"9088","LINC00997","QGBObyPGBO"
"9089","NEFL","QGBObyPGBO"
"9090","NXPE3","QGBObyPGBO"
"9091","ME1","QGBObyPGBO"
"9092","AL590004.2","QGBObyPGBO"
"9093","RPL6P27","QGBObyPGBO"
"9094","AC005592.1","QGBObyPGBO"
"9095","CHADL","QGBObyPGBO"
"9096","PSME1","QGBObyPGBO"
"9097","TP53TG1","QGBObyPGBO"
"9098","PSMA7","QGBObyPGBO"
"9099","KDM8","QGBObyPGBO"
"9100","DNAJC18","QGBObyPGBO"
"9101","PDP2","QGBObyPGBO"
"9102","CMSS1","QGBObyPGBO"
"9103","AC004817.3","QGBObyPGBO"
"9104","IDH1","QGBObyPGBO"
"9105","DECR2","QGBObyPGBO"
"9106","RPL36","QGBObyPGBO"
"9107","MORN2","QGBObyPGBO"
"9108","AC106822.1","QGBObyPGBO"
"9109","RPL11","QGBObyPGBO"
"9110","RBBP7","QGBObyPGBO"
"9111","PPP1R14B","QGBObyPGBO"
"9112","STAMBPL1","QGBObyPGBO"
"9113","RN7SL301P","QGBObyPGBO"
"9114","NUDT16L1","QGBObyPGBO"
"9115","FLAD1","QGBObyPGBO"
"9116","PGM1","QGBObyPGBO"
"9117","AC005736.1","QGBObyPGBO"
"9118","MGST3","QGBObyPGBO"
"9120","ZNF648","QGBObyPGBO"
"9121","IGSF9","QGBObyPGBO"
"9122","TRAFD1","QGBObyPGBO"
"9123","MAPK8IP1","QGBObyPGBO"
"9124","HAGH","QGBObyPGBO"
"9125","CXorf38","QGBObyPGBO"
"9126","AC234783.1","QGBObyPGBO"
"9127","SMG1P7","QGBObyPGBO"
"9128","MRPS18C","QGBObyPGBO"
"9129","RPL37","QGBObyPGBO"
"9130","PPIF","QGBObyPGBO"
"9131","NT5C3B","QGBObyPGBO"
"9132","LINC00415","QGBObyPGBO"
"9133","KIAA1191","QGBObyPGBO"
"9134","ATP6V1E2","QGBObyPGBO"
"9136","MAN2A1","QGBObyPGBO"
"9138","C15orf61","QGBObyPGBO"
"9140","LYSMD2","QGBObyPGBO"
"9141","COX5B","QGBObyPGBO"
"9142","MRPL4","QGBObyPGBO"
"9143","AC008738.2","QGBObyPGBO"
"9144","SEC61G","QGBObyPGBO"
"9145","ITGAE","QGBObyPGBO"
"9146","C12orf10","QGBObyPGBO"
"9147","RPUSD2","QGBObyPGBO"
"9148","FAM221A","QGBObyPGBO"
"9149","AL138756.1","QGBObyPGBO"
"9150","AL359878.1","QGBObyPGBO"
"9151","PSMD3","QGBObyPGBO"
"9152","RPL17P50","QGBObyPGBO"
"9153","KDM4B","QGBObyPGBO"
"9154","TRAPPC2L","QGBObyPGBO"
"9155","FSCN2","QGBObyPGBO"
"9156","AC138356.1","QGBObyPGBO"
"9157","FH","QGBObyPGBO"
"9158","SIX1","QGBObyPGBO"
"9159","AC106872.2","QGBObyPGBO"
"9160","IGHMBP2","QGBObyPGBO"
"9161","ADCY10P1","QGBObyPGBO"
"9162","RPL14","QGBObyPGBO"
"9163","MRPL15","QGBObyPGBO"
"9164","TBC1D25","QGBObyPGBO"
"9165","CDK8","QGBObyPGBO"
"9166","SIMC1","QGBObyPGBO"
"9167","KIAA2013","QGBObyPGBO"
"9168","PPM1H","QGBObyPGBO"
"9169","ZNF579","QGBObyPGBO"
"9170","AC010969.2","QGBObyPGBO"
"9171","TRIM72","QGBObyPGBO"
"9172","POLB","QGBObyPGBO"
"9173","ASRGL1","QGBObyPGBO"
"9174","COA6","QGBObyPGBO"
"9175","PCGF5","QGBObyPGBO"
"9176","RCC1","QGBObyPGBO"
"9177","MRPS15","QGBObyPGBO"
"9178","ATP5MC3","QGBObyPGBO"
"9179","TSR2","QGBObyPGBO"
"9180","DNMT3B","QGBObyPGBO"
"9181","LAMTOR4","QGBObyPGBO"
"9182","PSME2","QGBObyPGBO"
"9183","AC023424.1","QGBObyPGBO"
"9184","GALM","QGBObyPGBO"
"9185","AC063952.2","QGBObyPGBO"
"9186","EML2","QGBObyPGBO"
"9187","AC093326.2","QGBObyPGBO"
"9188","COX4I1","QGBObyPGBO"
"9189","ECEL1","QGBObyPGBO"
"9190","DESI1","QGBObyPGBO"
"9191","AC239868.2","QGBObyPGBO"
"9192","MAD1L1","QGBObyPGBO"
"9193","LDHA","QGBObyPGBO"
"9194","AC136632.1","QGBObyPGBO"
"9195","TMEM39B","QGBObyPGBO"
"9196","COQ8A","QGBObyPGBO"
"9197","AC005005.4","QGBObyPGBO"
"9198","NDUFA12","QGBObyPGBO"
"9199","TMEM126A","QGBObyPGBO"
"9200","TFAP4","QGBObyPGBO"
"9201","IGFLR1","QGBObyPGBO"
"9202","RPS8","QGBObyPGBO"
"9204","UQCRH","QGBObyPGBO"
"9205","PSMA4","QGBObyPGBO"
"9207","UROS","QGBObyPGBO"
"9208","MRM1","QGBObyPGBO"
"9209","AC097534.1","QGBObyPGBO"
"9210","ARHGDIG","QGBObyPGBO"
"9212","LCTL","QGBObyPGBO"
"9213","PGRMC1","QGBObyPGBO"
"9214","WDR13","QGBObyPGBO"
"9215","ST6GALNAC4","QGBObyPGBO"
"9216","RGS14","QGBObyPGBO"
"9217","NDUFS5","QGBObyPGBO"
"9218","CLTA","QGBObyPGBO"
"9219","DNASE1L2","QGBObyPGBO"
"9220","DDX54","QGBObyPGBO"
"9222","NUDT7","QGBObyPGBO"
"9223","AL136139.1","QGBObyPGBO"
"9224","RRP9","QGBObyPGBO"
"9225","MVB12B","QGBObyPGBO"
"9226","HMGN2","QGBObyPGBO"
"9228","NEU1","QGBObyPGBO"
"9229","TMEM216","QGBObyPGBO"
"9230","AL138831.2","QGBObyPGBO"
"9231","XRCC6P1","QGBObyPGBO"
"9232","AL845472.1","QGBObyPGBO"
"9233","RSL1D1","QGBObyPGBO"
"9234","PLS1","QGBObyPGBO"
"9235","RPL22","QGBObyPGBO"
"9236","GPI","QGBObyPGBO"
"9237","KCNQ2","QGBObyPGBO"
"9238","AC008443.3","QGBObyPGBO"
"9239","SUB1","QGBObyPGBO"
"9240","TUBBP1","QGBObyPGBO"
"9241","SPG21","QGBObyPGBO"
"9242","MAPKAPK5-AS1","QGBObyPGBO"
"9243","RTN4RL1","QGBObyPGBO"
"9244","RNU6-878P","QGBObyPGBO"
"9245","AC100821.2","QGBObyPGBO"
"9246","GTF2IP13","QGBObyPGBO"
"9247","ZNF569","QGBObyPGBO"
"9248","SNRPD1","QGBObyPGBO"
"9249","LIN7B","QGBObyPGBO"
"9250","H3F3A","QGBObyPGBO"
"9251","HTATSF1","QGBObyPGBO"
"9252","HNRNPA1L2","QGBObyPGBO"
"9253","AMMECR1","QGBObyPGBO"
"9254","RPS27L","QGBObyPGBO"
"9255","MRPS36","QGBObyPGBO"
"9257","STOML2","QGBObyPGBO"
"9258","IVD","QGBObyPGBO"
"9259","RPL12P2","QGBObyPGBO"
"9260","LINC02019","QGBObyPGBO"
"9261","BX088651.4","QGBObyPGBO"
"9264","AL157394.1","QGBObyPGBO"
"9265","RPL4P5","QGBObyPGBO"
"9266","DKC1","QGBObyPGBO"
"9267","IRX1","QGBObyPGBO"
"9268","RUNDC3A-AS1","QGBObyPGBO"
"9269","PINK1","QGBObyPGBO"
"9270","PHB2","QGBObyPGBO"
"9271","AL365205.1","QGBObyPGBO"
"9272","PUS1","QGBObyPGBO"
"9273","SLC35F2","QGBObyPGBO"
"9274","RTRAF","QGBObyPGBO"
"9275","RNU6-1176P","QGBObyPGBO"
"9276","SH2D3A","QGBObyPGBO"
"9277","NOP53","QGBObyPGBO"
"9278","FOXO4","QGBObyPGBO"
"9279","LAS1L","QGBObyPGBO"
"9280","AL022324.3","QGBObyPGBO"
"9281","TMEM35A","QGBObyPGBO"
"9282","RANP1","QGBObyPGBO"
"9283","LINC01237","QGBObyPGBO"
"9284","AL596325.1","QGBObyPGBO"
"9285","MAP2K5","QGBObyPGBO"
"9286","PFN1","QGBObyPGBO"
"9288","RPL41","QGBObyPGBO"
"9289","IFT74","QGBObyPGBO"
"9290","EIF2S3","QGBObyPGBO"
"9291","CIAPIN1","QGBObyPGBO"
"9292","ATP5ME","QGBObyPGBO"
"9293","LAIR1","QGBObyPGBO"
"9294","CSK","QGBObyPGBO"
"9295","BEX3","QGBObyPGBO"
"9296","NRARP","QGBObyPGBO"
"9297","RNF181","QGBObyPGBO"
"9298","TFAP2B","QGBObyPGBO"
"9299","AC020656.2","QGBObyPGBO"
"9300","NKIRAS2","QGBObyPGBO"
"9301","CPAMD8","QGBObyPGBO"
"9302","PLEKHF1","QGBObyPGBO"
"9303","GRASP","QGBObyPGBO"
"9304","AL359504.2","QGBObyPGBO"
"9305","ELOF1","QGBObyPGBO"
"9306","RPLP2","QGBObyPGBO"
"9307","CRMP1","QGBObyPGBO"
"9308","PNMA3","QGBObyPGBO"
"9309","DPY30","QGBObyPGBO"
"9310","CDK5R1","QGBObyPGBO"
"9311","ZNF877P","QGBObyPGBO"
"9312","RNU6-1212P","QGBObyPGBO"
"9313","DOPEY2","QGBObyPGBO"
"9315","SETSIP","QGBObyPGBO"
"9316","AL161932.2","QGBObyPGBO"
"9317","SMAD9","QGBObyPGBO"
"9318","GFRA3","QGBObyPGBO"
"9319","COX7A2","QGBObyPGBO"
"9320","RPL37A","QGBObyPGBO"
"9321","NDUFB2","QGBObyPGBO"
"9322","TOMM22","QGBObyPGBO"
"9323","AL512604.3","QGBObyPGBO"
"9324","ARL3","QGBObyPGBO"
"9325","LINC00352","QGBObyPGBO"
"9326","CDC123","QGBObyPGBO"
"9327","HES7","QGBObyPGBO"
"9328","TXNIP","QGBObyPGBO"
"9329","PSMB9","QGBObyPGBO"
"9331","AC125603.4","QGBObyPGBO"
"9332","POLR2L","QGBObyPGBO"
"9333","FAM189B","QGBObyPGBO"
"9334","ID3","QGBObyPGBO"
"9335","HMGB3P6","QGBObyPGBO"
"9336","RPL7L1P9","QGBObyPGBO"
"9337","CCR4","QGBObyPGBO"
"9338","LRRC10B","QGBObyPGBO"
"9339","AC020899.1","QGBObyPGBO"
"9340","PPIA","QGBObyPGBO"
"9341","C11orf42","QGBObyPGBO"
"9342","CCL16","QGBObyPGBO"
"9343","SLC25A38","QGBObyPGBO"
"9344","AC026412.1","QGBObyPGBO"
"9346","LINC01578","QGBObyPGBO"
"9347","ZNRF2","QGBObyPGBO"
"9348","SLC6A8","QGBObyPGBO"
"9349","COPE","QGBObyPGBO"
"9350","GTF3A","QGBObyPGBO"
"9351","JTB","QGBObyPGBO"
"9352","GIPC1","QGBObyPGBO"
"9353","NTHL1","QGBObyPGBO"
"9354","AL035420.2","QGBObyPGBO"
"9355","EIF5A","QGBObyPGBO"
"9356","SLIRP","QGBObyPGBO"
"9358","DPP3","QGBObyPGBO"
"9359","ATP5F1C","QGBObyPGBO"
"9360","FAM110B","QGBObyPGBO"
"9361","EPB41L3","QGBObyPGBO"
"9362","RPS19","QGBObyPGBO"
"9363","AL049597.1","QGBObyPGBO"
"9365","LIPT2","QGBObyPGBO"
"9366","CTSV","QGBObyPGBO"
"9367","AC068775.1","QGBObyPGBO"
"9369","ITPK1","QGBObyPGBO"
"9370","PSMB3","QGBObyPGBO"
"9371","AC125257.1","QGBObyPGBO"
"9372","ATOX1","QGBObyPGBO"
"9373","GTF2E2","QGBObyPGBO"
"9374","H2AFJ","QGBObyPGBO"
"9375","SRP14","QGBObyPGBO"
"9377","KPNA2","QGBObyPGBO"
"9378","TAF7","QGBObyPGBO"
"9379","NOC2LP1","QGBObyPGBO"
"9380","HSP90AB3P","QGBObyPGBO"
"9381","MZT2B","QGBObyPGBO"
"9382","AL589765.6","QGBObyPGBO"
"9383","VPS37D","QGBObyPGBO"
"9384","HOXD13","QGBObyPGBO"
"9385","RPL18","QGBObyPGBO"
"9387","AC060814.3","QGBObyPGBO"
"9388","C19orf25","QGBObyPGBO"
"9389","BOD1","QGBObyPGBO"
"9390","KIF26A","QGBObyPGBO"
"9391","BIRC5","QGBObyPGBO"
"9392","NAP1L1","QGBObyPGBO"
"9393","AC099398.1","QGBObyPGBO"
"9394","TMEM109","QGBObyPGBO"
"9395","EVX2","QGBObyPGBO"
"9396","KCNIP2","QGBObyPGBO"
"9397","GAPDH","QGBObyPGBO"
"9399","TSC22D3","QGBObyPGBO"
"9400","P3H4","QGBObyPGBO"
"9401","RNF14","QGBObyPGBO"
"9402","MRPL24","QGBObyPGBO"
"9403","NUP37","QGBObyPGBO"
"9404","KCNAB2","QGBObyPGBO"
"9405","CHD1L","QGBObyPGBO"
"9406","ESF1","QGBObyPGBO"
"9407","HPRT1","QGBObyPGBO"
"9408","AC004947.1","QGBObyPGBO"
"9409","NDUFA6","QGBObyPGBO"
"9410","PIF1","QGBObyPGBO"
"9411","MTCO3P17","QGBObyPGBO"
"9412","MPST","QGBObyPGBO"
"9413","KCNK15","QGBObyPGBO"
"9414","EIF3J","QGBObyPGBO"
"9415","ATP6AP1","QGBObyPGBO"
"9416","PRELID3A","QGBObyPGBO"
"9417","AL445670.1","QGBObyPGBO"
"9418","AL137002.2","QGBObyPGBO"
"9419","FAM96B","QGBObyPGBO"
"9420","LSM10","QGBObyPGBO"
"9421","POLR2J","QGBObyPGBO"
"9423","AC009053.2","QGBObyPGBO"
"9424","CTDNEP1","QGBObyPGBO"
"9425","DUSP14","QGBObyPGBO"
"9426","HADHA","QGBObyPGBO"
"9427","TMA16","QGBObyPGBO"
"9429","PSMD4","QGBObyPGBO"
"9430","GNPDA1","QGBObyPGBO"
"9431","WNT11","QGBObyPGBO"
"9432","PDK3","QGBObyPGBO"
"9433","FDXR","QGBObyPGBO"
"9434","MRPL23","QGBObyPGBO"
"9435","RNF44","QGBObyPGBO"
"9436","CLK3","QGBObyPGBO"
"9437","CNOT4P1","QGBObyPGBO"
"9438","COX7C","QGBObyPGBO"
"9439","SLC25A3","QGBObyPGBO"
"9440","AC025459.1","QGBObyPGBO"
"9441","RPS16","QGBObyPGBO"
"9442","PRDX1","QGBObyPGBO"
"9443","NPM1P31","QGBObyPGBO"
"9444","TRAV30","QGBObyPGBO"
"9445","GNG5","QGBObyPGBO"
"9446","SORBS3","QGBObyPGBO"
"9447","AKR1B10P2","QGBObyPGBO"
"9449","OR8B9P","QGBObyPGBO"
"9450","ELOBP2","QGBObyPGBO"
"9451","PRAF2","QGBObyPGBO"
"9453","AL451081.2","QGBObyPGBO"
"9454","RPL13","QGBObyPGBO"
"9455","SMDT1","QGBObyPGBO"
"9456","ZIC5","QGBObyPGBO"
"9457","RPS27","QGBObyPGBO"
"9459","TIMM8A","QGBObyPGBO"
"9460","RILPL2","QGBObyPGBO"
"9461","XRCC6P2","QGBObyPGBO"
"9462","AC119403.1","QGBObyPGBO"
"9463","ARMCX6","QGBObyPGBO"
"9464","MRPL11","QGBObyPGBO"
"9465","LINC01672","QGBObyPGBO"
"9466","LSM4","QGBObyPGBO"
"9467","MRPL47","QGBObyPGBO"
"9468","FAM136A","QGBObyPGBO"
"9469","PNP","QGBObyPGBO"
"9470","TRAPPC1","QGBObyPGBO"
"9471","RNU12-2P","QGBObyPGBO"
"9472","NOSIP","QGBObyPGBO"
"9473","C8orf46","QGBObyPGBO"
"9474","TOMM7","QGBObyPGBO"
"9475","HARS","QGBObyPGBO"
"9476","GADD45GIP1","QGBObyPGBO"
"9477","HMGB1P25","QGBObyPGBO"
"9478","CENPV","QGBObyPGBO"
"9480","AC068418.2","QGBObyPGBO"
"9481","AC135178.5","QGBObyPGBO"
"9482","AL513165.1","QGBObyPGBO"
"9483","NABP2","QGBObyPGBO"
"9484","CCNB2","QGBObyPGBO"
"9485","PPP1R3G","QGBObyPGBO"
"9486","RPS23","QGBObyPGBO"
"9487","AP000357.1","QGBObyPGBO"
"9488","AC006946.3","QGBObyPGBO"
"9489","ANXA2P2","QGBObyPGBO"
"9490","RPL35AP26","QGBObyPGBO"
"9491","TUBB2A","QGBObyPGBO"
"9492","ZMAT2","QGBObyPGBO"
"9493","SLC39A4","QGBObyPGBO"
"9494","DMRT2","QGBObyPGBO"
"9495","ART5","QGBObyPGBO"
"9496","CD24","QGBObyPGBO"
"9497","RITA1","QGBObyPGBO"
"9498","EIF3I","QGBObyPGBO"
"9499","OPN1SW","QGBObyPGBO"
"9500","CLUH","QGBObyPGBO"
"9501","CYP2E1","QGBObyPGBO"
"9502","PES1","QGBObyPGBO"
"9503","NOL3","QGBObyPGBO"
"9504","PRR7","QGBObyPGBO"
"9506","CCT8","QGBObyPGBO"
"9507","MFSD2A","QGBObyPGBO"
"9508","ALKBH5","QGBObyPGBO"
"9509","C1QTNF12","QGBObyPGBO"
"9510","AC011912.1","QGBObyPGBO"
"9511","TKT","QGBObyPGBO"
"9512","CR769775.1","QGBObyPGBO"
"9513","MIR4682","QGBObyPGBO"
"9514","PPP1R9A","QGBObyPGBO"
"9515","LENG1","QGBObyPGBO"
"9516","TOP1MT","QGBObyPGBO"
"9517","RAB20","QGBObyPGBO"
"9518","C1orf122","QGBObyPGBO"
"9519","COL1A2","QGBObyPGBO"
"9520","BCAP31","QGBObyPGBO"
"9521","DOHH","QGBObyPGBO"
"9522","AC008736.1","QGBObyPGBO"
"9523","IDH2","QGBObyPGBO"
"9524","YWHAE","QGBObyPGBO"
"9525","CUTA","QGBObyPGBO"
"9526","TBCB","QGBObyPGBO"
"9527","CCDC28B","QGBObyPGBO"
"9528","SOD1","QGBObyPGBO"
"9530","AC018755.3","QGBObyPGBO"
"9531","DDT","QGBObyPGBO"
"9532","MRPL37","QGBObyPGBO"
"9533","TCEAL8","QGBObyPGBO"
"9534","NUTF2","QGBObyPGBO"
"9535","PDIA2","QGBObyPGBO"
"9536","BAG1","QGBObyPGBO"
"9537","CHCHD2","QGBObyPGBO"
"9538","AL391987.4","QGBObyPGBO"
"9539","MEMO1P1","QGBObyPGBO"
"9540","PAK4","QGBObyPGBO"
"9541","METTL26","QGBObyPGBO"
"9542","TPMTP1","QGBObyPGBO"
"9543","POMP","QGBObyPGBO"
"9544","ATP5PB","QGBObyPGBO"
"9545","HCAR1","QGBObyPGBO"
"9546","AL109618.1","QGBObyPGBO"
"9547","GCNA","QGBObyPGBO"
"9548","RPS5P3","QGBObyPGBO"
"9550","TMEM145","QGBObyPGBO"
"9551","ANAPC11","QGBObyPGBO"
"9552","OCIAD2","QGBObyPGBO"
"9553","TGFB2-AS1","QGBObyPGBO"
"9554","FRRS1L","QGBObyPGBO"
"9555","MESP1","QGBObyPGBO"
"9556","ARAF","QGBObyPGBO"
"9557","TCEANC","QGBObyPGBO"
"9558","ECHS1","QGBObyPGBO"
"9559","ZNHIT3","QGBObyPGBO"
"9560","PSMB8","QGBObyPGBO"
"9561","SNRPC","QGBObyPGBO"
"9562","BX005266.2","QGBObyPGBO"
"9563","RPSAP1","QGBObyPGBO"
"9564","GOT2","QGBObyPGBO"
"9565","SNHG15","QGBObyPGBO"
"9566","MTCH2","QGBObyPGBO"
"9567","LINC00323","QGBObyPGBO"
"9569","EEF1B2","QGBObyPGBO"
"9570","PPP2R1A","QGBObyPGBO"
"9571","UQCRC2","QGBObyPGBO"
"9572","CD7","QGBObyPGBO"
"9573","OR5C1","QGBObyPGBO"
"9574","HSPBP1","QGBObyPGBO"
"9575","CDC20","QGBObyPGBO"
"9576","AC121247.1","QGBObyPGBO"
"9577","AL590762.2","QGBObyPGBO"
"9579","NPM3","QGBObyPGBO"
"9581","LAPTM4B","QGBObyPGBO"
"9582","BLMH","QGBObyPGBO"
"9583","RPL7P41","QGBObyPGBO"
"9584","GPR162","QGBObyPGBO"
"9585","AC119751.2","QGBObyPGBO"
"9586","AC025035.1","QGBObyPGBO"
"9587","HPS6","QGBObyPGBO"
"9588","SEPT9","QGBObyPGBO"
"9589","PIFO","QGBObyPGBO"
"9590","CD320","QGBObyPGBO"
"9591","HLA-C","QGBObyPGBO"
"9592","PSMC1P1","QGBObyPGBO"
"9593","MIR668","QGBObyPGBO"
"9594","AC069154.1","QGBObyPGBO"
"9595","STOX1","QGBObyPGBO"
"9596","RASSF7","QGBObyPGBO"
"9597","SMIM3","QGBObyPGBO"
"9598","MRPL14","QGBObyPGBO"
"9599","AC018638.2","QGBObyPGBO"
"9600","KXD1","QGBObyPGBO"
"9601","PSMD10","QGBObyPGBO"
"9602","LINC01976","QGBObyPGBO"
"9603","ZDHHC11B","QGBObyPGBO"
"9604","C17orf58","QGBObyPGBO"
"9605","LAMTOR2","QGBObyPGBO"
"9606","DDX41","QGBObyPGBO"
"9607","PGP","QGBObyPGBO"
"9608","ADK","QGBObyPGBO"
"9609","PRKAR1B","QGBObyPGBO"
"9610","MAP2K3","QGBObyPGBO"
"9611","AC016876.1","QGBObyPGBO"
"9612","AL583810.2","QGBObyPGBO"
"9613","RPL30","QGBObyPGBO"
"9614","PAICS","QGBObyPGBO"
"9616","ASNA1","QGBObyPGBO"
"9617","CCDC8","QGBObyPGBO"
"9618","LINC00893","QGBObyPGBO"
"9619","TALDO1","QGBObyPGBO"
"9620","FAM98B","QGBObyPGBO"
"9621","EIF5AL1","QGBObyPGBO"
"9622","KPNA2P2","QGBObyPGBO"
"9623","MRTO4","QGBObyPGBO"
"9624","STIP1P3","QGBObyPGBO"
"9625","NDUFAF1","QGBObyPGBO"
"9626","RNU5B-2P","QGBObyPGBO"
"9627","HFE","QGBObyPGBO"
"9628","ACLY","QGBObyPGBO"
"9629","EEF2","QGBObyPGBO"
"9630","HNRNPH2","QGBObyPGBO"
"9631","AC119751.3","QGBObyPGBO"
"9632","RPS11","QGBObyPGBO"
"9633","NME7","QGBObyPGBO"
"9634","RNF10","QGBObyPGBO"
"9635","REEP1","QGBObyPGBO"
"9636","SLC35E2","QGBObyPGBO"
"9637","PIN1","QGBObyPGBO"
"9639","AL591926.6","QGBObyPGBO"
"9640","SNX11","QGBObyPGBO"
"9641","TMEM101","QGBObyPGBO"
"9642","NPAP1","QGBObyPGBO"
"9643","CUEDC2","QGBObyPGBO"
"9644","ELAC2","QGBObyPGBO"
"9645","PSMA6P4","QGBObyPGBO"
"9646","TMEM120A","QGBObyPGBO"
"9647","RPS27AP19","QGBObyPGBO"
"9648","ARHGAP27P2","QGBObyPGBO"
"9649","AC022417.1","QGBObyPGBO"
"9650","PTMA","QGBObyPGBO"
"9651","VDAC3","QGBObyPGBO"
"9652","PUSL1","QGBObyPGBO"
"9653","SEC61B","QGBObyPGBO"
"9654","ZNF764","QGBObyPGBO"
"9655","AHCY","QGBObyPGBO"
"9656","AC012150.1","QGBObyPGBO"
"9657","DCAF13P1","QGBObyPGBO"
"9659","ZNF48","QGBObyPGBO"
"9660","COX6A1","QGBObyPGBO"
"9661","NDUFC1","QGBObyPGBO"
"9662","CHCHD1","QGBObyPGBO"
"9663","UBL5","QGBObyPGBO"
"9664","FAU","QGBObyPGBO"
"9665","RPL29","QGBObyPGBO"
"9666","MRPS7","QGBObyPGBO"
"9667","SERP1","QGBObyPGBO"
"9668","PTRHD1","QGBObyPGBO"
"9669","SMCO4","QGBObyPGBO"
"9670","RDH14","QGBObyPGBO"
"9671","AC003005.2","QGBObyPGBO"
"9672","CCDC124","QGBObyPGBO"
"9673","ARMCX1","QGBObyPGBO"
"9674","MAPK15","QGBObyPGBO"
"9675","NDUFB4","QGBObyPGBO"
"9676","AC087289.2","QGBObyPGBO"
"9677","WRAP53","QGBObyPGBO"
"9678","HSPD1","QGBObyPGBO"
"9679","NME4","QGBObyPGBO"
"9680","RNF5","QGBObyPGBO"
"9681","DOLPP1","QGBObyPGBO"
"9684","GTF3C6","QGBObyPGBO"
"9685","SNRPA1","QGBObyPGBO"
"9686","EIF3G","QGBObyPGBO"
"9688","FAM72A","QGBObyPGBO"
"9689","TIMM8B","QGBObyPGBO"
"9690","THAP3","QGBObyPGBO"
"9691","AC091891.2","QGBObyPGBO"
"9692","COX7A2L","QGBObyPGBO"
"9693","HNRNPC","QGBObyPGBO"
"9694","TANGO6","QGBObyPGBO"
"9695","ALKAL2","QGBObyPGBO"
"9696","MRPL45","QGBObyPGBO"
"9697","DNAH11","QGBObyPGBO"
"9698","KARS","QGBObyPGBO"
"9699","BDH1","QGBObyPGBO"
"9700","CRABP2","QGBObyPGBO"
"9701","AKR1A1","QGBObyPGBO"
"9703","TMEM254-AS1","QGBObyPGBO"
"9704","MLF2","QGBObyPGBO"
"9705","NOP10","QGBObyPGBO"
"9706","MED18","QGBObyPGBO"
"9707","MRPS26","QGBObyPGBO"
"9708","MAGEC2","QGBObyPGBO"
"9709","MSRB1","QGBObyPGBO"
"9710","TSPO","QGBObyPGBO"
"9711","AC068389.3","QGBObyPGBO"
"9712","SDSL","QGBObyPGBO"
"9713","RHOBTB2","QGBObyPGBO"
"9715","SLC11A1","QGBObyPGBO"
"9716","MORF4L2","QGBObyPGBO"
"9717","RFX5","QGBObyPGBO"
"9718","POLR2I","QGBObyPGBO"
"9719","ZCCHC3","QGBObyPGBO"
"9720","ATP5MPL","QGBObyPGBO"
"9721","GRPEL2","QGBObyPGBO"
"9722","RNU6-703P","QGBObyPGBO"
"9723","C19orf53","QGBObyPGBO"
"9724","AC079228.1","QGBObyPGBO"
"9725","SNHG6","QGBObyPGBO"
"9726","NIM1K","QGBObyPGBO"
"9727","SAC3D1","QGBObyPGBO"
"9728","PDCD2","QGBObyPGBO"
"9730","AC084757.4","QGBObyPGBO"
"9731","TBC1D3L","QGBObyPGBO"
"9732","AC019193.2","QGBObyPGBO"
"9733","NAP1L1P1","QGBObyPGBO"
"9734","FGF2","QGBObyPGBO"
"9735","TRNP1","QGBObyPGBO"
"9736","CXorf40B","QGBObyPGBO"
"9737","RAN","QGBObyPGBO"
"9738","LAGE3","QGBObyPGBO"
"9739","AL353626.2","QGBObyPGBO"
"9740","AL121761.1","QGBObyPGBO"
"9741","PEX6","QGBObyPGBO"
"9742","AL445235.1","QGBObyPGBO"
"9743","MTATP6P17","QGBObyPGBO"
"9744","WFIKKN1","QGBObyPGBO"
"9745","AC010205.1","QGBObyPGBO"
"9746","AC022483.1","QGBObyPGBO"
"9747","SLC25A39","QGBObyPGBO"
"9748","IMP3","QGBObyPGBO"
"9749","NUDT1","QGBObyPGBO"
"9750","MRPL51","QGBObyPGBO"
"9751","HNRNPAB","QGBObyPGBO"
"9752","AC009336.3","QGBObyPGBO"
"9754","PARP1","QGBObyPGBO"
"9755","SLAMF9","QGBObyPGBO"
"9756","PYCR3","QGBObyPGBO"
"9757","PRDX6","QGBObyPGBO"
"9758","PPIAP59","QGBObyPGBO"
"9759","CHIC1","QGBObyPGBO"
"9760","CRIP1P2","QGBObyPGBO"
"9761","FOS","QGBObyPGBO"
"9763","CCNB1","QGBObyPGBO"
"9764","PARK7","QGBObyPGBO"
"9765","UBE2S","QGBObyPGBO"
"9767","AC027228.3","QGBObyPGBO"
"9768","FNDC8","QGBObyPGBO"
"9769","FARSA","QGBObyPGBO"
"9770","BLOC1S4","QGBObyPGBO"
"9771","TMEM258","QGBObyPGBO"
"9772","AP003072.4","QGBObyPGBO"
"9774","DBI","QGBObyPGBO"
"9775","LINC02265","QGBObyPGBO"
"9776","UBL4A","QGBObyPGBO"
"9777","GPR89B","QGBObyPGBO"
"9779","ACTBP11","QGBObyPGBO"
"9780","EIF3B","QGBObyPGBO"
"9781","HSPA8","QGBObyPGBO"
"9782","AC090666.1","QGBObyPGBO"
"9784","COTL1","QGBObyPGBO"
"9785","NENF","QGBObyPGBO"
"9786","COPRS","QGBObyPGBO"
"9788","RRP1","QGBObyPGBO"
"9789","AC131212.1","QGBObyPGBO"
"9790","GPRIN1","QGBObyPGBO"
"9791","AJUBA","QGBObyPGBO"
"9792","LY6E","QGBObyPGBO"
"9793","RNA5SP18","QGBObyPGBO"
"9794","POLR2G","QGBObyPGBO"
"9795","MYBBP1A","QGBObyPGBO"
"9796","AC092991.1","QGBObyPGBO"
"9797","RNU6-1150P","QGBObyPGBO"
"9798","AC112187.3","QGBObyPGBO"
"9799","AURKAIP1","QGBObyPGBO"
"9800","RNPEPL1","QGBObyPGBO"
"9801","AC080038.2","QGBObyPGBO"
"9802","AES","QGBObyPGBO"
"9803","NR2F6","QGBObyPGBO"
"9804","AL080243.2","QGBObyPGBO"
"9805","PFDN2","QGBObyPGBO"
"9806","TRMT112","QGBObyPGBO"
"9807","HDGFL2","QGBObyPGBO"
"9808","PSMB4","QGBObyPGBO"
"9809","SLC25A1","QGBObyPGBO"
"9810","C1orf43","QGBObyPGBO"
"9811","HCFC1R1","QGBObyPGBO"
"9812","NDUFS8","QGBObyPGBO"
"9813","AC112715.1","QGBObyPGBO"
"9814","BANF1","QGBObyPGBO"
"9815","Z95624.1","QGBObyPGBO"
"9817","NACA2","QGBObyPGBO"
"9818","SNRPE","QGBObyPGBO"
"9819","ZNHIT1","QGBObyPGBO"
"9820","TIMM10","QGBObyPGBO"
"9821","HINT2","QGBObyPGBO"
"9822","SETP14","QGBObyPGBO"
"9823","FZD9","QGBObyPGBO"
"9824","DHRSX","QGBObyPGBO"
"9825","GALNT12","QGBObyPGBO"
"9826","AC079949.1","QGBObyPGBO"
"9827","PMVK","QGBObyPGBO"
"9828","SNRPEP6","QGBObyPGBO"
"9829","MRPL10","QGBObyPGBO"
"9830","TSEN34","QGBObyPGBO"
"9831","RPS29P5","QGBObyPGBO"
"9832","NDUFB7","QGBObyPGBO"
"9833","G6PD","QGBObyPGBO"
"9834","AC005618.1","QGBObyPGBO"
"9836","ATP5MC1P1","QGBObyPGBO"
"9837","C14orf37","QGBObyPGBO"
"9838","BTF3","QGBObyPGBO"
"9839","CASP16P","QGBObyPGBO"
"9840","ATP2B3","QGBObyPGBO"
"9841","HSPB1P1","QGBObyPGBO"
"9842","PRMT1","QGBObyPGBO"
"9843","C20orf196","QGBObyPGBO"
"9844","AIP","QGBObyPGBO"
"9845","SERPINF1","QGBObyPGBO"
"9846","AC092809.2","QGBObyPGBO"
"9847","SSR2","QGBObyPGBO"
"9848","B4GAT1","QGBObyPGBO"
"9849","CIB1","QGBObyPGBO"
"9850","LGALS3BP","QGBObyPGBO"
"9851","OR4F15","QGBObyPGBO"
"9852","BTBD2","QGBObyPGBO"
"9853","ZNF358","QGBObyPGBO"
"9854","PBXIP1","QGBObyPGBO"
"9855","RPL23P8","QGBObyPGBO"
"9856","HIST1H1E","QGBObyPGBO"
"9857","ENO1","QGBObyPGBO"
"9858","FAM32A","QGBObyPGBO"
"9859","AL035414.1","QGBObyPGBO"
"9861","MRPL36","QGBObyPGBO"
"9862","BOP1","QGBObyPGBO"
"9863","AL645929.1","QGBObyPGBO"
"9864","RPS19BP1","QGBObyPGBO"
"9865","GGCT","QGBObyPGBO"
"9866","SNHG7","QGBObyPGBO"
"9867","MAP2K2","QGBObyPGBO"
"9868","MRPL20","QGBObyPGBO"
"9869","MRPL28","QGBObyPGBO"
"9870","TBCC","QGBObyPGBO"
"9871","MAZ","QGBObyPGBO"
"9872","AC104117.4","QGBObyPGBO"
"9873","RNY3P8","QGBObyPGBO"
"9874","CCDC85B","QGBObyPGBO"
"9875","ENDOG","QGBObyPGBO"
"9876","AL157713.1","QGBObyPGBO"
"9877","CCDC107","QGBObyPGBO"
"9878","PUF60","QGBObyPGBO"
"9879","AC026464.3","QGBObyPGBO"
"9880","AL023881.1","QGBObyPGBO"
"9881","ATP5F1E","QGBObyPGBO"
"9882","RPSAP61","QGBObyPGBO"
"9883","TUSC1","QGBObyPGBO"
"9884","TCEAL5","QGBObyPGBO"
"9885","BOLA2B","QGBObyPGBO"
"9886","AC027031.1","QGBObyPGBO"
"9887","MRPL54","QGBObyPGBO"
"9888","GCAT","QGBObyPGBO"
"9889","CLPP","QGBObyPGBO"
"9891","AC092953.2","QGBObyPGBO"
"9892","CDC34","QGBObyPGBO"
"9893","AC112907.2","QGBObyPGBO"
"9895","AC246787.1","QGBObyPGBO"
"9896","H1FX","QGBObyPGBO"
"9898","PTGES3","QGBObyPGBO"
"9899","AC093871.1","QGBObyPGBO"
"9900","PFDN6","QGBObyPGBO"
"9902","FTH1P2","QGBObyPGBO"
"9903","STK11","QGBObyPGBO"
"9904","AL049838.1","QGBObyPGBO"
"9907","WWC2-AS2","QGBObyPGBO"
"9908","MIR320A","QGBObyPGBO"
"9909","AP003721.4","QGBObyPGBO"
"9910","POLR2E","QGBObyPGBO"
"9911","AC093278.2","QGBObyPGBO"
"9912","PLA2G12AP1","QGBObyPGBO"
"9913","PPIAP21","QGBObyPGBO"
"9914","HMGB1P27","QGBObyPGBO"
"9915","MIR621","QGBObyPGBO"
"9916","AC253536.4","QGBObyPGBO"
"9917","LGALS1","QGBObyPGBO"
"9918","AC080023.1","QGBObyPGBO"
"9919","AC104561.3","QGBObyPGBO"
"9920","HMGN2P36","QGBObyPGBO"
"9921","MIR298","QGBObyPGBO"
"9922","RN7SL300P","QGBObyPGBO"
"9923","ELOB","QGBObyPGBO"
"9924","AC069218.1","QGBObyPGBO"
"9925","AC114814.3","QGBObyPGBO"
"9926","GNB2","QGBObyPGBO"
"9927","PTGES3P1","QGBObyPGBO"
"9928","RAC3","QGBObyPGBO"
"9929","IGFBP2","QGBObyPGBO"
"9930","AL121782.1","QGBObyPGBO"
"9931","MIR4666A","QGBObyPGBO"
"9932","AC093698.1","QGBObyPGBO"
"9933","TSSC4","QGBObyPGBO"
"9934","RPL23AP35","QGBObyPGBO"
"9935","AC105398.1","QGBObyPGBO"
"9936","DPM3","QGBObyPGBO"
