"","Term","Overlap","P.value","Adjusted.P.value","Old.P.value","Old.Adjusted.P.value","Odds.Ratio","Combined.Score","Genes","Overlap_Number"
"1","epilepsy","18/57",0.359975929001584,1,0,0,1.10165523699358,1.12558111063588,"LGI1;CNTNAP2;CSTB;GABRA1;JRK;ATP6AP2;CLN8;PCDH19;CLCN2;SYN1;KCTD7;ARHGEF9;CACNB4;KCNMA1;KCNQ3;NHLRC1;SLC25A22;POLG",18
"2","disorder_of_glycosylation","29/96",0.406291729505421,1,0,0,1.05384033955463,0.949176955167961,"HDAC2;B4GALT1;ADCY2;IQGAP1;PIK3R1;ADCY5;AKAP13;SLC9A3R1;DRD2;TSHB;MPDU1;LHCGR;CREBBP;ALG9;COG7;CSNK2A1;ALG6;CAV1;SLC35C1;ALG2;ALG3;COG1;ALG12;PTPN13;PTK2;GIPC1;GNAQ;ARHGEF4;PPARA",29
"3","leigh_syndrome","27/91",0.455173191440929,1,0,0,1.03507167871375,0.81468141383225,"HDAC2;COX15;ADCY2;IQGAP1;PIK3R1;ADCY5;AKAP13;SLC9A3R1;DRD2;TSHB;LHCGR;CREBBP;SURF1;PDHA1;CSNK2A1;CAV1;SDHA;PTPN13;PTK2;NDUFS8;NDUFS7;GIPC1;GNAQ;NDUFS4;NDUFS3;ARHGEF4;PPARA",27
"4","ceroid-lipofuscinosis,_neuronal","25/85",0.480302157143167,1,0,0,1.02605144621951,0.752444443500687,"HDAC2;ADCY2;IQGAP1;PIK3R1;CLN8;CLN6;ADCY5;CLN5;MFSD8;AKAP13;SLC9A3R1;DRD2;CTSD;TSHB;LHCGR;CREBBP;CSNK2A1;CAV1;PTPN13;PTK2;GIPC1;GNAQ;ARHGEF4;TPP1;PPARA",25
"5","glycogen_storage_disease","26/90",0.521198512357201,1,0,0,1.00781053162006,0.656713820106115,"HDAC2;ADCY2;PYGL;IQGAP1;PIK3R1;ADCY5;GYS1;AKAP13;SLC9A3R1;LAMP2;PHKG2;SLC37A4;DRD2;TSHB;LHCGR;CREBBP;CSNK2A1;GAA;CAV1;PTPN13;PTK2;GIPC1;GNAQ;ARHGEF4;PPARA;PFKM",26
"6","ataxia","17/59",0.539184301730633,1,0,0,1.00518260324556,0.620899116607184,"PRKCG;KCNC3;KCNA1;ITPR1;SLC1A3;SYNE1;ATXN2;ATCAY;CACNB4;ATXN1;FGF14;ATXN7;PPP2R2B;TTPA;ATXN10;POLG;SPTBN2",17
"7","bardet-biedl_syndrome","26/92",0.573584364680779,1,0,0,0.985901607019619,0.548013653056898,"HDAC2;ADCY2;IQGAP1;PIK3R1;ADCY5;AKAP13;SLC9A3R1;BBS7;DRD2;CEP290;BBS4;TSHB;BBS2;BBS1;LHCGR;CREBBP;CSNK2A1;CAV1;PTPN13;PTK2;TTC8;GIPC1;GNAQ;ARHGEF4;PPARA;TRIM32",26
"8","mitochondrial_dna_depletion_syndrome","23/83",0.617264346249062,1,0,0,0.966713531257421,0.466398588723425,"LHCGR;HDAC2;CREBBP;CSNK2A1;CAV1;ADCY2;IQGAP1;PIK3R1;PTPN13;PTK2;ADCY5;AKAP13;SLC9A3R1;DGUOK;RRM2B;GIPC1;GNAQ;ARHGEF4;TK2;MPV17;PPARA;DRD2;TSHB",23
"9","mucopolysaccharidosis","23/83",0.617264346249062,1,0,0,0.966713531257421,0.466398588723425,"LHCGR;HDAC2;CREBBP;CSNK2A1;IDUA;CAV1;ADCY2;IQGAP1;PIK3R1;PTPN13;GNS;PTK2;ADCY5;AKAP13;SLC9A3R1;HYAL1;GIPC1;GNAQ;IDS;ARHGEF4;PPARA;DRD2;TSHB",23
"10","encephalopathy","25/91",0.638209724299175,1,0,0,0.958399702512732,0.430406120131906,"HDAC2;GLDC;STXBP1;ADCY2;IQGAP1;PIK3R1;ADCY5;AKAP13;SLC9A3R1;DRD2;TSHB;COX10;LHCGR;CREBBP;CSNK2A1;CAV1;PTPN13;PTK2;MAPK10;ETHE1;GIPC1;GNAQ;ARHGEF4;SERPINI1;PPARA",25
"11","cardiomyopathy,_dilated","30/110",0.66165636635052,1,0,0,0.951429522858094,0.392948900507644,"HDAC2;PSEN2;ADCY2;PIK3R1;IQGAP1;TAZ;ADCY5;SLC9A3R1;AKAP13;PLN;TNNI3;DMD;DRD2;TSHB;FKTN;LHCGR;CREBBP;CSNK2A1;ACTN2;CAV1;PTPN13;PTK2;ACTC1;GNAQ;GIPC1;TNNT2;ARHGEF4;PPARA;VCL;MYH7",30
"12","hermansky-pudlak_syndrome","23/85",0.667950438085464,1,0,0,0.943967330521952,0.380929806247018,"LHCGR;HDAC2;CREBBP;CSNK2A1;CAV1;HPS1;HPS4;HPS3;ADCY2;HPS6;IQGAP1;PIK3R1;PTPN13;PTK2;ADCY5;AKAP13;SLC9A3R1;GIPC1;GNAQ;ARHGEF4;PPARA;DRD2;TSHB",23
"13","osteopetrosis","23/85",0.667950438085464,1,0,0,0.943967330521952,0.380929806247018,"LHCGR;HDAC2;CREBBP;CSNK2A1;CAV1;LRP5;ADCY2;TCIRG1;IQGAP1;PIK3R1;PTPN13;PTK2;ADCY5;AKAP13;SLC9A3R1;OSTM1;GIPC1;GNAQ;PLEKHM1;ARHGEF4;PPARA;DRD2;TSHB",23
"14","zellweger_syndrome","24/89",0.676976114205359,1,0,0,0.940739303500138,0.367000547760487,"PEX16;LHCGR;HDAC2;CREBBP;CSNK2A1;CAV1;ADCY2;PEX10;IQGAP1;PIK3R1;PTPN13;PEX13;PTK2;PEX26;ADCY5;AKAP13;SLC9A3R1;PEX3;GIPC1;GNAQ;ARHGEF4;PPARA;DRD2;TSHB",24
"15","cardiomyopathy","32/118",0.678373187692682,1,0,0,0.946054214819348,0.367123639843458,"HDAC2;COX15;PSEN2;ADCY2;PIK3R1;IQGAP1;TAZ;ADCY5;SLC9A3R1;AKAP13;PLN;MYO6;TNNI3;DMD;DRD2;TSHB;FKTN;LHCGR;CREBBP;CSNK2A1;ACTN2;CAV1;PTPN13;PTK2;ACTC1;GNAQ;GIPC1;TNNT2;ARHGEF4;PPARA;VCL;MYH7",32
"16","charcot-marie-tooth_disease","28/104",0.688176542850814,1,0,0,0.939231708462478,0.351000160594415,"RAB7;HDAC2;HSPB8;HSPB1;ADCY2;PIK3R1;IQGAP1;NDRG1;LITAF;ADCY5;SLC9A3R1;AKAP13;NEFL;KIF1B;DRD2;TSHB;LHCGR;CREBBP;CSNK2A1;CAV1;PTPN13;PTK2;DNM2;GNAQ;GIPC1;PMP22;ARHGEF4;PPARA",28
"17","adrenoleukodystrophy","22/83",0.707157926109221,1,0,0,0.924682508159272,0.32040365699961,"LHCGR;HDAC2;CREBBP;CSNK2A1;CAV1;ADCY2;PEX10;IQGAP1;PIK3R1;PTPN13;PEX13;PTK2;PEX26;ADCY5;AKAP13;SLC9A3R1;GIPC1;GNAQ;ARHGEF4;PPARA;DRD2;TSHB",22
"18","bare_lymphocyte_syndrome","22/83",0.707157926109221,1,0,0,0.924682508159272,0.32040365699961,"LHCGR;HDAC2;CREBBP;CSNK2A1;CAV1;TAP2;ADCY2;IQGAP1;PIK3R1;PTPN13;PTK2;TAPBP;ADCY5;AKAP13;SLC9A3R1;GIPC1;GNAQ;RFXAP;ARHGEF4;PPARA;DRD2;TSHB",22
"19","episodic_ataxia","22/83",0.707157926109221,1,0,0,0.924682508159272,0.32040365699961,"LHCGR;HDAC2;CREBBP;CSNK2A1;KCNA1;CAV1;SLC1A3;ADCY2;IQGAP1;PIK3R1;PTPN13;PTK2;ADCY5;AKAP13;SLC9A3R1;CACNB4;GIPC1;GNAQ;ARHGEF4;PPARA;DRD2;TSHB",22
"20","refsum_disease","22/83",0.707157926109221,1,0,0,0.924682508159272,0.32040365699961,"PHYH;LHCGR;HDAC2;CREBBP;CSNK2A1;CAV1;ADCY2;IQGAP1;PIK3R1;PTPN13;PTK2;PEX26;ADCY5;AKAP13;PEX7;SLC9A3R1;GIPC1;GNAQ;ARHGEF4;PPARA;DRD2;TSHB",22
"21","vitreoretinopathy","22/83",0.707157926109221,1,0,0,0.924682508159272,0.32040365699961,"LHCGR;HDAC2;CREBBP;CSNK2A1;FZD4;CAV1;LRP5;ADCY2;IQGAP1;PIK3R1;PTPN13;PTK2;ADCY5;AKAP13;SLC9A3R1;GIPC1;GNAQ;ARHGEF4;NDP;PPARA;DRD2;TSHB",22
"22","coronary_artery_disease","23/87",0.714899436223384,1,0,0,0.922266932119149,0.309525136017535,"MEF2A;KL;LHCGR;HDAC2;CREBBP;CSNK2A1;IRS1;PON2;CAV1;ADCY2;IQGAP1;PIK3R1;PTPN13;PTK2;ADCY5;AKAP13;SLC9A3R1;GIPC1;GNAQ;ARHGEF4;PPARA;DRD2;TSHB",23
"23","xeroderma_pigmentosum","23/87",0.714899436223384,1,0,0,0.922266932119149,0.309525136017535,"LHCGR;HDAC2;CREBBP;CSNK2A1;CAV1;XPA;ADCY2;XPC;IQGAP1;PIK3R1;PTPN13;PTK2;DDB2;ADCY5;AKAP13;SLC9A3R1;ERCC4;GIPC1;GNAQ;ARHGEF4;PPARA;DRD2;TSHB",23
"24","myopathy","32/120",0.718062863465149,1,0,0,0.930286644572359,0.308109225135296,"HDAC2;MTMR14;FHL1;ADCY2;PIK3R1;IQGAP1;MTM1;ADCY5;SLC9A3R1;AKAP13;CPT2;DRD2;TSHB;LHCGR;CREBBP;CSNK2A1;TPM2;CAV1;PTPN13;PTK2;DNM2;BIN1;GNAQ;GIPC1;CNTN1;ARHGEF4;ITGA7;PPARA;CRYAB;GNE;MYH7;PNPLA2",32
"25","macular_degeneration","25/95",0.729392889326102,1,0,0,0.918046030827986,0.289682768566884,"HDAC2;HTRA1;ADCY2;IQGAP1;PIK3R1;FBLN5;RPGR;ADCY5;CST3;AKAP13;SLC9A3R1;APOE;DRD2;TSHB;LHCGR;CREBBP;CSNK2A1;CAV1;PTPN13;PTK2;GIPC1;GNAQ;ARHGEF4;PPARA;TLR3",25
"26","amyloidosis","22/84",0.729909281313874,1,0,0,0.913674383062138,0.287656696991015,"LHCGR;HDAC2;CREBBP;GSN;CSNK2A1;CAV1;ADCY2;IQGAP1;PIK3R1;OSMR;PTPN13;PTK2;ADCY5;AKAP13;SLC9A3R1;TTR;GIPC1;GNAQ;ARHGEF4;PPARA;DRD2;TSHB",22
"27","parkinson_disease","26/99",0.736194620608025,1,0,0,0.916191392381869,0.280593476749179,"HDAC2;LRRK2;HTRA2;ADCY2;PIK3R1;IQGAP1;GIGYF2;ADCY5;SLC9A3R1;AKAP13;UCHL1;DRD2;FBXO7;TSHB;LHCGR;CREBBP;CSNK2A1;CAV1;PTPN13;PTK2;PINK1;GNAQ;GIPC1;ARHGEF4;ATP13A2;PPARA",26
"28","spinocerebellar_ataxia","30/114",0.74264980762364,1,0,0,0.918046030827986,0.273146848391159,"HDAC2;KCNC3;ITPR1;ADCY2;PIK3R1;IQGAP1;SYNE1;ADCY5;SLC9A3R1;AKAP13;ATXN2;ATXN7;DRD2;TSHB;SPTBN2;POLG;PRKCG;LHCGR;CREBBP;CSNK2A1;CAV1;PTPN13;PTK2;FGF14;PPP2R2B;GNAQ;GIPC1;ARHGEF4;ATXN10;PPARA",30
"29","leukoencephalopathy","22/85",0.751545684539131,1,0,0,0.902925272673172,0.25789647842749,"NOTCH3;LHCGR;HDAC2;CREBBP;EIF2B2;CSNK2A1;CAV1;MLC1;ADCY2;IQGAP1;PIK3R1;PTPN13;PTK2;ADCY5;AKAP13;SLC9A3R1;GIPC1;GNAQ;ARHGEF4;PPARA;DRD2;TSHB",22
"30","renal_cell_carcinoma","22/85",0.751545684539131,1,0,0,0.902925272673172,0.25789647842749,"LHCGR;HDAC2;CREBBP;CSNK2A1;CAV1;PRCC;ADCY2;IQGAP1;PIK3R1;PTPN13;PTK2;ADCY5;AKAP13;SLC9A3R1;RNF139;GIPC1;GNAQ;ARHGEF4;VHL;PPARA;DRD2;TSHB",22
"31","cardiomyopathy,_hypertrophic","24/93",0.763602252275366,1,0,0,0.90027739797325,0.242812230346076,"LHCGR;HDAC2;CREBBP;CSNK2A1;COX15;CAV1;ADCY2;IQGAP1;PIK3R1;PTPN13;PTK2;ADCY5;AKAP13;SLC9A3R1;TNNT2;GIPC1;GNAQ;MYO6;ARHGEF4;TNNI3;PPARA;DRD2;TSHB;MYH7",24
"32","complex_i","22/86",0.77204098570958,1,0,0,0.892426141595577,0.230886385289685,"LHCGR;HDAC2;CREBBP;CSNK2A1;CAV1;ADCY2;IQGAP1;PIK3R1;PTPN13;PTK2;ADCY5;AKAP13;SLC9A3R1;GIPC1;GNAQ;NDUFS4;ARHGEF4;NDUFS2;NDUFS1;PPARA;DRD2;TSHB",22
"33","hypercholesterolemia","22/86",0.77204098570958,1,0,0,0.892426141595577,0.230886385289685,"LHCGR;HDAC2;CREBBP;CSNK2A1;CAV1;EPHX2;PCSK9;ADCY2;IQGAP1;PIK3R1;PTPN13;PTK2;ADCY5;AKAP13;SLC9A3R1;GIPC1;GNAQ;ARHGEF4;PPARA;DRD2;LDLR;TSHB",22
"34","muscular_dystrophy","28/109",0.785145467115768,1,0,0,0.896147685138511,0.216765820873058,"HDAC2;LAMA2;ADCY2;PIK3R1;IQGAP1;ADCY5;SLC9A3R1;AKAP13;SEPN1;PABPN1;SGCB;LARGE;DMD;DRD2;TSHB;FKTN;LHCGR;CREBBP;FKRP;CSNK2A1;CAV1;PTPN13;PTK2;GNAQ;GIPC1;ARHGEF4;PPARA;TRIM32",28
"35","cholestasis","21/83",0.786488966652754,1,0,0,0.882651485061123,0.211992219423398,"HSD3B7;LHCGR;HDAC2;CREBBP;CSNK2A1;ABCB4;CAV1;ADCY2;IQGAP1;PIK3R1;PTPN13;PTK2;ADCY5;AKAP13;SLC9A3R1;GIPC1;GNAQ;ARHGEF4;PPARA;DRD2;TSHB",21
"36","homocystinuria","21/83",0.786488966652754,1,0,0,0.882651485061123,0.211992219423398,"LHCGR;HDAC2;CREBBP;CSNK2A1;CAV1;ADCY2;IQGAP1;PIK3R1;PTPN13;PTK2;ADCY5;AKAP13;SLC9A3R1;LMBRD1;CBS;GIPC1;GNAQ;ARHGEF4;PPARA;DRD2;TSHB",21
"37","infections","21/83",0.786488966652754,1,0,0,0.882651485061123,0.211992219423398,"LHCGR;HDAC2;CREBBP;CSNK2A1;CAV1;ADCY2;IQGAP1;PIK3R1;PTPN13;PTK2;RPGR;ADCY5;NKAIN2;AKAP13;SLC9A3R1;GIPC1;GNAQ;ARHGEF4;PPARA;DRD2;TSHB",21
"38","lipodystrophy","21/83",0.786488966652754,1,0,0,0.882651485061123,0.211992219423398,"LHCGR;HDAC2;CREBBP;CSNK2A1;CAV1;ADCY2;IQGAP1;PIK3R1;PTPN13;PTK2;ADCY5;ZMPSTE24;BSCL2;AKAP13;SLC9A3R1;GIPC1;GNAQ;ARHGEF4;PPARA;DRD2;TSHB",21
"39","lissencephaly","21/83",0.786488966652754,1,0,0,0.882651485061123,0.211992219423398,"LHCGR;HDAC2;CREBBP;CSNK2A1;CAV1;ADCY2;IQGAP1;PIK3R1;PTPN13;PTK2;ADCY5;AKAP13;SLC9A3R1;RELN;GIPC1;GNAQ;ARHGEF4;PPARA;DRD2;TSHB;PAFAH1B1",21
"40","lymphedema","21/83",0.786488966652754,1,0,0,0.882651485061123,0.211992219423398,"LHCGR;HDAC2;CREBBP;CSNK2A1;CAV1;ADCY2;IQGAP1;PIK3R1;PTPN13;PTK2;ADCY5;AKAP13;SLC9A3R1;SOX18;GIPC1;GNAQ;ARHGEF4;IKBKG;PPARA;DRD2;TSHB",21
"41","pheochromocytoma","21/83",0.786488966652754,1,0,0,0.882651485061123,0.211992219423398,"LHCGR;HDAC2;CREBBP;CSNK2A1;CAV1;ADCY2;IQGAP1;PIK3R1;PTPN13;PTK2;ADCY5;AKAP13;SLC9A3R1;GIPC1;GNAQ;ARHGEF4;KIF1B;VHL;PPARA;DRD2;TSHB",21
"42","colon_cancer","21/84",0.805348841662966,1,0,0,0.872143729286586,0.188801458005517,"LHCGR;HDAC2;CREBBP;CSNK2A1;SRC;CAV1;ADCY2;IQGAP1;PIK3R1;PTPN12;PTPN13;PTK2;ADCY5;AKAP13;SLC9A3R1;GIPC1;GNAQ;ARHGEF4;PPARA;DRD2;TSHB",21
"43","endometrial_cancer","21/84",0.805348841662966,1,0,0,0.872143729286586,0.188801458005517,"LHCGR;HDAC2;CREBBP;CSNK2A1;CAV1;ADCY2;IQGAP1;PIK3R1;PTPN13;PTK2;ADCY5;AKAP13;SLC9A3R1;MSH3;GIPC1;GNAQ;ARHGEF4;PPARA;DRD2;TSHB;JAZF1",21
"44","hypoglycemia","21/84",0.805348841662966,1,0,0,0.872143729286586,0.188801458005517,"LHCGR;HDAC2;CREBBP;SLC16A1;CSNK2A1;CAV1;INSR;ADCY2;IQGAP1;PIK3R1;PTPN13;PTK2;ADCY5;AKAP13;SLC9A3R1;GIPC1;GNAQ;ARHGEF4;PPARA;DRD2;TSHB",21
"45","nevus","21/84",0.805348841662966,1,0,0,0.872143729286586,0.188801458005517,"LHCGR;HDAC2;CREBBP;CSNK2A1;CAV1;PTCH1;ADCY2;IQGAP1;PIK3R1;KRT10;PTPN13;PTK2;ADCY5;AKAP13;SLC9A3R1;GIPC1;GNAQ;ARHGEF4;PPARA;DRD2;TSHB",21
"46","porphyria","21/84",0.805348841662966,1,0,0,0.872143729286586,0.188801458005517,"LHCGR;HDAC2;CREBBP;CSNK2A1;HFE;CAV1;ADCY2;IQGAP1;PIK3R1;PTPN13;PTK2;ADCY5;AKAP13;SLC9A3R1;GIPC1;GNAQ;HMBS;ARHGEF4;PPARA;DRD2;TSHB",21
"47","ehlers-danlos","22/88",0.809563489052651,1,0,0,0.872143729286586,0.184249153130889,"LHCGR;HDAC2;CREBBP;CSNK2A1;CAV1;SLC39A13;ADCY2;IQGAP1;PIK3R1;PTPN13;PTK2;ADCY5;AKAP13;SLC9A3R1;COL1A2;GIPC1;GNAQ;ARHGEF4;PPARA;DRD2;B4GALT7;TSHB",22
"48","cholesterol_level","23/92",0.813658522418666,1,0,0,0.872143729286586,0.179848688840811,"LHCGR;HDAC2;CREBBP;CSNK2A1;CAV1;PCSK9;LPL;ADCY2;IQGAP1;PIK3R1;HMGCR;PTPN13;PTK2;ADCY5;AKAP13;SLC9A3R1;GIPC1;GNAQ;ARHGEF4;PPARA;DRD2;PLTP;TSHB",23
"49","cone-rod_dystrophy","23/92",0.813658522418666,1,0,0,0.872143729286586,0.179848688840811,"SEMA4A;LHCGR;HDAC2;CREBBP;CSNK2A1;CAV1;ADCY2;IQGAP1;PIK3R1;PTPN13;PTK2;RPGR;ADCY5;AKAP13;SLC9A3R1;PITPNM3;GIPC1;GNAQ;ARHGEF4;PPARA;DRD2;PROM1;TSHB",23
"50","joubert_syndrome","21/85",0.823002982139818,1,0,0,0.861883214824391,0.167890932826943,"LHCGR;HDAC2;CREBBP;CSNK2A1;CAV1;ADCY2;IQGAP1;PIK3R1;PTPN13;PTK2;ADCY5;AKAP13;SLC9A3R1;ARL13B;GIPC1;GNAQ;ARHGEF4;PPARA;DRD2;CEP290;TSHB",21
"51","leukodystrophy","21/85",0.823002982139818,1,0,0,0.861883214824391,0.167890932826943,"LHCGR;HDAC2;CREBBP;CSNK2A1;CAV1;ADCY2;IQGAP1;PIK3R1;PTPN13;PTK2;ADCY5;AKAP13;SLC9A3R1;FA2H;GIPC1;GNAQ;PSAP;ARHGEF4;PPARA;DRD2;TSHB",21
"52","rickets","21/85",0.823002982139818,1,0,0,0.861883214824391,0.167890932826943,"LHCGR;HDAC2;CREBBP;CSNK2A1;CAV1;DMP1;ADCY2;IQGAP1;PIK3R1;PTPN13;PTK2;ADCY5;AKAP13;SLC9A3R1;GIPC1;GNAQ;CYP2R1;ARHGEF4;PPARA;DRD2;TSHB",21
"53","ovarian_cancer","22/89",0.826595298077621,1,0,0,0.862344361541793,0.164224916427165,"LHCGR;HDAC2;CREBBP;CSNK2A1;CAV1;RRAS2;ADCY2;IQGAP1;PIK3R1;PTPN13;PTK2;ADCY5;SEPT9;AKAP13;SLC9A3R1;GIPC1;GNAQ;ARHGEF4;PPARA;DRD2;TSHB;OPCML",22
"54","neuropathy","28/112",0.832496167905847,1,0,0,0.872143729286586,0.159887197151781,"HDAC2;DCTN1;HSPB8;HSPB1;ADCY2;PIK3R1;IQGAP1;ADCY5;SLC9A3R1;AKAP13;SPTLC1;DRD2;SNAP29;TSHB;POLG;LHCGR;CREBBP;CSNK2A1;CAV1;PTPN13;PTK2;BSCL2;GJB1;GNAQ;GIPC1;PMP22;ARHGEF4;PPARA",28
"55","chondrodysplasia","21/86",0.839467606476216,1,0,0,0.851861316977596,0.14906498841135,"LHCGR;HDAC2;CREBBP;CSNK2A1;CAV1;ADCY2;IQGAP1;PIK3R1;PTPN13;PTK2;ADCY5;AKAP13;PEX7;SLC9A3R1;EBP;GIPC1;GNAQ;ARHGEF4;PPARA;DRD2;TSHB",21
"56","tuberculosis","21/86",0.839467606476216,1,0,0,0.851861316977596,0.14906498841135,"LHCGR;HDAC2;CREBBP;CSNK2A1;IFNGR1;CAV1;ADCY2;IQGAP1;PIK3R1;PTPN13;TIRAP;PTK2;ADCY5;AKAP13;SLC9A3R1;GIPC1;GNAQ;ARHGEF4;PPARA;DRD2;TSHB",21
"57","leber_amaurosis","22/90",0.842493098735962,1,0,0,0.852762757524662,0.146154845452674,"LHCGR;HDAC2;CREBBP;CSNK2A1;CAV1;LCA5;ADCY2;IQGAP1;PIK3R1;PTPN13;RPE65;PTK2;ADCY5;AKAP13;SLC9A3R1;GIPC1;GNAQ;ARHGEF4;PPARA;DRD2;CEP290;TSHB",22
"58","ichthyosis","23/94",0.845469518826746,1,0,0,0.853587479727297,0.1432858936943,"LHCGR;HDAC2;CREBBP;CSNK2A1;CAV1;ADCY2;IQGAP1;PIK3R1;KRT10;PTPN13;PTK2;ADCY5;AKAP13;SLC9A3R1;GJB2;STS;GIPC1;GNAQ;ARHGEF4;PPARA;DRD2;SNAP29;TSHB",23
"59","blood","28/113",0.846471194036379,1,0,0,0.864425643186705,0.144081694687768,"SEMA7A;HDAC2;SLC2A1;ADCY2;PIK3R1;IQGAP1;ADCY5;C4A;RGS5;SLC9A3R1;AKAP13;BSG;GCNT2;DRD2;ERMAP;TSHB;SLC14A1;LHCGR;CREBBP;CSNK2A1;CAV1;ATP1B1;PTPN13;PTK2;GNAQ;GIPC1;ARHGEF4;PPARA",28
"60","arthrogryposis","20/83",0.852239413041522,1,0,0,0.840620461962975,0.134404948231504,"LHCGR;HDAC2;CREBBP;CSNK2A1;TPM2;CAV1;ADCY2;IQGAP1;PIK3R1;PTPN13;PTK2;ADCY5;AKAP13;SLC9A3R1;GIPC1;GNAQ;ARHGEF4;PPARA;DRD2;TSHB",20
"61","asperger_syndrome","20/83",0.852239413041522,1,0,0,0.840620461962975,0.134404948231504,"NLGN3;LHCGR;HDAC2;CREBBP;CSNK2A1;CAV1;ADCY2;IQGAP1;PIK3R1;PTPN13;PTK2;ADCY5;AKAP13;SLC9A3R1;GIPC1;GNAQ;ARHGEF4;PPARA;DRD2;TSHB",20
"62","atopy","20/83",0.852239413041522,1,0,0,0.840620461962975,0.134404948231504,"LHCGR;HDAC2;CREBBP;CSNK2A1;CAV1;ADCY2;IQGAP1;PIK3R1;PTPN13;PLA2G7;PTK2;ADCY5;AKAP13;SLC9A3R1;GIPC1;GNAQ;ARHGEF4;PPARA;DRD2;TSHB",20
"63","glioblastoma","20/83",0.852239413041522,1,0,0,0.840620461962975,0.134404948231504,"LGI1;LHCGR;HDAC2;CREBBP;CSNK2A1;CAV1;ADCY2;IQGAP1;PIK3R1;PTPN13;PTK2;ADCY5;AKAP13;SLC9A3R1;GIPC1;GNAQ;ARHGEF4;PPARA;DRD2;TSHB",20
"64","hemochromatosis","20/83",0.852239413041522,1,0,0,0.840620461962975,0.134404948231504,"LHCGR;HDAC2;CREBBP;CSNK2A1;HFE;CAV1;ADCY2;IQGAP1;PIK3R1;PTPN13;PTK2;ADCY5;AKAP13;SLC9A3R1;GIPC1;GNAQ;ARHGEF4;PPARA;DRD2;TSHB",20
"65","kallmann_syndrome","20/83",0.852239413041522,1,0,0,0.840620461962975,0.134404948231504,"LHCGR;HDAC2;CREBBP;CSNK2A1;CAV1;ADCY2;IQGAP1;PIK3R1;PTPN13;PTK2;ADCY5;AKAP13;SLC9A3R1;GIPC1;GNAQ;ARHGEF4;PPARA;DRD2;TSHB;FGFR1",20
"66","keratosis","20/83",0.852239413041522,1,0,0,0.840620461962975,0.134404948231504,"LHCGR;HDAC2;CREBBP;CSNK2A1;CAV1;ADCY2;IQGAP1;PIK3R1;PTPN13;SAT1;PTK2;ADCY5;AKAP13;SLC9A3R1;GIPC1;GNAQ;ARHGEF4;PPARA;DRD2;TSHB",20
"67","meckel_syndrome","20/83",0.852239413041522,1,0,0,0.840620461962975,0.134404948231504,"LHCGR;HDAC2;CREBBP;CSNK2A1;CAV1;ADCY2;IQGAP1;PIK3R1;PTPN13;PTK2;ADCY5;AKAP13;SLC9A3R1;GIPC1;GNAQ;ARHGEF4;PPARA;DRD2;CEP290;TSHB",20
"68","nephronophthisis","20/83",0.852239413041522,1,0,0,0.840620461962975,0.134404948231504,"INVS;LHCGR;HDAC2;CREBBP;CSNK2A1;CAV1;ADCY2;IQGAP1;PIK3R1;PTPN13;PTK2;ADCY5;AKAP13;SLC9A3R1;GIPC1;GNAQ;ARHGEF4;PPARA;DRD2;TSHB",20
"69","preeclampsia","20/83",0.852239413041522,1,0,0,0.840620461962975,0.134404948231504,"LHCGR;HDAC2;CREBBP;CSNK2A1;CAV1;EPHX1;ADCY2;IQGAP1;PIK3R1;PTPN13;PTK2;ADCY5;AKAP13;SLC9A3R1;GIPC1;GNAQ;ARHGEF4;PPARA;DRD2;TSHB",20
"70","diabetes_mellitus,_type_2","26/106",0.854087459959743,1,0,0,0.855688187224575,0.134960576996093,"HDAC2;IRS1;ADCY2;PIK3R1;IQGAP1;ADCY5;SLC9A3R1;AKAP13;AKT2;UCP3;DRD2;TSHB;TCF7L2;LHCGR;CREBBP;CSNK2A1;WFS1;INSR;CAV1;PTPN13;PTK2;GPD2;GNAQ;GIPC1;ARHGEF4;PPARA",26
"71","macular_dystrophy","21/87",0.854767811024804,1,0,0,0.842069807587049,0.132142152312724,"LHCGR;HDAC2;CREBBP;CSNK2A1;ELOVL4;CAV1;ADCY2;IQGAP1;PIK3R1;PTPN13;PTK2;ADCY5;AKAP13;SLC9A3R1;GIPC1;GNAQ;ARHGEF4;PPARA;DRD2;PROM1;TSHB",21
"72","osteoporosis","21/87",0.854767811024804,1,0,0,0.842069807587049,0.132142152312724,"LHCGR;HDAC2;CREBBP;CSNK2A1;CAV1;LRP5;ADCY2;IQGAP1;PIK3R1;PTPN13;PTK2;ADCY5;AKAP13;SLC9A3R1;COL1A2;GIPC1;GNAQ;ARHGEF4;PPARA;DRD2;TSHB",21
"73","alzheimer_disease","25/103",0.864681159087156,1,0,0,0.846741484744259,0.123111505872263,"APP;HDAC2;HFE;PSEN2;ADCY2;PIK3R1;IQGAP1;ADCY5;SLC9A3R1;AKAP13;APBB2;APOE;DRD2;TSHB;LHCGR;CREBBP;CSNK2A1;CAV1;PTPN13;SORL1;PTK2;GNAQ;GIPC1;ARHGEF4;PPARA",25
"74","adenoma","19/80",0.864870384337836,1,0,0,0.828536542822257,0.120283312903826,"LHCGR;HDAC2;CREBBP;CSNK2A1;CAV1;ADCY2;IQGAP1;PIK3R1;PTPN13;PTK2;ADCY5;AKAP13;SLC9A3R1;GIPC1;GNAQ;ARHGEF4;PPARA;DRD2;TSHB",19
"75","aids","20/84",0.866892694724866,1,0,0,0.830613075511035,0.118644834864058,"LHCGR;HDAC2;CREBBP;CSNK2A1;CAV1;ADCY2;IQGAP1;PIK3R1;PTPN13;PTK2;ADCY5;AKAP13;SLC9A3R1;CXCL12;GIPC1;GNAQ;ARHGEF4;PPARA;DRD2;TSHB",20
"76","amelogenesis_imperfecta","20/84",0.866892694724866,1,0,0,0.830613075511035,0.118644834864058,"LHCGR;HDAC2;CREBBP;CSNK2A1;CAV1;ADCY2;IQGAP1;PIK3R1;PTPN13;PTK2;ADCY5;FAM83H;AKAP13;SLC9A3R1;GIPC1;GNAQ;ARHGEF4;PPARA;DRD2;TSHB",20
"77","cutis_laxa","20/84",0.866892694724866,1,0,0,0.830613075511035,0.118644834864058,"LHCGR;HDAC2;CREBBP;CSNK2A1;CAV1;ADCY2;IQGAP1;PIK3R1;PTPN13;FBLN5;PTK2;ADCY5;AKAP13;SLC9A3R1;GIPC1;GNAQ;ARHGEF4;PPARA;DRD2;TSHB",20
"78","neutropenia","20/84",0.866892694724866,1,0,0,0.830613075511035,0.118644834864058,"LHCGR;HDAC2;CREBBP;CSNK2A1;CAV1;ADCY2;IQGAP1;PIK3R1;PTPN13;PTK2;ADCY5;AKAP13;SLC9A3R1;G6PC3;GIPC1;GNAQ;ARHGEF4;PPARA;DRD2;TSHB",20
"79","polydactyly","20/84",0.866892694724866,1,0,0,0.830613075511035,0.118644834864058,"LHCGR;HDAC2;CREBBP;CSNK2A1;CAV1;ADCY2;IQGAP1;PIK3R1;PTPN13;PTK2;ADCY5;AKAP13;SLC9A3R1;LMBR1;GIPC1;GNAQ;ARHGEF4;PPARA;DRD2;TSHB",20
"80","ectodermal_dysplasia","21/88",0.868936308782718,1,0,0,0.832500832500833,0.116954253199134,"LHCGR;HDAC2;CREBBP;CSNK2A1;CAV1;ADCY2;IQGAP1;PIK3R1;PTPN13;PTK2;ADCY5;AKAP13;SLC9A3R1;GIPC1;GJB6;GNAQ;ARHGEF4;IKBKG;PPARA;DRD2;TSHB",21
"81","long_qt_syndrome","21/88",0.868936308782718,1,0,0,0.832500832500833,0.116954253199134,"LHCGR;HDAC2;CREBBP;CSNK2A1;CAV1;ANK2;ADCY2;IQGAP1;PIK3R1;PTPN13;PTK2;ADCY5;AKAP13;SLC9A3R1;GIPC1;GNAQ;ARHGEF4;PPARA;DRD2;SCN4B;TSHB",21
"82","thrombophilia","21/88",0.868936308782718,1,0,0,0.832500832500833,0.116954253199134,"LHCGR;HDAC2;CREBBP;CSNK2A1;PROS1;CAV1;PLAT;ADCY2;IQGAP1;PIK3R1;PTPN13;PTK2;ADCY5;AKAP13;SLC9A3R1;GIPC1;GNAQ;ARHGEF4;PPARA;DRD2;TSHB",21
"83","leukemia","18/77",0.877315536931667,1,0,0,0.815511019592652,0.106741063070097,"LMO1;PDGFRB;NQO1;ARHGEF12;NOTCH1;ZBTB16;LMO2;MKL1;ACSL6;LPP;ETV6;BCR;SEPT9;BCL2;NF1;ABL2;NUP98;WHSC1L1",18
"84","hepatocellular_carcinoma","20/85",0.880397199679177,1,0,0,0.820841156975611,0.104560478609374,"LHCGR;HDAC2;CREBBP;CSNK2A1;CAV1;ADCY2;IQGAP1;PIK3R1;PTPN13;PDGFRL;PTK2;ADCY5;AKAP13;SLC9A3R1;GIPC1;GNAQ;ARHGEF4;PPARA;DRD2;TSHB",20
"85","optic_atrophy","20/85",0.880397199679177,1,0,0,0.820841156975611,0.104560478609374,"LHCGR;HDAC2;CREBBP;CSNK2A1;CAV1;ADCY2;IQGAP1;PIK3R1;PTPN13;PTK2;ADCY5;AKAP13;SLC9A3R1;OPA3;GIPC1;GNAQ;ARHGEF4;PPARA;DRD2;TSHB",20
"86","seizures","20/85",0.880397199679177,1,0,0,0.820841156975611,0.104560478609374,"LHCGR;HDAC2;CREBBP;CSNK2A1;CAV1;ADCY2;IQGAP1;PIK3R1;PTPN13;PTK2;ADCY5;AKAP13;SLC9A3R1;SCN2A1;GIPC1;GNAQ;ARHGEF4;PPARA;DRD2;TSHB",20
"87","waardenburg_syndrome","20/85",0.880397199679177,1,0,0,0.820841156975611,0.104560478609374,"LHCGR;HDAC2;CREBBP;CSNK2A1;CAV1;ADCY2;IQGAP1;PIK3R1;PTPN13;SOX10;PTK2;ADCY5;AKAP13;SLC9A3R1;GIPC1;GNAQ;ARHGEF4;PPARA;DRD2;TSHB",20
"88","bone_mineral_density","21/89",0.882012187886474,1,0,0,0.823146890562621,0.103345602012948,"LHCGR;HDAC2;CREBBP;CSNK2A1;CAV1;LRP5;ADCY2;IQGAP1;PIK3R1;PTPN13;FBXO33;PTK2;ADCY5;AKAP13;SLC9A3R1;GIPC1;GNAQ;ARHGEF4;PPARA;DRD2;TSHB",21
"89","dementia","21/89",0.882012187886474,1,0,0,0.823146890562621,0.103345602012948,"APP;LHCGR;HDAC2;CREBBP;CSNK2A1;CAV1;ADCY2;IQGAP1;PIK3R1;PTPN13;PTK2;ADCY5;AKAP13;SLC9A3R1;GIPC1;GNAQ;ARHGEF4;PPARA;DRD2;TSHB;ITM2B",21
"90","myocardial_infarction","22/93",0.883660181272883,1,0,0,0.82525428147548,0.102069678193041,"LHCGR;HDAC2;CREBBP;CSNK2A1;CAV1;ADCY2;IQGAP1;PIK3R1;PTPN13;PTK2;ADCY5;AKAP13;SLC9A3R1;LGALS2;GCLC;GIPC1;GNAQ;ARHGEF4;APOE;PPARA;DRD2;TSHB",22
"91","spastic_paraplegia","26/109",0.890412825495616,1,0,0,0.832137136200046,0.0965862197500308,"HDAC2;ADCY2;PIK3R1;IQGAP1;ADCY5;SLC9A3R1;AKAP13;ZFYVE26;ZFYVE27;DRD2;TSHB;LHCGR;CREBBP;CSNK2A1;CAV1;SLC33A1;NIPA1;CYP7B1;PTPN13;PTK2;GNAQ;GIPC1;PLP1;ARHGEF4;PNPLA6;PPARA",26
"92","brachydactyly","20/86",0.892800084706256,1,0,0,0.811296492359615,0.0919950125369782,"LHCGR;HDAC2;CREBBP;CSNK2A1;CAV1;ADCY2;IQGAP1;PIK3R1;PTPN13;PTK2;ADCY5;AKAP13;SLC9A3R1;GIPC1;GNAQ;ARHGEF4;PPARA;DRD2;BMPR1B;TSHB",20
"93","cone_dystrophy","20/86",0.892800084706256,1,0,0,0.811296492359615,0.0919950125369782,"LHCGR;HDAC2;CREBBP;CSNK2A1;CAV1;ADCY2;IQGAP1;PIK3R1;PTPN13;PTK2;RPGR;ADCY5;AKAP13;SLC9A3R1;GIPC1;GNAQ;ARHGEF4;PPARA;DRD2;TSHB",20
"94","holoprosencephaly","20/86",0.892800084706256,1,0,0,0.811296492359615,0.0919950125369782,"LHCGR;HDAC2;CREBBP;CSNK2A1;CAV1;PTCH1;ADCY2;IQGAP1;PIK3R1;PTPN13;PTK2;ADCY5;AKAP13;SLC9A3R1;GIPC1;GNAQ;ARHGEF4;PPARA;DRD2;TSHB",20
"95","hypothyroidism","20/86",0.892800084706256,1,0,0,0.811296492359615,0.0919950125369782,"LHCGR;HDAC2;CREBBP;CSNK2A1;CAV1;GLIS3;ADCY2;IQGAP1;PIK3R1;PTPN13;PTK2;ADCY5;AKAP13;SLC9A3R1;GIPC1;GNAQ;ARHGEF4;PPARA;DRD2;TSHB",20
"96","anomalies","21/90",0.894039715480804,1,0,0,0.814000814000814,0.0911722265528598,"LHCGR;HDAC2;CREBBP;CSNK2A1;CAV1;ADCY2;IQGAP1;PIK3R1;PTPN13;PTK2;GLI2;ADCY5;AKAP13;SLC9A3R1;GIPC1;GNAQ;ARHGEF4;PPARA;DRD2;TSHB;SLC29A3",21
"97","arrhythmogenic_right_ventricular_dysplasia","21/90",0.894039715480804,1,0,0,0.814000814000814,0.0911722265528598,"LHCGR;HDAC2;CREBBP;CSNK2A1;JUP;CAV1;ADCY2;IQGAP1;PIK3R1;PTPN13;PTK2;ADCY5;AKAP13;SLC9A3R1;GIPC1;GNAQ;PKP2;ARHGEF4;PPARA;DRD2;TSHB",21
"98","hypogonadism","21/90",0.894039715480804,1,0,0,0.814000814000814,0.0911722265528598,"LHCGR;HDAC2;CREBBP;CSNK2A1;CAV1;ADCY2;IQGAP1;PIK3R1;PTPN13;PTK2;ADCY5;AKAP13;SLC9A3R1;GIPC1;GNAQ;ARHGEF4;PPARA;DRD2;TSHB;SLC29A3;FGFR1",21
"99","melanoma","21/90",0.894039715480804,1,0,0,0.814000814000814,0.0911722265528598,"LHCGR;HDAC2;CREBBP;CSNK2A1;CAV1;XRCC3;ADCY2;IQGAP1;PIK3R1;PTPN13;PTK2;ADCY5;AKAP13;SLC9A3R1;GIPC1;GNAQ;NF1;ARHGEF4;PPARA;DRD2;TSHB",21
"100","dystonia","22/94",0.895329529701416,1,0,0,0.816474980608719,0.0902722816008215,"LHCGR;HDAC2;CREBBP;CSNK2A1;CAV1;SLC2A1;ADCY2;IQGAP1;PIK3R1;PTPN13;PTK2;ADCY5;SGCE;AKAP13;SLC9A3R1;SPR;GIPC1;GNAQ;ARHGEF4;PPARA;DRD2;TSHB",22
"101","adenocarcinoma","19/83",0.903315645758199,1,0,0,0.798589438864826,0.081203157029324,"LHCGR;HDAC2;CREBBP;CSNK2A1;CAV1;ADCY2;IQGAP1;PIK3R1;PTPN13;PTK2;ADCY5;AKAP13;SLC9A3R1;GIPC1;GNAQ;ARHGEF4;PPARA;DRD2;TSHB",19
"102","autoimmune_disease","19/83",0.903315645758199,1,0,0,0.798589438864826,0.081203157029324,"LHCGR;HDAC2;CREBBP;CSNK2A1;CAV1;ADCY2;IQGAP1;PIK3R1;PTPN13;PTK2;ADCY5;AKAP13;SLC9A3R1;GIPC1;GNAQ;ARHGEF4;PPARA;DRD2;TSHB",19
"103","bartter_syndrome","19/83",0.903315645758199,1,0,0,0.798589438864826,0.081203157029324,"LHCGR;HDAC2;CREBBP;CSNK2A1;CAV1;ADCY2;IQGAP1;PIK3R1;PTPN13;PTK2;ADCY5;AKAP13;SLC9A3R1;GIPC1;GNAQ;ARHGEF4;PPARA;DRD2;TSHB",19
"104","central_hypoventilation_syndrome","19/83",0.903315645758199,1,0,0,0.798589438864826,0.081203157029324,"LHCGR;HDAC2;CREBBP;CSNK2A1;CAV1;ADCY2;IQGAP1;PIK3R1;PTPN13;PTK2;ADCY5;AKAP13;SLC9A3R1;GIPC1;GNAQ;ARHGEF4;PPARA;DRD2;TSHB",19
"105","dyskeratosis","19/83",0.903315645758199,1,0,0,0.798589438864826,0.081203157029324,"LHCGR;HDAC2;CREBBP;CSNK2A1;CAV1;ADCY2;IQGAP1;PIK3R1;PTPN13;PTK2;ADCY5;AKAP13;SLC9A3R1;GIPC1;GNAQ;ARHGEF4;PPARA;DRD2;TSHB",19
"106","fetal_hemoglobin_quantitative_trait_locus","19/83",0.903315645758199,1,0,0,0.798589438864826,0.081203157029324,"LHCGR;HDAC2;CREBBP;CSNK2A1;CAV1;ADCY2;IQGAP1;PIK3R1;PTPN13;PTK2;ADCY5;AKAP13;SLC9A3R1;GIPC1;GNAQ;ARHGEF4;PPARA;DRD2;TSHB",19
"107","goiter","19/83",0.903315645758199,1,0,0,0.798589438864826,0.081203157029324,"LHCGR;HDAC2;CREBBP;CSNK2A1;CAV1;ADCY2;IQGAP1;PIK3R1;PTPN13;PTK2;ADCY5;AKAP13;SLC9A3R1;GIPC1;GNAQ;ARHGEF4;PPARA;DRD2;TSHB",19
"108","lymphoproliferative_syndrome","19/83",0.903315645758199,1,0,0,0.798589438864826,0.081203157029324,"LHCGR;HDAC2;CREBBP;CSNK2A1;CAV1;ADCY2;IQGAP1;PIK3R1;PTPN13;PTK2;ADCY5;AKAP13;SLC9A3R1;GIPC1;GNAQ;ARHGEF4;PPARA;DRD2;TSHB",19
"109","malignant_hyperthermia","19/83",0.903315645758199,1,0,0,0.798589438864826,0.081203157029324,"LHCGR;HDAC2;CREBBP;CSNK2A1;CAV1;ADCY2;IQGAP1;PIK3R1;PTPN13;PTK2;ADCY5;AKAP13;SLC9A3R1;GIPC1;GNAQ;ARHGEF4;PPARA;DRD2;TSHB",19
"110","otosclerosis","19/83",0.903315645758199,1,0,0,0.798589438864826,0.081203157029324,"LHCGR;HDAC2;CREBBP;CSNK2A1;CAV1;ADCY2;IQGAP1;PIK3R1;PTPN13;PTK2;ADCY5;AKAP13;SLC9A3R1;GIPC1;GNAQ;ARHGEF4;PPARA;DRD2;TSHB",19
"111","paget_disease","19/83",0.903315645758199,1,0,0,0.798589438864826,0.081203157029324,"LHCGR;HDAC2;CREBBP;CSNK2A1;CAV1;ADCY2;IQGAP1;PIK3R1;PTPN13;PTK2;ADCY5;AKAP13;SLC9A3R1;GIPC1;GNAQ;ARHGEF4;PPARA;DRD2;TSHB",19
"112","restless_legs_syndrome","19/83",0.903315645758199,1,0,0,0.798589438864826,0.081203157029324,"LHCGR;HDAC2;CREBBP;CSNK2A1;CAV1;ADCY2;IQGAP1;PIK3R1;PTPN13;PTK2;ADCY5;AKAP13;SLC9A3R1;GIPC1;GNAQ;ARHGEF4;PPARA;DRD2;TSHB",19
"113","gastric_cancer","20/87",0.904152980071659,1,0,0,0.801971245320999,0.0808039819187851,"LHCGR;HDAC2;CREBBP;CSNK2A1;CAV1;ADCY2;IQGAP1;PIK3R1;PTPN13;PTK2;ADCY5;AKAP13;SLC9A3R1;GIPC1;GNAQ;ARHGEF4;PPARA;DRD2;TSHB;FGFR2",20
"114","hirschsprung_disease","20/87",0.904152980071659,1,0,0,0.801971245320999,0.0808039819187851,"LHCGR;HDAC2;CREBBP;CSNK2A1;CAV1;ADCY2;IQGAP1;PIK3R1;PTPN13;PTK2;ADCY5;AKAP13;SLC9A3R1;EDNRB;GIPC1;GNAQ;ARHGEF4;PPARA;DRD2;TSHB",20
"115","hypotrichosis","20/87",0.904152980071659,1,0,0,0.801971245320999,0.0808039819187851,"LHCGR;HDAC2;CREBBP;CSNK2A1;CAV1;ADCY2;IQGAP1;PIK3R1;PTPN13;PTK2;ADCY5;AKAP13;SLC9A3R1;SOX18;GIPC1;GNAQ;ARHGEF4;PPARA;DRD2;TSHB",20
"116","major_affective_disorder","20/87",0.904152980071659,1,0,0,0.801971245320999,0.0808039819187851,"LHCGR;HDAC2;CREBBP;XBP1;CSNK2A1;CAV1;ADCY2;IQGAP1;PIK3R1;PTPN13;PTK2;ADCY5;AKAP13;SLC9A3R1;GIPC1;GNAQ;ARHGEF4;PPARA;DRD2;TSHB",20
"117","nephropathy","20/87",0.904152980071659,1,0,0,0.801971245320999,0.0808039819187851,"LHCGR;HDAC2;CREBBP;CSNK2A1;CAV1;ADCY2;IQGAP1;PIK3R1;PTPN13;PTK2;ADCY5;AKAP13;SLC9A3R1;COL4A1;GIPC1;GNAQ;ARHGEF4;PPARA;DRD2;TSHB",20
"118","lymphoma","23/99",0.907074361658132,1,0,0,0.810477000953191,0.079046507432822,"LHCGR;CREBBP;HDAC2;CSNK2A1;CAV1;ADCY2;PIK3R1;IQGAP1;PTPN13;PTK2;MALT1;ADCY5;SLC9A3R1;AKAP13;BCL6;MYC;GNAQ;GIPC1;BCL2;ARHGEF4;DRD2;PPARA;TSHB",23
"119","obesity","25/107",0.909252361653236,1,0,0,0.815087597464099,0.0775414005441452,"FTO;HDAC2;SDC3;ADCY2;PIK3R1;IQGAP1;ADCY5;SLC9A3R1;AKAP13;UCP3;UCP2;DRD2;PPARGC1B;TSHB;NTRK2;LHCGR;CREBBP;CSNK2A1;CAV1;PTPN13;PTK2;GNAQ;GIPC1;ARHGEF4;PPARA",25
"120","colorectal_cancer","26/111",0.910385645170555,1,0,0,0.817143674286531,0.0767191545352833,"HDAC2;ADCY2;PIK3R1;IQGAP1;ADCY5;SLC9A3R1;AKAP13;FLCN;DRD2;TSHB;PMS1;LHCGR;CREBBP;CSNK2A1;CAV1;MCC;PTPN13;PDGFRL;PTK2;SMAD7;GNAQ;GIPC1;DLC1;ARHGEF4;PPARA;FGFR3",26
"121","body_mass_index","19/84",0.913962331617492,1,0,0,0.789082421735483,0.0709905268554663,"LHCGR;HDAC2;CREBBP;CSNK2A1;CAV1;ADCY2;IQGAP1;PIK3R1;PTPN13;PTK2;ADCY5;AKAP13;SLC9A3R1;GIPC1;GNAQ;ARHGEF4;PPARA;DRD2;TSHB",19
"122","dermatitis","19/84",0.913962331617492,1,0,0,0.789082421735483,0.0709905268554663,"LHCGR;HDAC2;CREBBP;CSNK2A1;CAV1;ADCY2;IQGAP1;PIK3R1;PTPN13;PTK2;ADCY5;AKAP13;SLC9A3R1;GIPC1;GNAQ;ARHGEF4;PPARA;DRD2;TSHB",19
"123","dyslexia","19/84",0.913962331617492,1,0,0,0.789082421735483,0.0709905268554663,"LHCGR;HDAC2;CREBBP;CSNK2A1;CAV1;ADCY2;IQGAP1;PIK3R1;PTPN13;PTK2;ADCY5;AKAP13;SLC9A3R1;GIPC1;GNAQ;ARHGEF4;PPARA;DRD2;TSHB",19
"124","epiphyseal_dysplasia,_multiple","19/84",0.913962331617492,1,0,0,0.789082421735483,0.0709905268554663,"LHCGR;HDAC2;CREBBP;CSNK2A1;CAV1;ADCY2;IQGAP1;PIK3R1;PTPN13;PTK2;ADCY5;AKAP13;SLC9A3R1;GIPC1;GNAQ;ARHGEF4;PPARA;DRD2;TSHB",19
"125","night_blindness","19/84",0.913962331617492,1,0,0,0.789082421735483,0.0709905268554663,"LHCGR;HDAC2;CREBBP;CSNK2A1;CAV1;ADCY2;IQGAP1;PIK3R1;PTPN13;PTK2;ADCY5;AKAP13;SLC9A3R1;GIPC1;GNAQ;ARHGEF4;PPARA;DRD2;TSHB",19
"126","ovarian_failure","19/84",0.913962331617492,1,0,0,0.789082421735483,0.0709905268554663,"LHCGR;HDAC2;CREBBP;CSNK2A1;CAV1;ADCY2;IQGAP1;PIK3R1;PTPN13;PTK2;ADCY5;AKAP13;SLC9A3R1;GIPC1;GNAQ;ARHGEF4;PPARA;DRD2;TSHB",19
"127","pseudohypoaldosteronism","19/84",0.913962331617492,1,0,0,0.789082421735483,0.0709905268554663,"LHCGR;HDAC2;CREBBP;CSNK2A1;CAV1;ADCY2;IQGAP1;PIK3R1;PTPN13;PTK2;ADCY5;AKAP13;SLC9A3R1;GIPC1;GNAQ;ARHGEF4;PPARA;DRD2;TSHB",19
"128","sarcoma","19/84",0.913962331617492,1,0,0,0.789082421735483,0.0709905268554663,"LHCGR;HDAC2;CREBBP;CSNK2A1;CAV1;ADCY2;IQGAP1;PIK3R1;PTPN13;PTK2;ADCY5;AKAP13;SLC9A3R1;GIPC1;GNAQ;ARHGEF4;PPARA;DRD2;TSHB",19
"129","squamous_cell_carcinoma","19/84",0.913962331617492,1,0,0,0.789082421735483,0.0709905268554663,"LHCGR;HDAC2;CREBBP;CSNK2A1;CAV1;ADCY2;IQGAP1;PIK3R1;PTPN13;PTK2;ADCY5;AKAP13;SLC9A3R1;GIPC1;GNAQ;ARHGEF4;PPARA;DRD2;TSHB",19
"130","wilms_tumor","19/84",0.913962331617492,1,0,0,0.789082421735483,0.0709905268554663,"LHCGR;HDAC2;CREBBP;CSNK2A1;CAV1;ADCY2;IQGAP1;PIK3R1;PTPN13;PTK2;ADCY5;AKAP13;SLC9A3R1;GIPC1;GNAQ;ARHGEF4;PPARA;DRD2;TSHB",19
"131","alopecia","20/88",0.914510802566467,1,0,0,0.792857935715078,0.0708545412385035,"RBM28;LHCGR;HDAC2;CREBBP;CSNK2A1;CAV1;ADCY2;IQGAP1;PIK3R1;PTPN13;PTK2;ADCY5;AKAP13;SLC9A3R1;GIPC1;GNAQ;ARHGEF4;PPARA;DRD2;TSHB",20
"132","pancreatic_cancer","20/88",0.914510802566467,1,0,0,0.792857935715078,0.0708545412385035,"LHCGR;HDAC2;CREBBP;CSNK2A1;CAV1;ADCY2;IQGAP1;PIK3R1;PTPN13;PTK2;ADCY5;AKAP13;SLC9A3R1;PALLD;GIPC1;GNAQ;ARHGEF4;PPARA;DRD2;TSHB",20
"133","autism","22/96",0.915854074469214,1,0,0,0.799465085179371,0.070271569409173,"NLGN3;CNTNAP2;LHCGR;HDAC2;CREBBP;CSNK2A1;NRXN1;CAV1;ADCY2;IQGAP1;PIK3R1;PTPN13;PTK2;ADCY5;AKAP13;SLC9A3R1;GIPC1;GNAQ;ARHGEF4;PPARA;DRD2;TSHB",22
"134","atrial_fibrillation","19/85",0.923624998310978,1,0,0,0.77979909912683,0.0619543644468354,"LHCGR;HDAC2;CREBBP;CSNK2A1;CAV1;ADCY2;IQGAP1;PIK3R1;PTPN13;PTK2;ADCY5;AKAP13;SLC9A3R1;GIPC1;GNAQ;ARHGEF4;PPARA;DRD2;TSHB",19
"135","diamond-blackfan_anemia","19/85",0.923624998310978,1,0,0,0.77979909912683,0.0619543644468354,"LHCGR;HDAC2;CREBBP;CSNK2A1;CAV1;ADCY2;IQGAP1;PIK3R1;PTPN13;PTK2;ADCY5;AKAP13;SLC9A3R1;GIPC1;GNAQ;ARHGEF4;PPARA;DRD2;TSHB",19
"136","myasthenic_syndrome","19/85",0.923624998310978,1,0,0,0.77979909912683,0.0619543644468354,"LHCGR;HDAC2;CREBBP;CSNK2A1;CAV1;ADCY2;IQGAP1;PIK3R1;PTPN13;PTK2;ADCY5;AKAP13;SLC9A3R1;GIPC1;GNAQ;ARHGEF4;PPARA;DRD2;TSHB",19
"137","osteoarthritis","19/85",0.923624998310978,1,0,0,0.77979909912683,0.0619543644468354,"LHCGR;HDAC2;CREBBP;CSNK2A1;CAV1;ADCY2;IQGAP1;PIK3R1;PTPN13;PTK2;ADCY5;AKAP13;SLC9A3R1;GIPC1;GNAQ;ARHGEF4;PPARA;DRD2;TSHB",19
"138","split-hand/foot_malformation","19/85",0.923624998310978,1,0,0,0.77979909912683,0.0619543644468354,"LHCGR;HDAC2;CREBBP;CSNK2A1;CAV1;ADCY2;IQGAP1;PIK3R1;PTPN13;PTK2;ADCY5;AKAP13;SLC9A3R1;GIPC1;GNAQ;ARHGEF4;PPARA;DRD2;TSHB",19
"139","thalassemia","19/85",0.923624998310978,1,0,0,0.77979909912683,0.0619543644468354,"LHCGR;HDAC2;CREBBP;CSNK2A1;CAV1;ADCY2;IQGAP1;PIK3R1;PTPN13;PTK2;ADCY5;AKAP13;SLC9A3R1;GIPC1;GNAQ;ARHGEF4;PPARA;DRD2;TSHB",19
"140","ciliary_dyskinesia","20/89",0.923930668867813,1,0,0,0.783949419583448,0.062024701343465,"LHCGR;HDAC2;CREBBP;CSNK2A1;CAV1;ADCY2;RSPH9;IQGAP1;PIK3R1;PTPN13;PTK2;ADCY5;AKAP13;SLC9A3R1;GIPC1;GNAQ;ARHGEF4;PPARA;DRD2;TSHB",20
"141","fibrosis","20/89",0.923930668867813,1,0,0,0.783949419583448,0.062024701343465,"LHCGR;HDAC2;CREBBP;CSNK2A1;CAV1;ADCY2;IQGAP1;PIK3R1;PTPN13;PTK2;ADCY5;AKAP13;SLC9A3R1;GIPC1;GNAQ;ARHGEF4;PPARA;DRD2;TSHB;CFTR",20
"142","thyroid_carcinoma","21/93",0.924329280384693,1,0,0,0.787742723226594,0.0619850382215466,"NDUFA13;LHCGR;HDAC2;CREBBP;CSNK2A1;CAV1;NCOA4;ADCY2;IQGAP1;PIK3R1;PTPN13;PTK2;ADCY5;AKAP13;SLC9A3R1;GIPC1;GNAQ;ARHGEF4;PPARA;DRD2;TSHB",21
"143","albinism","19/86",0.932366369086424,1,0,0,0.770731667741634,0.0539739083631093,"LHCGR;HDAC2;CREBBP;CSNK2A1;CAV1;ADCY2;IQGAP1;PIK3R1;PTPN13;PTK2;ADCY5;AKAP13;SLC9A3R1;GIPC1;GNAQ;ARHGEF4;PPARA;DRD2;TSHB",19
"144","attention-deficit_hyperactivity_disorder","19/86",0.932366369086424,1,0,0,0.770731667741634,0.0539739083631093,"LHCGR;HDAC2;CREBBP;CSNK2A1;CAV1;ADCY2;IQGAP1;PIK3R1;PTPN13;PTK2;ADCY5;AKAP13;SLC9A3R1;GIPC1;GNAQ;ARHGEF4;PPARA;DRD2;TSHB",19
"145","coloboma","19/86",0.932366369086424,1,0,0,0.770731667741634,0.0539739083631093,"LHCGR;HDAC2;CREBBP;CSNK2A1;CAV1;ADCY2;IQGAP1;PIK3R1;PTPN13;PTK2;ADCY5;AKAP13;SLC9A3R1;GIPC1;GNAQ;ARHGEF4;PPARA;DRD2;TSHB",19
"146","coronary_heart_disease","19/86",0.932366369086424,1,0,0,0.770731667741634,0.0539739083631093,"LHCGR;HDAC2;CREBBP;CSNK2A1;CAV1;ADCY2;IQGAP1;PIK3R1;PTPN13;PTK2;ADCY5;AKAP13;SLC9A3R1;GIPC1;GNAQ;ARHGEF4;PPARA;DRD2;TSHB",19
"147","hiv","19/86",0.932366369086424,1,0,0,0.770731667741634,0.0539739083631093,"LHCGR;HDAC2;CREBBP;CSNK2A1;CAV1;ADCY2;IQGAP1;PIK3R1;PTPN13;PTK2;ADCY5;AKAP13;SLC9A3R1;GIPC1;GNAQ;ARHGEF4;PPARA;DRD2;TSHB",19
"148","multiple_sclerosis","19/86",0.932366369086424,1,0,0,0.770731667741634,0.0539739083631093,"LHCGR;HDAC2;CREBBP;CSNK2A1;CAV1;ADCY2;IQGAP1;PIK3R1;PTPN13;PTK2;ADCY5;AKAP13;SLC9A3R1;GIPC1;GNAQ;ARHGEF4;PPARA;DRD2;TSHB",19
"149","spinal_muscular_atrophy","19/86",0.932366369086424,1,0,0,0.770731667741634,0.0539739083631093,"LHCGR;HDAC2;CREBBP;CSNK2A1;CAV1;ADCY2;IQGAP1;PIK3R1;PTPN13;PTK2;ADCY5;AKAP13;SLC9A3R1;GIPC1;GNAQ;ARHGEF4;PPARA;DRD2;TSHB",19
"150","cdeficiency","20/90",0.932470919406987,1,0,0,0.775238870476966,0.0542026192011025,"LHCGR;HDAC2;CREBBP;CSNK2A1;CAV1;ADCY2;IQGAP1;PIK3R1;PTPN13;PTK2;ADCY5;C4A;AKAP13;SLC9A3R1;GIPC1;GNAQ;ARHGEF4;PPARA;DRD2;TSHB",20
"151","epidermolysis_bullosa","20/90",0.932470919406987,1,0,0,0.775238870476966,0.0542026192011025,"LHCGR;HDAC2;CREBBP;CSNK2A1;CAV1;ADCY2;IQGAP1;PIK3R1;PTPN13;PTK2;ADCY5;AKAP13;SLC9A3R1;GIPC1;GNAQ;ARHGEF4;ITGA6;PPARA;DRD2;TSHB",20
"152","rheumatoid_arthritis","20/90",0.932470919406987,1,0,0,0.775238870476966,0.0542026192011025,"SLC22A4;LHCGR;HDAC2;CREBBP;CSNK2A1;CAV1;ADCY2;IQGAP1;PIK3R1;PTPN13;PTK2;ADCY5;AKAP13;SLC9A3R1;GIPC1;GNAQ;ARHGEF4;PPARA;DRD2;TSHB",20
"153","malaria","20/91",0.940190254225104,1,0,0,0.766719762010186,0.0472859278831131,"LHCGR;HDAC2;CREBBP;CSNK2A1;CAV1;ADCY2;IQGAP1;PIK3R1;PTPN13;TIRAP;PTK2;ADCY5;AKAP13;SLC9A3R1;GIPC1;GNAQ;ARHGEF4;PPARA;DRD2;TSHB",20
"154","microcephaly","20/91",0.940190254225104,1,0,0,0.766719762010186,0.0472859278831131,"LHCGR;HDAC2;CREBBP;CSNK2A1;CAV1;ADCY2;IQGAP1;PIK3R1;PTPN13;PTK2;ADCY5;AKAP13;SLC9A3R1;SLC25A19;GIPC1;GNAQ;ARHGEF4;PPARA;DRD2;TSHB",20
"155","aneurysm","21/95",0.940227903337668,1,0,0,0.771158665895508,0.0475288087489533,"LHCGR;HDAC2;CREBBP;CSNK2A1;CAV1;ADCY2;IQGAP1;PIK3R1;PTPN13;PTK2;ADCY5;ACTA2;AKAP13;SLC9A3R1;COL4A1;GIPC1;GNAQ;ARHGEF4;PPARA;DRD2;TSHB",21
"156","thrombocytopenia","19/87",0.940249499302551,1,0,0,0.761872683054949,0.0469389867812796,"LHCGR;HDAC2;CREBBP;CSNK2A1;CAV1;ADCY2;IQGAP1;PIK3R1;PTPN13;PTK2;ADCY5;AKAP13;SLC9A3R1;GIPC1;GNAQ;ARHGEF4;PPARA;DRD2;TSHB",19
"157","asthma","22/99",0.940350177221732,1,0,0,0.775238870476966,0.0476794729387232,"LHCGR;CREBBP;HDAC2;CSNK2A1;CAV1;IRAK3;ADCY2;PIK3R1;IQGAP1;HNMT;PTPN13;PLA2G7;PTK2;ADCY5;SLC9A3R1;AKAP13;GNAQ;GIPC1;ARHGEF4;DRD2;PPARA;TSHB",22
"158","microphthalmia","21/96",0.947052554579086,1,0,0,0.763125763125763,0.0415145691973823,"LHCGR;HDAC2;CREBBP;CSNK2A1;CAV1;ADCY2;IQGAP1;PIK3R1;PTPN13;PTK2;ADCY5;SOX2;SNX3;AKAP13;SLC9A3R1;GIPC1;GNAQ;ARHGEF4;PPARA;DRD2;TSHB",21
"159","orofacial_cleft","21/96",0.947052554579086,1,0,0,0.763125763125763,0.0415145691973823,"LHCGR;HDAC2;CREBBP;CSNK2A1;CAV1;ADCY2;IQGAP1;PIK3R1;PTPN13;PTK2;ADCY5;AKAP13;SLC9A3R1;GIPC1;GNAQ;ARHGEF4;IRF6;MSX1;PPARA;DRD2;TSHB",21
"160","usher_syndrome","19/88",0.947336944236162,1,0,0,0.753215038929325,0.0407492705573904,"LHCGR;HDAC2;CREBBP;CSNK2A1;CAV1;ADCY2;IQGAP1;PIK3R1;PTPN13;PTK2;ADCY5;AKAP13;SLC9A3R1;GIPC1;GNAQ;ARHGEF4;PPARA;DRD2;TSHB",19
"161","glaucoma","20/93",0.953398387410761,1,0,0,0.750231164977709,0.0358028524702188,"LHCGR;HDAC2;CREBBP;CSNK2A1;CAV1;ADCY2;IQGAP1;PIK3R1;PTPN13;PTK2;ADCY5;AKAP13;SLC9A3R1;GIPC1;GNAQ;ARHGEF4;PPARA;DRD2;TSHB;OPTN",20
"162","migraine","20/93",0.953398387410761,1,0,0,0.750231164977709,0.0358028524702188,"LHCGR;HDAC2;CREBBP;CSNK2A1;CAV1;ADCY2;IQGAP1;PIK3R1;PTPN13;PTK2;ADCY5;AKAP13;SLC9A3R1;EDNRA;GIPC1;GNAQ;ARHGEF4;PPARA;DRD2;TSHB",20
"163","psoriasis","19/89",0.953690053980156,1,0,0,0.744751948604276,0.0353135689979899,"LHCGR;HDAC2;CREBBP;CSNK2A1;CAV1;ADCY2;IQGAP1;PIK3R1;PTPN13;PTK2;ADCY5;AKAP13;SLC9A3R1;GIPC1;GNAQ;ARHGEF4;PPARA;DRD2;TSHB",19
"164","skin/hair/eye_pigmentation","19/89",0.953690053980156,1,0,0,0.744751948604276,0.0353135689979899,"LHCGR;HDAC2;CREBBP;CSNK2A1;CAV1;ADCY2;IQGAP1;PIK3R1;PTPN13;PTK2;ADCY5;AKAP13;SLC9A3R1;GIPC1;GNAQ;ARHGEF4;PPARA;DRD2;TSHB",19
"165","hypertension","23/106",0.958388858813133,1,0,0,0.756954934852509,0.0321718537405462,"LHCGR;CREBBP;HDAC2;CSNK2A1;CAV1;ECE1;ADCY2;PIK3R1;IQGAP1;PTPN13;PTK2;ADD1;AGT;NR3C2;ADCY5;SLC9A3R1;AKAP13;GNAQ;GIPC1;ARHGEF4;DRD2;PPARA;TSHB",23
"166","fanconi_anemia","19/90",0.959368392079113,1,0,0,0.736476926953117,0.0305491630654119,"LHCGR;HDAC2;CREBBP;CSNK2A1;CAV1;ADCY2;IQGAP1;PIK3R1;PTPN13;PTK2;ADCY5;AKAP13;SLC9A3R1;GIPC1;GNAQ;ARHGEF4;PPARA;DRD2;TSHB",19
"167","schizophrenia","23/107",0.963202837243976,1,0,0,0.749880589666971,0.0281139672474942,"LHCGR;CREBBP;HDAC2;CSNK2A1;CHRNA7;CAV1;ADCY2;PIK3R1;IQGAP1;COMT;PTPN13;SYN2;PTK2;ADCY5;SLC9A3R1;AKAP13;GNAQ;GIPC1;ARHGEF4;PRODH;DRD2;PPARA;TSHB",23
"168","celiac_disease","19/91",0.964429267882972,1,0,0,0.728383773909677,0.0263811751982454,"LHCGR;HDAC2;CREBBP;CSNK2A1;CAV1;ADCY2;IQGAP1;PIK3R1;PTPN13;PTK2;ADCY5;AKAP13;SLC9A3R1;GIPC1;GNAQ;ARHGEF4;PPARA;DRD2;TSHB",19
"169","convulsions","19/91",0.964429267882972,1,0,0,0.728383773909677,0.0263811751982454,"LHCGR;HDAC2;CREBBP;CSNK2A1;CAV1;ADCY2;IQGAP1;PIK3R1;PTPN13;PTK2;ADCY5;AKAP13;SLC9A3R1;GIPC1;GNAQ;ARHGEF4;PPARA;DRD2;TSHB",19
"170","corneal_dystrophy","19/91",0.964429267882972,1,0,0,0.728383773909677,0.0263811751982454,"LHCGR;HDAC2;CREBBP;CSNK2A1;CAV1;ADCY2;IQGAP1;PIK3R1;PTPN13;PTK2;ADCY5;AKAP13;SLC9A3R1;GIPC1;GNAQ;ARHGEF4;PPARA;DRD2;TSHB",19
"171","lateral_sclerosis","20/96",0.968467548146578,1,0,0,0.726786441072155,0.0232864585375073,"LHCGR;HDAC2;CREBBP;CSNK2A1;DCTN1;CAV1;ADCY2;IQGAP1;PIK3R1;PTPN13;PTK2;ADCY5;AKAP13;SLC9A3R1;GIPC1;GNAQ;ARHGEF4;PPARA;DRD2;TSHB",20
"172","myopia","19/92",0.968927375421944,1,0,0,0.720466558975876,0.0227419720852013,"LHCGR;HDAC2;CREBBP;CSNK2A1;CAV1;ADCY2;IQGAP1;PIK3R1;PTPN13;PTK2;ADCY5;AKAP13;SLC9A3R1;GIPC1;GNAQ;ARHGEF4;PPARA;DRD2;TSHB",19
"173","breast_cancer","22/105",0.97167775410614,1,0,0,0.730939506449711,0.0210006654908905,"NQO1;LHCGR;CREBBP;HDAC2;CSNK2A1;CAV1;XRCC3;ADCY2;PIK3R1;IQGAP1;PTPN13;PTK2;ADCY5;SLC9A3R1;AKAP13;GNAQ;GIPC1;RB1CC1;ARHGEF4;DRD2;PPARA;TSHB",22
"174","prostate_cancer","22/107",0.978252460384206,1,0,0,0.717277085768407,0.0157711319370323,"LHCGR;CREBBP;HDAC2;CD82;CSNK2A1;CAV1;ADCY2;PIK3R1;IQGAP1;PTPN13;PTK2;EHBP1;ADCY5;SLC9A3R1;AKAP13;GNAQ;GIPC1;MXI1;ARHGEF4;DRD2;PPARA;TSHB",22
"175","stature","20/101",0.98421746933942,1,0,0,0.690806914286405,0.0109896333519818,"LHCGR;CREBBP;HDAC2;CSNK2A1;CAV1;ADCY2;PIK3R1;IQGAP1;PTPN13;PTK2;ADCY5;GHR;SLC9A3R1;AKAP13;GNAQ;GIPC1;ARHGEF4;DRD2;PPARA;TSHB",20
"176","lung_cancer","19/97",0.984680842677981,1,0,0,0.683329107482274,0.0105490351614904,"LHCGR;CREBBP;HDAC2;CSNK2A1;CAV1;ADCY2;PIK3R1;IQGAP1;PTPN13;PTK2;ADCY5;SLC9A3R1;AKAP13;GNAQ;GIPC1;ARHGEF4;DRD2;PPARA;TSHB",19
"177","cataract","25/124",0.988282951665743,1,0,0,0.703341717166602,0.00828974999713503,"HDAC2;ADCY2;PIK3R1;IQGAP1;ADCY5;SLC9A3R1;AKAP13;OPA3;GCNT2;DRD2;TSHB;LHCGR;CREBBP;CSNK2A1;CAV1;SLC16A12;PTPN13;PTK2;BFSP2;GNAQ;GIPC1;CHMP4B;ARHGEF4;PPARA;CRYAB",25
"178","anemia","10/60",0.989489842976412,1,0,0,0.581429152857724,0.00614325181477425,"GCLC;PFKL;TPI1;GSS;COX4I2;AK1;SLC2A1;BPGM;HK1;SLC19A2",10
"179","inflammatory_bowel_disease","19/100",0.990212449275176,1,0,0,0.662829234257806,0.00651943168735223,"LHCGR;CREBBP;HDAC2;CSNK2A1;CAV1;ADCY2;PIK3R1;IQGAP1;PTPN13;PTK2;ADCY5;SLC9A3R1;AKAP13;GNAQ;GIPC1;ARHGEF4;DRD2;PPARA;TSHB",19
"180","immunodeficiency","20/105",0.991235267043633,1,0,0,0.664490460408828,0.00584975482044221,"LHCGR;CREBBP;HDAC2;CSNK2A1;CAV1;ADCY2;PIK3R1;IQGAP1;PTPN13;PTK2;ADCY5;SLC9A3R1;AKAP13;GNAQ;GIPC1;ARHGEF4;IKBKG;DRD2;PPARA;TSHB",20
"181","systemic_lupus_erythematosus","20/105",0.991235267043633,1,0,0,0.664490460408828,0.00584975482044221,"LHCGR;CREBBP;HDAC2;CSNK2A1;CAV1;ADCY2;PIK3R1;IQGAP1;PTPN13;PTK2;ADCY5;C4A;SLC9A3R1;AKAP13;GNAQ;GIPC1;ARHGEF4;DRD2;PPARA;TSHB",20
"182","diabetes_mellitus,_type_1","19/103",0.993849410960327,1,0,0,0.643523528405637,0.00397027106827876,"LHCGR;CREBBP;HDAC2;CSNK2A1;CAV1;ADCY2;PIK3R1;IQGAP1;PTPN13;PTK2;ADCY5;SLC9A3R1;AKAP13;GNAQ;GIPC1;ARHGEF4;DRD2;PPARA;TSHB",19
"183","retinitis_pigmentosa","7/50",0.995567201233766,1,0,0,0.488400488400488,0.00216979377287058,"SEMA4A;ROM1;IDH3B;PROM1;MERTK;RPE65;RPGR",7
"184","mental_retardation","20/113",0.997512206363367,1,0,0,0.617446887990504,0.00153799433939083,"KIRREL3;MBD5;CRBN;TUSC3;CTNND2;ZBTB16;ATP6AP2;UBE2A;GRIK2;VLDLR;MAGT1;PCDH19;SHROOM4;RPS6KA3;SLC9A6;DLG3;ZDHHC9;AP1S2;GRIA3;ARHGEF6",20
"185","diabetes_mellitus","6/57",0.999755280143301,1,0,0,0.367218412331194,8.98766349903209e-05,"TCF7L2;IRS1;WFS1;AKT2;INSR;GLIS3",6
"186","diabetes","9/74",0.99980130403049,1,0,0,0.424286138571853,8.43123221900211e-05,"TCF7L2;IRS1;WFS1;HFE;AKT2;GPD2;UCP3;INSR;GLIS3",9
"187","deafness","11/110",0.999995085858159,0.999995085858159,0,0,0.348857491714635,1.71433940884022e-06,"TMIE;GJB2;MARVELD2;GJB6;MYO6;COL11A2;MYH14;ATP2B2;ESPN;CRYM;RPGR",11
