"","No_data"
"1700092M07Rik",2.70395350840905
"AABR07000276.1",1.20145207192952
"AABR07000534.1",1.48344779085854
"AABR07000629.3",2.10595290317441
"AABR07001048.1",1.84205305035072
"AABR07001555.1",1.32841054140174
"AABR07002010.1",1.64642419443914
"AABR07002065.2",2.14428507152216
"AABR07002493.1",1.5637499221338
"AABR07002774.1",2.46326013782331
"AABR07002774.3",2.27667422179282
"AABR07002784.2",2.50594833781425
"AABR07002868.1",2.30721537812207
"AABR07002928.2",0.945577561994972
"AABR07002945.1",1.58771628641142
"AABR07003030.1",1.45786233591851
"AABR07003030.2",2.07908326887983
"AABR07003176.1",4.32060062962861
"AABR07004229.1",1.72332509712996
"AABR07004232.1",3.32881689386875
"AABR07004259.1",1.97096604513995
"AABR07004269.3",4.02972430601498
"AABR07004269.4",1.0354225282077
"AABR07004292.1",1.24754858900723
"AABR07004304.1",1.44693337655624
"AABR07004404.1",0.961070471634683
"AABR07004812.1",1.98865421445422
"AABR07005506.1",1.26224096499622
"AABR07005535.1",2.85005732718652
"AABR07005564.1",0.974035333963764
"AABR07005588.1",7.49157100238892
"AABR07005618.1",5.22817971101652
"AABR07005633.1",3.13510411983986
"AABR07005752.1",1.28348261001846
"AABR07005779.2",2.44731643956549
"AABR07005779.3",2.4499413540166
"AABR07005779.4",1.77103025566664
"AABR07005779.6",0.813034754131036
"AABR07005794.1",1.2349707149652
"AABR07005838.1",3.01871924710378
"AABR07005985.2",1.29631342193506
"AABR07006097.1",0.829900742825981
"AABR07006160.1",3.22718162405921
"AABR07006258.2",3.43797963115822
"AABR07006310.1",0.679363848099687
"AABR07006451.1",0.890174818288636
"AABR07006458.1",3.64928931310192
"AABR07006480.1",1.68827153187201
"AABR07006627.2",1.02500125899989
"AABR07006860.1",2.88209036147336
"AABR07006860.2",3.94222583248549
"AABR07006873.1",1.75920596996923
"AABR07006894.1",1.37419978490451
"AABR07006957.1",1.82954885261421
"AABR07007000.1",4.73284952081394
"AABR07007032.1",1.63570051198982
"AABR07007055.1",2.16620660521902
"AABR07007068.1",1.81448002276141
"AABR07007121.1",4.08481086140743
"AABR07007130.2",1.22120485223385
"AABR07007592.1",1.17555003250603
"AABR07008293.4",1.64695266473442
"AABR07010370.1",1.47406423415599
"AABR07011700.1",2.09680426984632
"AABR07011951.1",3.64506743925512
"AABR07013255.1",1.1639647398142
"AABR07013425.1",2.40628282247927
"AABR07013654.1",1.48781119172086
"AABR07014756.1",1.99009446045861
"AABR07017716.1",0.990203157152887
"AABR07018556.1",4.04284182385266
"AABR07021823.1",6.14403963047334
"AABR07024593.2",3.46313621639727
"AABR07024795.1",0.968048056733211
"AABR07025900.1",2.02778691837778
"AABR07026361.2",1.1014470002847
"AABR07026424.1",3.63972800481616
"AABR07028997.1",1.49259871485778
"AABR07029002.2",1.64126644866861
"AABR07029198.1",9.71142420360222
"AABR07029269.1",1.1323379495138
"AABR07029275.1",7.59461363505137
"AABR07029467.2",1.18209340661766
"AABR07029605.1",3.99599622719502
"AABR07029613.1",1.75631562816401
"AABR07029661.1",3.22453888807834
"AABR07029742.1",5.04756789107363
"AABR07029933.1",0.973347009999362
"AABR07030019.1",3.57779224697224
"AABR07030039.1",1.3453580813393
"AABR07030156.2",1.08399903576617
"AABR07030335.1",1.07374406781169
"AABR07030363.1",1.16887032384092
"AABR07030375.1",1.25245675872876
"AABR07030383.1",1.67513190507405
"AABR07030521.1",1.98011398195845
"AABR07030544.1",2.13662022909189
"AABR07030603.2",3.74333560977901
"AABR07030630.1",2.02907229498686
"AABR07030642.1",0.747442646831435
"AABR07030919.1",1.81896840045038
"AABR07032751.1",2.2066457244653
"AABR07033020.1",1.53298645048562
"AABR07033023.1",4.73534458705528
"AABR07033287.1",2.12614545250895
"AABR07033564.1",2.19852597503359
"AABR07033570.2",1.39178076872445
"AABR07033887.1",2.7638583387494
"AABR07034111.1",1.19075914488923
"AABR07034639.1",1.7105368304369
"AABR07035218.1",4.31101543028182
"AABR07035273.1",1.43665055491871
"AABR07035412.2",1.03819123526165
"AABR07035539.1",4.49773751544277
"AABR07035541.2",1.32769745674596
"AABR07035780.6",1.37762115704791
"AABR07035835.1",0.778048617068339
"AABR07037112.1",0.931959463277405
"AABR07038926.1",1.53709781363088
"AABR07039210.2",1.80813401737028
"AABR07039328.2",3.40273091951889
"AABR07039483.1",1.53467498626452
"AABR07041586.1",1.57476358679504
"AABR07042859.1",1.88418501798378
"AABR07042903.1",2.64779854180957
"AABR07043115.1",0.95149883788083
"AABR07043748.1",1.50717387230528
"AABR07043823.2",0.965004336263767
"AABR07043951.1",2.62032090840135
"AABR07045405.1",1.90853378860775
"AABR07046727.1",1.65861536345766
"AABR07047576.1",0.940959511702768
"AABR07048308.2",1.0418116596978
"AABR07048637.1",1.14793375199452
"AABR07049038.1",1.35047508521427
"AABR07049695.2",1.024309023335
"AABR07052664.1",0.984696432330892
"AABR07053166.1",3.81991120601229
"AABR07053472.1",1.21688429791602
"AABR07053613.1",1.38460323577583
"AABR07055280.1",1.10308159041429
"AABR07059198.1",1.91914450225859
"AABR07059778.1",0.834039619354527
"AABR07063724.1",1.12531315027535
"AABR07064719.1",1.84356966591759
"AABR07065118.1",0.784921023847823
"AABR07067082.1",1.1958412722652
"AABR07067267.1",2.2208190904496
"AABR07068285.1",1.99838529889992
"AABR07070357.1",3.34523449210247
"AABR07071208.2",0.924521815941012
"AABR07071659.2",0.962671384129953
"AABR07071891.2",7.74215308553257
"AABR07071891.3",2.63090227925208
"AABR07072017.1",2.26991055305621
"AABR07072078.2",1.95695327554039
"AABR07072169.1",1.47708725942821
"AC094217.2",1.20926758991235
"AC094643.2",2.64096728087815
"AC095693.1",2.05432216199849
"AC095947.4",1.85069042355522
"AC096809.1",1.37984121203096
"AC098008.1",1.06914526872479
"AC099089.1",8.65238168826372
"AC099294.1",1.72369558303826
"AC099449.1",2.75941724900804
"AC103024.2",1.83337911758457
"AC103090.1",4.78467675340234
"AC103221.1",1.81611049477657
"AC105485.2",2.09213225029949
"AC105531.1",3.19384173962406
"AC106292.2",6.33229826992279
"AC107153.2",1.35812730605223
"AC108574.1",1.40387549727803
"AC109096.1",3.63264660839494
"AC110709.1",2.49311847819733
"AC110837.1",1.31435928981881
"AC113773.1",0.944296157998247
"AC114460.1",2.84293058150749
"AC115369.1",1.32551405664358
"AC117330.1",1.37235244781997
"AC118350.1",1.18718843362456
"AC118772.1",2.62100859042213
"AC118772.3",2.75357254492541
"AC119015.1",3.25540815415376
"AC119015.2",1.22971808302159
"AC119111.1",1.71169882974253
"AC119462.1",1.12541142735436
"AC120486.11",1.18764771602181
"AC120807.1",1.96700675434776
"AC122631.1",1.11245758290198
"AC123095.1",3.75400216047756
"AC123425.1",1.01793432678541
"AC126148.1",3.71442587623261
"AC126581.1",1.15390249549227
"AC127217.1",1.36885873027968
"AC127887.1",4.6993860286367
"AC128059.4",1.07369143713973
"AC128154.1",2.40944158307626
"AC128290.1",2.09477358344808
"AC128353.1",1.49452637750799
"AC128792.2",3.65513695942303
"AC128859.2",1.33378960665668
"AC128859.3",0.828646499784206
"AC129460.1",2.48589307311005
"AC131360.1",1.89205275627579
"AC134224.1",7.11953561295137
"AC134224.2",6.90987621281226
"AC134224.3",13.4055727169918
"AC141334.3",1.56569143226504
"AC141969.1",3.19819894832187
"AY172581.10",1.27989516884878
"Aarsd1",3.41200977525389
"Aatf",2.77001193063056
"Aatk",2.52856278687675
"Abca2",1.37843247260315
"Abca3",1.83226922047464
"Abca5",1.37325580021843
"Abca8a",3.57940337978862
"Abcc3",1.01192593103239
"Abhd11",1.54115747319737
"Abhd15",1.63722863458856
"Abhd17a",1.85243666323374
"Abhd17b",4.10997405419533
"Abhd17c",1.87503229074615
"Abhd2",2.55680990418678
"Abr",2.97880258817507
"Abraxas2",3.94492488605363
"Acaca",2.66159869131133
"Acadvl",5.88022975556429
"Acan",2.61006079767119
"Acbd4",2.2815462634566
"Ace",1.07431617462444
"Acer3",2.26939133253079
"Acly",5.46631839917088
"Acox1",4.50932164899648
"Acp4",2.49534632532569
"Acsf2",1.87450600923774
"Acsm3",1.57159405415083
"Actn4",4.56626934729046
"Actr1a",4.13143475327091
"Acy3",5.92235792392595
"Adam12",1.13644462265248
"Adam19",2.80624590967094
"Adamts4",1.27171060264478
"Adamtsl3",1.72099647392736
"Adcy5",1.68973495115535
"Add3",2.57886515856956
"Adipoq",1.80403449138424
"Adm",2.91771816556516
"Adprh",3.91378991380926
"Adprm",2.92100321128352
"Adrb1",2.73951870240764
"Aen",3.41326321157933
"Afap1l2",2.4193910879083
"Aff4",5.26745595671287
"Agpat2",1.03785824907672
"Agtrap",1.36459624050052
"Ahnak",5.79735957476335
"Aip",3.47881886424237
"Ak3",4.56095836650389
"Akap1",4.15367291622955
"Akap10",2.34916360728806
"Akap13",3.46442823853379
"Akt1s1",5.5400386485755
"Akt2",3.55478959846519
"Alcam",2.71744491437557
"Aldh16a1",2.48005133985026
"Aldh1a3",3.56343308908577
"Aldh3a1",1.69604423299728
"Aldh3a2",3.01570173067278
"Aldoa",8.38398428140049
"Aldoc",7.85071571153567
"Alg1",2.58257007663543
"Alg8",2.09526673060987
"Alkbh5",4.21820471160057
"Amdhd2",2.35486259345242
"Amz2",4.01860742779364
"Anapc15",5.47057995469473
"Anapc2",1.89428229289942
"Ankfy1",4.47116415620017
"Ankrd13b",2.6199778538654
"Ankrd40",4.65620726196464
"Ankrd42",1.85042193871642
"Ankrd52",1.67624857940093
"Anks3",2.15240875770249
"Antxr1",0.935265351658917
"Anxa1",3.6125210609963
"Anxa2",1.76052563547183
"Anxa6",0.860883192964427
"Ap2a1",5.33102581670117
"Ap2a2",2.5975483633123
"Ap2b1",3.03507082752566
"Ap2s1",3.54146192093959
"Ap3b2",1.85740423914253
"Ap3s2",1.84788901192557
"Ap5b1",3.38990303569815
"Apba1",1.61929629481027
"Apbb1",4.10845997148018
"Aplp1",6.5196002732903
"Apobr",1.32167911604686
"Apoe",2.32172831266689
"Apom",0.843617989656197
"App",3.02957443532827
"Appbp2",3.60561822832008
"Arap1",3.03174990924895
"Arf1",6.70908565865815
"Arf2",2.15030321041844
"Arfip2",5.12758387785215
"Arhgap17",3.48638993597446
"Arhgap23",2.6732698724847
"Arhgap31",3.14478304859273
"Arhgap35",4.09245721075582
"Arhgdia",8.88344936825659
"Arhgef1",3.22639251628441
"Arhgef17",3.58615460204555
"Arhgef39",1.85591586848934
"Arid5a",1.5174160135314
"Arl2",3.34860742766758
"Arl4d",2.76937113771057
"Arl6",1.6412883573269
"Arl6ip1",5.70229022593626
"Arl6ip5",1.69917144087262
"Armc5",3.15995954200699
"Armc7",2.13065560011994
"Arnt2",1.50589572845732
"Arntl",2.66570103635982
"Arrb1",3.46688182422619
"Arrb2",4.10084288440964
"Arrdc4",2.10853907758833
"Arsa",2.04132159099576
"Arsg",1.29083613065327
"Asah2",1.53737874525524
"Asb6",1.4266034313282
"Asb7",3.16816633816802
"Asic2",1.42166344147604
"Aspdh",1.75337476041788
"Aspscr1",2.02560662620729
"Asrgl1",3.87356972479138
"Atad1",2.6920024165863
"Atad5",3.5773505144534
"Atf5",6.80191172037599
"Atg16l2",1.73282405805924
"Atg2a",3.51829637802396
"Atg3",3.60592829676857
"Atl3",3.93232030858402
"Atoh8",1.34094551094532
"Atox1",2.43722716266557
"Atp1a3",1.53331884304901
"Atp1b2",3.43802154255334
"Atp5md",5.10622635110304
"Atp5pd",6.30435097609839
"Atp5po",4.61943763427682
"Atp6v0a1",3.14148534275458
"Atp6v0b",1.91769622825031
"Atp6v0c",5.77368499336324
"Atp6v0e1",4.12859380199216
"Atp6v1a",3.92756819384351
"Atp6v1f",2.80085969705745
"Atp8b2",1.34540799452922
"Atpaf2",3.30814560976619
"Atxn2l",6.1362709142606
"Atxn7l3",3.22828543429679
"Aurkb",4.73282271781086
"Avpi1",2.94986729794377
"Axin2",3.26823066385016
"Axl",3.82817789717223
"B3galt5",1.94311754148379
"B3gat3",5.13303453705198
"B4galnt1",0.967939578525343
"B4galnt4",1.73915119554118
"B9d2",3.04748277500997
"Bach1",2.48547392150752
"Bad",3.7698384877966
"Bag3",2.28280211000324
"Bahcc1",2.35376661334982
"Baiap2",1.87972133290679
"Bambi",1.64179595173712
"Banf1",6.28962478226019
"Bax",3.77855126844833
"Bbs1",3.31924078522777
"Bbx",2.76959339101081
"Bcat2",1.80450041767375
"Bccip",3.482496515226
"Bckdha",2.56868693461907
"Bckdk",5.67215787427503
"Bcl2l1",1.81434695055029
"Bcl2l12",3.69781723530613
"Bcl6",0.870991536690395
"Bcl7c",2.93613800141634
"Becn1",4.87999765531186
"Bet1l",4.94736872816601
"Bfar",1.85351807712366
"Bhlhe40",1.25341719691284
"Bicd2",1.77181455447175
"Bicra",2.81796326515223
"Blcap",2.18991619117419
"Bles03",4.05450302477075
"Blm",1.7525938831289
"Blmh",2.94615612836758
"Bloc1s2",4.52056449157747
"Bloc1s3",2.14328464704184
"Bloc1s4",1.93365043279511
"Blvrb",2.7156586305414
"Bnip1",2.04469225333972
"Bnip3",3.21253582644739
"Boc",1.69740179289088
"Bod1",3.22524504989711
"Bola2",7.02574130603678
"Borcs6",2.6832792573648
"Borcs7",2.56553076127923
"Bptf",4.45459025178086
"Brca1",2.6983680236386
"Brms1",2.40191918978694
"Brwd1",2.75824062854181
"Bscl2",4.43631881916651
"Bsg",3.87973984700074
"Btaf1",2.83395916596106
"Btbd1",5.0615898842828
"Btbd10",3.1162328260292
"Btg2",1.4851424647333
"Btg3",4.452585218661
"Btrc",2.56485584015907
"Bub3",2.97654358317258
"C1qbp",5.99916159409374
"C1ql1",3.58282919034421
"C1r",1.62185136994911
"C2cd2",1.91093580608328
"C2cd3",2.21851301706454
"Cacnb1",2.96753611112537
"Cacng4",2.29626114106594
"Cacul1",3.42331562030734
"Cadm4",5.4669333995337
"Calm3",6.39728938909805
"Camta2",2.84912051698005
"Cant1",2.71930242303083
"Canx",7.9574632591607
"Capn1",1.66207663590462
"Capn2",1.17204905257448
"Capn5",3.77975258252602
"Car11",4.45751219665683
"Carhsp1",4.18055750569179
"Carnmt1",3.00954344139227
"Carns1",1.77691136748759
"Cars",3.58158269886569
"Casc3",5.27920722740635
"Caskin1",2.75196479499035
"Caskin2",4.35051171595775
"Casp1",0.746093699768183
"Casp7",1.86421701293413
"Catsperz",2.14621256779359
"Cavin3",3.91038315598897
"Cblb",2.79838525611802
"Cbr3",3.81016161114551
"Cbwd1",2.16534600865125
"Ccdc14",2.12150749641853
"Ccdc186",5.34850490384983
"Ccdc43",3.98028248033652
"Ccdc47",4.59024172920319
"Ccdc58",3.22414973662163
"Ccdc61",1.66927231336613
"Ccdc86",3.7235270940692
"Ccdc90b",3.84667274784146
"Ccdc97",4.61223739118297
"Ccl2",3.36689361889185
"Ccnd1",6.6100570947001
"Ccnd2",2.12265199431356
"Ccnf",2.04259494635727
"Ccng1",4.03647439100352
"Ccnjl",1.98689559187247
"Ccp110",3.37834017345755
"Ccs",2.31633797671288
"Cct7",4.48091467365759
"Cct8",6.24372812236483
"Cd151",1.90395853221906
"Cd200",1.40897507568484
"Cd2bp2",7.59958090607737
"Cd3eap",4.48335013219456
"Cd44",2.2643696370591
"Cd63",2.15924651748887
"Cd68",2.68753131112617
"Cd81",6.36005689273745
"Cd9",1.84368947143988
"Cdc27",4.27938732641106
"Cdc37l1",4.31971627346109
"Cdc42ep4",3.91805368664899
"Cdc42se2",3.58312358762221
"Cdc6",2.53791596672147
"Cdip1",4.35214475309126
"Cdipt",5.63195954090209
"Cdk12",4.57661690855926
"Cdk2ap2",6.11148900870685
"Cdk5r1",2.9560560368937
"Cdkn1a",0.76335677262201
"Cdkn1c",3.59909455622533
"Cdkn2aipnl",5.20329019605845
"Cdkn2b",1.87543435354237
"Cdr2",2.40336069400725
"Cdr2l",4.19623857612707
"Ceacam1",2.28180113974008
"Ceacam18",1.77043040950069
"Cebpa",3.47955723058066
"Cebpg",4.75826051099306
"Cemip2",2.55600030228715
"Cend1",2.22086639909131
"Cenpb",2.37522357101018
"Cep131",3.11093347899312
"Cep19",4.94944063860034
"Cep55",3.82706012355088
"Cep78",1.88708821858672
"Cep89",2.02450418358306
"Cep95",3.49150310439092
"Cep97",2.66898449329006
"Cfap298",3.21890895019544
"Cfl1",9.36028986137556
"Cflar",0.791919506277435
"Cggbp1",4.7094317373547
"Chac1",2.05776562387561
"Chaf1b",2.44925010232302
"Chd2",4.06349617577743
"Chd3",5.45441577001281
"Chka",3.21726762939277
"Chmp2a",8.05912295813195
"Chmp2b",3.98747680999749
"Chmp4bl1",2.44989727418309
"Chmp6",4.19148347273478
"Chst12",2.47897546038049
"Chst2",2.9562177265772
"Chsy1",3.06465111949733
"Chtf18",2.41239041648371
"Chuk",3.70598063038455
"Ciao3",2.58787052660278
"Cib1",2.37401292350992
"Cic",5.22180078233097
"Cip2a",2.36364167383821
"Cisd3",1.42656967520273
"Cited2",10.1734121492841
"Ckap2",3.88423283144671
"Ckap4",2.20843163657079
"Clcn7",1.93617071502504
"Cldnd1",4.93492788580016
"Clec11a",2.97717285181909
"Clec16a",1.79741374979887
"Clec2g",1.23874233029026
"Clint1",2.72637804195994
"Cln3",3.88832589629954
"Clns1a",4.09391802814404
"Clpb",1.83918126583949
"Clptm1",4.65449285625198
"Cltc",6.5205349818496
"Cluap1",2.77580705616465
"Cluh",4.35692629202563
"Cnih2",2.96026039639708
"Cnksr3",4.91334568757074
"Cnnm1",1.44061809077978
"Cnot6",3.66360286541616
"Cnot8",5.39677500881701
"Cnp",8.49046189413771
"Cnppd1",1.82538468477758
"Cnpy2",2.53441908679586
"Cnpy4",1.96770453087997
"Cntf",3.26077971187304
"Cntrob",2.12765957368325
"Coa4",4.34434467296925
"Coasy",4.2419644460528
"Cog1",4.02723343558355
"Coil",2.39567255632889
"Col6a2",1.2955248652449
"Copb1",4.5298224602284
"Cops3",4.70179482667601
"Copz2",2.19947792158598
"Coq10a",1.25491563280256
"Coq7",2.27801895406911
"Coq8b",2.59304026311722
"Coro1a",1.80957726884961
"Coro1b",6.52848220976754
"Coro7",2.31414626792529
"Cox15",2.93335840578174
"Cox17",4.59166558654332
"Cox6a2",1.46825871028869
"Cox6b1",4.65107172190135
"Cox8a",8.34033200257227
"Cox8b",1.33092703386084
"Cpd",3.96492601750659
"Cpeb1",1.41601990734085
"Cpeb3",1.45477306494989
"Cpeb4",3.30998530204368
"Cpox",3.87651714814982
"Cpsf7",5.08329392173705
"Cpt1a",3.32132859369835
"Cpt1c",2.30635903745868
"Cptp",1.34991139876385
"Cramp1",3.08885713729204
"Creb3l2",0.895370267930988
"Crebbp",3.03633734407828
"Crebrf",2.83103054924601
"Crebzf",4.65428609787757
"Crk",5.1345436682774
"Crtc3",1.71271402440879
"Cryba1",1.54902008904984
"Crybg3",1.44704736725969
"Cryzl1",2.30180901512174
"Csgalnact2",1.02695010952723
"Csnk1d",4.2559568278299
"Csnka2ip",1.2998760040371
"Csrnp1",1.0227155393475
"Csrp1",1.49301507271827
"Cstb",2.88292570393604
"Cstf2t",6.44000316356253
"Ctbp2",4.25808607032567
"Ctc1",4.35147896739253
"Ctdnep1",3.59371700856569
"Ctdsp1",2.10035963186821
"Ctgf",5.46432620592656
"Ctns",2.88939475260702
"Ctr9",3.98382868915753
"Ctsd",5.26456091409895
"Ctsf",4.41695313936052
"Ctsw",1.2196167035574
"Ctu1",3.10340786546422
"Ctxn1",3.14914925134829
"Cuedc1",2.73489242928741
"Cuedc2",4.83577579655131
"Cutc",2.80405186243218
"Cwc25",2.7743209860648
"Cwf19l1",3.01367027691735
"Cxadr",1.87303497953442
"Cxcl16",4.00931910017741
"Cxcl17",1.18036932030179
"Cxcr4",0.970554042557808
"Cyb561a3",1.8831251028441
"Cyb561d2",1.32122631966683
"Cyb5d1",3.37855618528032
"Cyb5d2",1.60140358711797
"Cyb5r1",1.22441322709852
"Cyb5r3",2.49787581310589
"Cybc1",3.36049315999625
"Cyfip1",3.36737215094325
"Cyfip2",3.62772299060127
"Cyp1b1",1.44912389060921
"Cyr61",3.77337916911268
"Cyth1",2.42257092196055
"Cyth2",5.42088351895526
"Dact3",2.8207660081013
"Dagla",1.47211051228222
"Dbil5",2.1638587471391
"Dbp",5.43603809889166
"Dcaf7",4.37046762917358
"Dcakd",4.23685972178635
"Dcbld2",3.43174412495742
"Dchs1",2.26584831141111
"Dclk1",0.987134961518581
"Dclre1a",4.15592745115602
"Dctn5",4.15654500375623
"Dctpp1",4.1548251139714
"Ddah2",1.38753585324207
"Ddb1",5.54844413035703
"Ddias",2.43358955041547
"Ddost",2.49815456375206
"Ddx42",4.96322935600916
"Ddx5",9.64637767156801
"Ddx52",3.40512842287185
"Deaf1",2.61378218774888
"Dennd5a",4.52553999506673
"Derl2",3.22475498436122
"Det1",2.18323574771143
"Dexi",3.50423560250361
"Dgat2",3.0402207260941
"Dgke",2.60342350296167
"Dhcr7",4.20218760163119
"Dhdh",1.69497582792892
"Dhrs11",2.66224090519122
"Dhrs13",3.22316551820411
"Dhrs7b",3.05208018007608
"Dhx32",2.03519794022326
"Dhx33",3.78139125870935
"Dhx40",5.43848792175414
"Dhx8",3.2144851722709
"Diras2",1.5403217018087
"Dirc2",2.00052257160643
"Dlg4",3.50262504526195
"Dlx3",1.78863350672097
"Dlx4",1.34332431811594
"Dlx5",2.03107391889402
"Dmac2",3.40318780295969
"Dmpk",4.15786962775952
"Dmrt2",4.00548136157838
"Dmrt3",2.72231671760806
"Dmwd",3.88307361366322
"Dnai2",1.20241231402267
"Dnaja3",2.40978935757024
"Dnaja4",2.74151829949553
"Dnajb4",0.934847571189965
"Dnajc28",3.11969704438918
"Dnajc4",4.49075830117051
"Dnajc7",5.12376046285631
"Dnal4",1.56961681742139
"Dnase1l2",1.60288620964485
"Dnase2",2.12261409552426
"Dnlz",1.78098744294489
"Doc2g",0.899326876781549
"Dock1",2.36755134457215
"Dock8",1.50022986694651
"Dok1",1.35227004480096
"Dolpp1",1.17005061246927
"Donson",2.67694397842591
"Dpagt1",1.96684308026147
"Dpcd",2.13830152128213
"Dpf2",4.31785987459526
"Dph1",3.48881201441107
"Dpp3",4.15502109926289
"Dpp7",2.05741400398206
"Dpy19l3",2.14070130662061
"Dpysl3",1.50824371204421
"Dpysl4",2.966321099119
"Drap1",6.86885309060325
"Drc3",2.36968389313587
"Drg2",3.75250496281534
"Dstn",2.78046888604567
"Dtx3l",5.54968429932077
"Dusp1",6.02881537931137
"Dusp14",1.64503752345073
"Dusp18",2.34022755559307
"Dusp3",4.83433275856131
"Dusp8",4.95372965417397
"Dvl2",3.10009240731979
"Dynll2",3.70948568573689
"Dyrk1a",3.31491521255676
"Dyrk1b",3.51721062018779
"Dzip3",3.64186205981774
"E2f8",2.63923146991185
"E4f1",2.17019159931942
"Ears2",2.02266426623616
"Ebf3",1.9677830006833
"Ech1",5.59418413034992
"Eci1",2.76860075276648
"Ecm1",1.60110711646272
"Edrf1",2.6122477961439
"Eed",3.36697023314691
"Eef1akmt2",2.66838518634692
"Eef1g",8.97088538112497
"Eef2k",2.70435726653353
"Efemp2",4.4712204857406
"Efl1",1.78659222065561
"Efnb1",1.00065203462378
"Eftud2",3.66319813836574
"Egln2",4.75089574119785
"Egr1",1.35305427784534
"Ehd1",3.05998993368613
"Ehd2",3.57501117356285
"Eid2",3.78926173005824
"Eid2b",2.27613453382964
"Eif1",6.18645848808655
"Eif1ad",3.76134740844884
"Eif3a",7.05210486896825
"Eif3c",7.47335947792472
"Eif3f",5.07811450955289
"Eif3k",6.99021789053126
"Eif4a1",7.21659899938027
"Eif4g2",6.57267203143931
"Eif5a",6.86710184969911
"Elac2",2.66424751822376
"Elob",5.46936244864794
"Elp5",4.24025652074412
"Emc10",6.05281444250626
"Emc6",4.63215123017813
"Eme1",2.13564085984416
"Eme2",4.17868917295472
"Emilin1",1.34608602196303
"Eml2",1.84902279124543
"Eml3",2.43065352299932
"Emp1",1.83310604364977
"Emp2",2.54637494439278
"Emp3",6.02586344577644
"Emsy",4.68575080190176
"Emx2",2.77273012489765
"Endov",1.92475697698222
"Eno3",4.56939623726688
"Eno4",1.07873236443017
"Epc2",2.40930980243655
"Epn2",3.81845212077421
"Eral1",3.21441797387321
"Erbb2",1.85351055685143
"Ercc1",5.0248907503757
"Ercc2",3.1565911565393
"Erf",3.98570766644945
"Ergic1",3.65961330686015
"Eri2",3.56943629314486
"Erlin1",3.17290058365117
"Ermp1",3.33226972475017
"Ern1",1.61485271622671
"Errfi1",1.09829634304019
"Esrra",2.6203868780214
"Etfb",3.61042000115663
"Ethe1",2.23438626581568
"Ets2",2.45009177985275
"Etv4",3.01941318238059
"Exosc5",2.70677910049919
"Ezh1",3.08336160762394
"F2r",1.65829766496911
"F8a1",1.70248085236664
"Faap100",1.83553922875515
"Faap24",2.16332132231242
"Fadd",3.42653759486064
"Fads1",5.48915599911158
"Fads2",4.27869841518499
"Fads3",3.66933999117425
"Fahd1",4.39344096545887
"Fam104a",3.71476197583223
"Fam110b",1.31982321840603
"Fam111a",3.53095652509505
"Fam129b",1.37539434157678
"Fam160a2",2.12304287233899
"Fam160b1",3.3546856636221
"Fam162a",3.88648538068713
"Fam168a",3.56342888576229
"Fam171a2",3.17154967449169
"Fam173a",5.1175091022325
"Fam181b",5.8308740522427
"Fam204a",2.07695843118531
"Fam222b",2.57628749408246
"Fam43a",1.16768525129382
"Fam45a",3.50663007881345
"Fam53b",2.73686853779102
"Fam57a",2.94087250648002
"Fam57b",3.12730784402105
"Fam71e1",2.44097910750083
"Fam89b",5.00793193250232
"Fam98c",3.90120365969924
"Fan1",2.13610828588538
"Far1",3.32573102336414
"Fbf1",3.44239656428033
"Fbl",3.85816173226104
"Fbrsl1",1.07031046578052
"Fbxl15",2.05699259360032
"Fbxl19",2.29043057320305
"Fbxl20",2.16033257987966
"Fbxo45",2.91448125821438
"Fbxo46",2.49075654577606
"Fbxo6",1.64919302002143
"Fbxw11",3.10827257722411
"Fbxw5",1.60068196287852
"Fcgrt",3.14410847681323
"Fchsd2",1.97489733977701
"Fdxr",2.32661242391378
"Fen1",5.57673043605161
"Fgf11",3.75549758851989
"Fgf22",1.54727487553762
"Fgfbp3",2.77206130369963
"Fgfr1",0.874645501845435
"Fgfr2",3.39768056272723
"Fhod1",0.926188657998197
"Fibp",4.34147645321631
"Filip1l",4.23748221196275
"Fkbp10",5.21412246971943
"Fkrp",3.16016173868986
"Flcn",2.89583756199135
"Flii",5.64112596447345
"Flot2",3.87955283195544
"Flrt3",1.2556921760803
"Flywch1",2.98896529142022
"Fn3krp",3.60496796673374
"Fndc8",1.30135508664366
"Fopnl",3.22000712842484
"Fos",1.89561876776288
"Fosb",2.35465275227734
"Fosl1",1.7260185924127
"Foxc1",1.39247703583192
"Foxj2",1.05036049667245
"Foxk2",4.18764549600331
"Fra10ac1",2.88453798413578
"Frmd8",4.05106835249246
"Frmpd1",0.89594924362498
"Fscn2",1.68309369585122
"Fstl1",3.8309508783039
"Ftl1",8.88980427131322
"Ftsj3",6.77206232204054
"Furin",3.04313257408464
"Fus",4.01570968935359
"Fuz",4.2458825404871
"Fv1",6.5658595580049
"Fxr2",4.57044887823384
"Fyttd1",4.43322648820217
"Fzd1",2.46461655994478
"Fzd2",4.19797595210956
"Fzd4",3.30182525898488
"Fzd5",0.968866889194532
"Fzd9",1.33385151723685
"G0s2",1.6980478610617
"G3bp1",4.72492974698068
"G4",1.37999349730568
"G6pc3",3.78089666031895
"Gab2",2.706824824046
"Gabarap",6.4139780746878
"Gabpa",3.92224680758051
"Gadd45a",2.24215720426484
"Gadd45b",1.94539559254363
"Gal3st3",1.27270071613625
"Galk1",2.68636716777572
"Galnt10",1.93287939540196
"Galnt18",1.40593633915175
"Ganab",5.45742381123947
"Gap43",2.28653283205681
"Gart",3.73263429120859
"Gas2l1",0.831595333150143
"Gas7",4.28947641123715
"Gata2",0.74250807111882
"Gatd1",2.07746506334299
"Gbe1",1.30432248244497
"Gbf1",3.28190217628748
"Gdpd1",3.33895968579428
"Gdpd5",1.7646511646352
"Gemin4",2.84261736979202
"Gemin5",2.41327596531103
"Gfap",2.51345768255525
"Gfer",4.89253678918771
"Gga2",2.57364602617164
"Gga3",3.17901036518147
"Ggn",1.85136731747351
"Ggnbp2",4.57246415642591
"Ghdc",3.01651991634165
"Gid4",2.83930177490833
"Gipc1",1.36135485867567
"Git1",5.31725776929815
"Glb1l",1.32491106056353
"Gldc",1.83572263029025
"Glis2",2.52927244682391
"Glod4",2.90733356524311
"Glrx3",3.58060645939437
"Glud1",2.01105633232331
"Glyr1",4.65004706381831
"Gm23880",2.29749167637904
"Gm2a",5.29472859571177
"Gmfg",3.37968589399084
"Gna13",3.79773199623672
"Gnaq",3.11500447638284
"Gng3",4.94929524814581
"Gng8",2.57694276683092
"Gnptg",4.5756918888578
"Golgb1",4.08467193050483
"Gosr1",3.68343376826358
"Gosr2",4.3378417613766
"Got1",3.80596601865742
"Gp1ba",1.65185775478138
"Gpaa1",2.29137105826745
"Gpam",3.60765409035488
"Gpatch1",2.03558870886326
"Gpatch8",3.18953287245633
"Gpbp1l2",3.1193768868238
"Gpha2",0.990009139841784
"Gpi",4.93241110988591
"Gpr137",4.53774441090851
"Gprc5b",4.36024294710159
"Gps2",7.90159703201217
"Gpx8",3.70638310639323
"Gramd1a",4.0566780141454
"Gramd1c",1.68322268707741
"Grb2",3.03305563290277
"Grik5",1.90387406845286
"Grina",3.4081041258728
"Grk2",3.87082209265654
"Grk5",1.59635492508927
"Grn",6.91747046968804
"Grwd1",2.95912170054125
"Gsdma",1.25618893865029
"Gsk3a",4.3791195091171
"Gsk3b",3.01118606280602
"Gstp1",6.19204151682414
"Gsx1",1.04114739041796
"Gtf2e1",3.2128674722857
"Gtf2h1",5.8549041566631
"Gtf3c1",3.73797589024425
"Gtpbp8",3.09837664063858
"Guk1",2.93264573522769
"Gys1",3.96378634477483
"H3f3a",10.1750826070537
"Hacd2",1.87649505230561
"Hagh",2.35683904176707
"Hap1",3.51498308430253
"Hapln4",1.11583670995888
"Haus5",3.45912066976435
"Haus7",1.10359645001756
"Hba-a1",1.6952264094237
"Hbegf",1.34816575439753
"Hdac1",2.63611738788295
"Hdac5",4.49244717523535
"Hddc3",6.04936459697272
"Hdgfl3",3.46982267768054
"Heatr6",3.39021110814547
"Hectd2",3.1062176638675
"Heg1",3.20086083348002
"Helz",3.24035904693717
"Herc2",2.82795261262909
"Hes1",1.50756313430358
"Hexd",2.93454885587548
"Hexim1",5.9391654009268
"Hexim2",3.90081882567748
"Hey1",2.10728352157093
"Hgs",3.90940773511132
"Hhex",1.48961834298511
"Hid1",3.62972021555214
"Hif1an",3.52563455794499
"Higd1b",1.18785060113859
"Hikeshi",2.9025376159949
"Hint1",5.86846115294787
"Hint2",1.71102424754242
"Hirip3",8.40992708533369
"Hist1h2ai",4.79548612558473
"Hist2h2ac",1.95530455823189
"Hist3h2ba",6.28395098800786
"Hist3h2bb",3.49671703742607
"Hmg1l1",7.45581922280589
"Hmg20b",2.0661045568859
"Hmga2",1.20019331460668
"Hmgb1",7.09801912135513
"Hmgb2l1",6.57622005490029
"Hmmr",3.33944770546012
"Hmox1",1.67911247660106
"Hmox2",2.23770479012467
"Hmx2",1.88784489988459
"Hmx3",1.77653496447684
"Hnrnph1",8.26284709267923
"Hnrnpl",6.33034276449861
"Hnrnpul1",5.9191071594142
"Hnrnpul2",5.40706070625273
"Homer2",1.89154239980456
"Hps1",1.74113207478879
"Hps5",2.67972589375691
"Hps6",2.71497534073234
"Hr",1.11466641175345
"Hras",4.36415993056342
"Hrc",2.62850597818723
"Hrct1",2.14911869321148
"Hrh1",1.13264181387446
"Hs6st1",1.07932507784659
"Hsd3b7",4.76635726450986
"Hspa13",3.80978795772379
"Hspa4",6.17894052098339
"Hspa8",8.61551204079803
"Hspb6",6.86585870929312
"Hspb8",1.27989645177364
"Hspb9",1.44300382301732
"Hspbap1",2.24502394384945
"Hunk",1.75771381740636
"Hyal3",1.20192957062899
"Iba57",1.82044822297233
"Icmt",1.34068277013954
"Id2",1.9952638178362
"Id4",3.20140636826433
"Ide",2.77492401731072
"Idh2",3.69323459020362
"Ier2",1.82885788858669
"Ier3",2.18171976639379
"Ier5",1.20686041196563
"Ier5l",1.80827200182522
"Ifi35",3.31055481815118
"Ifit1bl",1.46652489398152
"Ifit2",7.15514532626032
"Ifit3",3.13639246934688
"Ifitm10",1.69123666657192
"Ifitm2",4.17749874933378
"Ifitm3",7.20065158244496
"Ifnar1",4.08850678464308
"Ifngr2",2.87993920685708
"Ift20",6.10204533629634
"Ift22",1.21954159350134
"Ift57",2.03722304299763
"Igf1r",1.87059377145798
"Igf2",2.90278919236491
"Igfbp4",2.33450698235308
"Igfbp5",1.49567322964687
"Igflr1",1.7031519143797
"Ighmbp2",2.74949662738476
"Igsf11",3.09917774434664
"Igtp",4.57496570707247
"Ikzf5",3.26297120351934
"Il10rb",2.39438020407083
"Il11",1.80964589263163
"Il18bp",3.23010114751886
"Il33",2.76719162836477
"Il4i1",1.83346592216306
"Il4r",2.23045210088302
"Ilk",5.51464944471611
"Ilvbl",1.0755273458231
"Ina",2.42311273402588
"Incenp",4.6916994749444
"Ino80e",3.67912842011594
"Inpp5a",1.78016431087915
"Inpp5f",3.10367969903996
"Inpp5k",3.4297290558534
"Inppl1",4.87623137937876
"Ints2",2.49048972118371
"Ints4",3.32798390105811
"Ints5",3.65798872153411
"Ipo7",4.89839975478449
"Iqcg",1.71199506640298
"Iqgap1",3.55734081748415
"Irf1",4.23218325211722
"Irf2bp1",3.47890623439127
"Irf2bpl",2.02032321342478
"Irf3",6.30434790030164
"Irgm",5.40396990349431
"Irgq",2.62118529771631
"Isl1",0.720998989471465
"Itga3",2.20938812481831
"Itgb5",1.42295133981392
"Itsn1",2.17678152279072
"Izumo1",1.84609173479998
"Jade2",3.13997441843244
"Jak2",2.94014208113176
"Jmjd4",2.15112001423301
"Jmjd6",3.41225316946237
"Jmjd8",4.52076740465953
"Jpt1",3.72343462944716
"Jpt2",3.60007466914453
"Junb",2.11739820711726
"Jup",3.56618284933879
"Kank1",4.73357198138209
"Kank2",1.40520872844216
"Kansl1",3.42777390880674
"Kat2a",4.48951982140757
"Kat5",5.78144628636947
"Kat7",4.76767704433172
"Kat8",3.67981593864359
"Kazald1",4.13653648561373
"Kcnc3",3.26257835965485
"Kcne2",1.87912055122666
"Kcne3",1.07035352982148
"Kcnh4",1.59027465928343
"Kcnj14",2.21026783621411
"Kcnj16",1.28231264659628
"Kctd11",2.81197349608762
"Kctd13",2.09152300634768
"Kctd14",2.81405144727613
"Kctd15",4.2138412175964
"Kctd2",2.31199254996683
"Kctd21",4.54029752494758
"Kctd5",2.15945089225015
"Kdelr1",4.02607031732112
"Kdm2a",3.77498647207049
"Kdm6b",4.24241185065044
"Kdm8",3.5722618255739
"Kif11",3.59485868977987
"Kif18b",4.26856389008572
"Kif1c",4.51009617370985
"Kif22",4.35505503416319
"Kif3a",4.4991724391065
"Kif7",3.35000800353956
"Kitlg",1.01667780294623
"Klc2",4.56192918589914
"Klf13",3.42207497733079
"Klf4",1.6116755700092
"Klf9",2.8972100451916
"Klhl11",3.68692756847235
"Klhl21",0.964461842091437
"Klhl25",2.30457187122198
"Klrd1",0.926977903425268
"Kmt2b",2.81455430573881
"Kmt5b",3.06717771537416
"Knop1",1.81014396752266
"Kpna1",3.92811032528259
"Kpna4",2.59838760074241
"Kpnb1",6.96704799524061
"Kptn",3.93612361844435
"Krt10",3.33859382629252
"Krt15",0.833842837550557
"Ksr1",1.53740630524033
"LOC100125367",0.89223577486191
"LOC100359600",3.0645113553219
"LOC100359930",1.28258529218308
"LOC100360087",7.9527405407968
"LOC100360449",6.94926641147033
"LOC100360791",1.31614608390242
"LOC100360846",4.0613957836776
"LOC100361067",3.41154052436907
"LOC100361457",8.97009907772076
"LOC100361898",1.84022927635359
"LOC100362027",10.9576919168859
"LOC100362366",6.04925459516538
"LOC100362453",8.89882082928968
"LOC100363469",4.85979178040439
"LOC100363502",3.97968692218355
"LOC100363537",1.17323267516218
"LOC100364435",9.40336003471079
"LOC100364457",1.59351751810224
"LOC100909725",1.74203259063132
"LOC100910107",1.54284906589165
"LOC100910875",2.65815014003705
"LOC100911225",2.27725586579598
"LOC100911295",6.69194315899614
"LOC100911319",0.712460167607478
"LOC100911674",3.84887722436045
"LOC100911713",1.39679800496086
"LOC100911730",2.1274387787936
"LOC100911851",2.2122283824823
"LOC100912181",4.12974312474428
"LOC100912427",0.849255239762338
"LOC100912483",3.25005691009174
"LOC100912618",2.0455105743614
"LOC102546648",3.25368485356909
"LOC102547954",2.82423033202574
"LOC102549993",2.56089769817317
"LOC102551003",1.40399300829443
"LOC102552549",1.4956978253578
"LOC102555167",3.19760215857403
"LOC102555635",3.31137002294936
"LOC102556967",3.8612969216874
"LOC103689920",2.85772032124563
"LOC103689931",2.1471569156047
"LOC103689961",3.84450403155942
"LOC103690013",2.05358061479402
"LOC103690054",4.86355948889902
"LOC103691238",2.84703519642495
"LOC103691556",1.16957872461052
"LOC103694903",3.71039537235772
"LOC108348122",4.88883564650283
"LOC108348189",1.46159894495393
"LOC108348201",1.35230234390841
"LOC108348233",0.710784480054765
"LOC108348287",6.04920999089537
"LOC108349548",5.52862372633107
"LOC108349594",4.77549101679785
"LOC108349682",3.89817082847281
"LOC108351584",3.87789953246773
"LOC257650",3.06306596816168
"LOC303566",1.19892392505251
"LOC497940",4.94981143469344
"LOC499235",5.55870801004355
"LOC499331",3.3161747285795
"LOC680121",7.44658872129749
"LOC681282",1.7088194474546
"LOC681410",1.28031348568174
"LOC682793",1.50056260853432
"LOC688672",2.26345269780411
"LOC690000",4.29616385555342
"LOC690617",1.53062343294234
"LOC691143",2.44111125133983
"LOC691189",0.94143578099746
"LOC691427",5.51117672295399
"LOC691995",1.62684619552484
"Lama5",1.27290513540679
"Lamtor1",3.76877602108917
"Lasp1",4.19675884171961
"Lbx1",1.9607124101186
"Lcmt1",2.50868692521762
"Ldb1",5.09935417619291
"Ldha",7.05716382071578
"Lgals3bp",7.50575733813868
"Lgals9",4.46045812136139
"Lgi4",4.19115229382794
"Lhb",1.49937231663127
"Lhpp",2.24001315427096
"Lig1",1.53996303418569
"Lig3",4.79120599998255
"Limd2",3.12984105013268
"Lin37",4.17334068180796
"Lin7b",1.96651633497132
"Lins1",1.73208341035975
"Lipa",2.39729554168059
"Lipe",2.85534711347801
"Lipt2",1.75817509405143
"Litaf",3.63340309630166
"Llgl1",4.00156937288642
"Lman2",1.9205028822397
"Lmf1",1.76308089590162
"Lmna",1.99072945866004
"Lmo1",2.69479867095756
"Loxl3",1.22272546779675
"Lpxn",1.66311584637122
"Lrch4",1.12530665521036
"Lrfn3",2.33681600223117
"Lrp10",1.94315820043962
"Lrp3",2.63942475797871
"Lrp4",1.91198319913088
"Lrp5",3.2446808007182
"Lrrc46",1.70520004731508
"Lrrc4b",3.71949798485309
"Lrrc51",2.90104936957384
"Lrrc58",4.37892027121474
"Lrrc59",5.7650794245506
"Lrrc75a",2.64779526970735
"Lrrc8a",1.27280118378085
"Lrrk1",1.81800415735805
"Lrrn4cl",1.50560234815397
"Lrtomt",2.1364715241456
"Lsamp",1.69532448939169
"Lsm12",5.25885795351392
"Lsm14a",3.71468693949319
"Lsr",2.52451056994679
"Ltbp3",3.85370335588272
"Ltbp4",3.13916561994331
"Ltn1",3.09007471989934
"Lto1",4.52583834265868
"Luc7l",3.84513419884505
"Luc7l3",5.44520922910402
"Lyrm1",2.47589755756852
"Lyrm7",1.62301628261656
"Lyrm9",2.68107536206864
"Lysmd3",3.37956233528049
"Lzts2",4.23842528659946
"MGC95210",2.94516329079438
"Mafb",1.00099885250512
"Maff",0.857353112843878
"Mafg",3.67692329161625
"Mafk",1.17717655169755
"Maml1",2.52182469892487
"Man2a2",3.7492510305703
"Map1a",2.34697379649848
"Map1lc3a",1.80815693915063
"Map2k4",2.36729331442237
"Map2k6",2.4112009585894
"Map3k10",2.42281664753554
"Map3k11",2.94309589313596
"Map3k14",1.39386190390467
"Map3k3",2.33229785233143
"Map4k2",3.20703654893818
"Map6",4.06860957027911
"Mapk1ip1",6.45297228303174
"Mapk3",6.80067467994266
"Mapk8ip3",3.83425225245671
"Mapk9",3.57209191932175
"Mapt",3.14803026177824
"March5",4.75246611397056
"March8",0.821934709522067
"Mark2",2.7035174937233
"Mark4",2.24797798220898
"Mat2b",2.06454184545906
"Matr3",4.02767637814842
"Mavs",1.06782669107332
"Maz",5.61946010135212
"Mbd6",1.34738939491197
"Mbtd1",2.13873964745498
"Mcee",2.27032958059069
"Mcmbp",2.92758465408226
"Mcrip1",4.91318287587005
"Med1",5.09339114329485
"Med11",5.24650323222833
"Med13",4.31699525069573
"Med25",4.78377538693929
"Med29",4.17214599148561
"Med31",5.35467008565697
"Med9",1.96110386851279
"Mef2a",1.61324295365093
"Megf8",2.25224505219005
"Meis3",3.42412269731689
"Men1",3.66055681642808
"Mesd",5.15869598910106
"Mesp2",2.09581235540469
"Metrn",3.47493096646965
"Mettl16",3.21763509969912
"Mettl22",3.06168729561736
"Mettl23",3.1399518207894
"Mettl2b",3.0972379848362
"Mettl9",3.48027571553437
"Mex3b",3.4718576488149
"Mfap3",3.13264916575198
"Mfge8",6.13743319762951
"Mfsd11",3.03019449979443
"Mfsd13a",1.59643202363077
"Mgarp",0.894477569574977
"Mgat1",2.66448658596269
"Mgat2",2.33196701680767
"Mgat4a",1.7387217849348
"Mgat4b",2.9534001859701
"Mgat5b",1.27093443892247
"Mgrn1",2.62722771371635
"Mia",2.16623148252122
"Mief2",3.93226168222078
"Mien1",2.74505978967786
"Mif4gd",3.2180048337374
"Mink1",3.94719094284689
"Minpp1",3.21759001806919
"Mir129-2",1.53540035198054
"Mir195",1.70514087819242
"Mir1956",1.32505661929244
"Mir21",2.74304196538854
"Mir219a1",0.89327589505916
"Mir22",3.88882122788398
"Mir27b",1.5803792516472
"Mir297",2.11979501119151
"Mir3074",2.33967846859764
"Mir344a-2",1.58318344370134
"Mir344i",2.33864104872181
"Mir3556a",1.48114290418966
"Mir3588",3.45658105566623
"Mir3597-1",0.902599997056845
"Mir365b",1.7120681206733
"Mir497",2.15745067367788
"Mir6326",2.19653757620866
"Mir99a",4.11920365825541
"Mirlet7c1",2.70996828194982
"Mirlet7i",0.99786679094146
"Mis12",7.91313814673718
"Mis18a",1.71370508168398
"Mk1",2.4266019976738
"Mki67",6.94165697387884
"Mkrn3",2.81748131174996
"Mks1",2.43014394895868
"Mllt6",3.69854766924436
"Mlst8",3.81850558205654
"Mlx",6.5086418635688
"Mmd",2.5514671863324
"Mmp11",1.23361189645335
"Mnt",3.12799855271992
"Mob2",3.66059795676385
"Mocs3",1.22592164678224
"Morc3",4.40564886468522
"Morn4",2.38302142616619
"Mosmo",4.61776992649131
"Mpdu1",1.88022318531938
"Mpg",2.22726836695743
"Mphosph10",5.05684405723477
"Mpp2",1.92219806720096
"Mprip",3.5297959989515
"Mpv17l2",0.82157535456328
"Mrfap1",4.36661270080356
"Mrgprf",1.47518445290556
"Mrm1",3.10811353504613
"Mrm3",1.65494934710823
"Mrnip",2.35945450457596
"Mrpl10",3.55059358983004
"Mrpl12",4.98787210249064
"Mrpl16",3.30263772612753
"Mrpl17",5.41119656817784
"Mrpl21",3.15186386437865
"Mrpl22",4.09016181034453
"Mrpl23",3.34488386040226
"Mrpl27",3.48357037110584
"Mrpl28",3.67610899032772
"Mrpl38",3.84654988816446
"Mrpl43",5.0060778402612
"Mrpl45",4.57735639396091
"Mrpl46",4.32822681249886
"Mrpl48",3.29439862324234
"Mrpl49",2.88320783197087
"Mrpl55",6.6997897951424
"Mrpl58",4.24140584313057
"Mrps23",3.26830928888259
"Mrps34",4.11833553604002
"Mrps6",5.39221511781617
"Mrps7",5.3653721885805
"Msi2",2.4136234601637
"Msl1",5.78324816153009
"Msn",1.85411653582767
"Msrb1",4.22350342736851
"Msx1",1.33055317749383
"Mt3",1.53836880577844
"Mta2",5.77872024789066
"Mtg1",3.04359603266925
"Mtmr10",3.39298939725375
"Mtmr4",3.40332239229903
"Mus81",2.88730334566802
"Mustn1",0.705408207335672
"Mvb12a",1.72394917158071
"Mvp",2.27019714759464
"Mx2",7.61275284897446
"Mxi1",3.27445300543047
"Mxra7",2.32780053098339
"Mxra8",1.97939999804674
"Myadml2",1.40573578681088
"Mybbp1a",6.87225833820957
"Mybpc2",1.54708483017155
"Myd88",1.18356506134856
"Myh10",3.13619822985368
"Myh14",4.01608658886313
"Myh3",1.08063231092824
"Myl12a",2.34930657548056
"Myl12b",2.33868444639635
"Myl9",1.39599362682015
"Myo18a",2.50125596055221
"Myo19",3.30375552538023
"Myo1c",4.83142346568212
"Myof",2.45284421504543
"Mypop",2.18646389565169
"Myrf",2.69004643266627
"Mzf1",3.17432287592733
"N6amt1",3.82498042755356
"NEWGENE_1307313",2.66262080231966
"Naa38",5.36494455532892
"Naa40",2.31256592978556
"Naa50",1.93429139019228
"Naa60",1.88072603826799
"Naaladl1",1.88533656219643
"Nadsyn1",2.5145729636923
"Naga",1.34294381650904
"Naglu",2.26235650424777
"Nagpa",1.79657065226232
"Nanos1",1.67922281051665
"Napa",3.82479774735689
"Narf",3.7587011345579
"Nars2",1.45478408838368
"Nat9",3.76783720744112
"Nav2",2.41708417546861
"Nbr1",7.2034763968948
"Ncan",2.74422011812598
"Ncbp2",2.37102682432885
"Ncor1",4.75019506628162
"Ncstn",1.95987946306339
"Nde1",1.74897271296741
"Ndel1",4.16853515568096
"Ndufab1",3.93859604149608
"Ndufaf8",5.17041888342594
"Ndufb10",5.47479176246501
"Ndufb4",5.84948600030728
"Ndufb7",1.58861843772007
"Ndufb8",4.48108094358326
"Ndufc1",1.77882360448125
"Ndufc2",6.95050398870959
"Ndufs8",5.85792388938581
"Ndufv1",5.97025351302085
"Necap2",1.63338167391189
"Nectin1",0.915237499103867
"Nectin2",3.0127537880222
"Nedd9",0.8321604187264
"Nek8",2.72024013826056
"Nepro",2.013685637788
"Neu1",2.14072459769126
"Neu3",1.55490373051368
"Neurl4",3.85100951036514
"Nf1",3.24320514873559
"Nfatc2ip",2.82839755638133
"Nfe2l1",6.39230378531309
"Nfkb2",3.51825415723917
"Nfkbia",2.40412627304122
"Nfkbib",3.26447451989286
"Nfkbid",2.6547949287498
"Nfkbiz",1.77244968539441
"Ngfr",4.13875173485331
"Ngrn",4.0454696537137
"Nhlrc2",2.63425381609314
"Nipa1",2.47835462658223
"Nipa2",3.83180017516964
"Nit2",3.89053344421454
"Nkiras2",3.22987134931725
"Nkx2-4",0.838913444504342
"Nkx6-1",0.764080150245795
"Nle1",2.34132348116383
"Nlgn2",4.89384214002017
"Nlk",3.11265631399558
"Nlrp1a",1.55844066939011
"Nme1",4.82511818181698
"Nme2",8.27245466268701
"Nme3",4.97098555505567
"Nmral1",1.43697139098789
"Nmrk1",1.87702257132565
"Nmt1",4.55224327408905
"Nnat",3.71345513503964
"Noc3l",3.78764420857659
"Nog",4.11467335725833
"Nol11",3.05325409411425
"Nolc1",7.03303976316199
"Nomo1",3.34550740376135
"Nop10",6.12252225669598
"Nop53",4.91508647566131
"Nosip",3.94084299105154
"Notch2",0.78223082390983
"Notum",1.73867695211471
"Npas1",1.64799178995806
"Npepps",2.7046109897834
"Nploc4",2.48005592555224
"Npm1",6.96939073766598
"Npm3",3.32334693743547
"Nprl3",1.7034761598332
"Nptx1",2.81654893712472
"Nptxr",1.87733507657746
"Nqo1",1.78412088640819
"Nr1d1",4.19103386782805
"Nr1h2",5.41125838687284
"Nr2f2",1.50712507576229
"Nradd",1.06222311875421
"Nrip1",2.08454295211213
"Nrip3",2.16772003951194
"Nrxn2",1.48576969577403
"Nsf",1.76324634038925
"Nsg2",2.81736109182769
"Nsmce1",2.44617251927715
"Nsmf",1.52209680476471
"Nsrp1",4.41401229274436
"Nsun3",1.78896519850456
"Nt5c",3.98654209655979
"Nt5c2",2.32614041928311
"Nt5c3b",3.07225938190766
"Ntan1",2.55761049168953
"Ntf4",1.59913837120368
"Nthl1",3.09549169093762
"Ntn1",1.40073273244614
"Ntrk3",1.99938560986501
"Nubp1",3.06085077230066
"Nubp2",4.02241492623955
"Nucb2",4.67484696734961
"Nudcd2",6.22277556305585
"Nudt16",1.54272208148972
"Nudt19",2.65121344390497
"Nudt22",2.54383825493735
"Nudt6",1.20784200141625
"Nudt8",2.63137885812708
"Nufip2",5.23789426366349
"Numa1",4.98725003183938
"Numbl",2.91872547898045
"Nup62",5.59661786178526
"Nup85",2.47057973845609
"Nup88",4.35728682430296
"Nup98",3.19444787830815
"Nxf1",5.64413084280035
"Nxn",1.63175956920018
"Nxpe3",1.69675760395027
"Nxph1",1.74846782082247
"Oaf",1.12570501326824
"Oat",4.00122432761883
"Oaz1",3.76287788419206
"Odf4",0.967407235466061
"Oga",4.20433617146777
"Ogfod3",1.56104819891195
"Olfml2a",1.39148793601201
"Olfr390",0.84645627505233
"Olig1",4.40750729885449
"Olig2",5.51375123893418
"Olr11",0.943973744765118
"Olr1391",0.934541884756623
"Olr1404",0.821241651176945
"Olr1425",1.19615569393732
"Olr1461",1.07962712219162
"Olr1498",0.967411376883852
"Olr1500",0.924135263309445
"Olr1519",0.6907947787139
"Olr1541",0.8982269651916
"Olr1547",1.31638274529387
"Olr1553",0.773673772884805
"Olr1559",0.859937568662222
"Olr203",0.831078213102445
"Olr208",1.0512965226627
"Olr217",0.82954615965782
"Olr271",1.09227823216215
"Olr326",0.859937568662222
"Olr338",1.26210470783364
"Olr354",0.796542495985527
"Olr361",0.807053985630365
"Olr384",0.827061817622191
"Olr41",1.01292016846165
"Olr56",0.881094543016982
"Olr8",0.896564988848488
"Olr81",0.833591614662882
"Opa3",2.44834940305527
"Orai1",1.18657983023836
"Orai3",2.3677852607136
"Ormdl3",4.33102513232477
"Osbp",3.54021376010148
"Osbpl11",2.01338728161088
"Osbpl5",1.80839141560472
"Osbpl7",2.77625474193199
"Osr2",0.724005021355483
"Ostf1",2.44507789139514
"Otub1",5.744506803281
"Otud1",0.823768714279795
"P3h4",4.92381127557616
"P4ha3",2.60068815116941
"P4hb",6.7732496320661
"PVR",2.75262439416702
"Pacsin3",1.58233470379502
"Paf1",6.45138007144741
"Pafah1b1",3.90289061143177
"Pafah1b3",2.38245415561862
"Pagr1",3.29087197114277
"Pak2",2.15313149590377
"Pak4",2.0786775960533
"Palb2",2.09859660206191
"Pam16",2.96443007273384
"Pank1",1.78870205196706
"Pank3",6.62896527981147
"Papss2",2.00989475951488
"Paqr4",1.68552773321998
"Parn",1.61032999595208
"Parp14",4.23655137565147
"Parp3",1.44858817293509
"Parp9",4.48249429417488
"Parva",2.20508620752697
"Parvb",0.817839439639192
"Patl1",3.24595847814293
"Paxbp1",3.62546963164205
"Pc",1.74289716326507
"Pcdhb10",1.14316756707341
"Pcdhb12",0.829714555940067
"Pcdhb14",1.74181073189695
"Pcdhb2",1.25170447998008
"Pcdhb22",1.16415373275673
"Pcf11",4.17698012951772
"Pcgf2",5.03279300746849
"Pcgf5",1.9104066854329
"Pcgf6",2.62329798961402
"Pcnx3",2.70523160390459
"Pcsk6",2.52821726405024
"Pcyt1a",2.82105853416038
"Pcyt2",4.74660873407519
"Pdcd11",4.23103761580881
"Pdcd2l",2.46304390121206
"Pdcd4",5.4032934872221
"Pde3b",1.75404154403742
"Pde8a",2.71801521707489
"Pdk2",3.69281254109489
"Pdlim1",3.33327746967887
"Pdpk1",2.18297269155684
"Pdzd11",2.318351028884
"Pdzd8",4.15466164572539
"Pdzd9",1.19003266565067
"Peli1",2.35267768450833
"Pelp1",4.02401097210641
"Per1",3.92722952773937
"Pet100",1.99958764175877
"Pex11a",2.73891595265991
"Pex12",5.10384460197206
"Pfas",4.46571854936757
"Pfn1",10.2380500199687
"Pgam1",4.27917885145119
"Pgap2",1.84847586008509
"Pgk1",3.26947267172969
"Pgm2",1.03528286936378
"Pgm2l1",1.91982224911982
"Pgp",4.45819806752605
"Pgs1",2.67635055490455
"Phf12",3.64014461809336
"Phf23",4.9492866141953
"Phlda3",2.01352400016474
"Phldb2",1.16005531151466
"Phldb3",2.00341559104414
"Phospho1",2.13308335028759
"Phrf1",4.24637772740853
"Pi4k2a",1.61237038943286
"Picalm",4.61272059326026
"Pigl",1.64192794548865
"Pigp",5.57696957592915
"Pigq",3.55408153849803
"Pigs",4.27697322562942
"Pigw",6.73171951634029
"Pigx",3.8147957655673
"Pih1d1",2.36552133439546
"Pik3c2a",3.6552236016635
"Pimreg",5.25254589288835
"Pink1",1.46772509627145
"Pip4k2b",2.89112097667371
"Pip4k2c",1.94236464271766
"Pip4p1",1.34296243005356
"Pip5k1b",1.86136823359621
"Pitpna",4.74695210731133
"Pitpnm1",2.65650040674763
"Pkd1",2.85281432024448
"Plat",1.03375606101489
"Plbd2",1.12316106107845
"Plcb3",3.27774732441192
"Plcd1",1.16900222882373
"Plce1",1.47309172353444
"Pld3",5.70571619364395
"Plekha1",3.88740124800146
"Plekha4",1.79501224972696
"Plekha7",1.82944523574757
"Plekhb1",5.51793638758567
"Plekhg2",3.42286412577193
"Plekhh3",3.05681509313498
"Plekhm1",2.94113611947511
"Plgrkt",3.03609136318397
"Plk1",4.61600173016782
"Plk2",2.76506010939848
"Plscr3",4.76561461878789
"Plxdc1",1.11799799685945
"Plxna1",1.12691194219548
"Plxnd1",0.70648875319584
"Pmm2",3.77283627739614
"Pmp22",3.63754624922931
"Pnkp",3.08040686836727
"Pnma8b",5.03802938687693
"Pnp",1.53870912838263
"Poglut1",3.41046792866225
"Pola2",1.60880531308233
"Pold1",2.38584670802449
"Pold3",3.0018928376093
"Pold4",3.38961258883699
"Poldip2",3.86665577704458
"Polg",4.5135344450675
"Polg2",1.91331178045287
"Poll",3.95592178259782
"Polq",1.40047961459718
"Polr2a",3.91322464120567
"Polr2g",6.5415576265693
"Polr3e",2.97700232528014
"Pop4",5.76482890645501
"Pou3f2",2.58757114463252
"Ppfia1",3.06551229533513
"Ppfia3",2.06058696850396
"Ppil3",1.14192093273554
"Ppm1d",2.53818757356338
"Ppme1",3.62740308126875
"Ppp1ca",5.74627521317588
"Ppp1r11",2.21096119139574
"Ppp1r13l",1.62413326991897
"Ppp1r14b",5.02918884257772
"Ppp1r15a",4.99580875088972
"Ppp1r1b",2.09229635025203
"Ppp1r37",1.58197293918287
"Ppp1r3c",3.10401956520529
"Ppp1r3d",2.0874216943754
"Ppp1r9b",4.62421848566072
"Ppp2r2d",3.08943504591861
"Ppp2r5b",3.42187337826211
"Ppp5c",3.39860792249258
"Ppp6r3",3.32272606258044
"Pprc1",4.08539375510121
"Prc1",5.29228735991198
"Prcp",2.57956931463704
"Prdx3",3.44013184755109
"Prdx5",3.80100747702848
"Prkacb",2.54765035679672
"Prkar1a",2.76082002464153
"Prkca",2.50571042120116
"Prkcb",2.68605229255055
"Prkd2",2.53701921299305
"Prmt3",1.54366774834806
"Proca1",2.39384344480325
"Proser3",3.78437795610355
"Prpf19",5.65553276815008
"Prpf8",6.86466445759191
"Prpsap1",3.94465283047615
"Prpsap2",3.42652569585456
"Prr12",2.86250803592992
"Prr13",1.20195806311928
"Prrt2",2.47796972481022
"Prss23",4.00934452029049
"Prss53",1.89303818795977
"Prune2",2.23475776318771
"Prx",1.65239857300539
"Psat1",4.82713555559562
"Psd",1.46503974514684
"Psenen",8.338855025763
"Psma1",5.60879876435967
"Psma3l",4.50763813360387
"Psmb3",4.56802888059721
"Psmb6",4.88149303987846
"Psmc3ip",4.1059183581218
"Psmc4",4.8150699291635
"Psmc5",4.88804966544329
"Psmd11",3.05272757431338
"Psmd12",3.89900342816837
"Psmd13",4.34446458853506
"Psmd3",4.88817700367684
"Psmd8",4.82378017125303
"Psmg1",3.35293387894879
"Pstk",2.94743807946634
"Ptar1",3.00590567458425
"Ptdss2",2.94445879762826
"Pten",4.65695198532083
"Ptges3l",1.79686162550063
"Ptov1",4.38487408936471
"Ptpn23",0.984390517327537
"Ptpn9",1.41184916166399
"Ptprcap",1.41313622002342
"Ptpre",1.16787919927707
"Ptrh2",5.29962299373378
"Pttg1ip",2.36450741832104
"Pura",3.7438067183649
"Pwwp2a",3.50286008477294
"Pwwp2b",1.92612599770248
"Pycard",1.73749700761196
"Qpctl",2.87168879830011
"Qprt",2.90199364550627
"RF00004",2.08307474470107
"RF00007",2.66807891628779
"RF00016",1.92073677203308
"RF00017",1.63316072057683
"RF00054",5.21336323693772
"RF00085",4.00686348424565
"RF00086",5.24324742415533
"RF00087",5.27124582970522
"RF00088",5.05909037336442
"RF00089",4.80482803321956
"RF00096",4.53259967129556
"RF00105",1.29358828024602
"RF00108",1.6353091489697
"RF00191",4.40687598730709
"RF00277",5.02665984815831
"RF00289",4.560274527526
"RF00401",1.4019002799289
"RF00413",2.31369307404854
"RF00578",1.20460364852754
"RF00604",2.24938861594321
"RF01164",5.72791965915642
"RF01225",2.28761673119832
"RF01268",2.83475847066949
"RGD1304587",3.99316695063684
"RGD1304728",3.43838452848153
"RGD1305014",2.2890021282027
"RGD1305713",4.32384486351908
"RGD1307554",2.15456715850863
"RGD1307929",5.18585839000257
"RGD1308134",5.6810915527746
"RGD1308428",3.41911919663694
"RGD1309748",3.57928261740329
"RGD1310127",2.24185113577342
"RGD1310352",5.54437231785588
"RGD1310429",2.56806295797488
"RGD1311595",2.97876136442852
"RGD1311703",6.69796789610045
"RGD1311946",4.72736648647029
"RGD1359127",1.72722399043105
"RGD1359158",2.35557355565534
"RGD1359290",1.2703963304236
"RGD1559896",1.44448854904368
"RGD1560108",5.48739588567148
"RGD1560854",4.7051832085875
"RGD1561113",0.837846094474393
"RGD1561157",2.14741684146233
"RGD1561277",2.21847650363385
"RGD1561590",2.37434702180437
"RGD1562690",1.63260392685198
"RGD1563159",1.3853833731785
"RGD1563378",1.83749559823704
"RGD1563441",3.18645237050218
"RGD1564664",1.62875281465434
"RGD1565033",3.88107840012713
"RGD1565611",1.01933549418617
"RGD1565784",4.08369240845455
"RGD1597339",6.15061087526291
"Rab11fip2",2.32325235431426
"Rab11fip3",2.67529968418857
"Rab26",1.86786209951638
"Rab30",1.47017443485848
"Rab34",6.06912942072116
"Rab3d",1.20643555624662
"Rab3il1",1.69858392249682
"Rab4b",2.87105290328727
"Rab5c",6.5469376712324
"Rab6a",5.45026861208187
"Rabac1",3.71441526499091
"Rabep1",3.49306484687243
"Rabep2",2.32341473849362
"Rabl3",2.0821885615848
"Rack1",7.25552525842191
"Rad50",4.04073738291051
"Rad51c",2.07515305209806
"Rad51d",2.50915256866212
"Rad9a",3.02844066380776
"Rai1",3.17694462051907
"Rai14",0.965824884045405
"Ramac",4.51387235413347
"Ranbp1",6.50527643838017
"Ranbp6",4.51314616026075
"Rangrf",3.00684200742783
"Rapgef6",2.04989360497036
"Rara",3.64287042715427
"Rarg",1.15966453758859
"Rasgrp2",3.12156382035329
"Rasl11b",1.29817490013066
"Rassf7",3.35086715783725
"Rbbp6",5.04434784746943
"Rbfa",0.844442901971717
"Rbm14",3.45641527737717
"Rbm15b",2.78107557585852
"Rbm25l1",8.41971778188412
"Rbm4",4.36393823700523
"Rbm42",3.32766671147714
"Rbm4b",3.56041549243812
"Rcan1",5.18853342535276
"Rccd1",2.03708811320329
"Rce1",4.58142161092061
"Rcl1",1.46083315991278
"Rcn3",3.86782629855037
"Rcvrn",1.54956339581956
"Recql5",2.75463439112426
"Reep4",1.2105924216882
"Rela",4.6076817764085
"Relt",1.84286191557426
"Retreg3",3.76922369321853
"Rexo5",1.51050674578291
"Rfc3",2.02314679987832
"Rffl",2.28944652587425
"Rfk",3.96500102953619
"Rflnb",1.91046962724034
"Rfx3",1.87551359039017
"Rgs10",1.4844322027097
"Rhbdf1",4.56208964918854
"Rhog",3.89281416208033
"Rhoq",3.04941638120354
"Rhot1",3.02116598021058
"Rhot2",2.92424678464251
"Rhpn1",0.92310363554838
"Ric1",2.65821935177891
"Ric8a",4.16216517551916
"Rin1",1.03129187509121
"Ripor1",1.35649542095212
"Rlbp1",1.61416429530027
"Rnaseh2c",3.97659854049289
"Rnasek",4.06893878321863
"Rnd2",4.81598465307666
"Rnd3",2.45792243947792
"Rnf112",2.65502724288725
"Rnf121",1.87712148500686
"Rnf145",4.8230988056473
"Rnf167",5.5713097827925
"Rnf168",3.71172781167355
"Rnf169",1.86033744997359
"Rnf187",6.17184659046343
"Rnf213",4.84750182687271
"Rnf225",1.71634666770615
"Rnft1",3.74666826645928
"Rnh1",3.55694388781485
"Robo1",2.76780252190163
"Rogdi",3.58747510259963
"Rom1",2.69643709531906
"Romo1",1.69096692528628
"Rorb",1.69555937194713
"Rpa1",3.13042924367356
"Rpain",3.95828790702486
"Rpl13a",6.7879457570465
"Rpl19",8.55087398061246
"Rpl21",8.16767492945963
"Rpl23",10.2879634744749
"Rpl27",7.54569752950575
"Rpl29",5.78103388988365
"Rpl30",7.34371871690795
"Rpl36",7.07659253420386
"Rpl36a",7.20547512743663
"Rpl37",5.26598413968636
"Rpl5",6.0987936946083
"Rplp0",7.21554448089441
"Rpp25l",0.99403053437214
"Rpp30",3.34583279073899
"Rpph1",6.8797919080664
"Rprml",2.35979881288993
"Rps11",8.59214550471989
"Rps16",7.32670082315459
"Rps18",7.73260765093791
"Rps18l1",4.48863224911139
"Rps19",2.35272532026192
"Rps23",5.51902665735093
"Rps24",8.81919221055779
"Rps28",6.12220162563908
"Rps3",6.37156407426539
"Rps3a",6.98908062921622
"Rps5",6.64872316715879
"Rps6ka4",2.13514012516445
"Rps6kb1",3.82507866686123
"Rps6kb2",4.04671309084072
"Rptor",1.71534993977286
"Rpusd1",2.54376194481003
"Rras",3.51586032001816
"Rras2",1.80268741455684
"Rrm1",3.57558570916392
"Rrn3",2.42814573966593
"Rrp8",4.76369140192122
"Rsf1",3.59146075976314
"Rtl3",1.67910600896876
"Rtn2",2.68071408953627
"Rtn3",4.15371327068529
"Rtn4",2.5269358254324
"Rtn4rl1",1.72036060700233
"Rubcn",3.2733975598651
"Rufy1",2.35538994212966
"Rundc1",3.20048826067829
"Rundc3a",4.89242075782145
"Ruvbl2",4.40461338307254
"Rwdd2b",2.41669945025189
"S100a4",2.58143104199637
"Sac3d1",4.43617037865432
"Sae1",2.64598653231974
"Samd4b",3.22950220265786
"Sap18",3.41233272786291
"Sap30bp",3.93432531368044
"Sap30l",3.31750557450432
"Sar1b",3.5261974400172
"Saraf",1.28506864778424
"Sarm1",1.96459391218059
"Sars2",2.3492429919043
"Sart1",5.78262496128077
"Sat2",5.75568083789978
"Sav1",1.29917205663751
"Saxo2",0.804658228431513
"Sbf2",1.82881517081243
"Sbsn",2.39019225358745
"Scaf1",4.91000456014646
"Scaf4",2.68947425919296
"Scand1",2.41922293333207
"Scarf2",0.883246831332143
"Scd",7.9511017344858
"Scd2",8.46881401773241
"Scn1b",1.64448749666254
"Sco1",3.60740324383877
"Scpep1",3.968359430197
"Scrn2",2.9318701160045
"Scyl1",4.41755366693981
"Sdc3",1.75202551735642
"Sdf2",4.13652723612643
"Sdhaf1",4.14659008063967
"Sdhaf2",4.33731860691805
"Sdk2",2.01058245156238
"Sebox",1.45601820924257
"Sec11a",3.86855241525517
"Sec14l1",3.12576695267471
"Sec23ip",3.47748419461732
"Sec24a",2.36886823386665
"Selenos",3.97678187643662
"Sema4g",3.20966358157514
"Senp3",5.0138580182802
"Senp7",2.47526568865227
"Sephs2",5.63203580362684
"Sept4",2.0015015877882
"Sept5",1.65468025085858
"Sept7",4.41431019501006
"Sept8",6.19237634962706
"Serpine1",1.87597045860357
"Serpinf1",3.14303870353156
"Serpinh1",3.28856270945825
"Sertad1",3.08176130240596
"Sertad3",2.63425646280463
"Setd1a",3.41559931238865
"Setd4",3.30106398283261
"Sez6",3.17471697719181
"Sf1",5.28908603381861
"Sf3a2",1.47891641778053
"Sf3b2",5.56990816405179
"Sfr1",4.12493520458498
"Sfxn3",5.14655388186186
"Sgca",2.15478866877627
"Sgms1",1.95417377007011
"Sgsm2",2.86014666563924
"Sh3bgrl3",2.89614648868337
"Sh3bp5l",4.3042705256775
"Sh3gl3",2.0820867636663
"Sh3pxd2a",1.68571852666002
"Sh3pxd2b",2.56676303660895
"Shc1",1.99046232471644
"Shkbp1",2.90780637047852
"Shoc2",2.44238795062568
"Shox2",1.46062751799287
"Sidt2",1.51563475089208
"Sim2",2.79300566550793
"Sipa1",1.98222551516919
"Sipa1l3",1.85415304283217
"Sirt2",5.41956122492868
"Sirt3",3.13543534930678
"Sirt7",3.89793714050591
"Six5",3.50461583322592
"Ska2",4.9532959223783
"Skp1",7.46041955632011
"Slc10a3",1.36976113296496
"Slc15a3",2.33124597618943
"Slc16a13",2.41055052508634
"Slc16a6",2.12649973496285
"Slc18a2",1.9802098890414
"Slc1a1",3.96064993672121
"Slc1a5",3.0750105969715
"Slc22a5",1.25067577259095
"Slc25a10",4.0023561586298
"Slc25a11",4.74516696035684
"Slc25a19",3.3940726636606
"Slc25a28",3.82050304072296
"Slc25a35",3.39595836181828
"Slc25a39",6.56447798174242
"Slc25a45",1.5734535706404
"Slc25a5",4.63517600432645
"Slc25a51",1.28298961090754
"Slc31a2",0.926816508564072
"Slc35a5",3.34526562141248
"Slc35b1",6.05268296174025
"Slc35c1",1.74362080950139
"Slc35g1",2.08808047996785
"Slc35g3",2.21986343070554
"Slc36a1",2.58514581270922
"Slc38a10",2.82698086702277
"Slc39a1",2.61689352355421
"Slc3a2",5.43617797431018
"Slc43a2",2.29844927370827
"Slc46a1",3.02934058375076
"Slc48a1",1.92248250231287
"Slc52a2",1.0222006646784
"Slc5a2",1.24198624674553
"Slc6a8",1.43737785374429
"Slc8a2",2.09590375566051
"Slc9a3r1",3.90415123828925
"Slc9a3r2",2.3309110981547
"Slf2",3.71733555125842
"Slfn13",5.49341389503946
"Slfn4",1.52307002297344
"Slfn5",1.61353644577575
"Slit3",2.2930208829223
"Slk",4.02295336594435
"Slu7",4.8327871997037
"Slx1b",2.95863210231036
"Slx4",3.5808438201463
"Smarca2",3.08134391291404
"Smarcd2",3.78620703772166
"Smarce1",5.9137925263574
"Smc3",4.56917488129542
"Smc5",4.2623089653671
"Smcr8",4.54522899110977
"Smg1",3.52082263717991
"Smg8",4.54629213848442
"Smg9",3.12111372672383
"Smndc1",3.96718663396682
"Smo",0.944847979221727
"Smpd1",5.06301726755667
"Smurf2",4.28169199471403
"Smyd4",2.18944630416911
"Snap47",1.67060130692147
"Snf8",3.82651086064574
"Snn",5.10785435040729
"Snrnp70",4.75619590631067
"Snrpa",4.66052260271651
"Snrpa1",3.95158418667172
"Snrpc",3.67040614689728
"Snrpd2",5.99054643638805
"Snu13",4.555878134126
"Snx1",4.4189295148915
"Snx11",2.88475971697086
"Snx15",3.36495257761665
"Snx32",4.17714445507909
"Snx33",1.18870225276345
"Snx4",3.83376000657413
"Socs1",2.89706306987524
"Socs3",5.05765822708895
"Socs7",2.69018558680725
"Sod1",5.53199108452821
"Son",6.59678820344342
"Sorbs1",4.49972460353078
"Sowaha",1.67688567996425
"Sox12",2.00337527908838
"Sox6",3.95253648162817
"Sox8",2.80060447364975
"Sox9",3.53244115554564
"Sp2",3.11543362740576
"Spag5",4.15619953424072
"Spag7",5.24069306627959
"Spag9",4.35189811300499
"Sparc",5.8212675070053
"Spata6l",2.26824005755704
"Spcs2",4.91526020016097
"Spdl1",2.46844357610841
"Specc1",2.10260363840947
"Spem1",0.846844457225103
"Sphk1",1.63441679678125
"Sphk2",3.8501949820041
"Spice1",1.63931270007653
"Spindoc",3.28073569002665
"Spns1",3.63909729358342
"Spon1",2.86036425747479
"Spop",3.06687745794872
"Spred3",2.57924262187036
"Spryd3",0.802596951796357
"Spsb3",4.88567389731244
"Sqstm1",5.23035170904169
"Srebf1",2.17748864349192
"Srp68",2.00552659559421
"Srr",3.48502606751052
"Srrm2",7.06142861321614
"Srsf1",7.93622738461586
"Srsf2",8.27134470801207
"Ssc5d",4.71396051275787
"Ssh2",1.64866581039482
"Ssh3",1.73146735874396
"Sssca1",4.748700511255
"St3gal2",1.06141302004599
"St3gal6",3.93351860992948
"St5",3.45917137805535
"Stac2",2.31153048116277
"Stard10",2.12580879353881
"Stard3",3.05448298765393
"Stat3",4.55452681262918
"Stat5a",2.09888608102939
"Stat5b",2.60642290677528
"Stc2",2.02834674607988
"Stim1",2.06641829930869
"Stip1",5.87570672888369
"Stk38l",0.88453490582283
"Stk40",0.887919343988915
"Stn1",3.026688727032
"Stom",1.33625638182196
"Strada",3.03364696271774
"Strn4",3.43061805391455
"Stub1",4.9020053970067
"Stx1b",2.45823615955285
"Stx4",5.256586837648
"Stx5",3.35495281034991
"Stx8",1.45891477601377
"Sufu",1.59868442557409
"Sult1a1",1.59260231022581
"Sumo2",5.89838233445109
"Sumo4",9.54347067268083
"Sun2",1.58687526500326
"Suox",2.23289060056713
"Supt4h1",5.34162373441668
"Supt5h",6.18778750765111
"Supt6h",6.10085464876739
"Surf6",3.7871565992971
"Svip",3.38076441522792
"Swap70",4.1745341767059
"Syde1",1.60130783178668
"Sympk",3.65950484148721
"Syngr3",1.85320169826355
"Synj1",3.34658167413256
"Syt3",1.68022539808451
"Syt4",1.06441866015232
"Syvn1",4.95844190873192
"Tacc2",1.44080645628096
"Taco1",2.31709943055116
"Tada2a",2.52028445797041
"Taf10",5.02776483137487
"Taf15",4.68076443039903
"Taf5",4.03195050980244
"Taf6l",3.6290637917842
"Taldo1",6.22675471918458
"Tanc2",3.10909060388522
"Taok1",5.08545965372399
"Taok2",4.47030456522846
"Tapbpl",1.02081306030299
"Tarsl2",1.68631742196223
"Tax1bp3",4.13265485181884
"Tbc1d10b",3.59881470943106
"Tbc1d17",3.23555351687539
"Tbc1d23",3.79359019447207
"Tbc1d24",2.34698357015902
"Tbc1d9b",3.7940808303344
"Tbkbp1",2.3910165606205
"Tbl3",3.55183517472925
"Tbx10",1.97155998221039
"Tbx2",5.19312648585885
"Tbx6",1.03072663891269
"Tceal8",2.63892065724137
"Tcf7",1.1784623232823
"Tcf7l2",3.73800475363973
"Tcirg1",2.57394940116573
"Tctex1d2",2.63616931263563
"Tdrd12",1.50134087507055
"Tead1",2.52271904970009
"Tedc2",2.8024577871937
"Telo2",2.00834082452383
"Tepsin",3.51757042446741
"Tesk1",1.1526356530365
"Tex14",2.88470044705884
"Tex2",2.61048823547551
"Tfap4",2.37630156067751
"Tfg",5.58621604753227
"Tfrc",3.51074813446746
"Tgfb1",2.37948644613835
"Thap12",5.06464476788924
"Thbs2",3.04282456828689
"Thbs3",0.98674064657372
"Thg1l",3.33770777314413
"Thoc6",2.25065336469383
"Thra",3.71826507930457
"Tial1",4.50043447028584
"Ticrr",2.02341016914387
"Tigd5",0.925344833089605
"Timm22",3.26668468492241
"Timm50",1.65194440284741
"Timmdc1",2.34604529323255
"Timp2",3.76230121816518
"Tjp1",5.36615253748047
"Tjp2",2.90527637907067
"Tkfc",1.69428991866422
"Tlcd1",2.40878941967015
"Tle4",3.63530349700994
"Tlk2",3.69858345216389
"Tlnrd1",3.61905740231179
"Tlx1",2.57957917894351
"Tm2d3",1.44210852415336
"Tm6sf1",2.40494634993911
"Tm7sf2",3.58897064699295
"Tm9sf3",4.70304501081139
"Tmed1",1.65650000433697
"Tmed3",1.11135948732885
"Tmed9",2.24150245999201
"Tmem100",3.45741112913759
"Tmem101",3.9933608674843
"Tmem104",2.24295476082511
"Tmem107",3.34812499203242
"Tmem109",3.11162798760109
"Tmem11",3.96759115635532
"Tmem115",1.47181332056616
"Tmem126a",3.59124912553048
"Tmem126b",1.995078378262
"Tmem127",2.82788973991847
"Tmem129",1.71761142247997
"Tmem132a",4.94920120935116
"Tmem134",4.60018198399538
"Tmem135",1.95583520363196
"Tmem138",2.64260809337509
"Tmem143",2.71733820756277
"Tmem147",5.0386159427364
"Tmem150a",1.48790353508362
"Tmem160",2.4911461231454
"Tmem176a",0.917110406995177
"Tmem184b",1.01596698952986
"Tmem186",3.44392883410593
"Tmem189",2.19262448683325
"Tmem199",3.88367238924794
"Tmem216",4.63601962745806
"Tmem220",1.08497582934462
"Tmem223",4.55133821258262
"Tmem256",4.98934191948427
"Tmem30c",1.2883268111306
"Tmem39a",3.1189923006634
"Tmem41b",4.9011247246287
"Tmem43",1.74990130428882
"Tmem50b",2.59804130289289
"Tmem80",3.60081832277765
"Tmem86a",1.75032765278311
"Tmem88",1.91077633202495
"Tmem8a",2.17565274353401
"Tmem91",2.30932279236127
"Tmem94",3.90862834135011
"Tmem97",4.88558628780321
"Tmem98",2.63933844835772
"Tmem9b",2.52827384541658
"Tmprss2",3.10355446746977
"Tmub2",5.23461785085188
"Tnfaip1",4.39328388105243
"Tnfrsf12a",4.60233527320754
"Tnfrsf17",1.32383719914027
"Tnfrsf21",0.894077591572555
"Tnfsf12",3.1157266463844
"Tnfsf13",2.92167902202989
"Tnip1",3.77207875644226
"Tnk1",1.65671406973119
"Tnk2",2.34044642583363
"Tnks2",3.01505307231146
"Tnrc6a",4.75491865915308
"Tnrc6c",2.05695677464627
"Tob1",5.73198506498822
"Tollip",3.48509448598227
"Tom1l2",3.20509861230841
"Tomm40",4.23898211040386
"Tomm70",2.8577473938303
"Top2a",5.71372675184227
"Top3a",1.92793824057593
"Tor1a",1.48160511437767
"Tp53",6.56570982080534
"Tp53i13",3.01244897907788
"Tp53inp2",1.79213553713471
"Tpbg",2.1488948691108
"Tpcn2",2.42268717041255
"Tpgs1",1.75768452954762
"Tpm1",2.54527886440923
"Tpp1",4.99694568467269
"Tprn",0.942829297944118
"Traf4",4.37683412166267
"Traf7",4.1122226073592
"Trap1",3.13573202804467
"Trappc1",5.97895944640537
"Trappc2b",4.27134294670723
"Trappc2l",1.99504700291673
"Trappc5",1.86307124575608
"Trex1",1.78764324594628
"Trib1",1.86475395262939
"Trim11",3.4494928707385
"Trim17",2.39983801275112
"Trim21",3.70130311951545
"Trim28",7.42521002576838
"Trim3",2.41164856914271
"Trim34",3.27496227522831
"Trim41",4.01464311241169
"Trim47",2.69201859598783
"Trim5",2.55054416555256
"Trim65",2.84699854216564
"Trim8",3.72330369896554
"Trmt10c",4.83747516769432
"Trmt112",7.04912820333999
"Trnt1",3.65724763418098
"Trpc2",1.39361092495748
"Trpm3",2.49345381905268
"Trub1",1.28683947818326
"Tsc2",3.2359794165456
"Tsc22d3",2.66617368213769
"Tsen54",2.41705186295492
"Tsg101",5.10289606659174
"Tshz3",1.78978890105727
"Tsku",4.69414707688385
"Tsr1",5.50357817860623
"Tsr3",2.99979959049758
"Tssc4",5.60012462483466
"Tst",0.787223550519005
"Ttc1",3.87234118233973
"Ttc19",3.54078170683092
"Ttc3",3.31561343073315
"Ttc9b",1.4932223472002
"Ttc9c",4.90231069999901
"Ttll13",3.28680863494239
"Ttyh2",2.52777317566343
"Tubb2a",1.37453248354011
"Tubb3",1.44595048324918
"Tubb6",2.42126349843527
"Tubd1",1.99987888697347
"Tubg1",4.48752068487075
"Tubgcp2",4.5234205834027
"Tubgcp5",3.38320133474291
"Tufm",4.84664686349058
"Tut1",3.85217565893611
"Tvp23b",4.81334959579811
"Twist1",1.50915805137546
"Twnk",5.12646224630152
"Txndc11",2.1072260825231
"Txndc17",5.20146709068378
"U2af1l4",6.00156515647048
"Uap1l1",1.63849460362922
"Uba5",1.67626827887008
"Ubald2",5.26367133043052
"Ubb",12.9927552965859
"Ubc",2.56054875672366
"Ube2b",5.81157629257729
"Ube2g1",3.45941114987437
"Ube2m",4.95997205843802
"Ube2n",4.77824156666138
"Ube2o",2.58067516963316
"Ube2z",3.23398556587174
"Ube3a",3.8789447264745
"Ubfd1",4.19898482639225
"Ublcp1",4.90445831981501
"Ubn1",3.61624506170484
"Ubtd2",1.87465985138327
"Ubtf",5.37238611471704
"Ubxn1",7.64113625430354
"Uckl1",1.4451964684241
"Uhrf2",3.51154397058931
"Ulk2",2.47168204812833
"Umps",3.09576678286518
"Unc119",2.96247545291267
"Unc45a",3.27503535205409
"Unc5b",1.32607694306882
"Unk",2.853322169473
"Unkl",1.89861703254281
"Uqcc3",5.64482624838565
"Uqcr10",1.16933598514301
"Uqcrb",3.61632725891126
"Uqcrc2",5.11029975251259
"Urb1",2.0518194264538
"Uri1",2.79477709825348
"Urod",2.08783616654592
"Usf2",4.93058278041135
"Usf3",3.45546987654263
"Usp16",4.57309881980465
"Usp22",4.27332205341511
"Usp25",3.48964268722231
"Usp31",2.28943943743114
"Usp32",2.53841034827913
"Usp35",2.22314884694352
"Usp36",3.93819533441303
"Usp47",4.82439015346672
"Usp7",4.80284771405026
"Utp18",2.81990867866009
"Utp6",2.84767012701917
"Uvrag",2.1815960228814
"Vamp2",4.77719451186229
"Vasp",4.02817896342225
"Vat1",3.91834257092578
"Vdac1",4.20740071885053
"Vegfb",5.81967812622962
"Vezf1",6.07305088951052
"Vgll3",3.72171782414252
"Vkorc1",5.57017253458976
"Vmp1",2.37169514076679
"Vom1r57",1.0363275608372
"Vps13a",3.13631201094774
"Vps26c",3.29560085785148
"Vps33b",1.94352077728672
"Vps35l",2.09061798670892
"Vps37c",2.46673568850788
"Vps53",1.71302525384752
"Vrk3",2.97307309873201
"Vsig10l",1.68315161980336
"Vstm2b",2.29825904400945
"Vti1a",1.459831385819
"Wbp1l",2.69885004210782
"Wbp2",5.57250094801612
"Wdr11",3.06879742199919
"Wdr24",2.64110579735833
"Wdr45b",3.06585486952794
"Wdr53",2.91181025364043
"Wdr5b",2.77533166645448
"Wdr6",2.23131908081042
"Wdr73",2.37808316551054
"Wdr74",4.32419551740371
"Wdr81",2.72660445965917
"Wdr90",1.51002972796817
"Wee1",2.74262863043569
"Whamm",2.51236557654936
"Wipf2",2.50486273556916
"Wipi1",3.19827992154439
"Wrap53",2.21620767323135
"Wrb",3.30662068091431
"Wsb1",5.19911012922392
"Xaf1",3.14877229594377
"Xpnpep1",3.84929587871717
"Xpo6",3.07591574615429
"Xrcc1",3.23781296534436
"Xylt1",3.06499787170715
"Xylt2",3.30408672489333
"Ybx1",5.19035407141052
"Ybx1-ps3",4.71181706344267
"Yif1a",4.88352931251821
"Ypel2",3.63525831060767
"Ypel3",3.09370669192444
"Ywhae",6.11120011866866
"Zbtb11",3.20605764451298
"Zbtb21",4.27121455022308
"Zbtb22",1.50105274424354
"Zbtb3",2.65373383218925
"Zbtb4",3.94641100254603
"Zbtb45",3.14146384362059
"Zbtb7b",1.3357114567987
"Zbtb9",1.3489891070516
"Zc3h11a",4.16255410044709
"Zc3h4",3.79259052291225
"Zc3h7a",2.73216452458474
"Zdhhc13",2.18532961520484
"Zdhhc24",2.4444274486214
"Zdhhc6",3.58299209394501
"Zfand2a",1.32750294027246
"Zfand5",5.74061298416249
"Zfhx4",0.975424241867268
"Zfp110",4.51043525194055
"Zfp112",2.15749251896521
"Zfp128",4.31628607233298
"Zfp13",3.39802216648836
"Zfp143",2.75121362159396
"Zfp148",3.07859422140059
"Zfp17",5.32266470774851
"Zfp174",1.61141976582696
"Zfp18",3.28799019427388
"Zfp180",3.92940462341536
"Zfp2",2.88320701661813
"Zfp207",6.81499455938778
"Zfp213",2.84181048964579
"Zfp263",3.99125450288757
"Zfp286a",4.32069486109442
"Zfp287",3.36738331813278
"Zfp3",2.69552193590482
"Zfp354a",3.35744953224379
"Zfp354c",3.88652796091129
"Zfp36",3.68599469026409
"Zfp36l2",1.72231742342415
"Zfp382",2.93365442885816
"Zfp39",2.99856447735636
"Zfp428",1.97763443842069
"Zfp496",4.95683156661643
"Zfp507",3.8737760040017
"Zfp511",4.23728438943952
"Zfp518a",2.34983412137978
"Zfp536",2.06184376883412
"Zfp566",1.65165069886266
"Zfp574",5.0700487774114
"Zfp592",3.22178119921124
"Zfp593",1.51551007843926
"Zfp597",2.79196799455913
"Zfp598",3.60975522056364
"Zfp61",3.55432159355745
"Zfp629",3.11820490572978
"Zfp646",5.85372854172202
"Zfp652",3.58981104989602
"Zfp668",3.57960184460726
"Zfp672",4.05655029891923
"Zfp688",4.19066722365479
"Zfp692",3.5564558441261
"Zfp703",0.783086697595212
"Zfp710",1.78634614761548
"Zfp764",2.46390403952903
"Zfp791",1.32774204799868
"Zfp819",1.89183926271287
"Zfp830",5.16986348896734
"Zfp84",1.8763205507423
"Zfp867",4.77048176463554
"Zfp879",3.14091197117244
"Zfp91",4.87121347076286
"Zfp950",1.47677348900941
"Zfyve27",2.64705607828725
"Zkscan2",2.28345631854985
"Znf354b",1.70672844175538
"Znf48",5.76250988696068
"Znf768",4.00817529157893
"Znhit2",2.93984820551171
"Znhit3",2.31621654531936
"Zranb1",3.53364945936137
"Zswim7",2.06267574611752
"Zswim9",3.51177364685973
"Zzef1",2.40807583355625
"mrpl11",4.88162525261517
"rnf141",3.38972736460104
