Sample_Name,HuGroup_Name,GEO_Accession,Treatment,Age,Study,Gender,Tissue
M_QSVZ_GSM2652126,M_QSVZ_1,GSM2652126,QSVZ,NA,GSE99777,M,subventricular_zone
M_QSVZ_GSM2652127,M_QSVZ_2,GSM2652127,QSVZ,NA,GSE99777,M,subventricular_zone
M_QSVZ_GSM2652129,M_QSVZ_4,GSM2652129,QSVZ,NA,GSE99777,M,subventricular_zone
M_PSVZ_GSM2652134,M_PSVZ_5,GSM2652134,PSVZ,NA,GSE99777,M,subventricular_zone
M_PSVZ_GSM2652135,M_PSVZ_6,GSM2652135,PSVZ,NA,GSE99777,M,subventricular_zone
M_PSVZ_GSM2652136,M_PSVZ_7,GSM2652136,PSVZ,NA,GSE99777,M,subventricular_zone
