"","Term","Overlap","P.value","Adjusted.P.value","Old.P.value","Old.Adjusted.P.value","Odds.Ratio","Combined.Score","Genes","Overlap_Number"
"1","mitotic cell cycle phase transition (GO:0044772)","122/222",1.18283156071535e-20,6.03598945433042e-17,0,0,2.13957387404925,98.1717597559987,"RB1;CCNH;PPP2R2A;EPS8;PPP1CB;CDC23;PPP2R1A;CHEK2;MYC;CEP250;PIM2;PRKACA;CDK5RAP2;BORA;CEP135;CSNK1E;CDC25C;CDC25A;CDC25B;MELK;CCNY;CCNE2;AKAP9;UBA52;OPTN;CUL5;MAX;CUL3;CUL2;CUL1;ORC5;ORC4;CCNB1;SPAST;ORC6;ORC1;ORC3;CEP70;ORC2;EIF4EBP1;CEP72;CEP192;CEP76;PLK4;CDT1;UBE2C;ODF2;CDC7;POLA1;CDK7;NASP;UBE2S;CDK4;CDK2;CDK1;FGFR1OP;MNAT1;CEP57;USP37;MCM7;MCM8;CETN2;CEP164;MCM10;PPP6C;TUBA1A;CNTRL;NINL;CEP290;POLE;YWHAG;OFD1;HSP90AA1;HAUS3;HAUS6;DYNLL1;MASTL;CKAP5;DNM2;LATS1;MCM3;MCM4;MCM5;CEP63;MCM6;PLCB1;MAPRE1;BCAT1;PPP1R12B;SDCCAG8;MCM2;DYNC1I2;PRIM2;CTDP1;DCTN1;PRIM1;DCTN3;ACVR1B;AURKA;RPS27A;PCNT;EIF4E;CLASP1;CLASP2;CDKN2C;CDKN2A;MBD1;RPA2;TUBB4B;TPD52L1;USP29;HINFP;POLE4;NEDD1;CENPJ;RPA3;POLE2;ALMS1;TACC3;TAF2;CDKN3;CUL4B",122
"2","mRNA processing (GO:0006397)","141/284",2.5691544893769e-18,6.55519767964517e-15,0,0,1.93295259193863,78.2902915035383,"CCNH;GEMIN2;HNRNPU;CWC27;CCAR1;PNN;RAVER1;CLP1;SNRPD1;RBMX2;MAGOH;CWC22;PAPOLA;PRKACA;TXNL4A;SNRNP35;CMTR1;CMTR2;SCAF11;METTL3;THOC1;PRPF4B;THOC2;THOC5;GTF2F2;THOC7;SRRM1;PRPF4;DDX39A;PRPF6;PSPC1;SARNP;PRPF3;SRSF3;SNRNP27;PPIE;SRSF4;SNRPE;GEMIN6;SNRPF;SRSF5;AURKAIP1;SRSF6;SRSF7;SRSF9;ZCCHC8;RBM8A;DHX9;CSTF3;RNPC3;ZMAT2;DHX35;PCBP2;ZMAT5;CSTF1;ZRSR2;CPSF4;CHTOP;PRPF38A;CPSF6;CPSF3;NONO;CPSF2;UPF3B;CWC15;MAGOHB;LSM5;LSM4;LSM3;HNRNPM;LSM8;LSM7;CDK7;HNRNPK;HNRNPF;HNRNPD;MNAT1;SUGP1;ISY1;DDX46;CELF1;AKAP8L;PPWD1;USP39;ELAVL1;PQBP1;SYNCRIP;UBL5;METTL14;DHX15;CTNNBL1;BCAS2;RBM5;RBM17;NCBP1;BUD31;PRPF40A;WDR33;GCFC2;PRPF18;FRG1;HNRNPH2;DNAJC8;PRMT9;SF3B5;SF3B3;RNMT;POLDIP3;WBP4;DDX23;TBRG4;PABPN1;FIP1L1;U2AF2;POLR2B;TRA2B;TRA2A;SNRPB2;HNRNPA1;SF3B1;SRSF10;POLR2J;SRSF11;POLR2K;SF3A3;SPEN;HNRNPA3;RNGTT;GPKOW;GTF2H2;GTF2H3;GTF2H5;U2SURP;NUDT21;SNRNP40;PHF5A;HNRNPA2B1;AGGF1;PRPF31;SNRNP48;RBMX",141
"3","gene expression (GO:0010467)","181/412",3.89304784149383e-16,6.622074378381e-13,0,0,1.71041615086437,60.6892751480721,"RPL4;RPL3;NUP107;RPL32;ZBTB25;NUP188;RPL31;RPL34;HNRNPU;RPL9;PWP1;YARS2;RPL6;RPL7;GLE1;RPS15;HELB;RPL18A;CLP1;RBMX2;DHX57;MAGOH;RPL35;EPC1;RPL39;RPS10;RPS13;AGFG1;DDX17;RPS8;RPL22;THOC1;MRPS18B;SARS;RPSA;THOC2;THOC5;ILF2;THOC7;MRPS18C;SRRM1;THAP1;NUP93;EEF1A1;PRPF4;DDX39A;SARNP;XRN2;RPL24;SRSF3;SRSF4;RPL26;SRSF5;SRSF6;RPL28;SRSF7;SRSF9;SLBP;NUP205;POM121;RBM8A;DHX9;MRPL18;BAZ2A;BAZ2B;AAAS;MRPL13;NUP160;DHX30;DHX35;TPR;DHX36;DHX37;EIF4EBP2;CPSF4;DARS;RPL41;CHTOP;NUP155;CPSF3;CPSF2;UPF3B;NUP153;MAGOHB;MRPL24;HARS2;ESR1;SETX;NR4A2;RPS25;LSM7;HNRNPK;COPS5;RPS27;FUBP3;HNRNPF;HNRNPD;RPS20;TCF3;RSL24D1;RPS21;FARSB;EIF4G1;HBS1L;NXT1;MRPS16;MRPS14;CELF2;ASH2L;MRPL37;MRPL34;SMG7;BICD1;RPS4X;RBM3;MRPL42;MRPL3;SYNCRIP;DHX15;MRPL9;RBM5;RBM6;UPF2;NDC1;NCOA1;MRPS24;NCBP1;NUP133;PABPC4;ARNT;MRPS21;DDX54;BAZ1A;TOPORS;MRPS5;WDR33;MRPL52;DDX19A;MRPS9;MED20;NUP54;MRRF;NUP58;GTF3C2;GTF3C4;NUFIP1;GTF3C6;MRPS36;DDX25;POLDIP3;RPL12;MRPS33;HSPD1;FIP1L1;PABPN1;U2AF2;POLR2B;RPL14;DROSHA;RPL15;RPL18;RPS27A;SRSF10;EIF4E;POLR2J;RAE1;SRSF11;POLR2K;ABCF1;RNGTT;SWT1;SNRNP40;TSPAN14;GOLPH3;POLR3A;NOVA1;HNRNPA2B1;DRG1;NUP35;NUPL2;NUP37",181
"4","mRNA splicing, via spliceosome (GO:0000398)","127/262",1.32824505137797e-15,1.69450862429545e-12,0,0,1.88722143051384,64.6466150372674,"TXNL4B;GEMIN2;HNRNPU;CWC27;CCAR1;PNN;RAVER1;CLP1;SNRPD1;RBMX2;MAGOH;CWC22;PAPOLA;TXNL4A;SNRNP35;DDX17;SCAF11;METTL3;PRPF4B;GTF2F2;SRRM1;PRPF4;DDX39A;PRPF6;PSPC1;PRPF3;SRSF3;SNRNP27;PPIE;SRSF4;SNRPE;GEMIN6;SNRPF;SRSF5;SRSF6;GEMIN8;SRSF7;SRSF9;ZCCHC8;RBM8A;DHX9;CSTF3;DDX1;RNPC3;ZMAT2;DHX35;PCBP2;ZMAT5;CSTF1;SRPK2;ZRSR2;CPSF4;PRPF38A;CPSF3;NONO;CPSF2;UPF3B;CWC15;MAGOHB;LSM5;LSM4;LSM3;SRPK1;HNRNPM;LSM8;LSM7;HNRNPK;HNRNPF;HNRNPD;CDK13;SUGP1;ISY1;DDX46;PPWD1;USP39;ELAVL1;PQBP1;SYNCRIP;UBL5;METTL14;DHX15;CTNNBL1;BCAS2;RBM5;PRMT5;RBM17;PRMT7;NCBP1;BUD31;PRPF40A;WDR33;GCFC2;FRG1;STRAP;HNRNPH2;DNAJC8;SF3B5;SF3B3;WBP4;DDX23;PABPN1;FIP1L1;U2AF2;POLR2B;TGS1;TRA2B;TRA2A;SNRPB2;HNRNPA1;SF3B1;SRSF10;DCPS;POLR2J;SRSF11;POLR2K;SF3A3;SPEN;HNRNPA3;GPKOW;U2SURP;NUDT21;SNRNP40;PHF5A;HNRNPA2B1;PRPF31;SNRNP48;RBMX",127
"5","ncRNA processing (GO:0034470)","111/228",5.5932020929937e-14,5.70842205610937e-11,0,0,1.89543354200178,57.8384709527662,"LTV1;RPL4;RPL3;RPL32;POP1;RPL31;RPL34;RRP1;PWP2;RPL9;RPL6;RPL7;RPS15;RPL18A;RPL35;RPL39;RPS10;RPS13;RPP38;IMP3;RPS8;RPL22;METTL3;WDR75;SARS;IMP4;RPSA;DICER1;CSNK1E;KARS;XRN2;MRTO4;PIH1D2;RPL24;RPL26;RPL28;UBA52;ISG20L2;RPF1;ERI1;DHX37;UTP20;LYAR;SMAD2;SMAD1;RPL41;NOP14;RPP40;RPS25;RPS27;LAS1L;AGO3;AGO1;INTS7;RPS20;INTS6;RPS21;INTS8;AARS;INTS11;INTS12;DDX47;WDR3;DIS3L;INTS10;ADAR;WDR46;WDR43;FARS2;RPS4X;DGCR8;RIOK2;RIOK1;UTP14A;UTP15;WDR36;UTP11;NCBP1;DIS3;TEX10;C1D;RPL12;EXOSC7;EXOSC6;EXOSC10;EXOSC4;EXOSC9;PES1;BMS1;EXOSC8;RPL14;RRP36;DROSHA;RPL15;EXOSC3;RPL18;RPS27A;RPP14;EXOSC2;DCAF13;NOP56;NOP58;SSB;UTP4;KRR1;ADAT1;RRP1B;WDR12;BOP1;PRKRA;HNRNPA2B1",111
"6","RNA processing (GO:0006396)","98/194",9.26597947115141e-14,7.88071554021427e-11,0,0,1.96673015057527,59.0212605452235,"GEMIN2;HNRNPU;TSEN2;DCAF4;CCAR2;HELB;PPP2R1A;CLP1;SNRPD1;DHX57;MAGOH;PRKACA;SNRNP35;DDX17;MBNL1;SCAF11;METTL3;THOC1;PRPF4B;DICER1;SRRM1;PRPF4;PRPF6;PRPF3;XRN2;SRSF4;PPIG;SNRPF;SRSF5;AURKAIP1;SRSF7;SRSF9;DHX9;CSTF3;RNPC3;DHX30;DHX35;DHX36;ZMAT5;DHX37;SRPK2;IVNS1ABP;ZRSR2;PNPT1;CPSF6;MTERF3;NONO;MTERF4;LSM1;USB1;MAGOHB;LSM5;LSM4;LSM3;SRPK1;SETX;SMU1;LSM7;HNRNPK;HNRNPF;HNRNPD;CELF1;DDX47;CELF2;AKAP8L;USP39;BICD1;RBM3;SYNCRIP;DHX15;BCAS2;RBM5;RBM6;NCBP1;PABPC4;DDX54;DDX19A;PRPF18;RP9;PRMT9;SF3B3;NUFIP1;DDX25;DDX23;NOL3;PABPN1;U2AF2;DROSHA;SRSF11;SF3A3;RNGTT;NUDT21;SNRNP40;NOVA1;HNRNPA2B1;AGGF1;SNRNP48;TARDBP",98
"7","ribosome biogenesis (GO:0042254)","110/227",1.07637759835486e-13,7.84679269200689e-11,0,0,1.88663226707166,56.3348487032322,"LTV1;RPL4;RPL3;RPL32;RPL31;RPL34;RRP1;PWP2;NOC2L;RPL9;RPL6;RPL7;RPS15;RPL18A;RPL35;RPL39;RPS10;RPS13;RPP38;EIF2A;IMP3;RPS8;RPL22;WDR75;IMP4;RPSA;CSNK1E;XRN2;MRTO4;PIH1D2;RPL24;RPL26;RPL28;UBA52;ISG20L2;RPF2;RPF1;ERI1;DHX37;RRS1;UTP20;LYAR;RPL41;NOP14;MTERF3;NOP16;MTERF4;RPP40;RPS25;RPS27;GNL3L;LAS1L;RPS20;RPS21;NVL;DDX47;PAK1IP1;WDR3;DIS3L;WDR46;WDR43;RPS4X;XPO1;RIOK2;RIOK1;UTP14A;UTP15;WDR36;UTP11;DIS3;TEX10;URB2;GNL3;LSG1;NOA1;C1D;NAF1;RPL12;NIP7;MALSU1;SDAD1;EXOSC7;EXOSC6;EXOSC10;EXOSC4;NWD2;EXOSC9;PES1;BMS1;EXOSC8;RPL14;RRP36;HEATR3;RPL15;EXOSC3;RPL18;RPS27A;RPP14;EXOSC2;DCAF13;NOP56;NOP58;UTP4;KRR1;DDX31;RRP1B;WDR12;BOP1;ABCE1;RAN",110
"8","RNA splicing, via transesterification reactions with bulged adenosine as nucleophile (GO:0000377)","113/237",1.9993252405913e-13,1.27531958784218e-10,0,0,1.85631009906618,54.2799857827039,"HNRNPU;CWC27;CCAR1;PNN;RAVER1;CLP1;SNRPD1;RBMX2;MAGOH;CWC22;PAPOLA;TXNL4A;SNRNP35;METTL3;PRPF4B;GTF2F2;SRRM1;PRPF4;DDX39A;PRPF6;PSPC1;PRPF3;SRSF3;SNRNP27;PPIE;SRSF4;SNRPE;GEMIN6;SNRPF;SRSF5;SRSF6;SRSF7;SRSF9;ZCCHC8;RBM8A;DHX9;CSTF3;RNPC3;ZMAT2;DHX35;PCBP2;ZMAT5;CSTF1;ZRSR2;CPSF4;PRPF38A;CPSF3;NONO;CPSF2;UPF3B;CWC15;MAGOHB;LSM5;LSM4;LSM3;HNRNPM;LSM8;LSM7;HNRNPK;HNRNPF;HNRNPD;SUGP1;ISY1;DDX46;PPWD1;USP39;ELAVL1;PQBP1;SYNCRIP;UBL5;METTL14;DHX15;CTNNBL1;BCAS2;RBM5;RBM17;NCBP1;BUD31;PRPF40A;WDR33;GCFC2;FRG1;HNRNPH2;DNAJC8;SF3B5;SF3B3;WBP4;DDX23;PABPN1;FIP1L1;U2AF2;POLR2B;TRA2B;TRA2A;SNRPB2;HNRNPA1;SF3B1;SRSF10;POLR2J;SRSF11;POLR2K;SF3A3;SPEN;HNRNPA3;GPKOW;U2SURP;NUDT21;SNRNP40;PHF5A;HNRNPA2B1;PRPF31;SNRNP48;RBMX",113
"9","RNA metabolic process (GO:0016070)","96/192",3.66982300439768e-13,2.08078964349349e-10,0,0,1.9466614755694,55.7396588976127,"EIF4A2;TP53RK;FASTKD1;DDX46;DDX47;CELF2;DIS3L;HNRNPU;BICD1;RBM3;SYNCRIP;HELB;METTL14;CLP1;PAPOLG;ALKBH1;DHX57;PAPOLA;DHX15;POLE;RBM5;RBM6;DDX17;DDX18;DDX59;RBFOX2;NCBP1;PARP1;DIS3;PARP2;PABPC4;RNASET2;METTL3;THOC1;DDX10;DDX54;DICER1;GTF2F2;DDX50;SUPV3L1;PRPF4;DDX19A;DDX39A;XRN2;HNRNPH2;FTO;DDX6;RNASEH2B;RNASEH2A;PCNA;NUFIP1;DDX24;DHX9;DDX25;DDX1;DDX23;DDX21;TBRG4;EXOSC7;DHX30;ATXN2;TERT;PABPN1;POLR2B;DHX35;DHX36;PCBP2;PPP1R8;DHX37;DROSHA;HNRNPA1;POLR2J;POLR2K;HNRNPA3;PNPT1;RNGTT;WTAP;LSM1;DDX31;LRPPRC;ISG20;SETX;HNRNPM;LSM8;POLA1;LSM7;SNRNP40;HNRNPK;AGO3;NOVA1;HNRNPF;AGO1;HNRNPA2B1;HNRNPD;SKIV2L;RBMX",96
"10","cell cycle G2/M phase transition (GO:0044839)","70/128",2.5136312752749e-12,1.28270603977278e-09,0,0,2.12916098890403,56.8683840262571,"CEP57;CCNH;CETN2;CEP164;AKAP8L;PPP2R2A;PPP1CB;TUBA1A;PPP2R1A;CHEK2;CNTRL;CEP250;PRKACA;CEP290;NINL;YWHAG;CDK5RAP2;OFD1;HSP90AA1;BORA;CEP135;HAUS3;HAUS6;CSNK1E;CDC25C;MASTL;DYNLL1;CKAP5;CDC25A;CDC25B;DNM2;LATS1;MELK;CCNY;AKAP9;CEP63;PPP1R12B;MAPRE1;PLCB1;UBA52;OPTN;SDCCAG8;DYNC1I2;DCTN1;DCTN3;CUL1;AKAP8;AURKA;CCNB1;CEP70;CEP72;CEP192;PCNT;RPS27A;CEP76;CLASP1;PLK4;ODF2;MBD1;TUBB4B;TPD52L1;NEDD1;CDK7;CENPJ;CDK2;ALMS1;CDK1;FGFR1OP;MNAT1;TAF2",70
"11","mRNA export from nucleus (GO:0006406)","61/106",3.34116728019566e-12,1.54999787553077e-09,0,0,2.24049716999497,59.2044675505979,"NUP107;NXT1;NUP188;ZC3H3;SMG7;GLE1;RBMX2;MAGOH;AGFG1;UPF2;NDC1;PCID2;NCBP1;NUP133;THOC1;THOC2;THOC5;THOC7;SRRM1;WDR33;NUP93;DDX19A;DDX39A;SARNP;SRSF3;SRSF4;NUP54;SRSF5;SRSF6;SRSF7;NUP58;SRSF9;SLBP;NUP205;POM121;ENY2;RBM8A;DDX25;POLDIP3;AAAS;NUP160;PABPN1;FIP1L1;U2AF2;TPR;RAE1;EIF4E;SRSF10;SRSF11;CPSF4;CHTOP;NUP155;CPSF3;CPSF2;UPF3B;NUP153;MAGOHB;HNRNPA2B1;NUP35;NUPL2;NUP37",61
"12","protein modification by small protein conjugation (GO:0032446)","165/399",3.99671498248255e-12,1.6996030463007e-09,0,0,1.61002076926792,42.2558779388549,"NUP107;NUP188;UBE3C;UBE2D2;UBE2D3;UBE2D1;KEAP1;UBE2L3;HERC4;NUB1;HERC3;FBXO4;TRIM24;FBXO7;RNF111;FBXO9;TRIM23;HERC6;PIAS3;RNF44;AREL1;FBXW8;USP5;FBXW7;ARRDC1;UBE2E3;MITF;FBXO10;FBXO11;PIAS2;RBX1;PIAS1;NUP93;UBE2V2;HIST1H2BH;UBA52;CBLL1;HIST1H2BA;HIST1H2BD;NUP205;POM121;L3MBTL2;ANAPC16;DCUN1D5;UBA7;PRKDC;UBA6;CUL3;CUL2;DCUN1D4;KLHL17;CUL1;CDCA8;NEDD4L;UBR3;WDR61;UBR2;KLHL12;BCL10;UBR1;RTF1;KLHL13;AAAS;UBE2J2;HIF1A;NUP160;TPR;UBR5;HLTF;NAE1;TP53BP1;BARD1;UBE2F;UBE2H;NUP155;BCL11A;KLHL26;UBE2C;SMURF1;KLHL28;KLHL22;KLHL23;NUP153;ISG15;KLHL24;KLHL20;CNOT4;UBE2S;UBE2T;MDM2;UBA3;UBA1;FBXL5;UBE2K;RAD18;CDC73;IFIH1;UFL1;SUMO1;SUMO3;ENC1;ARIH2;ELOC;ARIH1;NDC1;SHPRH;NUP133;MSL2;SENP2;TOPORS;PJA2;SENP1;RNF144A;GAN;UFC1;WAC;BIRC6;NUP54;BIRC2;NUP58;RNF34;PCNA;HIST1H2BO;HIST1H2BL;RNF38;HIST1H2BK;DERL1;XIAP;RNF4;CBL;DCAF15;PCNP;FBXL21;ZNRF1;MTA1;CAND1;RNF139;OS9;HECTD4;RPS27A;RAE1;RNF20;CRBN;USP9X;MIB2;HUWE1;WWP1;WWP2;KBTBD11;MIB1;KBTBD3;ITCH;KLHL5;RFWD3;KLHL7;NEDD4;TSPAN17;KBTBD2;NUP35;TRIP12;NUPL2;KBTBD8;TRIM33;CUL4B;NUP37",165
"13","translation (GO:0006412)","108/233",6.33836504705624e-12,2.48805206424061e-09,0,0,1.80463038078536,46.5313120590734,"RPL4;RPL3;RPL32;RPL31;RPL34;EPRS;RPL9;YARS2;RPL6;RPL7;RPS15;EEF1B2;NARS;RPL18A;RPL35;RPL39;RPS10;RPS13;RARS2;RPS8;RPL22;MRPS18B;SARS;RPSA;GTPBP1;FTSJ1;MRPS18C;EEF1A1;LARS2;PPA2;KARS;PPA1;RPL7L1;MRTO4;RPL24;TARS2;RPL26;RPL28;MRPL18;MRPL13;LARS;EIF4EBP2;ZC3H15;DARS;RPL41;MTERF3;MTERF4;EEF2;HARS2;MRPL24;RPS25;RPS27;COPS5;RPS20;IARS;FARSA;RPS21;RSL24D1;FARSB;AARS;EIF4G1;HBS1L;MRPS16;MRPS14;GFM2;MRPL37;MRPL34;FARS2;RPS4X;MRPL42;MRPL3;MRPL9;MRPS24;PABPC4;MRPS21;DARS2;MRPL47;QRSL1;MRPS5;MRPL52;MRPS9;EEF1D;NOA1;GARS;ETF1;EEF1E1;MRRF;MTRF1L;MRPS36;RPL12;MRPS33;HSPA14;MRPL57;RPL14;EIF4H;RPL15;RPL18;RPS27A;EIF4B;ABCF1;PTCD3;RWDD1;NDUFA7;GATC;WARS2;MARS;RPL22L1;ABCE1",108
"14","DNA repair (GO:0006281)","127/289",9.50937884761134e-12,3.46616858995434e-09,0,0,1.71090662558695,43.4206587902011,"DCLRE1C;TRRAP;NUDT1;NUCKS1;PARK7;ALKBH3;ALKBH2;CHEK2;ALKBH1;WDHD1;SLC30A9;USP3;RECQL;HUS1;WRNIP1;CSNK1E;INIP;MSH6;MSH2;FANCD2;PSME4;TIMELESS;UBE2V2;UBA52;RHNO1;FTO;RNASEH2A;PRKDC;CDCA5;DDX1;XPA;XPC;PDS5B;PDS5A;RAD51AP1;ATXN3;RAD21;ATRIP;BARD1;FANCM;FANCA;HMGA1;FANCC;INO80;FANCB;SETX;POLA1;TDP2;TDP1;UBE2T;NABP2;CDK1;RAD17;ATM;MNAT1;RAD9B;RAD18;ATR;SETD2;WDR48;CETN2;OGG1;BRCA2;POLB;NIPBL;SUMO1;EXO1;UIMC1;TOPBP1;POLK;POLE;POLH;PRMT6;RFC5;RFC4;PARP1;NCOA6;RMI1;PARP2;RFC2;ACTR5;USP45;H2AFX;RAD23A;SMC1A;RAD23B;WDR33;PCNA;ABRAXAS1;DOT1L;UNG;MTA1;TDG;POLD2;USP1;RBBP8;PMS2;ASCC2;ASCC3;RPS27A;MUTYH;MBD4;MGME1;ERCC6L2;ASCC1;EYA3;HUWE1;RPA2;APEX2;GTF2H2;MLH1;GTF2H3;APTX;GTF2H5;HINFP;MAD2L2;SMUG1;RAD52;RAD51;RPA3;RFWD3;APEX1;POLE2;APLF;TRIP13;ERCC6;CUL4B",127
"15","ribonucleoprotein complex assembly (GO:0022618)","80/157",9.56112267291009e-12,3.25269393332401e-09,0,0,1.98385882860576,50.337076880938,"ISY1;TXNL4B;RPL3;HSP90AB1;CELF1;GEMIN2;CELF2;PPAN;PWP2;LIMD1;BICD1;RPL6;CDC73;RPS15;CLP1;SNRPD1;OGFOD1;DENR;TXNL4A;RPS10;RBM5;EIF2A;PRMT5;HSP90AA1;PRMT7;NCBP1;SCAF11;CIRBP;RC3H1;RPSA;DICER1;GCFC2;PRPF6;PRPF18;MRTO4;RPL24;STRAP;SNRPE;GEMIN6;NAF1;SNRPF;SRSF5;SRSF6;GEMIN8;LUC7L2;SRSF9;DDX6;DHX9;YTHDC1;DDX1;RPL12;NOP2;DDX23;RPS27L;RPF2;NOL3;RPF1;MRPL20;ATXN2;TGS1;RRS1;EIF4H;BRIX1;SF3B1;SRSF10;EIF4B;MCTS1;SRPK2;ZRSR2;MTERF3;PTGES3;MTERF4;LSM4;LSM3;SRPK1;SETX;BOP1;EIF2S3;RPS27;RSL24D1",80
"16","G2/M transition of mitotic cell cycle (GO:0000086)","68/127",1.87449320645958e-11,5.97846177035201e-09,0,0,2.08461386360188,51.4901660767597,"CEP57;CCNH;CETN2;CEP164;PPP2R2A;PPP1CB;TUBA1A;PPP2R1A;CHEK2;CNTRL;CEP250;PRKACA;CEP290;NINL;YWHAG;CDK5RAP2;OFD1;HSP90AA1;BORA;CEP135;HAUS3;HAUS6;CSNK1E;CDC25C;MASTL;DYNLL1;CKAP5;CDC25A;CDC25B;DNM2;LATS1;MELK;CCNY;AKAP9;CEP63;PPP1R12B;PLCB1;MAPRE1;UBA52;OPTN;SDCCAG8;DYNC1I2;DCTN1;DCTN3;CUL1;AURKA;CCNB1;CEP70;CEP72;CEP192;PCNT;RPS27A;CEP76;CLASP1;PLK4;ODF2;MBD1;TUBB4B;TPD52L1;NEDD1;CDK7;CENPJ;CDK2;ALMS1;CDK1;FGFR1OP;MNAT1;TAF2",68
"17","DNA metabolic process (GO:0006259)","135/315",1.87566301911878e-11,5.6302990509195e-09,0,0,1.66856697905948,41.2127264092229,"SMARCAL1;TRRAP;NUDT1;PARK7;ALKBH3;TATDN1;HELB;TATDN2;ALKBH1;SMARCAD1;WDHD1;TIPIN;USP3;RECQL;REV1;HUS1;SETMAR;CSNK1E;CDC25C;CDC25A;INIP;MSH6;MSH2;FANCD2;PSME4;TIMELESS;UBE2V2;UBA52;RHNO1;PIF1;RTEL1;DNMT1;SET;RNASEH2A;PRKDC;XPA;XPC;PDS5B;PDS5A;RAD51AP1;ORC5;ORC4;ORC6;TERT;ORC1;ERI1;RAD21;ORC3;ORC2;ATRIP;BARD1;XRCC6;FANCA;CDC7;FANCC;POLA1;NASP;TDP1;UBE2T;CDK2;NABP2;CDK1;RAD17;ATM;MNAT1;RAD9B;RAD18;ATR;MCM7;MCM8;HMGB3;MCM10;BRCA2;POLB;SUMO1;EXO1;TOPBP1;POLK;POLE;POLH;TOP3B;RFC5;RFC4;PARP1;RFC1;NCOA6;RMI1;PARP2;RFC2;USP45;ATRX;DNTT;GLRX2;SMC1A;TERF2;TSN;SUPV3L1;MCM3;MCM4;TERF2IP;MCM5;MCM6;DNASE1L1;MCM2;PRIM2;SP100;PCNA;PRIM1;DOT1L;TYMS;UNG;TDG;POLD2;RBBP8;RPS27A;MUTYH;MBD3;MBD4;DUT;PTGES3;MBD1;MBD2;GINS4;RPA2;NAP1L1;LRWD1;GTF2H3;HINFP;POLE4;RAD52;RAD51;RPA3;APEX1;POLE2;RAN",135
"18","mRNA transport (GO:0051028)","59/105",2.92105343707728e-11,8.28118649411408e-09,0,0,2.18767670587799,53.0653618706472,"NUP107;NXT1;NUP188;FMR1;SMG7;GLE1;KIF5C;RBMX2;MAGOH;AGFG1;UPF2;NDC1;NCBP1;NUP133;THOC1;THOC2;THOC5;THOC7;SRRM1;WDR33;NUP93;DDX19A;DDX39A;SARNP;SRSF3;SRSF4;NUP54;SRSF5;SRSF6;SRSF7;NUP58;SRSF9;SLBP;NUP205;POM121;RBM8A;DDX25;POLDIP3;AAAS;NUP160;FIP1L1;U2AF2;TPR;RAE1;EIF4E;SRSF10;SRSF11;CPSF4;CHTOP;NUP155;CPSF3;CPSF2;UPF3B;NUP153;MAGOHB;HNRNPA2B1;NUP35;NUPL2;NUP37",59
"19","G1/S transition of mitotic cell cycle (GO:0000082)","59/106",4.94383853715914e-11,1.32781095026964e-08,0,0,2.16703824638858,51.4244546129481,"RB1;USP37;MCM7;CCNH;MCM8;MCM10;PPP6C;MYC;PIM2;FBXO5;POLE;CDC25A;LATS1;CCNA1;TFDP1;CCNE2;TFDP2;MCM3;MCM4;MCM5;MCM6;BCAT1;MCM2;PRIM2;PCNA;CUL5;MAX;CUL3;PRIM1;CUL2;CUL1;TYMS;ACVR1B;ORC5;ORC4;ORC6;ORC1;ORC3;ORC2;EIF4EBP1;EIF4E;CDT1;CDKN2C;CDKN2A;RPA2;CDC7;USP29;HINFP;POLE4;POLA1;CDK7;NASP;CDK4;POLE2;RPA3;CDK2;MNAT1;CUL4B;CDKN3",59
"20","mRNA-containing ribonucleoprotein complex export from nucleus (GO:0071427)","57/101",4.97137621710176e-11,1.26844664179351e-08,0,0,2.19722186351397,52.1285159319606,"NUP107;NXT1;NUP188;SMG7;GLE1;RBMX2;MAGOH;AGFG1;UPF2;NDC1;NCBP1;NUP133;THOC1;THOC2;THOC5;THOC7;SRRM1;WDR33;NUP93;DDX19A;DDX39A;SARNP;SRSF3;SRSF4;NUP54;SRSF5;SRSF6;SRSF7;NUP58;SRSF9;SLBP;NUP205;POM121;RBM8A;DDX25;POLDIP3;AAAS;NUP160;FIP1L1;U2AF2;TPR;RAE1;EIF4E;SRSF10;SRSF11;CPSF4;CHTOP;NUP155;CPSF3;CPSF2;UPF3B;NUP153;MAGOHB;HNRNPA2B1;NUP35;NUPL2;NUP37",57
"21","cell cycle G1/S phase transition (GO:0044843)","53/93",1.42954379450586e-10,3.47379142064923e-08,0,0,2.21877544527265,50.2963013328818,"RB1;USP37;MCM7;CCNH;MCM8;MCM10;PPP6C;MYC;PIM2;POLE;CDC25A;LATS1;CCNE2;MCM3;MCM4;MCM5;MCM6;BCAT1;MCM2;PRIM2;CUL5;MAX;CUL3;PRIM1;CUL2;CUL1;ACVR1B;ORC5;ORC4;ORC6;ORC1;ORC3;ORC2;EIF4EBP1;EIF4E;CDT1;CDKN2C;CDKN2A;RPA2;CDC7;USP29;HINFP;POLE4;POLA1;CDK7;NASP;CDK4;POLE2;RPA3;CDK2;MNAT1;CUL4B;CDKN3",53
"22","rRNA processing (GO:0006364)","94/203",1.54695356995117e-10,3.58822912157311e-08,0,0,1.80281949461599,40.7249052214719,"LTV1;RPL4;RPL3;RPL32;RPL31;DDX47;RPL34;WDR3;RRP1;DIS3L;NAT10;PWP2;TFB1M;RPL9;WDR46;RPL6;WDR43;RPL7;RPS15;RPS4X;RPL18A;RPL35;RIOK2;RIOK1;RPL39;RPS10;UTP14A;RPS13;RRP15;RPP38;UTP15;WDR36;WDR37;UTP11;IMP3;RPS8;DIS3;TEX10;RPL22;WDR75;IMP4;RPSA;CSNK1E;NSA2;XRN2;MRTO4;C1D;PIH1D2;RPL24;SRFBP1;RPL26;RPL28;UBA52;RPL12;NOP2;MAK16;ISG20L2;RPF1;EXOSC7;EXOSC6;EXOSC10;EXOSC4;ERI1;EXOSC9;PES1;BMS1;EXOSC8;DHX37;RPL14;RRP36;UTP20;RPL15;EXOSC3;RPL18;RPS27A;RPP14;LYAR;EXOSC2;DCAF13;NOP56;RPL41;NOP14;NOP58;UTP4;KRR1;RPP40;RRP1B;WDR12;RPS25;BOP1;RPS27;LAS1L;RPS20;RPS21",94
"23","regulation of mitotic cell cycle phase transition (GO:1901990)","87/185",2.77216136217332e-10,6.15058236137845e-08,0,0,1.83091403648149,40.2915037503117,"CEP57;CETN2;CEP164;KIF14;BUB1B;UBE2D1;CDC14A;CDC14B;CDC20;CDC23;TUBA1A;PSMD4;PPP2R1A;PSMD5;CDC26;CNTRL;CEP250;KNTC1;RIOK2;FBXO5;PRKACA;CEP290;NINL;YWHAG;CDK5RAP2;OFD1;HSP90AA1;CEP135;ANAPC7;HAUS3;HAUS6;CSNK1E;DYNLL1;CKAP5;PSMA5;PSMA2;ZW10;AKAP9;PSME4;ANAPC4;ANAPC5;CEP63;MAPRE1;UBA52;SDCCAG8;DYNC1I2;ANAPC16;PSMD14;DCTN1;DCTN3;CUL1;XPC;ANAPC10;AURKA;PSMB7;CCNB1;FZR1;PSMB4;CEP70;PSMB1;CEP72;CEP192;PCNT;RPS27A;CEP76;CLASP1;PLK4;UBE2C;ODF2;MBD1;INO80;TUBB4B;PSMB9;TPX2;ANLN;CENPE;NEDD1;CENPF;RGCC;PSMC1;CENPJ;CDC16;CDK2;ALMS1;CDK1;FGFR1OP;MAD2L1",87
"24","DNA-templated transcription, termination (GO:0006353)","58/107",2.94615099575092e-10,6.2642535547154e-08,0,0,2.11039935669206,46.3134553898145,"CCNH;TTF2;TTF1;LSM10;CLP1;MAGOH;PAPOLA;MTERF1;PRMT5;TBP;NCBP1;SSU72;THOC1;THOC2;THOC5;THOC7;SRRM1;WDR33;DDX39A;DMTF1;SARNP;POLR1B;SRSF3;POLR1E;SRSF4;SNRPE;SNRPF;SRSF5;SRSF6;SRSF7;SRSF9;SLBP;RBM8A;POLDIP3;CSTF3;TAF1D;PABPN1;FIP1L1;U2AF2;TWISTNB;CSTF1;POLR2K;SRSF11;CPSF4;CHTOP;MTERF2;CPSF3;CPSF2;UPF3B;GTF2H2;MAGOHB;GTF2H3;GTF2H5;SETX;NUDT21;CDK7;MNAT1;POLR3K",58
"25","RNA export from nucleus (GO:0006405)","63/120",3.01908876981718e-10,6.16256399695082e-08,0,0,2.04399454934787,44.8061916872282,"NUP107;NXT1;NUP188;SMG7;GLE1;RBMX2;MAGOH;XPO5;AGFG1;UPF2;NDC1;NCBP1;NUP133;THOC1;RPSA;THOC2;THOC5;THOC7;SRRM1;WDR33;NUP93;DDX19A;DDX39A;SARNP;SRSF3;SRSF4;NUP54;SRSF5;SRSF6;SRSF7;NUP58;SRSF9;SLBP;NUP205;POM121;RBM8A;DDX25;POLDIP3;AAAS;NUP160;FIP1L1;U2AF2;TPR;HNRNPA1;RAE1;EIF4E;SRSF10;SRSF11;CPSF4;CHTOP;SSB;NUP155;CPSF3;CPSF2;UPF3B;NUP153;MAGOHB;XPOT;HNRNPA2B1;NUP35;NUPL2;RAN;NUP37",63
"26","regulation of cell cycle G2/M phase transition (GO:1902749)","49/85",4.06191527288698e-10,7.97228986059318e-08,0,0,2.24438617183295,48.5330472098897,"CEP57;CETN2;CEP164;KIF14;TUBA1A;PPP2R1A;CNTRL;CEP250;PRKACA;CEP290;GTSE1;NINL;YWHAG;CDK5RAP2;OFD1;HSP90AA1;CEP135;H2AFY;HAUS3;HAUS6;CSNK1E;DYNLL1;CKAP5;AKAP9;CEP63;MAPRE1;SDCCAG8;DYNC1I2;DCTN1;DCTN3;AURKA;CEP70;CEP72;CEP192;PCNT;CEP76;CLASP1;PLK4;ODF2;MBD1;TUBB4B;TPX2;NEDD1;CENPF;CENPJ;CDK2;ALMS1;CDK1;FGFR1OP",49
"27","DNA-dependent DNA replication (GO:0006261)","37/57",5.25138791381258e-10,9.92512315710578e-08,0,0,2.52724472266904,54.0005440664977,"PRIM2;NEXMIF;PRIM1;MCM10;PRIMPOL;POLB;ORC5;ORC4;HELB;ORC6;ORC1;ORC3;ORC2;POLD2;REV3L;TOPBP1;POLK;POLE;RFC5;GINS1;WDHD1;MGME1;RFC4;RFC1;RFC2;GINS3;GINS4;HMGA1;CDC7;BAZ1A;LRWD1;POLE4;POLA1;RAD51;POLE2;CDK2AP1;MCM2",37
"28","nuclear-transcribed mRNA catabolic process, deadenylation-dependent decay (GO:0000288)","40/64",5.72025830921673e-10,1.04251707685475e-07,0,0,2.43332684446175,51.7856651903212,"EIF4A2;HBS1L;DDX6;WDR61;EDC4;EXOSC7;EXOSC6;EXOSC4;EXOSC9;EXOSC8;EXOSC3;EIF4E;EXOSC2;DCPS;EIF4B;PAIP1;TTC37;CNOT6L;DIS3;LSM1;RC3H1;CNOT10;LSM5;LSM4;LSM3;CNOT4;PAN2;LSM7;CNOT7;PAN3;PDE12;CNOT1;PNLDC1;CNOT2;CNOT3;SKIV2L;DCP1A;CNOT9;DCP1B;EIF4G1",40
"29","regulation of signal transduction by p53 class mediator (GO:1901796)","69/139",1.07709789721523e-09,1.89532088603081e-07,0,0,1.93265671675235,39.9074199339222,"TP53RK;PHF20;EHMT2;PAK1IP1;EHMT1;CHD4;NOC2L;EXO1;CHEK2;KMT5A;TOPBP1;RFC5;PRMT5;SUPT16H;RFC4;TBP;CSNK2A1;RFC2;RMI1;CSNK2A2;HUS1;KAT6A;MAPKAPK5;UBA52;RHNO1;HDAC2;PRKAA2;RNF34;MEAF6;NOP2;RPF2;AURKA;RBBP4;TP53INP1;SMYD2;RRS1;RBBP8;RBBP7;TAF9B;RPS27A;BRD7;ATRIP;BANP;BARD1;MBD3;TAF13;TAF11;RPA2;SSRP1;HIPK1;PML;HIPK2;TPX2;MAPK11;BOP1;RPA3;CDK2;MDM2;RAD17;TAF4B;PIN1;TAF7;MDM4;ATM;TAF6;RAD9B;TAF2;ATR;TAF1",69
"30","cellular macromolecule biosynthetic process (GO:0034645)","147/368",1.07986127540731e-09,1.83684402946784e-07,0,0,1.55521324406903,32.1096064374756,"RPL4;RPL3;RPL32;RPL31;RPL34;PWP1;RPL9;YARS2;RPL6;RPL7;RPS15;EEF1B2;HELB;RPL18A;RPL35;EPC1;RPL39;RPS10;RPS13;TIPIN;RPS8;RPL22;MRPS18B;REV1;HUS1;SARS;RPSA;CDC25C;GTPBP1;ILF2;CDC25A;MRPS18C;THAP1;EEF1A1;TIMELESS;RPL24;RPL26;RPL28;RHNO1;PIF1;SET;RNASEH2A;MRPL18;BAZ2A;BAZ2B;MRPL13;ORC5;ORC4;ORC6;TERT;ORC1;ORC3;ORC2;EIF4EBP2;ATRIP;BARD1;DARS;RPL41;CDC7;EEF2;HARS2;MRPL24;ESR1;NR4A2;RPS25;POLA1;RPS27;COPS5;FUBP3;NASP;CDK2;CDK1;RAD17;RPS20;ATM;TCF3;RAD9B;RPS21;RSL24D1;FARSB;ATR;EIF4G1;HBS1L;MRPS16;MCM7;MRPS14;MCM8;ASH2L;MCM10;MRPL37;MRPL34;RPS4X;MRPL42;MRPL3;EXO1;MRPL9;TOPBP1;POLE;NCOA1;RFC5;RFC4;MRPS24;NCOA6;RMI1;RFC2;PABPC4;MRPS21;ARNT;BAZ1A;TOPORS;MRPS5;MRPL52;MRPS9;EEF1D;MED20;MCM3;MCM4;MCM5;MCM6;MRRF;MCM2;GTF3C2;GTF3C4;MRPS36;GTF3C6;RPL12;MRPS33;TYMS;POLR2B;POLD2;RPL14;RBBP8;RPL15;RPL18;RPS27A;POLR2J;POLR2K;ABCF1;DUT;SWT1;RPA2;NAP1L1;GOLPH3;POLR3A;RPA3;POLE2;DRG1",147
"31","nuclear-transcribed mRNA catabolic process (GO:0000956)","82/175",1.10887872150886e-09,1.82535745672894e-07,0,0,1.82429989710504,37.6169115364602,"RPL4;EIF4A2;RPL3;RPL32;RPL31;RPL34;PPP2R2A;SMG7;RPL9;RPL6;RPL7;RPS15;RPS4X;RPL18A;PPP2R1A;MAGOH;RPL35;MTPAP;RPL39;RPS10;RPS13;UPF2;CNOT6L;NCBP1;RPS8;RPL22;RC3H1;RPSA;XRN1;PDE12;THRAP3;PNLDC1;CSDE1;MRTO4;RPL24;ETF1;RPL26;RPL28;UBA52;RBM8A;RPL12;EXOSC7;EXOSC6;EXOSC10;EXOSC4;EXOSC9;EXOSC8;RPL14;RPL15;RPL18;RPS27A;EIF4E;DCPS;EIF4B;PAIP1;RPL41;LSM1;PYM1;UPF3B;CNOT10;LSM5;MAGOHB;LSM4;PNRC1;PNRC2;CNOT4;PAN2;RPS25;CNOT7;RPS27;PAN3;CNOT1;CNOT2;AGO1;CNOT3;RPS20;ATM;DCP1A;CNOT9;RPS21;DCP1B;EIF4G1",82
"32","rRNA metabolic process (GO:0016072)","90/201",3.09994190052341e-09,4.94343859949092e-07,0,0,1.74327893334573,34.1541159699998,"LTV1;RPL4;RPL3;RPL32;RPL31;DDX47;RPL34;WDR3;RRP1;DIS3L;PWP2;RPL9;WDR46;RPL6;WDR43;RPL7;RPS15;RPS4X;RPL18A;RPL35;RIOK2;RIOK1;RPL39;RPS10;UTP14A;RPS13;RPP38;UTP15;WDR36;UTP11;IMP3;RPS8;DIS3;TEX10;RPL22;WDR75;IMP4;RPSA;CSNK1E;XRN1;XRN2;MRTO4;C1D;PIH1D2;RPL24;RPL26;RPL28;UBA52;RPL12;ISG20L2;RPF1;EXOSC7;EXOSC6;EXOSC10;EXOSC4;ERI1;EXOSC9;PES1;BMS1;EXOSC8;DHX37;RPL14;RRP36;UTP20;RPL15;EXOSC3;RPL18;RPS27A;RPP14;LYAR;EXOSC2;DCAF13;NOP56;RPL41;NOP14;NOP58;UTP4;BRF1;NIFK;KRR1;RPP40;RRP1B;WDR12;RPS25;BOP1;RPS27;LAS1L;MARS;RPS20;RPS21",90
"33","ciliary basal body-plasma membrane docking (GO:0097711)","52/97",4.04546238615905e-09,6.25575592623323e-07,0,0,2.08714220061049,40.335421375386,"CEP57;CETN2;CEP164;TUBA1A;PPP2R1A;CNTRL;CEP250;PRKACA;CC2D2A;CEP290;NINL;YWHAG;CDK5RAP2;OFD1;HSP90AA1;CEP135;KIF24;HAUS3;HAUS6;RPGRIP1L;CSNK1E;DYNLL1;CKAP5;AKAP9;CEP63;MAPRE1;SDCCAG8;DYNC1I2;DCTN1;DCTN3;TTBK2;TMEM67;CEP70;CEP72;CEP192;PCNT;CEP76;CLASP1;PLK4;ODF2;MBD1;RAB3IP;TUBB4B;RAB11A;AHI1;NEDD1;CENPJ;ALMS1;CDK1;CEP83;FGFR1OP;CEP162",52
"34","transcription from RNA polymerase II promoter (GO:0006366)","182/486",4.91660005407312e-09,7.37923825762798e-07,0,0,1.45799336853346,27.8923587817786,"TCERG1;CCNK;CCNT2;CCNT1;ICE1;CCNH;ICE2;GTF2B;ARID4A;RORA;CCNC;TTF2;ETS1;LSM10;CLP1;MAGOH;PAPOLA;TRIM24;PKNOX1;NFRKB;GTF2I;SUPT16H;PCID2;MED8;THOC1;SSU72;THOC2;THOC5;GTF2F2;THOC7;SRRM1;DDX39A;SARNP;TBPL1;SRSF3;SRSF4;SNRPE;SNRPF;SRSF5;SRSF6;SRSF7;SRSF9;SLBP;KMT2A;RBM8A;MAX;CSTF3;WDR61;RTF1;HIF1A;RPAP2;PMF1;GTF2E2;TAF5L;CCNB1;MED30;DVL1;CSTF1;RPRD1B;HIVEP2;RPRD1A;NR2C2AP;BTF3;CPSF4;CHTOP;POU2F1;CPSF3;CPSF2;NR2F1;NFATC3;UPF3B;NFXL1;MAGOHB;ELL2;ESR1;NFKB1;NR4A2;NR4A1;CDK7;COPS5;TFCP2;SP1;CDK4;COPS2;FUBP1;CDK1;NABP2;TAF4B;INTS7;TCF4;INTS6;CDK13;MNAT1;INTS8;INTS11;INTS12;SETD2;INTS13;INTS14;INTS10;ZC3H8;MED15;CDC73;SNAPC5;MED14;SNAPC1;SNAPC2;TRPS1;SNAPC3;ELOC;NELFA;NELFE;PBRM1;TBP;PARP1;NCBP1;ARNT;ASH1L;MED27;PAX1;WDR33;MED23;NFX1;THRAP3;MED20;IRF7;PPARA;IRF9;CREB5;GTF2A1;GTF2A2;ELOF1;CTDP1;RNMT;POLDIP3;SRF;LEF1;DDX21;HOXD13;NR2C2;NR2C1;IWS1;RXRB;FIP1L1;PABPN1;U2AF2;POLR2B;HSF2;E2F3;TAF9B;POLR2J;SRSF11;POLR2K;MBD4;RNGTT;NFYA;TAF13;MBD1;TAF11;ELP1;ELP2;ELP3;GTF2H2;RPRD2;DEK;SSRP1;GTF2H3;GTF2H5;USF1;NUDT21;NR6A1;TAF8;TRIP11;TAF7;CEBPZ;TAF6;TRIP13;ERCC6;TARDBP;RBMX;TAF2;TAF1",182
"35","regulation of G2/M transition of mitotic cell cycle (GO:0010389)","71/150",8.33135751576784e-09,1.21471192579895e-06,0,0,1.8428395302057,34.2827850058948,"CEP57;CETN2;PINX1;CEP164;FHL1;KIF14;TUBA1A;PSMD4;PPP2R1A;PSMD5;CNTRL;CEP250;PRKACA;CEP290;NINL;YWHAG;CDK5RAP2;OFD1;HSP90AA1;CEP135;HAUS3;HAUS6;CSNK1E;DYNLL1;CKAP5;RBX1;PSMA5;RINT1;PSMA2;AKAP9;PSME4;CEP63;MAPRE1;UBA52;DTL;SDCCAG8;DYNC1I2;PSMD14;DCTN1;DCTN3;CUL1;AURKA;PSMB7;CCNB1;PSMB4;CEP70;PSMB1;CEP72;CEP192;PCNT;RPS27A;CEP76;CLASP1;PLK4;ODF2;RCC2;MBD1;CDC7;TUBB4B;RAB11A;PSMB9;TPX2;NEDD1;CENPF;CDK4;PSMC1;CENPJ;CDK2;ALMS1;CDK1;FGFR1OP",71
"36","snRNA transcription (GO:0009301)","41/71",1.00531644268599e-08,1.42503605750739e-06,0,0,2.24825691544635,41.4025018016196,"INTS11;INTS12;GTF2A1;INTS13;CCNK;GTF2A2;INTS14;CCNT2;CCNT1;ICE1;ICE2;GTF2B;INTS10;ZC3H8;RPAP2;GTF2E2;SNAPC5;SNAPC1;SNAPC2;POLR2B;SNAPC3;RPRD1B;RPRD1A;POLR2J;POLR2K;TBP;POU2F1;NCBP1;TAF13;TAF11;RPRD2;GTF2F2;ELL2;CDK7;SP1;TAF8;NABP2;INTS7;TAF6;INTS6;INTS8",41
"37","snRNA transcription from RNA polymerase II promoter (GO:0042795)","41/71",1.00531644268599e-08,1.38652156946665e-06,0,0,2.24825691544635,41.4025018016196,"INTS11;INTS12;GTF2A1;INTS13;CCNK;GTF2A2;INTS14;CCNT2;CCNT1;ICE1;ICE2;GTF2B;INTS10;ZC3H8;RPAP2;GTF2E2;SNAPC5;SNAPC1;SNAPC2;POLR2B;SNAPC3;RPRD1B;RPRD1A;POLR2J;POLR2K;TBP;POU2F1;NCBP1;TAF13;TAF11;RPRD2;GTF2F2;ELL2;CDK7;SP1;TAF8;NABP2;INTS7;TAF6;INTS6;INTS8",41
"38","RNA splicing (GO:0008380)","55/107",1.06790042402146e-08,1.43407785888987e-06,0,0,2.00124076927695,36.7327467904022,"DDX47;GEMIN2;USP39;DCAF4;CCAR2;SYNCRIP;PPP2R1A;SNRPD1;MAGOH;DHX15;TXNL4A;SNRNP35;BCAS2;MBNL1;NCBP1;SCAF11;PRPF4B;SRRM1;PRPF4;DDX19A;PRPF6;PRPF18;PRPF3;SRSF4;RP9;PPIG;SNRPF;SRSF7;SF3B3;DDX25;DDX23;RNPC3;NOL3;TRA2B;ZMAT5;SF3B1;SRSF10;SRSF11;IVNS1ABP;SRPK2;SF3A3;ZRSR2;MTERF3;NONO;MTERF4;LSM1;USB1;MAGOHB;LSM4;SRPK1;SMU1;SNRNP40;NOVA1;SNRNP48;TARDBP",55
"39","mRNA 3'-end processing (GO:0031124)","42/75",2.30312157098638e-08,3.0135459940368e-06,0,0,2.18026085263773,38.3429728962035,"SLBP;AHCYL1;RBM8A;POLDIP3;ZC3H3;CSTF3;CDC73;PABPN1;FIP1L1;CLP1;U2AF2;PAPOLG;MAGOH;PAPOLA;CSTF1;MTPAP;SRSF11;CPSF4;CHTOP;CPSF6;NCBP1;CPSF3;CPSF2;SSU72;THOC1;UPF3B;THOC2;THOC5;MAGOHB;THOC7;SRRM1;WDR33;NUDT21;DDX39A;SARNP;SRSF3;SRSF4;SRSF5;SRSF6;GRSF1;SRSF7;SRSF9",42
"40","regulation of G0 to G1 transition (GO:0070316)","27/40",3.34643231596884e-08,4.26921102709724e-06,0,0,2.62799299201869,45.2350808389894,"L3MBTL2;MAX;EHMT2;EHMT1;BMI1;DUX4;RNF2;UXT;RBBP4;RBBP8;EPC1;RBBP7;YAF2;E2F6;PHC1;CBX5;APAF1;CBX3;MGA;DAB2IP;CDC7;RAD51;RYBP;TFDP1;TFDP2;RHNO1;EZH2",27
"41","DNA replication (GO:0006260)","59/121",3.88681007066925e-08,4.83765653429882e-06,0,0,1.89839714146437,32.3925249937765,"MCM7;MCM8;NEXMIF;MCM10;POLB;HELB;EXO1;REV3L;TOPBP1;POLK;POLE;RFC5;WDHD1;TIPIN;RFC4;RFC1;NCOA6;RFC2;RMI1;REV1;HUS1;BAZ1A;CDC25C;CDC25A;TIMELESS;MCM3;MCM4;MCM5;MCM6;RHNO1;MCM2;PIF1;RNASEH2A;SET;ORC5;ORC4;ORC6;ORC1;ORC3;ORC2;POLD2;RBBP8;ATRIP;BARD1;DUT;RPA2;CDC7;NAP1L1;POLA1;NASP;POLE2;RPA3;CDK2;CDK1;RAD17;CDK2AP1;ATM;RAD9B;ATR",59
"42","negative regulation of G0 to G1 transition (GO:0070317)","26/38",3.92145042451202e-08,4.76456226578211e-06,0,0,2.66385254551602,45.4299251007286,"L3MBTL2;MAX;EHMT2;EHMT1;BMI1;DUX4;RNF2;UXT;RBBP4;RBBP8;EPC1;RBBP7;YAF2;E2F6;PHC1;CBX5;APAF1;CBX3;MGA;DAB2IP;CDC7;RAD51;RYBP;TFDP1;TFDP2;EZH2",26
"43","signal transduction involved in mitotic G1 DNA damage checkpoint (GO:0072431)","37/64",5.02278723072704e-08,5.96076354381397e-06,0,0,2.25082733112712,37.8289701154697,"PCNA;PRKDC;AURKA;CCNB1;PCBP4;CHEK2;PLAGL1;CASP2;E2F4;RPS27A;GTSE1;E2F7;CNOT6L;CRADD;PRMT1;CNOT10;CDC25C;PML;RBL2;CNOT4;TFDP1;CNOT7;RGCC;TFDP2;CNOT1;CNOT2;CENPJ;CARM1;CNOT3;CDK2;CDK1;MDM2;ATM;MDM4;RPL26;UBA52;CNOT9",37
"44","termination of RNA polymerase II transcription (GO:0006369)","39/69",5.15140559865306e-08,5.97445972043785e-06,0,0,2.20057384194802,36.9287343740808,"SLBP;RBM8A;POLDIP3;CSTF3;TTF2;LSM10;PABPN1;FIP1L1;CLP1;U2AF2;MAGOH;PAPOLA;CSTF1;SRSF11;CPSF4;CHTOP;NCBP1;CPSF3;CPSF2;SSU72;THOC1;UPF3B;THOC2;THOC5;MAGOHB;THOC7;SRRM1;WDR33;NUDT21;DDX39A;SARNP;SRSF3;SRSF4;SNRPE;SNRPF;SRSF5;SRSF6;SRSF7;SRSF9",39
"45","chromosome organization (GO:0051276)","34/57",5.99024944925824e-08,6.79294287545885e-06,0,0,2.32233298839858,38.621669511927,"HDAC2;CETN2;DOT1L;XPA;CDCA8;COPS7B;COPS7A;XPC;BRCA2;HIST1H3A;MYC;NUF2;RPS27A;RAE1;CENPT;CDT1;CENPV;CENPW;NUP133;PARP1;NUP155;RAD23B;NDC80;RBX1;MSH6;LATS1;COPS4;COPS6;COPS5;MSH2;CENPH;COPS2;UBA52;CUL4B",34
"46","proteasome-mediated ubiquitin-dependent protein catabolic process (GO:0043161)","116/292",8.49454693556277e-08,9.42340717656017e-06,0,0,1.54666254223322,25.1816092957793,"UBXN2B;UBE2D3;BUB1B;UBE2D1;CDC20;RNF115;CDC23;PSMD4;PSMD5;CDC26;FBXO4;SKP2;GTSE1;RNF111;FBXO9;RNF44;NHLRC3;ANAPC7;FBXW7;UBE4A;YOD1;UBE4B;ARMC8;RBX1;RNF126;TBL1XR1;PSME4;TRIM13;PLAA;ANAPC4;ANAPC5;KCTD17;UBA52;CLOCK;ANAPC16;PSMD14;CUL3;CUL1;NEDD4L;UBR3;UBR2;UBR1;UBE2J2;ANAPC10;UBE2J1;ATXN3;CCNB1;RNF216;BTBD3;PCBP2;BTBD2;UBE2C;WFS1;SMURF1;SIAH1;ERLIN2;BTBD9;KLHL20;UBE2S;CDC16;MDM2;CDK1;FBXL5;RNF185;UBE2K;FAF1;FAF2;KIF14;UBXN4;USP44;PPP2R5C;TOPORS;PSMA5;PSMA2;SPOPL;BIRC2;RNF34;RNF38;DERL1;RNF4;AURKA;PCNP;PSMB7;FOXRED2;ZNRF1;PSMB4;FZR1;ZNRF2;MTA1;RMND5A;OS9;RNF139;TMEM67;HECTD4;PSMB1;UBQLN1;TBL1X;RPS27A;DCAF11;CRBN;RNF24;CSNK1A1;AMFR;TMUB1;WWP1;WWP2;PML;PSMB9;KBTBD4;ITCH;APC;PSMC1;NEDD4;CTNNB1;MAD2L1;TAF1",116
"47","protein modification by small protein removal (GO:0070646)","106/262",1.0243917630165e-07,1.1122279078028e-05,0,0,1.57516119397219,25.3506389261291,"OTUD5;TRRAP;KDM1B;KEAP1;UBE2D1;CDC20;PSMD4;PSMD5;MYC;RUVBL1;SKP2;NFRKB;USP8;USP5;USP3;YOD1;CDC25A;PSME4;UBA52;INO80B;PSMD14;COPS7B;COPS7A;HIF1A;ATXN3;RIPK1;BARD1;SMAD2;SMAD1;SMAD4;SIAH2;INO80;STAM;ESR1;COPS4;CYLD;COPS6;COPS5;COPS2;TADA3;MDM2;CDK1;MDM4;TAB1;OGT;BAP1;USP37;WDR48;USPL1;USP38;USP33;USP34;OTUD7B;MYSM1;IFIH1;POLB;SENP6;OTUD6B;SENP8;UIMC1;USP30;USP46;USP48;USP42;RIPK2;DDX58;USP44;ACTR5;ACTL6A;USP45;RAD23A;ACTR8;SENP2;RAD23B;SENP1;PSMA5;CCNA1;PSMA2;BIRC2;OTUB2;USP14;USP15;USP27X;ABRAXAS1;USP11;WDR20;TANK;USP18;PSMB7;TFPT;PSMB4;PSMB1;USP1;TAF9B;RPS27A;USP24;MBD5;USP9X;USP28;PSMB9;RNF146;ASXL1;APC;PSMC1;ASXL2;OTUD3",106
"48","histone exchange (GO:0043486)","25/37",1.0547839002456e-07,1.1213671339486e-05,0,0,2.63062361563432,42.2603363486472,"HJURP;CENPA;CENPC;ZNHIT1;RBBP4;VPS72;MIS18BP1;RUVBL1;OIP5;RBBP7;CENPT;CENPU;CENPW;SMARCA5;KNL1;NASP;CENPH;CENPI;CENPK;CENPL;ANP32E;CENPM;CENPN;ANP32B;ITGB3BP",25
"49","DNA damage response, signal transduction by p53 class mediator resulting in cell cycle arrest (GO:0006977)","36/63",1.1444605476159e-07,1.19187391315999e-05,0,0,2.22475597207931,35.558635696044,"PCNA;AURKA;CCNB1;PCBP4;CHEK2;PLAGL1;CASP2;E2F4;RPS27A;GTSE1;E2F7;CNOT6L;CRADD;PRMT1;CNOT10;CDC25C;PML;RBL2;CNOT4;TFDP1;CNOT7;RGCC;TFDP2;CNOT1;CENPJ;CNOT2;CARM1;CNOT3;CDK2;CDK1;MDM2;ATM;MDM4;RPL26;UBA52;CNOT9",36
"50","ubiquitin-dependent protein catabolic process (GO:0006511)","131/342",1.56853595072419e-07,1.6008477913091e-05,0,0,1.49130206607948,23.3656506534768,"UBXN2B;UBE3C;UBE2D2;UBE2D3;BUB1B;UBE2D1;FBXO22;UBE2L3;CDC20;RNF115;NUB1;CDC23;PSMD4;PSMD5;CDC26;FBXO8;GTSE1;FBXO7;RNF111;RNF44;AREL1;NHLRC3;ANAPC7;ARRDC1;UBE4A;UBE4B;ARMC8;FBXO10;FBXO11;RBX1;RNF126;TBL1XR1;PSME4;TRIM13;PLAA;ANAPC4;ANAPC5;KCTD17;UBA52;CLOCK;ANAPC16;CUL5;PSMD14;UBA7;UBA6;CUL3;CUL2;CUL1;NEDD4L;UBR3;ANAPC10;ATXN3;RNF216;BTBD3;RNF217;PCBP2;BTBD2;UBR5;UBE2H;UBE2C;SMURF1;SIAH1;KLHL24;BTBD9;KLHL20;UBE2S;CDC16;MDM2;CDK1;UBA1;RNF185;UBE2K;FAF1;USP33;KIF14;OTUD7B;ENC1;ARIH2;ARIH1;ELOC;USP44;VPS37A;PPP2R5C;TOPORS;RNF144A;PSMA5;PSMA2;SPOPL;DTL;BIRC2;RNF34;RNF38;RNF4;CBL;PCNP;PSMB7;ZNRF1;PSMB4;ZNRF2;MTA1;RMND5A;OS9;RNF139;HECTD4;PSMB1;MVB12B;TBL1X;RPS27A;DCAF11;RNF20;ANKIB1;CRBN;RNF24;CSNK1A1;AMFR;HUWE1;WWP1;WWP2;PML;PSMB9;RNF146;KBTBD4;ITCH;APC;PSMC1;NEDD4;CTNNB1;TRIP12;MAD2L1;CUL4B;TAF1",131
"51","cellular response to DNA damage stimulus (GO:0006974)","127/330",1.77858371988059e-07,1.77962994559817e-05,0,0,1.4983394387716,23.2876084948357,"ATF2;SMARCAL1;CCNK;TRRAP;FMR1;NUDT1;SMC6;PARK7;ALKBH8;ALKBH3;HELB;CHEK2;MYC;ALKBH1;WDHD1;USP3;ZBTB38;METTL3;RECQL;HUS1;CSNK1E;INIP;MSH6;DDX39A;MSH2;FANCD2;PSME4;TIPRL;TIMELESS;CLOCK;RHNO1;BRSK1;RTEL1;CUL5;UBA7;PRKDC;UBA6;XPA;HTRA2;XPC;PDS5B;PDS5A;RAD51AP1;BCL2L11;UBR5;MAP3K20;TP53BP1;ATRIP;BARD1;FANCA;FANCC;SETX;POLA1;TDP1;UBE2T;NABP2;CDK1;RAD17;INTS7;ATM;UBA1;MNAT1;RAD9B;RAD18;ATR;MCM7;MCM8;OGG1;PHF1;ASH2L;MCM10;POLB;NIPBL;HPF1;SUMO1;EXO1;CASP2;TOPBP1;POLK;POLH;RFC5;SHPRH;RFC4;PARP1;NCOA6;PARP2;RFC2;USP45;H2AFX;MASTL;SMC1A;TOPORS;WAC;IRF7;CEP63;DTL;DOT1L;XIAP;TANK;UNG;ZBTB40;RBBP5;POLD2;RBBP8;BAK1;BID;FNIP2;MUTYH;MBD4;TIGAR;SLF1;GTF2H3;USP28;APTX;HINFP;RAD52;ETAA1;RAD51;APC;PITHD1;RFWD3;APEX1;POLE2;APLF;TRIP12;CUL4B;TAF1",127
"52","RNA 3'-end processing (GO:0031123)","35/62",2.57844522246428e-07,2.53034730196831e-05,0,0,2.19784360144932,33.3432854070735,"RBM8A;POLDIP3;CSTF3;PABPN1;FIP1L1;CLP1;U2AF2;MAGOH;PAPOLA;CSTF1;SRSF11;CPSF4;CHTOP;PNPT1;NCBP1;CPSF3;CPSF2;THOC1;UPF3B;THOC2;THOC5;MAGOHB;THOC7;SRRM1;WDR33;SUPV3L1;NUDT21;DDX39A;SARNP;SRSF3;SRSF4;SRSF5;SRSF6;SRSF7;SRSF9",35
"53","exonucleolytic nuclear-transcribed mRNA catabolic process involved in deadenylation-dependent decay (GO:0043928)","23/34",3.33323685399331e-07,3.209341069043e-05,0,0,2.63371846694683,39.2796769904184,"DDX6;HBS1L;TTC37;DIS3;LSM1;WDR61;LSM5;LSM4;LSM3;EDC4;EXOSC7;EXOSC6;LSM7;EXOSC4;CNOT7;EXOSC9;EXOSC8;SKIV2L;EXOSC3;DCP1A;EXOSC2;DCPS;DCP1B",23
"54","regulation of translation (GO:0006417)","88/214",5.2454952168992e-07,4.95699297996974e-05,0,0,1.60099261542156,23.1515155342196,"EIF4A2;NUP107;NUP188;FMR1;EPRS;ELAVL1;GLE1;RPS4X;RBM3;RPS6KA3;SYNCRIP;OGFOD1;ALKBH1;MTG2;ENC1;EIF2A;NDC1;EIF5B;NCBP1;NUP133;DAPK3;CIRBP;LARP4B;NUP93;ILF3;NCL;MAPKAPK5;NUP54;ETF1;RPL26;EIF1B;NUP58;DDX6;NUP205;POM121;CDC123;DHX9;DDX25;POLDIP3;DDX1;RPS27L;MTIF2;MALSU1;AAAS;TYMS;FOXO3;NUP160;FXR1;ATXN2;HIST1H3A;RNF139;POLR2B;TPR;EIF4H;RAE1;EIF4E;POLR2J;EIF4B;POLR2K;PAIP1;EIF2B4;YTHDF1;YTHDF3;NUP155;EIF2AK3;PYM1;UPF3B;CNOT10;NUP153;PUM1;EEF2;LARP6;PUM2;CNOT7;CNOT1;AGO1;CNOT2;CAPRIN1;CNOT3;HNRNPD;NUP35;NUPL2;CNOT9;EIF4G3;RAN;METAP1;EIF4G1;NUP37",88
"55","centromere complex assembly (GO:0034508)","24/37",6.03023961370969e-07,5.5949659543201e-05,0,0,2.52539867100895,36.1670144734599,"CENPT;CENPU;CENPV;CENPW;HJURP;SMARCA5;KNL1;CENPA;CENPC;CENPE;CENPF;RBBP4;NASP;CENPH;MIS18BP1;CENPI;RUVBL1;CENPK;CENPL;CENPM;OIP5;CENPN;RBBP7;ITGB3BP",24
"56","negative regulation of cell cycle process (GO:0010948)","42/82",6.40902417964351e-07,5.84022328370015e-05,0,0,1.99414102375402,28.4372259731427,"CCNK;HSP90AB1;L3MBTL2;PPP1R10;MAX;EHMT2;EHMT1;BMI1;DUX4;RNF2;UXT;RBBP4;RBBP8;EPC1;FBXO5;RBBP7;YAF2;E2F6;E2F7;CDT1;CBX5;PHC1;APAF1;FBXW7;CBX3;MGA;DAB2IP;SETMAR;CDC7;SMC1A;BMP7;TFDP1;RAD51;RYBP;STAG2;NME6;TFDP2;CDK4;ZFYVE19;MDM2;AURKAIP1;EZH2",42
"57","protein deubiquitination (GO:0016579)","102/258",6.51479350783172e-07,5.83245460885356e-05,0,0,1.53922070161301,21.9246906671662,"OTUD4;OTUD5;TRRAP;KDM1B;KEAP1;UBE2D1;CDC20;PSMD4;PSMD5;MYC;RUVBL1;SKP2;NFRKB;USP8;USP5;USP3;YOD1;CDC25A;PSME4;UBA52;INO80B;ENY2;MINDY1;PSMD14;SHMT2;MINDY2;HIF1A;ATXN3;RIPK1;BARD1;SMAD2;SMAD1;SMAD4;SIAH2;INO80;STAM;ESR1;CYLD;COPS5;TADA3;MDM2;CDK1;MDM4;TAB1;OGT;BAP1;USP37;WDR48;USP38;USP33;USP34;OTUD7B;MYSM1;IFIH1;POLB;OTUD6B;SENP8;UIMC1;USP30;USP46;USP48;USP42;RIPK2;DDX58;USP44;ACTR5;ACTL6A;USP45;RAD23A;ACTR8;RAD23B;PSMA5;CCNA1;PSMA2;BIRC2;OTUB2;USP14;USP15;USP27X;ABRAXAS1;USP11;WDR20;TANK;USP18;PSMB7;TFPT;PSMB4;PSMB1;USP1;TAF9B;RPS27A;USP24;MBD5;USP9X;USP28;PSMB9;RNF146;ASXL1;APC;PSMC1;ASXL2;OTUD3",102
"58","nuclear export (GO:0051168)","46/93",7.04231604819298e-07,6.19602392998772e-05,0,0,1.92572963174607,27.2801912892374,"POM121;ANKLE1;NXT1;NUP188;RBM8A;POLDIP3;CSE1L;XPO1;XPO4;U2AF2;MAGOH;CHORDC1;XPO5;TPR;HNRNPA1;RAE1;EIF4E;SRSF11;CHTOP;NCBP1;NUP133;NUP155;SMURF1;STRADB;THOC1;RITA1;UPF3B;XPO7;NUTF2;NUP153;THOC2;THOC5;MAGOHB;THOC7;SRRM1;LSG1;DDX39A;SARNP;SRSF3;SRSF4;SRSF5;SRSF6;NUPL2;SRSF7;RAN;SRSF9",46
"59","spliceosomal complex assembly (GO:0000245)","26/42",7.8432641690743e-07,6.78375882284511e-05,0,0,2.41015230308592,33.8829828817879,"TXNL4B;CELF1;YTHDC1;CELF2;DDX1;DDX23;NOL3;SNRPD1;TXNL4A;SF3B1;SRSF10;RBM5;SRPK2;ZRSR2;NCBP1;SCAF11;LSM4;SRPK1;SETX;GCFC2;PRPF6;SNRPE;SRSF5;SRSF6;LUC7L2;SRSF9",26
"60","chromatin remodeling at centromere (GO:0031055)","22/33",8.87049854114375e-07,7.54435900924276e-05,0,0,2.59554863409253,36.1699166852283,"CENPT;CENPU;CENPV;CENPW;HJURP;SMARCA5;KNL1;CENPA;CENPC;RBBP4;NASP;CENPH;MIS18BP1;CENPI;RUVBL1;CENPK;CENPL;CENPM;OIP5;CENPN;RBBP7;ITGB3BP",22
"61","DNA damage response, signal transduction by p53 class mediator (GO:0030330)","42/83",9.76511046137917e-07,8.16907519416687e-05,0,0,1.9701152282871,27.2649758327104,"SP100;PCNA;PAXIP1;RPS27L;AURKA;CCNB1;PCBP4;CHEK2;PLAGL1;MYO6;CASP2;E2F4;RPS27A;GTSE1;E2F7;CNOT6L;CRADD;PRMT1;ATRX;CNOT10;CDC25C;PML;HIPK2;RBL2;CNOT4;TFDP1;CNOT7;RGCC;TFDP2;CNOT1;CNOT2;CENPJ;CARM1;CNOT3;CDK2;CDK1;MDM2;ATM;MDM4;RPL26;UBA52;CNOT9",42
"62","DNA replication-independent nucleosome assembly (GO:0006336)","25/40",9.87906927811714e-07,8.13111137519867e-05,0,0,2.43332684446175,33.6472584831994,"HJURP;CENPA;CABIN1;CENPC;RBBP4;MIS18BP1;RUVBL1;OIP5;RBBP7;CENPT;CENPU;CENPW;ATRX;SMARCA5;KNL1;NASP;CENPH;CENPI;HAT1;CENPK;CENPL;CENPM;CENPN;ITGB3BP;ASF1B",25
"63","CENP-A containing nucleosome assembly (GO:0034080)","21/31",1.05661876685029e-06,8.55861201148735e-05,0,0,2.63741232173918,36.2919450171584,"CENPT;CENPU;CENPW;HJURP;SMARCA5;KNL1;CENPA;CENPC;RBBP4;NASP;CENPH;MIS18BP1;CENPI;RUVBL1;CENPK;CENPL;CENPM;OIP5;CENPN;RBBP7;ITGB3BP",21
"64","CENP-A containing chromatin organization (GO:0061641)","21/31",1.05661876685029e-06,8.42488369880786e-05,0,0,2.63741232173918,36.2919450171584,"CENPT;CENPU;CENPW;HJURP;SMARCA5;KNL1;CENPA;CENPC;RBBP4;NASP;CENPH;MIS18BP1;CENPI;RUVBL1;CENPK;CENPL;CENPM;OIP5;CENPN;RBBP7;ITGB3BP",21
"65","viral transcription (GO:0019083)","53/114",1.24466137044923e-06,9.77154918984985e-05,0,0,1.81005365272242,24.6106606696689,"RPL4;CCNT2;RPL3;NUP107;RPL32;NUP188;RPL31;RPL34;RPL9;RPL6;RPL7;RPS15;RPS4X;RPL18A;RPL35;RPL39;RPS10;RPS13;NDC1;NUP133;RPS8;RPL22;RPSA;NUP93;RPL24;NUP54;RPL26;RPL28;UBA52;NUP58;NUP205;POM121;DHX9;RPL12;AAAS;NUP160;TPR;RPL14;RPL15;RPL18;RPS27A;RAE1;RPL41;NUP155;NUP153;USF1;RPS25;RPS27;NUP35;RPS20;NUPL2;RPS21;NUP37",53
"66","RNA transport (GO:0050658)","41/81",1.2967765698177e-06,0.000100264406602723,0,0,1.97069433329248,26.7140011251975,"SLBP;POM121;NXT1;NUP188;RBM8A;POLDIP3;FMR1;ATXN2;KIF5C;U2AF2;MAGOH;XPO5;TPR;HNRNPA1;RAE1;EIF4E;SRSF11;CHTOP;PNPT1;NCBP1;NUP133;NUP155;THOC1;UPF3B;NUP153;THOC2;THOC5;MAGOHB;CKAP5;THOC7;SRRM1;TGFBR2;DDX39A;SARNP;HNRNPA2B1;SRSF3;SRSF4;SRSF5;SRSF6;SRSF7;SRSF9",41
"67","chromatin remodeling (GO:0006338)","54/117",1.31598159103877e-06,0.000100230657598073,0,0,1.79691828514098,24.3319406065762,"RB1;SUV39H2;CHD8;HMGB3;CHD4;NUDT5;MYSM1;MYC;RUVBL1;MYB;SMARCAD1;HMG20A;KDM6A;DAXX;SMARCC1;PBRM1;SMARCC2;SP110;ACTL6A;ATRX;MSL3;BAZ1A;ARID1A;ARID1B;MORF4L1;MORF4L2;TFAM;PADI2;TOX;SMARCD1;SP100;HDAC2;ELOF1;ANP32A;SP140;BAZ2A;HMGXB4;CHRAC1;RBBP4;BAHD1;TNRC18;MBD3;CBX3;MBD2;SMARCA5;INO80;DEK;SSRP1;ESR1;GATAD2B;SMARCA4;RIOX2;ANP32E;ANP32B",54
"68","nuclear-transcribed mRNA catabolic process, exonucleolytic (GO:0000291)","23/36",1.54018624812587e-06,0.00011558191800274,0,0,2.48740077433868,33.2903949338923,"DDX6;HBS1L;TTC37;DIS3;LSM1;WDR61;LSM5;LSM4;LSM3;EDC4;EXOSC7;EXOSC6;LSM7;EXOSC4;CNOT7;EXOSC9;EXOSC8;SKIV2L;EXOSC3;DCP1A;DCPS;EXOSC2;DCP1B",23
"69","DNA replication initiation (GO:0006270)","18/25",1.59926061519111e-06,0.000118275752453917,0,0,2.80319252481993,37.4113209606514,"PRIM2;PRIM1;GINS4;MCM10;CDC7;LRWD1;ORC5;POLE4;ORC4;POLA1;ORC6;ORC1;ORC3;POLE2;ORC2;TOPBP1;POLE;MCM2",18
"70","proteasomal protein catabolic process (GO:0010498)","94/238",1.84595141604991e-06,0.000134569858230038,0,0,1.53769898070188,20.3014949972202,"UBXN2B;FAF1;UBE2D3;KIF14;KEAP1;BUB1B;UBE2D1;CDC20;RNF115;CDC23;PSMD4;PSMD5;CDC26;ENC1;GTSE1;RNF111;RNF44;NHLRC3;ANAPC7;USP44;UBE4B;ARMC8;PPP2R5C;TOPORS;RNF41;RBX1;PSMA5;RNF126;PSMA2;TBL1XR1;PSME4;TRIM13;PLAA;ANAPC4;SPOPL;ANAPC5;KCTD17;UBA52;CLOCK;BIRC2;RNF34;ANAPC16;PSMD14;CUL3;RNF38;DERL1;CUL1;NEDD4L;RNF4;FBXO44;ANAPC10;PCNP;PSMB7;ATXN3;ZNRF1;PSMB4;ZNRF2;MTA1;RMND5A;RNF216;RNF139;BTBD3;HECTD4;PCBP2;PSMB1;BTBD2;TBL1X;RPS27A;DCAF11;CRBN;RNF24;CSNK1A1;UBE2C;SMURF1;AMFR;SIAH1;WWP1;WWP2;BTBD9;PML;PSMB9;KLHL20;KBTBD4;ITCH;APC;PSMC1;NEDD4;CDC16;CDK1;CTNNB1;RNF185;UBE2K;MAD2L1;CUL4B",94
"71","protein ubiquitination (GO:0016567)","177/507",1.90618610867236e-06,0.000137003770599367,0,0,1.35920742081177,17.9013137251372,"UBE3C;UBE2D2;UBE2D3;UBE2D1;KEAP1;FBXO22;UBE2L3;HERC4;RNF115;NUB1;HERC3;RNF114;PSMD4;PSMD5;FBXO4;TRIM24;SKP2;FBXO7;RNF111;FBXO9;TRIM23;HERC6;RNF44;AREL1;NHLRC3;FBXW8;USP5;FBXW7;ARRDC1;UBE2E3;UBE4A;UBE4B;FBXO10;FBXO11;RC3H2;FBXW2;RNF41;RBX1;RNF126;PSME4;TRIM13;UBE2V2;HIST1H2BH;UBA52;CBLL1;HIST1H2BA;HIST1H2BD;ANAPC16;CUL5;PSMD14;UBA7;PRKDC;UBA6;CUL3;CUL2;KLHL17;CUL1;NEDD4L;UBR3;WDR61;UBR2;KLHL12;BCL10;UBR1;RTF1;KLHL13;UBE2J2;HIF1A;FBXO44;BTBD3;RNF217;BTBD2;UBR5;HLTF;LONRF1;LONRF2;BARD1;UBE2H;PHC1;KLHL26;UBE2C;SMURF1;SIAH2;SIAH1;KLHL28;KLHL22;KLHL23;ISG15;KLHL24;BTBD9;FBXO30;KLHL20;CNOT4;UBOX5;UBE2S;UBE2T;MDM2;TPP2;UBA1;FBXL5;RNF185;UBE2K;RAD18;LRSAM1;CDC73;ENC1;ARIH2;ELOC;ARIH1;SHPRH;MSL2;TOPORS;PJA2;PSMA5;RNF144A;PSMA2;GAN;WAC;SPOPL;BIRC6;DTL;BIRC2;RNF34;PCNA;HIST1H2BO;HIST1H2BL;RNF38;HIST1H2BK;DERL1;XIAP;RNF4;CBL;TANK;DCAF15;PCNP;PSMB7;FBXL21;ZNRF1;PSMB4;ZNRF2;RMND5A;CAND1;RNF139;OS9;HECTD4;PSMB1;RPS27A;SASH1;RNF20;ANKIB1;CRBN;RNF24;USP9X;AMFR;MIB2;HUWE1;WWP1;WWP2;KBTBD11;PSMB9;MIB1;RNF146;KBTBD3;KBTBD4;ITCH;KLHL5;PSMC1;RFWD3;KLHL7;NEDD4;TSPAN17;KBTBD2;TRIP12;KBTBD8;TRIM33;CUL4B;TAF1",177
"72","tRNA aminoacylation (GO:0043039)","25/41",1.91346671906771e-06,0.000135616953713924,0,0,2.37397740923097,31.2571965343072,"EPRS;YARS2;FARS2;NARS;LARS;RARS2;DARS;GATC;SARS;DARS2;QRSL1;HARS2;WARS2;LARS2;PPA2;KARS;PPA1;MARS;GARS;TARS2;IARS;FARSA;EEF1E1;FARSB;AARS",25
"73","mitotic sister chromatid segregation (GO:0000070)","41/83",2.90556289711329e-06,0.000203110787177659,0,0,1.92320772285169,24.518751047352,"CEP57;CDCA5;CUL3;PINX1;AKAP8L;KIF14;NCAPG;CDCA8;PDS5B;PDS5A;SMC4;NCAPH;SMC2;NIPBL;DSN1;CCNB1;CDC23;CHTF8;NUSAP1;RRS1;PIBF1;DLGAP5;KLHL22;KIF23;INO80;SMC1A;KNSTRN;RAB11A;WAPL;NDC80;CENPE;KIF18A;PSRC1;ESPL1;CEP57L1;KIFC1;ZW10;KIF2C;NCAPD2;NCAPD3;RAN",41
"74","DNA-templated transcription, elongation (GO:0006354)","50/109",3.97940338184332e-06,0.00027441750618306,0,0,1.78592795923798,22.2069044938665,"CCNK;SETD2;CCNT2;CCNT1;CCNH;GTF2B;CDC73;NELFA;ELOC;NELFE;SUPT16H;PCID2;PBRM1;TBP;NCBP1;GTF2F2;POLR1B;POLR1E;GTF2A1;GTF2A2;ELOF1;CTDP1;WDR61;RTF1;GTF2E2;IWS1;TAF1D;POLR2B;TWISTNB;TAF9B;POLR2J;POLR2K;TAF13;TAF11;ELP1;ELP2;ELP3;SSRP1;GTF2H2;GTF2H3;GTF2H5;CDK7;TCEA2;TAF4B;TAF7;TAF6;CDK13;MNAT1;TAF2;TAF1",50
"75","transcription, DNA-templated (GO:0006351)","130/357",4.04170078760958e-06,0.000274997321588955,0,0,1.41773664887407,17.60665164718,"TCERG1;CCNK;CCNT2;CRCP;CCNT1;CCNH;GTF2B;ARID4A;TTF2;TTF1;PWP1;TRIM24;EPC1;MTERF1;PKNOX1;NFRKB;GTF2I;SUPT16H;ILF2;GTF2F2;THAP1;TBPL1;TFAM;KMT2A;MAX;WDR61;BAZ2A;BAZ2B;RTF1;FOXO3;HIF1A;PMF1;TAF5L;GTF2E2;DVL1;HIVEP2;BTF3;IVNS1ABP;MTERF3;POLR3GL;MTERF4;SMARCA5;NFATC3;NFXL1;ESR1;NFKB1;SETX;NR4A2;CDK7;COPS5;FUBP3;FUBP1;COPS2;TAF4B;TCF4;TCF3;MNAT1;ASH2L;NAT14;CDC73;SNAPC5;SNAPC2;TRPS1;SNAPC3;ELOC;NELFA;NELFE;NCOA1;PRMT5;TBP;PARP1;NCBP1;NCOA6;ARNT;BAZ1A;ASH1L;TOPORS;PAX1;NFX1;MED20;IRF7;IRF9;CREB5;GTF3C2;GTF2A1;GTF2A2;CTDP1;GTF3C4;RNMT;GTF3C6;SRF;LEF1;DDX21;HOXD13;IWS1;POLR2B;HSF2;HSF1;TAF9B;POLR2J;POLR2K;RNGTT;NFYA;BRF1;TAF13;MBD1;SWT1;TAF11;GTF2H2;DEK;SSRP1;GTF2H3;GTF2H5;USF1;POLR3A;TCEA2;DRG1;TRIP11;POLR3G;TAF7;POLR3H;CEBPZ;TAF6;TRIP13;ERCC6;TARDBP;POLR3K;RBMX;TAF2;TAF1",130
"76","histone H2A acetylation (GO:0043968)","13/16",5.19394206247275e-06,0.000348745872957874,0,0,3.16332489780027,38.4913930293352,"MEAF6;TRRAP;ACTL6A;MSL3;YEATS4;MORF4L1;ING3;MORF4L2;RUVBL1;EP400;EPC1;DMAP1;BRD8",13
"77","transcription elongation from RNA polymerase II promoter (GO:0006368)","45/96",5.8697824899094e-06,0.000389006494103996,0,0,1.82499513334631,21.9833310650806,"GTF2A1;CCNK;SETD2;GTF2A2;CCNT2;ELOF1;CTDP1;CCNT1;CCNH;GTF2B;WDR61;RTF1;CDC73;IWS1;GTF2E2;POLR2B;NELFA;ELOC;TAF9B;POLR2J;POLR2K;NELFE;SUPT16H;PCID2;PBRM1;TBP;NCBP1;TAF13;TAF11;ELP1;ELP2;ELP3;SSRP1;GTF2H2;GTF2H3;GTF2F2;GTF2H5;CDK7;TAF4B;TAF7;TAF6;CDK13;MNAT1;TAF2;TAF1",45
"78","tRNA modification (GO:0006400)","31/58",5.87631255468762e-06,0.000384446448289371,0,0,2.08091399112591,25.0637373476417,"PUS10;OSGEPL1;URM1;TRMO;THUMPD2;NAT10;THUMPD3;MTO1;OSGEP;ALKBH8;ALKBH1;TRMT44;SEPHS1;PUSL1;TRDMT1;PUS3;TRMT10A;SSB;TYW5;NSUN2;PUS1;NSUN6;FTSJ1;TRIT1;ADAT2;RPUSD4;YRDC;RPUSD3;TRMT6;TRMT13;AARS",31
"79","viral gene expression (GO:0019080)","50/111",7.5121631921632e-06,0.000485247705944416,0,0,1.75374907708955,20.6924627233582,"RPL4;RPL3;NUP107;RPL32;NUP188;RPL31;RPL34;RPL9;RPL6;RPL7;RPS15;RPS4X;RPL18A;RPL35;RPL39;RPS10;RPS13;NDC1;NUP133;RPS8;RPL22;RPSA;NUP93;RPL24;NUP54;RPL26;RPL28;UBA52;NUP58;NUP205;POM121;RPL12;AAAS;NUP160;TPR;RPL14;RPL15;RPL18;RPS27A;RAE1;RPL41;NUP155;NUP153;RPS25;RPS27;NUP35;RPS20;NUPL2;RPS21;NUP37",50
"80","positive regulation of cell cycle arrest (GO:0071158)","40/83",8.25400770222464e-06,0.000526502516305654,0,0,1.87630021741629,21.9617407253003,"PCNA;PKD2;AURKA;CCNB1;PCBP4;CHEK2;PLAGL1;CASP2;E2F4;PRKACA;RPS27A;GTSE1;E2F7;ZBTB17;CNOT6L;CRADD;PRMT1;DAB2IP;CNOT10;CDC25C;PML;RBL2;CNOT4;TFDP1;CNOT7;RGCC;TFDP2;CNOT1;CNOT2;CENPJ;CARM1;CNOT3;CDK2;CDK1;MDM2;ATM;MDM4;RPL26;UBA52;CNOT9",40
"81","regulation of mRNA stability (GO:0043488)","56/129",8.74100084530571e-06,0.00055068305325426,0,0,1.69012469196723,19.6857034541309,"FASTKD1;YWHAB;FMR1;FASTKD3;HNRNPU;ELAVL1;METTL14;XPO1;PSMD4;PSMD5;TNPO1;PCID2;DIS3;METTL3;CIRBP;RC3H1;PSMA5;XRN1;PDE12;THRAP3;PSMA2;PSME4;UBA52;RBM24;SET;ANP32A;PSMD14;TBRG4;FXR1;EXOSC7;EXOSC6;PSMB7;PSMB4;EXOSC4;PCBP4;EXOSC9;EXOSC8;PSMB1;EXOSC3;RPS27A;ZC3H14;EXOSC2;PAIP1;YTHDF2;YTHDF3;PUM1;PUM2;PSMB9;CSDC2;PSMC1;APEX1;SERBP1;HNRNPD;DCP1A;VIP;EIF4G1",56
"82","RNA biosynthetic process (GO:0032774)","18/27",8.98289430126556e-06,0.000559020849016563,0,0,2.59554863409253,30.1607641874399,"PRMT5;NCOA6;TAF13;PRIM1;SMARCA5;TTF2;TTF1;NAT14;SETX;POLA1;HELB;TERT;TCEA2;TAF7;MTERF1;TAF6;TCF4;TAF1",18
"83","mitotic nuclear division (GO:0140014)","37/75",9.0621985442581e-06,0.000557161435799387,0,0,1.92070598922847,22.3020832231257,"CEP57;CTDP1;XIAP;CDCA8;SMC4;EPS8;GOLGA2;DSN1;SPAST;CHEK2;NUSAP1;MYBL2;CEP192;PIBF1;CLASP1;MAP9;CLASP2;ARHGEF10;UBE2C;KLHL22;INO80;SMC1A;KNSTRN;RAB11A;MZT1;NDC80;TPX2;KIF18A;ESPL1;KIF2A;CEP57L1;KIFC1;UBE2S;ZW10;TUBGCP4;BIRC2;RAN",37
"84","tRNA-containing ribonucleoprotein complex export from nucleus (GO:0071431)","21/34",9.60963209297439e-06,0.000583785149648194,0,0,2.40469946982102,27.780878861452,"NDC1;POM121;NUP205;NUP107;SSB;NUP188;NUP133;NUP155;NUP153;AAAS;NUP160;NUP93;XPOT;TPR;NUP35;NUP54;NUPL2;RAE1;NUP58;RAN;NUP37",21
"85","tRNA export from nucleus (GO:0006409)","21/34",9.60963209297439e-06,0.000576917089064098,0,0,2.40469946982102,27.780878861452,"NDC1;POM121;NUP205;NUP107;SSB;NUP188;NUP133;NUP155;NUP153;AAAS;NUP160;NUP93;XPOT;TPR;NUP35;NUP54;NUPL2;RAE1;NUP58;RAN;NUP37",21
"86","nucleotide-excision repair (GO:0006289)","49/109",9.87629509793437e-06,0.000586031789357664,0,0,1.75020940005322,20.1718163503242,"ISY1;CCNH;CETN2;OGG1;BRCA2;SUMO1;SUMO3;POLE;RNF111;RFC5;SLC30A9;RFC4;RFC1;PARP1;RFC2;USP45;HUS1;RAD23A;RAD23B;RBX1;UBE2V2;PPIE;UBA52;PCNA;XPA;COPS7B;COPS7A;XPC;ATXN3;POLR2B;POLD2;RBBP8;RPS27A;POLR2J;POLR2K;RPA2;FANCC;GTF2H2;GTF2H3;GTF2H5;COPS4;COPS6;CDK7;COPS5;COPS2;RPA3;ERCC6;MNAT1;CUL4B",49
"87","protein K48-linked deubiquitination (GO:0071108)","16/23",1.26165489156281e-05,0.000740025851913218,0,0,2.70839857470525,30.552093371412,"OTUD4;OTUB2;OTUD5;USP8;USP37;USP27X;USP5;MINDY1;MINDY2;USP33;USP34;OTUD7B;YOD1;ATXN3;BAP1;OTUD3",16
"88","regulation of ubiquitin protein ligase activity (GO:1904666)","22/37",1.4105026539701e-05,0.000817931254910163,0,0,2.3149487817582,25.8556150979363,"ANAPC16;ANAPC7;UBE2C;USP44;UBE2D1;ANAPC10;CDC14B;CDC20;GOLGA2;MAD2L2;FZR1;CCNB1;CDC23;UBE2S;CDC26;CDC16;CDK2;CDK1;ANAPC4;ANAPC5;FBXO5;MAD2L1",22
"89","tRNA aminoacylation for protein translation (GO:0006418)","26/47",1.45830473594484e-05,0.000836149333429946,0,0,2.15375312190657,23.9834427689918,"PARS2;EPRS;YARS2;FARS2;NARS;LARS;FDXACB1;RARS2;DARS;SARS;DARS2;HARS2;WARS2;LARS2;PPA2;KARS;PPA1;MARS;GARS;TARS2;IARS;FARSA;EEF1E1;CARS2;FARSB;AARS",26
"90","histone methylation (GO:0016571)","14/19",1.5974374289011e-05,0.000905747022186926,0,0,2.86876427978648,31.6841380229024,"PRMT6;PRMT5;PRMT7;PRMT2;PRMT1;SETD6;EHMT2;EHMT1;NSD3;NTMT1;NSD1;CARM1;PRMT9;EZH2",14
"91","nuclear pore organization (GO:0006999)","12/15",1.6551771353581e-05,0.000928172408981581,0,0,3.11465836091104,34.2893281882521,"NDC1;NUP93;NUP205;AHCTF1;NUP107;NUP133;TMEM33;TPR;NUP35;NUP153;NUP54;TMEM170A",12
"92","mitochondrial translation (GO:0032543)","48/108",1.75873419313986e-05,0.000975523976912249,0,0,1.73036575606169,18.9446172614676,"MRPS16;MRPS35;MRPS14;GFM2;MRPS36;MRPL18;MRPS33;MRPS10;MRPL14;MTIF2;MRPL15;MRPL37;MRPS30;MRPL34;MRPL13;MRPL57;MRPL54;MRPL33;MRPL20;MRPL3;MRPL42;MRPL9;CHCHD1;RARS2;PTCD3;NDUFA7;MRPS27;MTERF3;MRPS24;MTERF4;MRPS18B;GATC;MRPS21;MRPL47;QRSL1;HARS2;MRPL24;MRPS5;MRPS18C;MRPL52;LARS2;MRPS9;MRPL50;NOA1;AURKAIP1;MRRF;MTRF1L;DAP3",48
"93","transcription from RNA polymerase III promoter (GO:0006383)","18/28",1.91003499277608e-05,0.00104805468474584,0,0,2.50285046858923,27.1954823883559,"IVNS1ABP;GTF3C2;GTF3C4;CRCP;TBP;ICE1;BRF1;GTF3C6;ICE2;POLR3GL;ZC3H8;SNAPC1;SNAPC2;SNAPC3;POLR3G;POLR3H;POLR3K;POLR2K",18
"94","protein sumoylation (GO:0016925)","34/69",2.13266824714617e-05,0.00115776660267946,0,0,1.91844899041622,20.633977052812,"NUP205;POM121;NUP107;PCNA;L3MBTL2;NUP188;CDCA8;AAAS;NUP160;IFIH1;MTA1;SUMO1;SUMO3;TPR;TP53BP1;RAE1;NDC1;PIAS3;NUP133;NUP155;BCL11A;MITF;NUP153;SENP2;TOPORS;PIAS2;SENP1;PIAS1;NUP93;NUP35;NUP54;NUPL2;NUP58;NUP37",34
"95","RNA splicing, via transesterification reactions (GO:0000375)","17/26",2.36006840747328e-05,0.00126772937719328,0,0,2.54563423728306,27.1217850320151,"SF3A3;SF3B3;SCAF11;GEMIN2;DDX23;LSM1;SRRM1;PRPF4;SNRNP40;PRPF6;TRA2B;PRPF3;SRSF4;TXNL4A;SF3B1;SRSF10;BCAS2",17
"96","ribosomal large subunit biogenesis (GO:0042273)","32/64",2.54123523905653e-05,0.00135082535676098,0,0,1.9466614755694,20.5962141085521,"RPL3;PAK1IP1;NIP7;RPL12;NOP2;MAK16;PPAN;MALSU1;NOC2L;SDAD1;RPF2;RPL6;RPL7;RPF1;MRPL20;NWD2;PES1;RPL14;RRS1;HEATR3;BRIX1;RRP15;WDR37;NOP16;WDR12;BOP1;NSA2;LAS1L;MRTO4;RPL24;RPL26;RSL24D1",32
"97","regulation of RNA splicing (GO:0043484)","29/56",2.58578334074125e-05,0.00136033529771161,0,0,2.01618509969688,21.2967554800359,"CELF1;YTHDC1;AKAP17A;PIK3R1;HNRNPLL;PQBP1;U2AF2;FASTK;TRA2B;CWC22;SRSF10;RPS13;RBM38;SRPK2;MBNL1;TIA1;MBNL2;RRP1B;PTBP2;CLK3;PTBP3;CLK2;SRPK1;CLK1;SETX;HNRNPF;SRSF3;AGGF1;ZPR1",29
"98","protein polyubiquitination (GO:0000209)","104/284",2.71889387597375e-05,0.00141576688256062,0,0,1.42572389760012,14.9882080896696,"UBE3C;UBE2D2;UBE2D3;UBE2D1;FBXO22;UBE2L3;RNF115;RNF114;CDC23;PSMD4;PSMD5;CDC26;FBXO4;TRIM27;SKP2;FBXO7;RNF111;HERC6;FBXO9;NHLRC3;FBXW8;ANAPC7;FBXW7;UBE2E3;UBE4A;UBE4B;FBXO10;FBXO11;RC3H2;FBXW2;RNF41;RBX1;RNF126;PSME4;UBE2V2;ANAPC4;ANAPC5;UBA52;PSMD14;CUL3;CUL1;NEDD4L;UBR2;UBE2J2;FBXO44;ANAPC10;RNF216;RNF217;UBR5;LONRF1;LONRF2;BARD1;UBE2H;UBE2C;SMURF1;SIAH2;SIAH1;FBXO30;KLHL20;UBOX5;UBE2S;UBE2T;CDC16;TPP2;FBXL5;UBE2K;LRSAM1;ARIH2;ARIH1;SHPRH;TOPORS;RNF144A;PSMA5;PSMA2;DTL;BIRC2;RNF34;RNF4;TANK;PSMB7;FBXL21;ZNRF1;PSMB4;FZR1;ZNRF2;RNF139;PSMB1;RPS27A;SASH1;RNF20;ANKIB1;RNF24;AMFR;MIB2;HUWE1;WWP1;WWP2;PSMB9;RNF146;ITCH;PSMC1;NEDD4;TRIP12;TAF1",104
"99","mRNA metabolic process (GO:0016071)","44/98",2.8524988301026e-05,0.00147033348788016,0,0,1.74802254949089,18.2925841407976,"SLBP;SF3B3;CELF1;GEMIN2;CSTF3;AKAP8L;USP39;TBRG4;LSM10;CLP1;U2AF2;PCBP2;HSF1;DHX15;PRKACA;SRSF11;SF3A3;CPSF6;PNPT1;SSB;NCBP1;SCAF11;DIS3;CPSF3;NONO;METTL3;CNOT10;LSM5;LSM3;WDR33;NUDT21;PRPF18;AGO3;PRPF3;HNRNPA2B1;AGGF1;SRSF4;SNRPE;SNRPF;SRSF5;AURKAIP1;SRSF7;PRMT9;SRSF9",44
"100","nucleic acid metabolic process (GO:0090304)","38/81",2.96682813855036e-05,0.00151397239910225,0,0,1.826497186954,19.0420223114779,"SMARCAL1;ANKLE1;DDX24;DDX1;HNRNPU;METTL14;ATXN2;ERI1;POLR2B;PCBP2;ENPP1;TOPBP1;HNRNPA1;POLR2J;POLR2K;HNRNPA3;RBFOX2;NCBP1;WTAP;METTL3;LSM1;DDX54;SETMAR;DNTT;GTF2F2;HNRNPM;LSM8;HNRNPK;PDE12;HNRNPF;XRN2;HNRNPA2B1;HNRNPD;HNRNPH2;RAD9B;RBMX;RAN;DNASE1L1",38
"101","ATP-dependent chromatin remodeling (GO:0043044)","19/31",3.00110701420123e-05,0.00151630189044246,0,0,2.38623019585926,24.850068202609,"MBD3;HDAC2;SMARCC1;PBRM1;SMARCC2;CHD8;ACTL6A;MBD2;SMARCA5;CHD4;GATAD2B;SMARCA4;ZNHIT1;RBBP4;NASP;VPS72;ANP32E;SMARCAD1;ANP32B",19
"102","tRNA transport (GO:0051031)","21/36",3.3131122173452e-05,0.00165753055344241,0,0,2.27110505483097,23.4265337398063,"NDC1;POM121;NUP205;NUP107;SSB;NUP188;NUP133;NUP155;NUP153;AAAS;NUP160;NUP93;XPOT;TPR;NUP35;NUP54;NUPL2;RAE1;NUP58;RAN;NUP37",21
"103","error-prone translesion synthesis (GO:0042276)","14/20",4.06020108995485e-05,0.00201157341379025,0,0,2.72532606579716,27.5576604015041,"RFC5;PCNA;RFC4;RFC1;RFC2;NEXMIF;REV1;RPA2;MAD2L2;RPA3;POLE2;REV3L;RPS27A;UBA52",14
"104","regulation of telomere maintenance via telomerase (GO:0032210)","27/52",4.58695169652793e-05,0.00225069370263288,0,0,2.02153307078361,20.19452868765,"PIF1;SRC;PINX1;NAT10;HNRNPU;HMBOX1;EXOSC10;FBXO4;MAP2K7;HNRNPA1;MAP3K4;CCT5;CCT4;CCT3;CCT2;NEK7;TERF2;CCT6A;GNL3L;TEN1;XRN1;TCP1;POT1;MAPKAPK5;NAF1;ATM;ATR",27
"105","kinetochore organization (GO:0051383)","10/12",4.821969456773e-05,0.00234347715599168,0,0,3.24443579261566,32.2488580214526,"CENPT;CDT1;CENPE;CENPF;CENPW;CENPH;NUF2;CENPA;NDC80;CENPC",10
"106","rRNA 3'-end processing (GO:0031125)","10/12",4.821969456773e-05,0.00232136888093515,0,0,3.24443579261566,32.2488580214526,"EXOSC7;EXOSC6;EXOSC4;ERI1;EXOSC9;EXOSC8;RPSA;EXOSC3;RPS21;EXOSC2",10
"107","nuclear envelope disassembly (GO:0051081)","25/47",5.15864120467692e-05,0.0024602379502305,0,0,2.0709164633717,20.44460972043,"POM121;NUP205;NUP107;NUP188;DCTN1;AKAP8L;AAAS;NUP160;CCNB1;TPR;EMD;RAE1;NDC1;NUP133;NUP155;VRK1;NUP153;NUP93;CNEP1R1;CDK1;NUP35;NUP54;NUPL2;NUP58;NUP37",25
"108","intracellular transport of virus (GO:0075733)","28/55",5.30291778412213e-05,0.00250562865299771,0,0,1.98205532057975,19.5126771250647,"NUP205;POM121;NUP107;NUP188;AAAS;NUP160;XPO1;MVB12B;TPR;KPNA5;RPS27A;KPNA3;RAE1;NDC1;NUP133;NUP155;VPS37A;NUP153;VPS37B;NUP93;NMT2;NUP35;NUP54;NUPL2;UBA52;NUP58;RAN;NUP37",28
"109","transport of virus (GO:0046794)","28/55",5.30291778412213e-05,0.00248264123416287,0,0,1.98205532057975,19.5126771250647,"NUP205;POM121;NUP107;NUP188;AAAS;NUP160;XPO1;MVB12B;TPR;KPNA5;RPS27A;KPNA3;RAE1;NDC1;NUP133;NUP155;VPS37A;NUP153;VPS37B;NUP93;NMT2;NUP35;NUP54;NUPL2;UBA52;NUP58;RAN;NUP37",28
"110","double-strand break repair (GO:0006302)","58/142",5.3482213552874e-05,0.00248108850691196,0,0,1.59023050116937,15.641763898616,"MDC1;SWSAP1;DCLRE1C;NUCKS1;BRCA2;ZFYVE26;NIPBL;SUMO1;CHEK2;UIMC1;SMARCAD1;POLK;AP5S1;PARP1;ACTR5;NSMCE2;H2AFX;RECQL;HUS1;SETMAR;MORF4L1;MMS22L;MSH2;UBE2V2;PAXIP1;PSMD14;PRKDC;ABRAXAS1;CDCA5;DDX1;RAD54B;RAD51AP1;MTA1;RAD21;SWI5;NSD2;RBBP8;TP53BP1;BARD1;XRCC6;EYA3;RPA2;INO80;APTX;SETX;MAD2L2;RAD52;POLA1;RAD51;TDP2;TDP1;RPA3;RFWD3;APLF;NABP2;ATM;AUNIP;TRIP13",58
"111","regulation of mRNA splicing, via spliceosome (GO:0048024)","30/61",6.70690454505363e-05,0.0030833634138206,0,0,1.91474899236334,18.4003317751155,"RBM8A;YTHDC1;FMR1;HNRNPU;U2AF2;TRA2B;MAGOH;CWC22;RBM7;HNRNPA1;SRSF10;RBM5;DDX17;SRPK2;ZC3H10;MBNL1;TIA1;RBFOX2;MBNL2;NCBP1;WTAP;SRPK1;SMU1;THRAP3;SRSF3;SRSF4;SRSF6;SRSF7;RBMX;SRSF9",30
"112","mitotic spindle organization (GO:0007052)","35/75",6.9082733186196e-05,0.00314758203079605,0,0,1.81688404386477,17.4061229458522,"GPSM2;INTS13;XIAP;TTK;AURKC;AURKA;GOLGA2;CCNB1;SPAST;CHEK2;NUF2;STMN1;MYBL2;CEP192;PCNT;PIBF1;CLASP1;MAP9;CLASP2;ARHGEF10;STIL;KIF23;MZT1;RAB11A;NDC80;CENPE;TPX2;KIF2A;KIFC1;KIF4A;TBCE;TUBGCP4;BIRC2;RAN;SPC25",35
"113","nuclear-transcribed mRNA catabolic process, nonsense-mediated decay (GO:0000184)","48/113",7.22868459291809e-05,0.00326442278563372,0,0,1.65380089959878,15.7687739088783,"RPL4;RPL3;RPL32;RBM8A;RPL31;RPL34;RPL12;PPP2R2A;SMG7;RPL9;RPL6;RPL7;RPS15;RPS4X;RPL18A;PPP2R1A;MAGOH;RPL14;RPL35;RPL15;RPL18;RPS27A;RPL39;RPS10;RPS13;UPF2;RPL41;NCBP1;RPS8;RPL22;PYM1;UPF3B;RPSA;MAGOHB;PNRC1;PNRC2;RPS25;RPS27;RPL24;RPS20;SKIV2L;ETF1;RPL26;DCP1A;RPL28;UBA52;RPS21;EIF4G1",48
"114","peptidyl-lysine modification (GO:0018205)","49/116",7.24839603569972e-05,0.00324461096229611,0,0,1.64459331556725,15.6765023727362,"POP5;NUP107;USPL1;NUP188;PARK7;GCSH;IFIH1;SENP6;SUMO1;SENP8;SUMO3;NDC1;PIAS3;ESCO1;NUP133;SIRT5;MITF;P3H3;SENP2;PIAS2;TOPORS;PIAS1;SENP1;NUP93;NUP54;NUP58;LIPT1;NUP205;POM121;L3MBTL2;PCNA;CDCA8;AAAS;METTL21A;NUP160;MTA1;BLOC1S1;TPR;TP53BP1;RAE1;NUP155;BCL11A;NUP153;CTH;MDM2;NUP35;NUPL2;EEF1AKMT1;NUP37",49
"115","nucleotide-excision repair, DNA damage recognition (GO:0000715)","15/23",7.57199269218268e-05,0.00335998945288767,0,0,2.53912366378617,24.092396670534,"PARP1;CETN2;XPA;COPS7B;COPS7A;XPC;RAD23B;RBX1;COPS4;COPS6;COPS5;COPS2;RPS27A;UBA52;CUL4B",15
"116","regulation of cell cycle (GO:0051726)","81/216",7.97771880259227e-05,0.00350950853876106,0,0,1.45999610667705,13.7769217812619,"RB1;LIN54;INTS13;CITED2;GMNN;HNRNPU;ADARB1;PTPRK;CKS1B;RPS6KA2;PIM1;PIM3;MYBL2;FBXO5;PIM2;MAP3K4;LIN52;MAP2K1;MAP2K2;STRADB;METTL3;DAPK3;RAD23A;PROX1;OXSR1;CDC25C;MASTL;CDC25A;THAP1;RBL2;RBL1;MADD;CKS2;TNIK;PRR11;DTL;BIRC2;ANKRD17;BEX2;CTBP1;SRC;TXLNG;HTRA2;LIN9;STK4;LRP6;SDCBP;CCNB1;RBBP4;CAMK2N1;FIGNL1;PES1;RPRD1B;MAP4K5;MAP2K7;MAP2K5;MAP4K4;SRPK2;MAP3K2;MBD4;ZBTB17;CDK19;NEK7;PUM1;BMP7;CDK11B;GADD45G;HIPK2;SBK2;CYLD;BOP1;NR4A1;CENPF;STK25;CDK4;CDK1;CDK10;TAF6;NF2;TARDBP;BAP1",81
"117","regulation of gene silencing by RNA (GO:0060966)","28/56",8.02006442891655e-05,0.0034979819470736,0,0,1.9466614755694,18.358923514879,"NUP205;POM121;NUP107;NUP188;FMR1;AAAS;NUP160;HIST1H3A;POLR2B;TPR;RAE1;POLR2J;POLR2K;NDC1;NUP133;NUP155;NUP153;PUM1;PUM2;NUP93;AGO1;NUP35;NUP54;NUPL2;NUP58;RAN;EIF4G1;NUP37",28
"118","regulation of posttranscriptional gene silencing (GO:0060147)","28/56",8.02006442891655e-05,0.0034683380322679,0,0,1.9466614755694,18.358923514879,"NUP205;POM121;NUP107;NUP188;FMR1;AAAS;NUP160;HIST1H3A;POLR2B;TPR;RAE1;POLR2J;POLR2K;NDC1;NUP133;NUP155;NUP153;PUM1;PUM2;NUP93;AGO1;NUP35;NUP54;NUPL2;NUP58;RAN;EIF4G1;NUP37",28
"119","mRNA polyadenylation (GO:0006378)","17/28",9.38116417997963e-05,0.00402286393365009,0,0,2.36380322033427,21.9224348762531,"CPSF4;AHCYL1;CPSF6;PNPT1;CSTF3;ZC3H3;CPSF3;SSU72;CDC73;WDR33;NUDT21;FIP1L1;CLP1;PAPOLG;PAPOLA;MTPAP;GRSF1",17
"120","sister chromatid segregation (GO:0000819)","19/33",0.000100423945545094,0.00427052828430513,0,0,2.241610183989,20.6365096567706,"RB1;CEP57;CDCA8;KLHL22;INO80;SMC1A;SMC4;KNSTRN;NDC80;LATS1;DSN1;KIF18A;ESPL1;CEP57L1;KIFC1;ZW10;NUSAP1;CHAMP1;RAN",19
"121","regulation of cellular response to heat (GO:1900034)","36/79",0.000101246620254223,0.0042699297781595,0,0,1.77417248406325,16.3187519868829,"CAMK2B;NUP205;POM121;NUP107;HSP90AB1;NUP188;AAAS;CCAR2;NUP160;DNAJB1;BAG4;HSPH1;BAG2;CHORDC1;HSF1;TPR;BAG1;RAE1;NDC1;HSP90AA1;NUP133;NUP155;PTGES3;RPA2;NUP153;NUP93;DNAJC2;RPA3;NUP35;NUP54;ATM;FKBP4;NUPL2;NUP58;ATR;NUP37",36
"122","viral process (GO:0016032)","82/221",0.000109923075597439,0.0045978479899486,0,0,1.44458136648589,13.1684133381291,"RPL4;LRSAM1;RPL3;NUP107;RPL32;NUP188;RPL31;RPL34;UBP1;NUCKS1;RPL9;BICD1;RPL6;RPL7;RPS15;RPS4X;XPO1;RPL18A;AP1S2;RPL35;DENR;RAC1;B2M;RPL39;RPS10;RPS13;AP2M1;NDC1;NUP133;RPS8;IST1;RPL22;AP1B1;RPSA;VPS37A;VPS37B;HCFC2;NUP93;TBC1D20;IRF7;RPL24;CHMP3;NUP54;RPL26;RPL28;UBA52;PPID;NUP58;NUP205;POM121;CTBP1;RPL12;NEDD4L;AAAS;NUP160;PCBP2;TPR;MVB12B;RPL14;FYN;RPL15;RPL18;RPS27A;RAE1;MCTS1;RPL41;SSB;NUP155;VTA1;NUP153;DEK;HIPK2;RPS25;RPS27;NFIA;NEDD4;NUP35;RPS20;NUPL2;RPS21;RAN;NUP37",82
"123","maturation of 5.8S rRNA from tricistronic rRNA transcript (SSU-rRNA, 5.8S rRNA, LSU-rRNA) (GO:0000466)","13/19",0.000112010302116924,0.00464706155855824,0,0,2.66385254551602,24.2328527197449,"NOP14;RPSA;WDR12;EXOSC7;ERI1;EXOSC9;PES1;EXOSC8;RRS1;UTP20;EXOSC3;RPS21;EXOSC2",13
"124","regulation of gene silencing by miRNA (GO:0060964)","32/68",0.000114291500265595,0.00470346391818815,0,0,1.83215197700649,16.6300007618257,"NUP205;POM121;NUP107;NUP188;DHX9;FMR1;LIMD1;AAAS;ELAVL1;NUP160;FXR1;HIST1H3A;POLR2B;TPR;RAE1;POLR2J;POLR2K;NDC1;NUP133;NUP155;NUP153;PUM1;PUM2;NUP93;AGO1;NUP35;NUP54;NUPL2;NUP58;RAN;EIF4G1;NUP37",32
"125","protein ubiquitination involved in ubiquitin-dependent protein catabolic process (GO:0042787)","33/71",0.00012143765774026,0.00495757093958837,0,0,1.80957263926169,16.3153051214866,"UBE3C;CUL5;CUL3;CUL2;CUL1;NEDD4L;RMND5A;BTBD3;ENC1;UBR5;BTBD2;RNF217;ARIH2;ARIH1;ELOC;FBXO7;AREL1;ANKIB1;SMURF1;HUWE1;WWP1;WWP2;KLHL24;BTBD9;RBX1;RNF144A;KBTBD4;ITCH;NEDD4;SPOPL;TRIP12;RNF185;CUL4B",33
"126","positive regulation of mitotic cell cycle phase transition (GO:1901992)","22/41",0.000121634304523023,0.00492618933318245,0,0,2.08910012012326,18.8321753144687,"RB1;KMT2E;ANKRD17;UBE2C;CDCA5;CUL3;RCC2;RDX;NSMCE2;CDC7;PHB2;RAB11A;LSM10;CCNB1;ESPL1;CDK4;CDK1;ANAPC5;PLCB1;DTL;DLGAP5;EIF4G1",22
"127","nucleic acid phosphodiester bond hydrolysis (GO:0090305)","34/74",0.000127937751095629,0.00514067987276374,0,0,1.78882405863134,16.0349593507968,"ANKLE1;PCNA;OGG1;DDX1;XPA;EDC4;ERI1;POLD2;ENPP1;RPS27A;RFC5;RFC4;RFC1;PARP1;RFC2;SETMAR;RPA2;DICER1;GTF2H2;GTF2H3;PNRC1;GTF2H5;RBX1;PNRC2;ISG20;PDE12;RPA3;XRN2;DCP1A;RAD9B;UBA52;DNASE1L1;CUL4B;DCP1B",34
"128","nuclear-transcribed mRNA catabolic process, exonucleolytic, 3'-5' (GO:0034427)","8/9",0.000131066766234422,0.00522526334448639,0,0,3.46073151212337,30.9382603722434,"EXOSC7;EXOSC6;EXOSC4;EXOSC9;EXOSC8;SKIV2L;EXOSC3;EXOSC2",8
"129","spindle assembly checkpoint (GO:0071173)","12/17",0.000131699613008264,0.00520979166807111,0,0,2.74822796550974,24.5553808361113,"MAD2L2;CENPF;APC;ZW10;TPR;KLHL22;BUB1B;TTK;ATM;TRIP13;BUB1;MAD1L1",12
"130","mitotic spindle assembly checkpoint (GO:0007094)","12/17",0.000131699613008264,0.00516971634754748,0,0,2.74822796550974,24.5553808361113,"MAD2L2;CENPF;APC;ZW10;TPR;KLHL22;BUB1B;TTK;ATM;TRIP13;BUB1;MAD1L1",12
"131","mitotic spindle checkpoint (GO:0071174)","12/17",0.000131699613008264,0.00513025286397842,0,0,2.74822796550974,24.5553808361113,"MAD2L2;CENPF;APC;ZW10;TPR;KLHL22;BUB1B;TTK;ATM;TRIP13;BUB1;MAD1L1",12
"132","mitotic sister chromatid cohesion (GO:0007064)","11/15",0.000149398116085517,0.00577559535139694,0,0,2.85510349750178,25.1503094795558,"RB1;SGO1;NIPBL;MAU2;CHTF8;DSCC1;CDCA5;PDS5B;PDS5A;SMC1A;WAPL",11
"133","regulation of acyl-CoA biosynthetic process (GO:0050812)","10/13",0.000160481568321891,0.00615742438456098,0,0,2.99486380856831,26.1671177763276,"PDP1;PDHX;PDHA1;PDP2;PDPR;PDK3;PDHB;DLAT;DLD;PDK1",10
"134","cellular response to ionizing radiation (GO:0071479)","24/47",0.000168333308342928,0.00641048412294002,0,0,1.98807980483683,17.2755478261223,"XRCC6;KDM1A;HUS1;NUCKS1;INO80;TANK;RAD51AP1;NET1;NIPBL;RAD51;EEF1D;FIGNL1;SWI5;HSF1;MAP3K20;MDM2;ATM;INTS7;RPL26;ECT2;RAD9B;CLOCK;RHNO1;ATR",24
"135","regulation of mRNA processing (GO:0050684)","17/29",0.000172519939171414,0.00652125370067943,0,0,2.28229276446067,19.7760616432704,"RBM27;SRPK2;CPSF4;TIA1;AHCYL1;PTCD2;DHX9;YTHDC1;CDK11B;IWS1;SRPK1;PABPN1;SLTM;CWC22;PAPOLA;SRSF3;SRSF10",17
"136","RNA polyadenylation (GO:0043631)","17/29",0.000172519939171414,0.00647330330582149,0,0,2.28229276446067,19.7760616432704,"CPSF4;AHCYL1;CPSF6;PNPT1;CSTF3;ZC3H3;CPSF3;SSU72;CDC73;WDR33;NUDT21;FIP1L1;CLP1;PAPOLG;PAPOLA;MTPAP;GRSF1",17
"137","DNA duplex unwinding (GO:0032508)","22/42",0.000193748977843076,0.00721679586812569,0,0,2.0393596410727,17.4343778227661,"PIF1;RTEL1;PARP1;DHX9;CETN2;DDX1;XPA;RECQL;HMGA1;XPC;GTF2H2;GTF2H3;RAD23B;GTF2H5;RBX1;SUPV3L1;RAD51;POT1;ASCC3;RPS27A;UBA52;CUL4B",22
"138","histone lysine methylation (GO:0034968)","14/22",0.000195055174821991,0.00721280113852623,0,0,2.47756915072469,21.1639607982457,"PAXIP1;KMT2A;SETD6;EHMT2;DOT1L;SETDB2;DPY30;SETMAR;ASH2L;RBBP5;WDR82;WDR5;EZH2;KDM6A",14
"139","microtubule cytoskeleton organization involved in mitosis (GO:1902850)","23/45",0.000225023084239309,0.00826109927246902,0,0,1.98992061947094,16.7139553116845,"GPSM2;INTS13;SETD2;STIL;TTK;AURKC;NDC80;AURKA;CENPE;CCNB1;KIF2A;ESPL1;KIF4A;NUF2;STMN1;TBCE;NUSAP1;TACC3;PCNT;CLASP1;RAN;CLASP2;SPC25",23
"140","mitotic nuclear envelope disassembly (GO:0007077)","23/45",0.000225023084239309,0.00820209142052281,0,0,1.98992061947094,16.7139553116845,"NDC1;POM121;NUP205;NUP107;NUP188;NUP133;NUP155;VRK1;NUP153;AAAS;NUP160;NUP93;CCNB1;CNEP1R1;TPR;CDK1;NUP35;NUP54;NUPL2;EMD;RAE1;NUP58;NUP37",23
"141","regulation of protein export from nucleus (GO:0046825)","18/32",0.000229023605744369,0.00828870539087598,0,0,2.18999416001557,18.3558422476215,"BARD1;SP100;SETD2;ZC3H3;AKAP8L;PARK7;PTPN14;IWS1;UHMK1;XPO1;XPO4;IFI27;TPR;XPO5;ANP32B;EMD;GTSE1;RAPGEF3",18
"142","positive regulation of DNA biosynthetic process (GO:2000573)","27/56",0.000232526194203354,0.0083562054156318,0,0,1.87713785144192,15.705088243079,"HSP90AB1;NVL;DSCC1;HMBOX1;MYC;FBXO4;HNRNPA1;MAP2K7;MAP3K4;CCT5;CCT4;RFC5;CCT3;CCT2;HSP90AA1;RFC4;RFC2;PTGES3;NEK7;CCT6A;RGCC;TCP1;POT1;MAPKAPK5;NAF1;ATM;ATR",27
"143","histone H4 acetylation (GO:0043967)","24/48",0.000255164017638274,0.00910560826579099,0,0,1.9466614755694,16.1059061965152,"MEAF6;KMT2A;PHF20;TRRAP;LEF1;ACTL6A;JADE1;MSL2;MSL3;YEATS4;ELP3;BRCA2;MORF4L1;ING3;MORF4L2;RUVBL1;HAT1;TADA3;WDR5;EP400;EPC1;DMAP1;BRD8;OGT",24
"144","cilium assembly (GO:0060271)","101/289",0.00027136608833706,0.00961653575544455,0,0,1.36064227704159,11.1736512120441,"GALNT11;FNBP1L;CDC14A;CDC14B;PPP2R1A;DZIP1L;CEP250;KIFAP3;PRKACA;CDK5RAP2;CEP135;DNAAF3;IFT80;CSNK1E;RPGRIP1L;IFT81;AKAP9;FAM92A;PLA2G3;TTBK2;TTC21B;CEP70;CEP72;CEP192;KIF3C;CEP76;PIBF1;PLK4;ODF2;RAB3IP;IFT122;BBIP1;ICK;AHI1;CDK1;CEP83;FGFR1OP;DYNLRB1;DZIP1;CEP57;CETN2;CEP164;CBY1;SNX10;IFT52;TUBA1A;CNTRL;WDR5;TNPO1;CC2D2A;NINL;CEP290;YWHAG;OFD1;ACTR3;CCDC39;ABCC4;MKKS;HSP90AA1;KIF24;HAUS3;HAUS6;WDR34;DYNLL1;WDR35;CKAP5;SEPT2;SEPT3;RILPL2;TRIM59;CEP63;MAPRE1;IFT46;SDCCAG8;DYNC1I2;DCTN1;DCTN3;ASAP1;IFT74;TMEM67;RAB23;TOGARAM1;POC1B;E2F4;PCNT;CFAP20;CLASP1;MBD1;WDR19;TUBB4B;RAB11A;ATAT1;NEDD1;TTLL3;TTC30B;CENPJ;ALMS1;HYLS1;TRIP11;CEP162;CCDC65",101
"145","NADH dehydrogenase complex assembly (GO:0010257)","30/65",0.000283321698490725,0.00997096984412532,0,0,1.79691828514098,14.6788953064043,"MT-ND6;NDUFB6;DMAC1;NDUFB11;NDUFB5;NDUFB3;ECSIT;TAZ;MT-ND3;FOXRED1;MT-ND1;NDUFV2;NDUFA7;NDUFA6;NDUFA5;NDUFA3;ACAD9;NDUFA2;TIMM21;BCS1L;NDUFAF6;NDUFAF7;NDUFS5;NDUFAF4;NDUFS4;NDUFAF5;NDUFS2;NDUFAF3;NDUFS1;NDUFAF1",30
"146","mitochondrial respiratory chain complex I biogenesis (GO:0097031)","30/65",0.000283321698490725,0.00990267553012446,0,0,1.79691828514098,14.6788953064043,"MT-ND6;NDUFB6;DMAC1;NDUFB11;NDUFB5;NDUFB3;ECSIT;TAZ;MT-ND3;FOXRED1;MT-ND1;NDUFV2;NDUFA7;NDUFA6;NDUFA5;NDUFA3;ACAD9;NDUFA2;TIMM21;BCS1L;NDUFAF6;NDUFAF7;NDUFS5;NDUFAF4;NDUFS4;NDUFAF5;NDUFS2;NDUFAF3;NDUFS1;NDUFAF1",30
"147","mitochondrial respiratory chain complex I assembly (GO:0032981)","30/65",0.000283321698490725,0.00983531039046375,0,0,1.79691828514098,14.6788953064043,"MT-ND6;NDUFB6;DMAC1;NDUFB11;NDUFB5;NDUFB3;ECSIT;TAZ;MT-ND3;FOXRED1;MT-ND1;NDUFV2;NDUFA7;NDUFA6;NDUFA5;NDUFA3;ACAD9;NDUFA2;TIMM21;BCS1L;NDUFAF6;NDUFAF7;NDUFS5;NDUFAF4;NDUFS4;NDUFAF5;NDUFS2;NDUFAF3;NDUFS1;NDUFAF1",30
"148","nuclear polyadenylation-dependent ncRNA catabolic process (GO:0071046)","6/6",0.000286497475987723,0.00987835554030641,0,0,3.8933229511388,31.7608753422786,"EXOSC7;EXOSC10;EXOSC9;EXOSC8;EXOSC3;EXOSC2",6
"149","nuclear polyadenylation-dependent rRNA catabolic process (GO:0071035)","6/6",0.000286497475987723,0.00981205785211643,0,0,3.8933229511388,31.7608753422786,"EXOSC7;EXOSC10;EXOSC9;EXOSC8;EXOSC3;EXOSC2",6
"150","tRNA catabolic process (GO:0016078)","6/6",0.000286497475987723,0.00974664413310232,0,0,3.8933229511388,31.7608753422786,"EXOSC7;POP1;EXOSC9;EXOSC8;EXOSC3;EXOSC2",6
"151","positive regulation of telomere maintenance via telomere lengthening (GO:1904358)","19/35",0.000287579617022745,0.00971866745474879,0,0,2.11351817347535,17.2336500279214,"CCT3;CCT2;RTEL1;NEK7;CCT6A;HMBOX1;TCP1;HNRNPA2B1;FBXO4;POT1;MAPKAPK5;NAF1;ATM;MAP2K7;HNRNPA1;MAP3K4;CCT5;CCT4;ATR",19
"152","establishment of mitotic spindle localization (GO:0040001)","12/18",0.000302497226901106,0.0101555483478707,0,0,2.59554863409253,21.0328685946518,"GPSM2;DYNLT1;ESPL1;SAPCD2;DCTN1;ZW10;NUSAP1;HTT;CENPA;NDC80;CLASP1;CDK5RAP2",12
"153","nucleotide-excision repair, preincision complex assembly (GO:0006294)","17/30",0.00030308678249125,0.0101088356277964,0,0,2.20621633897865,17.8736426583879,"PARP1;CCNH;CETN2;XPA;RPA2;XPC;GTF2H2;GTF2H3;RAD23B;GTF2H5;RBX1;CDK7;RPA3;RPS27A;MNAT1;UBA52;CUL4B",17
"154","maturation of LSU-rRNA (GO:0000470)","14/23",0.000380688757428704,0.012614641098433,0,0,2.36984875286709,18.6590715217923,"WDR37;MAK16;NOP2;RPF2;WDR12;RPF1;RPL7;BOP1;NSA2;LAS1L;RPL7L1;PES1;RPL35;RRP15",14
"155","regulation of acetyl-CoA biosynthetic process from pyruvate (GO:0010510)","10/14",0.000431744271830517,0.0142141356074266,0,0,2.78094496509914,21.5458636456935,"PDP1;PDHX;PDHA1;PDP2;PDPR;PDK3;PDHB;DLAT;DLD;PDK1",10
"156","regulation of protein ubiquitination (GO:0031396)","42/102",0.000441811964799087,0.0144523490792932,0,0,1.60313297988068,12.3836029950799,"PAXIP1;HSP90AB1;CUL3;PINX1;DERL1;UBE2D1;XIAP;PARK7;BCL10;PRICKLE1;HSPBP1;UBE2L3;DNAJB2;UFL1;RNF139;U2AF2;SVBP;CHORDC1;FBXO4;UBQLN1;SASH1;PRKCG;ZYG11B;DAXX;HSP90AA1;NDFIP1;ZER1;ANGPT1;FBXW7;WFS1;RIPK2;FEM1B;CAV1;ISG15;SENP2;GTPBP4;LATS1;FKBP1A;DNAJA1;GNL3L;SPOPL;OGT",42
"157","cytoplasmic translation (GO:0002181)","26/55",0.000445685148429266,0.0144861867034047,0,0,1.84047994053834,14.2009551250029,"RPL4;RPL32;RPL31;HSPA14;RPL9;RPL6;RPL7;RPL18A;EIF4H;RPL15;RPL18;RPL39;EIF4B;ZC3H15;RWDD1;RPL41;RPL22;FTSJ1;EIF3M;RPL7L1;MRTO4;RPL24;RPL22L1;RPS20;RPL26;RPS21",26
"158","mitochondrial translational termination (GO:0070126)","38/90",0.000451172906325593,0.0145717426644272,0,0,1.6438474682586,12.6636418354675,"MRPS16;MRPS35;MRPS14;GFM2;MRPS36;MRPS33;MRPL18;MRPS10;MRPL14;MRPL37;MRPL15;MRPS30;MRPL34;MRPL13;MRPL57;MRPL54;MRPL33;MRPL42;MRPL3;MRPL20;MRPL9;CHCHD1;PTCD3;MRPS27;MRPS24;MRPS18B;MRPS21;MRPL47;MRPL24;MRPS5;MRPS18C;MRPL52;MRPS9;MRPL50;AURKAIP1;MRRF;MTRF1L;DAP3",38
"159","U4 snRNA 3'-end processing (GO:0034475)","7/8",0.000456128071756042,0.014639129246359,0,0,3.40665758224645,26.2065205866192,"EXOSC7;EXOSC6;EXOSC4;EXOSC9;EXOSC8;EXOSC3;EXOSC2",7
"160","mitotic metaphase plate congression (GO:0007080)","22/44",0.000456935181762886,0.01457337645335,0,0,1.9466614755694,14.971713084186,"CDT1;CDCA5;CUL3;PINX1;KIF14;CDCA8;RAB11A;NDC80;CENPC;CENPE;CCNB1;KIF18A;CDC23;PSRC1;KIFC1;ZW10;NUF2;RRS1;CHAMP1;KIF2C;PIBF1;MAD1L1",22
"161","histone arginine methylation (GO:0034969)","9/12",0.000485798667453633,0.0153977055901608,0,0,2.9199922133541,22.2787121405306,"PRMT6;COPRS;PRMT5;PRMT7;PRMT2;PRDM4;PRMT1;CARM1;PRMT9",9
"162","nuclear pore complex assembly (GO:0051292)","8/10",0.000506437476253718,0.0159527805019921,0,0,3.11465836091104,23.6343692727497,"NUP93;NDC1;NUP205;AHCTF1;NUP107;TMEM33;NUP153;TMEM170A",8
"163","nuclear mRNA surveillance (GO:0071028)","8/10",0.000506437476253718,0.0158549106829615,0,0,3.11465836091104,23.6343692727497,"EXOSC7;EXOSC6;PCID2;EXOSC10;EXOSC4;XRN1;EXOSC9;EXOSC8",8
"164","regulation of DNA damage checkpoint (GO:2000001)","8/10",0.000506437476253718,0.0157582343983093,0,0,3.11465836091104,23.6343692727497,"ETAA1;FEM1B;RFWD3;THOC1;RPA2;THOC5;WDR76;CCAR2",8
"165","peptide biosynthetic process (GO:0043043)","65/175",0.000517910496771443,0.0160175591819677,0,0,1.44609138185155,10.9407053052937,"RPL4;HBS1L;RPL3;MRPS16;RPL32;RPL31;MRPS14;RPL34;MRPL37;MRPL34;YARS2;RPL9;RPL6;RPL7;RPS15;RPS4X;MRPL3;MRPL42;RPL18A;RPL35;MRPL9;RPL39;RPS10;RPS13;MRPS24;RPS8;PABPC4;RPL22;MRPS18B;SARS;MRPS21;RPSA;MRPS5;MRPS18C;EEF1A1;MRPL52;MRPS9;RPL24;RPL26;RPL28;MRRF;MRPS36;MRPL18;RPL12;MRPS33;MRPL13;RPL14;EIF4EBP2;RPL15;RPL18;RPS27A;ABCF1;DARS;GGT7;RPL41;HARS2;MRPL24;RPS25;COPS5;RPS27;RPS20;RPS21;RSL24D1;EIF4G1;FARSB",65
"166","intracellular steroid hormone receptor signaling pathway (GO:0030518)","30/67",0.000538297799832104,0.0165477932080917,0,0,1.74327893334573,13.1218324528655,"RB1;KDM3A;SRC;RNF4;MED14;MED30;UBR5;NCOA1;DDX17;MBD4;DAXX;RBFOX2;NCOA6;NCOA3;NCOA4;DDX54;TRIP4;ARID1A;ESR1;PIAS2;PIAS1;CDK7;NR6A1;THRAP3;NEDD4;TADA3;PADI2;CTNNB1;PLPP1;RAN",30
"167","DNA damage checkpoint (GO:0000077)","20/39",0.000539924984758934,0.0164984263306877,0,0,1.99657587237887,15.0223972790043,"DOT1L;H2AFX;HUS1;STK4;USP28;CDC14B;HINFP;CHEK2;TIPRL;RBBP8;MAP3K20;WAC;RAD17;INTS7;TP53BP1;CEP63;ATRIP;CLOCK;RHNO1;ATR",20
"168","RNA methylation (GO:0001510)","24/50",0.000552947660017478,0.0167957851730309,0,0,1.86879501654662,14.0164246056782,"TRMT10A;WTAP;NSUN5;DIMT1;NSUN2;TRMO;METTL3;NOP2;MTERF4;THUMPD2;THUMPD3;BCDIN3D;NSUN6;TFB1M;MTO1;FTSJ1;ALKBH8;METTL14;TGS1;TRMT6;TRMT13;TRMT44;CMTR1;TRDMT1",24
"169","translational termination (GO:0006415)","40/97",0.000576456864200703,0.0174062685089715,0,0,1.60549400046961,11.9747536785183,"MRPS16;MRPS35;MRPS14;GFM2;MRPS36;MRPL18;MRPS33;MRPS10;MRPL14;MRPL15;MRPL37;MRPS30;MRPL34;MRPL13;MRPL57;MRPL54;MRPL33;MRPL20;MRPL3;MRPL42;MRPL9;CHCHD1;PTCD3;MRPS27;MRPS24;MRPS18B;MRPS21;MRPL47;MRPL24;MRPS5;MRPS18C;MRPL52;MRPS9;MRPL50;ETF1;AURKAIP1;ABCE1;MRRF;MTRF1L;DAP3",40
"170","protein K11-linked ubiquitination (GO:0070979)","16/29",0.00068170970066348,0.0204633211910926,0,0,2.14804024890416,15.6611609343233,"UBE2H;ANAPC7;UBE2C;UBE2E3;UBE2D3;RNF4;ANAPC10;UBE2L3;FZR1;CDC23;UBE2S;CDC26;UBE2T;CDC16;ANAPC4;ANAPC5",16
"171","cellular protein complex assembly (GO:0043623)","55/145",0.000753141962136325,0.0224753417121735,0,0,1.47677767112161,10.6198874978959,"AHCTF1;NUP107;HIP1;HSP90AB1;ZFYVE9;CLTB;PSMD4;NCK1;NDC1;CCDC39;CCT2;HSP90AA1;DNAAF3;DNAAF2;TMEM170A;SEPT2;RBX1;SEPT3;NUP93;IMMP1L;TMEM33;TCP1;CHMP3;VAMP4;NUP205;SRC;CUL1;CENPA;HSPD1;CENPC;CAND1;SAMM50;FCHO2;EIF4H;EPS15;EIF4B;SMAD2;CENPT;SMAD1;SMAD4;CENPW;ANGPT1;PTGES3;MID1IP1;HIP1R;NUP153;NSG1;FKBP1A;ANLN;CENPE;CENPF;NDUFAF7;CCDC65;NDUFAF1;PSMG2",55
"172","maturation of 5.8S rRNA (GO:0000460)","11/17",0.000797533727461359,0.0236617128560193,0,0,2.51920896838393,17.9720026016172,"NSA2;WDR37;EXOSC10;EXOSC4;LAS1L;PES1;MAK16;C1D;WDR12;RRP15;RPF1",11
"173","rRNA catabolic process (GO:0016075)","11/17",0.000797533727461359,0.0235249399493371,0,0,2.51920896838393,17.9720026016172,"EXOSC7;EXOSC6;EXOSC10;EXOSC4;XRN1;DIS3;EXOSC9;DIS3L;EXOSC8;EXOSC3;EXOSC2",11
"174","viral life cycle (GO:0019058)","43/108",0.000876881104383243,0.0257168061819982,0,0,1.5501193231386,10.9115056078734,"NUP205;POM121;NUP107;HSP90AB1;NUP188;CTBP1;UBP1;NEDD4L;AAAS;NUP160;XPO1;TPR;MVB12B;KPNA5;RPS27A;KPNA3;RAE1;EPS15;NDC1;NUP155;NUP133;IST1;VTA1;WWP1;NUP153;VPS37A;WWP2;VPS37B;DEK;NUP93;ITCH;TBC1D20;NFIA;NMT2;CHMP3;NUP35;NUP54;NUPL2;UBA52;PPID;NUP58;RAN;NUP37",43
"175","regulation of cellular response to stress (GO:0080135)","42/105",0.000896137568297117,0.0261313714915439,0,0,1.55732918045552,10.9284276748747,"CAMK2B;NUP205;POM121;NUP107;HSP90AB1;NUP188;AAAS;CCAR2;NUP160;DNAJB1;BAG4;ING2;HSPH1;BAG2;CHORDC1;TPR;BAG1;HSF1;RAE1;NDC1;HSP90AA1;ARMT1;PNPT1;NUP155;NUP133;PTGES3;RPA2;NUP153;VASH1;OPRM1;NUP93;DNAJC2;RPA3;NUP35;ATM;NUP54;FKBP4;NUPL2;NUP58;EIF4G1;ATR;NUP37",42
"176","translesion synthesis (GO:0019985)","21/43",0.000909247535311085,0.0263630123448436,0,0,1.90139027846313,13.3152330226646,"RFC5;PCNA;RFC4;UBA7;RFC1;RFC2;NEXMIF;REV1;RPA2;UBE2L6;ISG15;PRIMPOL;MAD2L2;RPA3;POLE2;POLD2;REV3L;RPS27A;DTL;UBA52;POLH",21
"177","response to UV (GO:0009411)","40/99",0.000931510334007094,0.0268559165787469,0,0,1.5730597782379,10.9779174246527,"BRSK1;TMEM161A;PCNA;KDM1A;FMR1;XPA;PTPRK;NOC2L;CCAR2;PRIMPOL;MAPK8;MYC;USP1;IL12B;BAK1;MAP2K7;MAP3K4;POLH;PARP1;METTL3;REV1;CIRBP;UBE4B;INO80;GTF2H2;USP28;EIF2S1;CDC25A;USF1;MSH6;MSH2;NEDD4;RPL26;ERCC6;DTL;RAD18;RHNO1;COPS9;ATR;TAF1",40
"178","regulation of alcohol biosynthetic process (GO:1902930)","18/35",0.000972038233650676,0.0278669163276371,0,0,2.00228037487138,13.8880477817988,"IDI1;FDPS;HMGCS1;GGPS1;NFYA;NFYB;NFYC;ELOVL6;HMGCR;LSS;SREBF2;SEC14L2;SQLE;SP1;PMVK;MBTPS2;RAN;FDFT1",18
"179","regulation of double-strand break repair (GO:2000779)","18/35",0.000972038233650676,0.0277112352308346,0,0,2.00228037487138,13.8880477817988,"RTEL1;SETD2;SLF1;KDM1A;RPA2;FIGN;SIRT6;DEK;PML;RAD51AP1;HELB;RAD51;WDR70;FIGNL1;UBR5;TIMELESS;TERF2IP;TRIP12",18
"180","negative regulation of transcription, DNA-templated (GO:0045892)","248/814",0.00097391211414698,0.0276104084360669,0,0,1.18617210304966,8.22514213062413,"RB1;TCERG1;EHMT2;EHMT1;HNRNPU;ENO1;SLA2;NOC2L;PHB2;CCAR2;ELK3;UXT;DCAF1;ELK4;SOX2;MYC;MYB;SAP130;EPC1;TRIM27;DAXX;RBFOX2;SMARCC2;SFMBT1;SOX11;DICER1;HCFC2;THAP1;IFI27;THAP7;TRIB3;ZFPM2;EZR;CLOCK;UBA52;SET;CTBP1;NEDD4L;RTF1;ZBTB5;ZBTB2;MTDH;PATZ1;LYAR;SNX6;XRCC6;MTERF3;BCL11A;SETDB2;NR2F1;PA2G4;SMARCA4;H2AFY2;RBAK;RCOR1;EZH2;SUV39H2;MESP1;TENM2;CITED1;TCF25;CITED2;NKAP;OTUD7B;CTCF;PTPRK;BMI1;LIMD1;N4BP2L2;PHF6;NIPBL;NKRF;HEY2;UIMC1;PRMT6;ZHX3;PRMT2;PARP1;PROX1;CBFA2T2;SREBF2;AES;NCOR2;GCFC2;ZEB2;ZEB1;NFX1;MTF2;DEPDC1;AHRR;PPARA;PLCB1;SP100;SATB1;CIPC;PRICKLE1;ASCL1;CUX2;NFIL3;CUX1;NSD1;HSF1;TCEAL1;TBL1X;RPS27A;TAF9B;BRD7;MBD3;MBD4;USP9X;CDKN2A;MBD1;MBD2;DAB2IP;WWP1;WWP2;GATAD2B;GATAD2A;VEGFA;HINFP;MAD2L2;CENPF;PER3;NR6A1;NFIA;NFIB;CTNNB1;HDGF;LIMS1;GZF1;KDM1A;NAB1;UBE2D3;GMNN;ATN1;UBE2D1;UBP1;ARID4A;SALL1;CHCHD3;BASP1;KMT5A;MAF1;TNFRSF4;TLE2;ZGPAT;KDM2B;ZBTB38;SARS;MITF;FOXP1;HIC2;ILF3;PSPC1;TBL1XR1;KAT6A;TIMELESS;PPID;MAX;CREM;PSEN1;FOXO3;PHF21A;HMBOX1;NACC1;TPR;ORC2;ZKSCAN3;SMYD2;DMAP1;SKIL;MAP2K5;ZBTB18;SMAD2;CBX7;SMAD4;POU2F1;CBX5;WFS1;CBX3;CAV1;PTCH1;NONO;HMGA1;RITA1;BMP7;ESR1;NFKB1;NR4A2;EFNA1;GCLC;DLG1;CNOT7;YEATS2;CNOT1;CNOT2;COPS2;RIOX2;MDM2;MDM4;TCF3;MXD1;KDM5C;CHD8;CBY1;ZC3H8;CDC73;SUMO1;BCL7A;YWHAQ;SIX4;VPS72;SIN3A;TRPS1;LRRFIP1;YAF2;TGIF1;KLF10;KLF12;TGIF2;H2AFY;PPM1A;CREB1;TFDP2;IRF7;LANCL2;HDAC2;HDAC3;LEF1;MOSPD1;LRP8;RNF2;BAHD1;E2F6;FNIP2;E2F7;ATF7IP;IRX1;IGBP1;SPEN;IRX2;SEMA4D;CNBP;PML;REST;TAF7;BCOR;TRIM33",248
"181","regulation of gene expression, epigenetic (GO:0040029)","32/75",0.000993767141066364,0.028017644866639,0,0,1.66115112581922,11.4852115805451,"DNMT1;KDM1B;PHF1;DDX21;CTCF;BMI1;TAF1D;MTA1;HIST1H3A;RBBP4;TDG;TWISTNB;EPC1;TRIM27;RBBP7;SF3B1;POLR2K;PRMT7;TBP;H2AFY;GLMN;SMARCA5;DEK;SLC50A1;AEBP2;H2AFY2;POLR1B;MTF2;POLR1E;ERCC6;PHF19;EZH2",32
"182","regulation of mitotic metaphase/anaphase transition (GO:0030071)","10/15",0.000996439625781574,0.0279386341228757,0,0,2.59554863409253,17.9386723935299,"RB1;CENPE;CDC23;ESPL1;UBE2C;CUL3;NSMCE2;ANAPC5;RIOK2;DLGAP5",10
"183","mitotic chromosome condensation (GO:0007076)","10/15",0.000996439625781574,0.0277859639910567,0,0,2.59554863409253,17.9386723935299,"NIPBL;CDCA5;AKAP8L;NUSAP1;NCAPG;NCAPD2;NCAPD3;SMC4;NCAPH;SMC2",10
"184","regulation of exit from mitosis (GO:0007096)","10/15",0.000996439625781574,0.0276349533171922,0,0,2.59554863409253,17.9386723935299,"ANLN;CDC23;RGCC;UBE2C;CDCA5;ZW10;KNTC1;PHB2;CDC14A;CDC14B",10
"185","microtubule depolymerization (GO:0007019)","10/15",0.000996439625781574,0.0274855751911534,0,0,2.59554863409253,17.9386723935299,"KIF18A;KIF2A;NCKAP5L;STMN1;STMN3;KATNB1;KIF24;STMN4;KIF2C;CKAP5",10
"186","protein stabilization (GO:0050821)","57/153",0.00101421531460918,0.0278254879056486,0,0,1.45045364846347,9.99890536828818,"SWSAP1;HIP1;HSP90AB1;CCNH;USP33;PARK7;PHB2;SUMO1;CHEK2;CHORDC1;PIM2;GTSE1;GOLGA7;CCT3;CCT2;HSP90AA1;FBXW7;COG3;P3H1;ANK2;GTPBP4;CREB1;TCP1;PLPP3;IFT46;STX12;USP27X;WIZ;CREBL2;PIK3R1;STK4;NAPG;HSPD1;PDCD10;DVL1;DVL3;TAF9B;TRIM44;CCT5;ZBED3;CCT4;WFS1;PTGES3;HPS4;HIP1R;CCT6A;EFNA1;CDK7;PER3;PRKRA;AAK1;PIN1;MDM4;NAA15;SUGT1;OTUD3;TAF1",57
"187","regulation of mitotic cell cycle (GO:0007346)","61/166",0.00102991356813396,0.0281050745357625,0,0,1.43067891577992,9.84061073751203,"RB1;GPSM2;INTS13;HNRNPU;CKS1B;PIM1;PIM3;PIM2;FBXO5;MAP3K4;PRMT5;MAP2K1;MAP2K2;BORA;ANGEL2;STRADB;DAPK3;SCRIB;OXSR1;CDC25C;CDC25B;THAP1;RBL2;RBL1;PSRC1;CKS2;HECA;TNIK;DCTN1;XPC;STK4;SDCBP;CCNB1;HSF1;EIF4EBP1;MAP2K7;MAP4K5;RAE1;EIF4E;MAP2K5;MAP9;MAP4K4;MAP3K2;CDK19;NEK7;ASNS;CDK11B;SBK2;TPX2;CYLD;DLG1;STK25;CDC16;MDM2;CDK1;TACC3;CDK10;PIN1;PKN2;CDK13;MAD2L1",61
"188","negative regulation of transcription from RNA polymerase II promoter (GO:0000122)","178/566",0.00104694798883192,0.0284179552500494,0,0,1.22440191749595,8.40169416226943,"RB1;TCERG1;KDM1A;EHMT2;ZMYND8;UBE2D3;ATN1;HNRNPU;UBE2D1;ENO1;SLA2;NOC2L;DCAF1;ELK4;UXT;SOX2;SALL1;CHCHD3;MYC;MYB;SAP130;EPC1;KMT5A;TRIM27;ZGPAT;KDM2B;SARS;SOX11;MITF;DICER1;HCFC2;THAP1;IFI27;TBL1XR1;TRIB3;ZFPM2;EZR;UBA52;PPID;CTBP1;MAX;CREM;NEDD4L;RTF1;PSEN1;FOXO3;ZBTB5;PHF21A;MTDH;ZBTB2;HMBOX1;TPR;ORC2;ZKSCAN3;SMYD2;DMAP1;SKIL;LYAR;MAP2K5;ZBTB18;SMAD2;CBX7;SMAD4;CBX5;WFS1;BCL11A;PTCH1;CAV1;NR2F1;NFATC3;RITA1;ESR1;NFKB1;SMARCA4;NR4A2;EFNA1;DLG1;CNOT7;H2AFY2;YEATS2;CNOT1;CNOT2;MDM2;MDM4;TCF3;MXD1;EZH2;SUV39H2;TENM2;TCF25;CITED2;CHD8;OTUD7B;CTCF;BMI1;PHF6;N4BP2L2;CDC73;NIPBL;SUMO1;VPS72;SIN3A;TRPS1;HEY2;LRRFIP1;KLF10;TGIF1;KLF12;ZHX3;TGIF2;PARP1;H2AFY;ATRX;PROX1;SREBF2;AES;NCOR2;GCFC2;PPM1A;ZEB2;ZEB1;NFX1;MTF2;IRF7;AHRR;PPARA;HDAC2;SP100;HDAC3;SATB1;SRF;MOSPD1;ASCL1;LRP8;RNF2;DNAJB1;CUX2;NFIL3;CUX1;NSD1;TCEAL1;HSF1;TBL1X;TAF9B;RPS27A;FNIP2;E2F6;E2F7;MBD3;IRX1;IGBP1;SPEN;MBD4;IRX2;SEMA4D;USP9X;MBD1;CNBP;MBD2;DAB2IP;WWP2;LILRB4;GATAD2B;GATAD2A;VEGFA;MAD2L2;REST;NR6A1;PER3;NFIA;NFIB;NEDD4;TAF7;HDGF;BCOR;TRIM33;GZF1;TAF1",178
"189","regulation of carbohydrate catabolic process (GO:0043470)","19/38",0.00110205280922005,0.0297554258489415,0,0,1.9466614755694,13.2578949740068,"NDC1;POM121;NUP205;NUP107;NUP188;NUP133;NUP155;NUP153;AAAS;NUP160;NUP93;TPR;NUP35;NUP54;NUPL2;RAE1;OGT;NUP58;NUP37",19
"190","nuclear-transcribed mRNA poly(A) tail shortening (GO:0000289)","16/30",0.00111442314692392,0.029931059572383,0,0,2.07643890727402,14.1185768398454,"EIF4A2;CNOT6L;CNOT10;PAN2;CNOT4;PAN3;CNOT7;CNOT1;PNLDC1;CNOT2;CNOT3;EIF4E;CNOT9;EIF4B;PAIP1;EIF4G1",16
"191","protein localization to nucleus (GO:0034504)","39/97",0.00119648948523298,0.0319669415871408,0,0,1.56535665045787,10.5322884552972,"IPO11;POM121;INTS13;NUP107;NXT1;NUP188;PPP1R10;CSE1L;PINX1;XPA;HNRNPU;TOR1AIP2;PRICKLE1;RPF2;SIX4;DVL1;RRS1;HEATR3;RAE1;TNPO3;NUP155;NUP133;NUP153;NUTF2;GPN2;GPN1;BMP7;TOPORS;PML;GPN3;NUP93;PIKFYVE;MCM3AP;ARL2BP;CNEP1R1;MDM2;TAF8;NUP58;RAN",39
"192","negative regulation of telomere maintenance via telomerase (GO:0032211)","12/20",0.00120568256206878,0.0320447818449842,0,0,2.33599377068328,15.6995353650523,"PIF1;GNL3L;EXOSC10;TEN1;XRN1;SRC;PINX1;HNRNPU;NAT10;POT1;HNRNPA1;TERF2",12
"193","positive regulation of histone methylation (GO:0031062)","14/25",0.00121317739941133,0.0320769133118966,0,0,2.18026085263773,14.6393885547534,"DNMT1;SMAD4;CHTOP;PAXIP1;KMT2A;AUTS2;PHF1;TET1;WDR61;MYB;MTF2;CTNNB1;OGT;PHF19",14
"194","mRNA splice site selection (GO:0006376)","14/25",0.00121317739941133,0.0319115683979177,0,0,2.18026085263773,14.6393885547534,"ISY1;SF3A3;CELF1;YTHDC1;CELF2;PSIP1;NOL3;SETX;PRPF39;SRSF5;SRSF6;SRSF10;LUC7L2;SRSF9",14
"195","histone mRNA metabolic process (GO:0008334)","14/25",0.00121317739941133,0.0317479193292104,0,0,2.18026085263773,14.6393885547534,"SLBP;SSB;NCBP1;CPSF3;CPSF2;LSM1;LSM10;EXOSC10;EXOSC4;XRN1;ATM;SNRPE;SNRPF;MTPAP",14
"196","positive regulation of histone H3-K4 methylation (GO:0051571)","9/13",0.00121776624740299,0.0317054140841707,0,0,2.69537742771147,18.0879691495937,"KMT2E;SMAD4;DNMT1;PAXIP1;AUTS2;KMT2A;MYB;CTNNB1;WDR61",9
"197","regulation of transcription initiation from RNA polymerase II promoter (GO:0060260)","9/13",0.00121776624740299,0.0315444728959262,0,0,2.69537742771147,18.0879691495937,"ATF7IP;PAXIP1;GTF2B;SRF;SUB1;HEY2;TAF7;GTF2F2;TAF1",9
"198","nucleotide-sugar metabolic process (GO:0009225)","9/13",0.00121776624740299,0.0313851573762498,0,0,2.69537742771147,18.0879691495937,"CSGALNACT1;TSTA3;UGDH;EXTL2;SLC35A3;PARG;UGP2;GMDS;GFPT1",9
"199","positive regulation of telomere maintenance via telomerase (GO:0032212)","17/33",0.00130637799531866,0.0334997332166388,0,0,2.00565121725332,13.3185206108365,"CCT3;CCT2;NEK7;CCT6A;HMBOX1;TCP1;FBXO4;POT1;MAPKAPK5;NAF1;ATM;MAP2K7;HNRNPA1;MAP3K4;CCT5;CCT4;ATR",17
"200","global genome nucleotide-excision repair (GO:0070911)","17/33",0.00130637799531866,0.0333322345505556,0,0,2.00565121725332,13.3185206108365,"PARP1;CETN2;USP45;XPA;XPC;GTF2H2;GTF2H3;RAD23B;GTF2H5;RBX1;SUMO1;SUMO3;UBE2V2;RPS27A;UBA52;RNF111;CUL4B",17
"201","response to unfolded protein (GO:0006986)","21/44",0.00132222955230746,0.0335688428130594,0,0,1.85817686304352,12.3168062506893,"HSPA9;HSP90AA1;DAXX;HSP90AB1;HSPA4L;HSPB2;DERL1;HSPA14;TM7SF3;HSPE1;HSPD1;HERPUD1;DNAJB2;DNAJA1;DNAJB1;ERP44;HSPH1;DNAJB5;HSF1;HYOU1;OPTN",21
"202","RNA secondary structure unwinding (GO:0010501)","22/47",0.00141133276468227,0.0356536192978892,0,0,1.8224064877671,11.9608561626594,"EIF4A2;DDX17;DDX6;DDX18;DDX59;DDX46;DDX24;DHX9;DDX47;DDX25;DDX1;DDX23;DDX31;DDX21;DDX54;DDX10;DDX50;DDX19A;DDX39A;AGO3;AGO1;DHX36",22
"203","mitotic spindle assembly (GO:0090307)","22/47",0.00141133276468227,0.0354779857052887,0,0,1.8224064877671,11.9608561626594,"ARHGEF10;XIAP;KIF23;AURKC;CDC14A;RAB11A;MZT1;CDC14B;GOLGA2;TPX2;RACGAP1;KIF2A;KIFC1;CHEK2;KIF4A;MYBL2;CEP192;TUBGCP4;PIBF1;CLASP1;MAP9;BIRC2",22
"204","regulation of DNA metabolic process (GO:0051052)","22/47",0.00141133276468227,0.035304074010655,0,0,1.8224064877671,11.9608561626594,"ANKRD17;PIF1;USP37;PARG;ESCO1;KDM1B;DSCC1;EHMT2;ZBTB38;THOC1;NUCKS1;ESCO2;TERF2;CCDC88A;PPP2R1A;MYC;USP1;HNRNPD;UBE2V2;SMARCAD1;TERF2IP;POLH",22
"205","methionine metabolic process (GO:0006555)","8/11",0.00143663952327771,0.0357618121331033,0,0,2.83150760082822,18.5334873400414,"AHCYL1;AHCY;MTRR;MTHFD1;ADI1;SMS;MTHFR;MTR",8
"206","Golgi ribbon formation (GO:0090161)","8/11",0.00143663952327771,0.035588211103331,0,0,2.83150760082822,18.5334873400414,"GOLGA2;PRMT5;GOLPH3;STX16;GCC2;VAMP4;OPTN;TMED5",8
"207","tRNA pseudouridine synthesis (GO:0031119)","6/7",0.00156436077901281,0.038564893986968,0,0,3.33713395811897,21.5588130471127,"PUS3;RPUSD4;PUS10;PUS1;RPUSD3;PUSL1",6
"208","exonucleolytic trimming to generate mature 3'-end of 5.8S rRNA from tricistronic rRNA transcript (SSU-rRNA, 5.8S rRNA, LSU-rRNA) (GO:0000467)","6/7",0.00156436077901281,0.0383794858427999,0,0,3.33713395811897,21.5588130471127,"EXOSC7;ERI1;EXOSC9;EXOSC8;EXOSC3;EXOSC2",6
"209","positive regulation of metaphase/anaphase transition of cell cycle (GO:1902101)","6/7",0.00156436077901281,0.0381958519392459,0,0,3.33713395811897,21.5588130471127,"RB1;ESPL1;CUL3;NSMCE2;ANAPC5;DLGAP5",6
"210","exonucleolytic trimming involved in rRNA processing (GO:0000459)","6/7",0.00156436077901281,0.0380139669300114,0,0,3.33713395811897,21.5588130471127,"EXOSC7;ERI1;EXOSC9;EXOSC8;EXOSC3;EXOSC2",6
"211","nuclear body organization (GO:0030575)","6/7",0.00156436077901281,0.0378338059493004,0,0,3.33713395811897,21.5588130471127,"SRPK2;USPL1;ETS1;PML;HIPK2;ZPR1",6
"212","protein-DNA complex assembly (GO:0065004)","37/92",0.00156700273347028,0.0377189384382021,0,0,1.56579292600147,10.1128154283446,"HIST1H2BO;CCNH;CETN2;HIST1H2BL;HIST1H2BK;XPA;XPC;CENPA;HIST1H3A;SWI5;RPS27A;DAXX;CENPV;PARP1;H2AFY;H2AFX;ATRX;SMARCA5;RPA2;GTF2H2;GTF2H3;RAD23B;HIST2H2BE;GTF2H5;RBX1;CDK7;RAD51;RPA3;ANP32E;HIST1H2BH;TCF4;ANP32B;MNAT1;HIST1H2BA;UBA52;HIST1H2BD;CUL4B",37
"213","negative regulation of RNA splicing (GO:0033119)","11/18",0.00157545154645134,0.03774426873963,0,0,2.37925291458482,15.3538266753139,"U2AF2;SRSF4;TMBIM6;SRSF6;RBMX;SRSF7;SRSF10;PTBP2;RPS13;PTBP3;SRSF9",11
"214","tRNA metabolic process (GO:0006399)","11/18",0.00157545154645134,0.0375678936520616,0,0,2.37925291458482,15.3538266753139,"SSB;BRF1;KARS;POP1;ADAT1;SARS;DARS2;YARS2;DTD2;FARS2;AARS",11
"215","DNA methylation (GO:0006306)","11/18",0.00157545154645134,0.0373931592629822,0,0,2.37925291458482,15.3538266753139,"ATF7IP;KMT2E;DNMT1;MTRR;EHMT2;ATRX;EHMT1;PICK1;BAZ2A;DMAP1;GATAD2A",11
"216","positive regulation of mitotic metaphase/anaphase transition (GO:0045842)","7/9",0.00159385046402374,0.0376547172125607,0,0,3.02814007310795,19.5060747100808,"RB1;CDT1;ESPL1;CUL3;NSMCE2;ANAPC5;DLGAP5",7
"217","peptidyl-arginine omega-N-methylation (GO:0035247)","7/9",0.00159385046402374,0.0374811931701065,0,0,3.02814007310795,19.5060747100808,"PRMT6;PRMT7;PRMT2;NDUFAF7;PRMT1;CARM1;PRMT9",7
"218","maturation of LSU-rRNA from tricistronic rRNA transcript (SSU-rRNA, 5.8S rRNA, LSU-rRNA) (GO:0000463)","7/9",0.00159385046402374,0.0373092610913446,0,0,3.02814007310795,19.5060747100808,"BOP1;RPL7L1;PES1;RPL35;RPF2;WDR12;RPL7",7
"219","peptidyl-arginine methylation (GO:0018216)","7/9",0.00159385046402374,0.0371388991685531,0,0,3.02814007310795,19.5060747100808,"PRMT6;PRMT5;PRMT7;PRMT2;PRMT1;CARM1;PRMT9",7
"220","nuclear RNA surveillance (GO:0071027)","7/9",0.00159385046402374,0.0369700859905142,0,0,3.02814007310795,19.5060747100808,"EXOSC7;EXOSC6;EXOSC10;EXOSC4;XRN1;EXOSC9;EXOSC8",7
"221","positive regulation of ubiquitin protein ligase activity (GO:1904668)","34/83",0.00164699986448616,0.0380300466446737,0,0,1.59485518480384,10.2211077649389,"PSMD14;ANAPC16;CUL1;BUB1B;UBE2D1;ANAPC10;CDC14B;CDC20;GOLGA2;PSMB7;FZR1;CCNB1;PSMB4;CDC23;PSMD4;PSMD5;CDC26;PSMB1;FBXO5;RPS27A;ANAPC7;UBE2C;PSMB9;PSMA5;PSMA2;UBE2S;PSMC1;PSME4;CDC16;CDK1;ANAPC4;ANAPC5;UBA52;MAD2L1",34
"222","anaphase-promoting complex-dependent catabolic process (GO:0031145)","33/80",0.00166673354701208,0.0383123481549668,0,0,1.60599571734475,10.2733771859968,"PSMD14;ANAPC16;CUL3;BUB1B;UBE2D1;ANAPC10;AURKA;CDC20;PSMB7;FZR1;CCNB1;PSMB4;CDC23;PSMD4;PSMD5;CDC26;PSMB1;SKP2;RPS27A;ANAPC7;UBE2C;PSMB9;PSMA5;PSMA2;UBE2S;PSMC1;PSME4;CDC16;CDK1;ANAPC4;ANAPC5;UBA52;MAD2L1",33
"223","transcription-coupled nucleotide-excision repair (GO:0006283)","31/74",0.00169212535061782,0.0387215949067386,0,0,1.63098664169328,10.408581516388,"ISY1;PCNA;CCNH;XPA;COPS7B;COPS7A;POLR2B;POLD2;RPS27A;POLR2J;POLR2K;RFC5;RFC4;RFC1;RFC2;RPA2;GTF2H2;GTF2H3;GTF2H5;RBX1;COPS4;COPS6;CDK7;COPS5;COPS2;RPA3;PPIE;ERCC6;MNAT1;UBA52;CUL4B",31
"224","ribosomal large subunit assembly (GO:0000027)","16/31",0.00175792631658761,0.0400477588997614,0,0,2.00945700703938,12.7472324503221,"RPL3;FASTKD2;RPL12;NOP2;PPAN;RPF2;RPL6;RPF1;DHX30;MRPL20;BOP1;MRTO4;RRS1;RPL24;BRIX1;RSL24D1",16
"225","regulation of cholesterol metabolic process (GO:0090181)","20/42",0.00177077864303618,0.0401612596240606,0,0,1.85396331006609,11.7473343118721,"IDI1;FDPS;HMGCS1;GGPS1;NFYA;NFYB;NFYC;ELOVL6;HMGCR;LSS;SREBF2;SEC14L2;SQLE;ARV1;SP1;DGKQ;PMVK;MBTPS2;RAN;FDFT1",20
"226","positive regulation of gene expression, epigenetic (GO:0045815)","22/48",0.00198030376204663,0.0447145579545308,0,0,1.78443968593862,11.1072538024046,"SMARCD1;ELOF1;TBP;H2AFY;ATAD2;HMGA1;SMARCA5;DDX21;DEK;SLC50A1;ARID1A;ARID1B;ATAD2B;TAF1D;HIST1H3A;POLR1B;TWISTNB;POLR1E;PADI2;ERCC6;SF3B1;POLR2K",22
"227","negative regulation of gene expression, epigenetic (GO:0045814)","14/26",0.00201095750606055,0.0452066790899867,0,0,2.09640466599781,13.0168790806242,"DNMT1;H2AFY;PHF1;BMI1;HIST1H3A;RBBP4;H2AFY2;AEBP2;MTF2;EPC1;RBBP7;TRIM27;PHF19;EZH2",14
"228","DNA methylation or demethylation (GO:0044728)","10/16",0.00204601164386865,0.0457929711344811,0,0,2.43332684446175,15.066826261506,"ATF7IP;KMT2E;DNMT1;MTRR;EHMT2;ATRX;EHMT1;BAZ2A;DMAP1;GATAD2A",10
"229","DNA strand elongation involved in DNA replication (GO:0006271)","10/16",0.00204601164386865,0.045593001828217,0,0,2.43332684446175,15.066826261506,"GINS1;POLA1;PCNA;RFC4;PARP1;PARP2;GINS3;GINS4;POLD2;POLE",10
"230","DNA alkylation (GO:0006305)","10/16",0.00204601164386865,0.0453947713854857,0,0,2.43332684446175,15.066826261506,"ATF7IP;KMT2E;DNMT1;MTRR;EHMT2;ATRX;EHMT1;BAZ2A;DMAP1;GATAD2A",10
"231","regulation of histone H3-K4 methylation (GO:0051569)","10/16",0.00204601164386865,0.0451982572236437,0,0,2.43332684446175,15.066826261506,"SMAD4;DNMT1;PAXIP1;AUTS2;KMT2A;H2AFY;MYB;CTNNB1;WDR61;BCOR",10
"232","protein-DNA complex disassembly (GO:0032986)","12/21",0.00215840590805916,0.0474756265035599,0,0,2.22475597207931,13.6564094335757,"SMARCD1;SMARCC1;SUPT16H;PBRM1;SET;SMARCC2;MYC;HMGA1;ARID1A;ARID2;HIST1H2BA;SMARCA4",12
"233","negative regulation of ubiquitin protein ligase activity (GO:1904667)","32/78",0.00215907355424118,0.047286490760913,0,0,1.5972606979031,9.80410765036814,"PSMD14;ANAPC16;BUB1B;UBE2D1;ANAPC10;CDC20;PSMB7;FZR1;CCNB1;PSMB4;CDC23;PSMD4;PSMD5;CDC26;PSMB1;FBXO5;RPS27A;ANAPC7;UBE2C;USP44;PSMB9;PSMA5;MAD2L2;PSMA2;PSMC1;CDC16;CDK2;CDK1;ANAPC4;ANAPC5;UBA52;MAD2L1",32
"234","secondary alcohol biosynthetic process (GO:1902653)","18/37",0.0021980913963729,0.047935300836286,0,0,1.89404900325671,11.5918940132943,"IDI1;FDPS;ACAA2;HMGCS1;GGPS1;CNBP;MSMO1;HMGCR;LSS;ACAT2;ACAT1;SQLE;EBP;NSDHL;ARV1;ERG28;PMVK;FDFT1",18
"235","negative regulation of ubiquitin-protein ligase activity involved in mitotic cell cycle (GO:0051436)","30/72",0.00220284521787464,0.0478345495609118,0,0,1.62221789630783,9.92473796855023,"PSMD14;ANAPC16;BUB1B;UBE2D1;ANAPC10;CDC20;PSMB7;FZR1;CCNB1;PSMB4;CDC23;PSMD4;PSMD5;CDC26;PSMB1;FBXO5;RPS27A;ANAPC7;UBE2C;PSMB9;PSMA5;PSMA2;PSMC1;CDC16;CDK2;CDK1;ANAPC4;ANAPC5;UBA52;MAD2L1",30
"236","histone acetylation (GO:0016573)","30/72",0.00220284521787464,0.0476318607915859,0,0,1.62221789630783,9.92473796855023,"MEAF6;TRRAP;LEF1;JADE1;YEATS4;BRCA2;TAF5L;ING3;RUVBL1;WDR5;EP400;MBIP;EPC1;DMAP1;BRD8;TAF9B;KAT14;BRD1;TEX30;ACTL6A;MSL3;ELP3;POLE4;MORF4L1;YEATS2;MORF4L2;KAT6A;HAT1;TADA3;TADA1",30
"237","tRNA processing (GO:0008033)","27/63",0.00220991042447593,0.0475830080004247,0,0,1.66856697905948,10.2029588634588,"POP5;POP1;TSEN15;URM1;DDX1;TSEN2;FARS2;CLP1;RPP14;RPP38;TRDMT1;PUS3;CPSF4;PTCD1;SSB;TYW5;NSUN2;RPP40;ADAT1;SARS;NSUN6;FTSJ1;TRIT1;ADAT2;KARS;TRMT6;AARS",27
"238","DNA synthesis involved in DNA repair (GO:0000731)","28/66",0.0022168949988121,0.0475328368862948,0,0,1.65171276714979,10.0946865530833,"PCNA;UBA7;UBE2L6;BRCA2;PRIMPOL;RAD51AP1;EXO1;POLD2;RBBP8;RPS27A;POLE;POLH;RFC5;BARD1;RFC4;RFC1;RFC2;RMI1;REV1;RPA2;WRNIP1;ISG15;POLA1;RAD51;RPA3;ATM;DTL;UBA52",28
