"","Gene","Category"
"1","AARSD1","QNPbyTAP"
"2","AATF","QNPbyTAP"
"3","AATK","QNPbyTAP"
"4","ABCA2","QNPbyTAP"
"5","ABCA3","QNPbyTAP"
"6","ABCA5","QNPbyTAP"
"7","ABCC3","QNPbyTAP"
"8","ABHD11","QNPbyTAP"
"9","ABHD15","QNPbyTAP"
"10","ABHD17A","QNPbyTAP"
"11","ABHD17B","QNPbyTAP"
"12","ABHD17C","QNPbyTAP"
"13","ABHD2","QNPbyTAP"
"14","ABHD4","QNPbyTAP"
"15","ABHD8","QNPbyTAP"
"16","ABR","QNPbyTAP"
"17","ABRAXAS2","QNPbyTAP"
"18","ACACA","QNPbyTAP"
"19","ACADVL","QNPbyTAP"
"20","ACAN","QNPbyTAP"
"21","ACBD4","QNPbyTAP"
"22","ACCS","QNPbyTAP"
"23","ACE","QNPbyTAP"
"24","ACER3","QNPbyTAP"
"25","ACLY","QNPbyTAP"
"26","ACOX1","QNPbyTAP"
"27","ACP4","QNPbyTAP"
"28","ACSF2","QNPbyTAP"
"29","ACSL5","QNPbyTAP"
"30","ACSL6","QNPbyTAP"
"31","ACSM3","QNPbyTAP"
"32","ACSS2","QNPbyTAP"
"33","ACTB","QNPbyTAP"
"34","ACTN4","QNPbyTAP"
"35","ACTR1A","QNPbyTAP"
"36","ACY3","QNPbyTAP"
"37","ADAM11","QNPbyTAP"
"38","ADAM12","QNPbyTAP"
"39","ADAM15","QNPbyTAP"
"40","ADAM19","QNPbyTAP"
"41","ADAMTS4","QNPbyTAP"
"42","ADAMTSL3","QNPbyTAP"
"43","ADCK2","QNPbyTAP"
"44","ADCY5","QNPbyTAP"
"45","ADCY6","QNPbyTAP"
"46","ADD1","QNPbyTAP"
"47","ADD3","QNPbyTAP"
"48","ADIPOQ","QNPbyTAP"
"49","ADM","QNPbyTAP"
"50","ADPRH","QNPbyTAP"
"51","ADPRHL2","QNPbyTAP"
"52","ADPRM","QNPbyTAP"
"53","ADRB1","QNPbyTAP"
"54","AEN","QNPbyTAP"
"55","AFAP1L2","QNPbyTAP"
"56","AFF4","QNPbyTAP"
"57","AGPAT2","QNPbyTAP"
"58","AGTRAP","QNPbyTAP"
"59","AHNAK","QNPbyTAP"
"60","AIP","QNPbyTAP"
"61","AK3","QNPbyTAP"
"62","AKAP1","QNPbyTAP"
"63","AKAP10","QNPbyTAP"
"64","AKAP13","QNPbyTAP"
"65","AKNA","QNPbyTAP"
"66","AKT1S1","QNPbyTAP"
"67","AKT2","QNPbyTAP"
"68","ALCAM","QNPbyTAP"
"69","ALDH16A1","QNPbyTAP"
"70","ALDH1A3","QNPbyTAP"
"71","ALDH3A1","QNPbyTAP"
"72","ALDH3A2","QNPbyTAP"
"73","ALDOA","QNPbyTAP"
"74","ALDOC","QNPbyTAP"
"75","ALG1","QNPbyTAP"
"76","ALG8","QNPbyTAP"
"77","ALKBH5","QNPbyTAP"
"78","AMDHD2","QNPbyTAP"
"79","AMOTL2","QNPbyTAP"
"80","AMZ2","QNPbyTAP"
"81","ANAPC15","QNPbyTAP"
"82","ANAPC2","QNPbyTAP"
"83","ANKFY1","QNPbyTAP"
"84","ANKRD13B","QNPbyTAP"
"85","ANKRD40","QNPbyTAP"
"86","ANKRD42","QNPbyTAP"
"87","ANKRD50","QNPbyTAP"
"88","ANKRD52","QNPbyTAP"
"89","ANKRD53","QNPbyTAP"
"90","ANKRD9","QNPbyTAP"
"91","ANKS3","QNPbyTAP"
"92","ANO6","QNPbyTAP"
"93","ANO8","QNPbyTAP"
"94","ANTXR1","QNPbyTAP"
"95","ANXA1","QNPbyTAP"
"96","ANXA2","QNPbyTAP"
"97","ANXA5","QNPbyTAP"
"98","ANXA6","QNPbyTAP"
"99","ANXA7","QNPbyTAP"
"100","AP2A1","QNPbyTAP"
"101","AP2A2","QNPbyTAP"
"102","AP2B1","QNPbyTAP"
"103","AP2S1","QNPbyTAP"
"104","AP3B2","QNPbyTAP"
"105","AP3D1","QNPbyTAP"
"106","AP3S2","QNPbyTAP"
"107","AP5B1","QNPbyTAP"
"108","APBA1","QNPbyTAP"
"109","APBB1","QNPbyTAP"
"110","APH1A","QNPbyTAP"
"111","APLP1","QNPbyTAP"
"112","APOBR","QNPbyTAP"
"113","APOE","QNPbyTAP"
"114","APOM","QNPbyTAP"
"115","APP","QNPbyTAP"
"116","APPBP2","QNPbyTAP"
"117","ARAP1","QNPbyTAP"
"118","ARF1","QNPbyTAP"
"119","ARL17B","QNPbyTAP"
"120","ARFGAP1","QNPbyTAP"
"121","ARFIP2","QNPbyTAP"
"122","ARHGAP17","QNPbyTAP"
"123","ARHGAP23","QNPbyTAP"
"124","ARHGAP31","QNPbyTAP"
"125","ARHGAP33","QNPbyTAP"
"126","ARHGAP35","QNPbyTAP"
"127","ARHGDIA","QNPbyTAP"
"128","ARHGEF1","QNPbyTAP"
"129","ARHGEF18","QNPbyTAP"
"130","ARHGEF19","QNPbyTAP"
"131","ARHGEF2","QNPbyTAP"
"132","ARHGEF39","QNPbyTAP"
"133","ARID5A","QNPbyTAP"
"134","ARL2","QNPbyTAP"
"135","ARL4D","QNPbyTAP"
"136","ARL6","QNPbyTAP"
"137","ARL6IP1","QNPbyTAP"
"138","ARL6IP5","QNPbyTAP"
"139","ARMC5","QNPbyTAP"
"140","ARMC7","QNPbyTAP"
"141","ARNT2","QNPbyTAP"
"142","ARNTL","QNPbyTAP"
"143","ARPC4","QNPbyTAP"
"144","ARRB1","QNPbyTAP"
"145","ARRB2","QNPbyTAP"
"146","ARRDC4","QNPbyTAP"
"147","ARSA","QNPbyTAP"
"148","ARSG","QNPbyTAP"
"149","ASAH2","QNPbyTAP"
"150","ASB6","QNPbyTAP"
"151","ASB7","QNPbyTAP"
"152","ASIC2","QNPbyTAP"
"153","ASNA1","QNPbyTAP"
"154","ASPDH","QNPbyTAP"
"155","ASPSCR1","QNPbyTAP"
"156","ASRGL1","QNPbyTAP"
"157","ATAD5","QNPbyTAP"
"158","ATCAY","QNPbyTAP"
"159","ATF5","QNPbyTAP"
"160","ATG14","QNPbyTAP"
"161","ATG16L2","QNPbyTAP"
"162","ATG2A","QNPbyTAP"
"163","ATG3","QNPbyTAP"
"164","ATL3","QNPbyTAP"
"165","ATOH8","QNPbyTAP"
"166","ATOX1","QNPbyTAP"
"167","ATP1A1","QNPbyTAP"
"168","ATP1A3","QNPbyTAP"
"169","ATP1B2","QNPbyTAP"
"170","ATP1B3","QNPbyTAP"
"171","ATP5MD","QNPbyTAP"
"172","ATP5PD","QNPbyTAP"
"173","ATP5PO","QNPbyTAP"
"174","ATP6V0A1","QNPbyTAP"
"175","ATP6V0C","QNPbyTAP"
"176","ATP6V0E1","QNPbyTAP"
"177","ATP6V0E2","QNPbyTAP"
"178","ATP6V1A","QNPbyTAP"
"179","ATP6V1F","QNPbyTAP"
"180","ATP8B2","QNPbyTAP"
"181","ATP8B3","QNPbyTAP"
"182","ATPAF2","QNPbyTAP"
"183","ATXN2L","QNPbyTAP"
"184","ATXN7L3","QNPbyTAP"
"185","AUP1","QNPbyTAP"
"186","AURKB","QNPbyTAP"
"187","AVPI1","QNPbyTAP"
"188","AXIN2","QNPbyTAP"
"189","AXL","QNPbyTAP"
"190","B3GALT5","QNPbyTAP"
"191","B3GALT6","QNPbyTAP"
"192","B3GAT3","QNPbyTAP"
"193","B3GNT4","QNPbyTAP"
"194","B4GALNT1","QNPbyTAP"
"195","B4GALNT4","QNPbyTAP"
"196","B4GALT1","QNPbyTAP"
"197","B4GALT7","QNPbyTAP"
"198","B9D2","QNPbyTAP"
"199","BACH1","QNPbyTAP"
"200","BAD","QNPbyTAP"
"201","BAG3","QNPbyTAP"
"202","BAHCC1","QNPbyTAP"
"203","BAIAP2","QNPbyTAP"
"204","BAMBI","QNPbyTAP"
"205","BANF1","QNPbyTAP"
"206","BAX","QNPbyTAP"
"207","BBS1","QNPbyTAP"
"208","BBX","QNPbyTAP"
"209","BCAP31","QNPbyTAP"
"210","BCAT2","QNPbyTAP"
"211","BCCIP","QNPbyTAP"
"212","BCKDHA","QNPbyTAP"
"213","BCKDK","QNPbyTAP"
"214","BCL2L1","QNPbyTAP"
"215","BCL2L12","QNPbyTAP"
"216","BCL6","QNPbyTAP"
"217","BCL7C","QNPbyTAP"
"218","BECN1","QNPbyTAP"
"219","BET1L","QNPbyTAP"
"220","BFAR","QNPbyTAP"
"221","BHLHE40","QNPbyTAP"
"222","BICD2","QNPbyTAP"
"223","BICRA","QNPbyTAP"
"224","BLCAP","QNPbyTAP"
"225","C11orf68","QNPbyTAP"
"226","BLM","QNPbyTAP"
"227","BLMH","QNPbyTAP"
"228","BLOC1S2","QNPbyTAP"
"229","BLOC1S3","QNPbyTAP"
"230","BLOC1S4","QNPbyTAP"
"231","BLOC1S6","QNPbyTAP"
"232","BLVRB","QNPbyTAP"
"233","BLZF1","QNPbyTAP"
"234","BMP1","QNPbyTAP"
"235","BNIP1","QNPbyTAP"
"236","BNIP3","QNPbyTAP"
"237","BOC","QNPbyTAP"
"238","BOD1","QNPbyTAP"
"239","BOLA2B","QNPbyTAP"
"240","BORCS6","QNPbyTAP"
"241","BORCS7-ASMT","QNPbyTAP"
"242","BORCS8-MEF2B","QNPbyTAP"
"243","BPGM","QNPbyTAP"
"244","BRCA1","QNPbyTAP"
"245","BRI3","QNPbyTAP"
"246","BRIP1","QNPbyTAP"
"247","BRK1","QNPbyTAP"
"248","BRMS1","QNPbyTAP"
"249","BRWD1","QNPbyTAP"
"250","BSCL2","QNPbyTAP"
"251","BSG","QNPbyTAP"
"252","BTAF1","QNPbyTAP"
"253","BTBD1","QNPbyTAP"
"254","BTBD10","QNPbyTAP"
"255","BTG1","QNPbyTAP"
"256","BTG2","QNPbyTAP"
"257","BTG3","QNPbyTAP"
"258","BTRC","QNPbyTAP"
"259","BUB3","QNPbyTAP"
"260","C1QBP","QNPbyTAP"
"261","C1QL1","QNPbyTAP"
"262","C1R","QNPbyTAP"
"263","C2CD2","QNPbyTAP"
"264","C2CD2L","QNPbyTAP"
"265","C2CD3","QNPbyTAP"
"266","CACNB1","QNPbyTAP"
"267","CACNG4","QNPbyTAP"
"268","CACTIN","QNPbyTAP"
"269","CACUL1","QNPbyTAP"
"270","CADM4","QNPbyTAP"
"271","CALD1","QNPbyTAP"
"272","CALHM4","QNPbyTAP"
"273","CALM3","QNPbyTAP"
"274","CALR","QNPbyTAP"
"275","CAMTA2","QNPbyTAP"
"276","CANT1","QNPbyTAP"
"277","CANX","QNPbyTAP"
"278","CAPN1","QNPbyTAP"
"279","CAPN2","QNPbyTAP"
"280","CAPN5","QNPbyTAP"
"281","CA11","QNPbyTAP"
"282","CARHSP1","QNPbyTAP"
"283","CARNMT1","QNPbyTAP"
"284","CARNS1","QNPbyTAP"
"285","CARS","QNPbyTAP"
"286","CASC3","QNPbyTAP"
"287","CASKIN1","QNPbyTAP"
"288","CASKIN2","QNPbyTAP"
"289","CASP1","QNPbyTAP"
"290","CASP7","QNPbyTAP"
"291","CAST","QNPbyTAP"
"292","CAT","QNPbyTAP"
"293","CATSPERZ","QNPbyTAP"
"294","CAVIN3","QNPbyTAP"
"295","CBLB","QNPbyTAP"
"296","CBR3","QNPbyTAP"
"297","CBWD6","QNPbyTAP"
"298","CBX1","QNPbyTAP"
"299","CCDC130","QNPbyTAP"
"300","CCDC14","QNPbyTAP"
"301","CCDC157","QNPbyTAP"
"302","CCDC186","QNPbyTAP"
"303","CCDC22","QNPbyTAP"
"304","CCDC32","QNPbyTAP"
"305","CCDC43","QNPbyTAP"
"306","CCDC47","QNPbyTAP"
"307","CCDC58","QNPbyTAP"
"308","CCDC61","QNPbyTAP"
"309","CCDC86","QNPbyTAP"
"310","CCDC90B","QNPbyTAP"
"311","CCDC97","QNPbyTAP"
"312","CCL2","QNPbyTAP"
"313","CCND1","QNPbyTAP"
"314","CCND2","QNPbyTAP"
"315","CCNF","QNPbyTAP"
"316","CCNG1","QNPbyTAP"
"317","CCNJL","QNPbyTAP"
"318","CCP110","QNPbyTAP"
"319","CCS","QNPbyTAP"
"320","CCT7","QNPbyTAP"
"321","CCT8","QNPbyTAP"
"322","CD151","QNPbyTAP"
"323","CD1D","QNPbyTAP"
"324","CD200","QNPbyTAP"
"325","CD2BP2","QNPbyTAP"
"326","CD3EAP","QNPbyTAP"
"327","CD44","QNPbyTAP"
"328","CD47","QNPbyTAP"
"329","CD59","QNPbyTAP"
"330","CD63","QNPbyTAP"
"331","CD68","QNPbyTAP"
"332","CD80","QNPbyTAP"
"333","CD81","QNPbyTAP"
"334","CD9","QNPbyTAP"
"335","CDC27","QNPbyTAP"
"336","CDC34","QNPbyTAP"
"337","CDC37","QNPbyTAP"
"338","CDC37L1","QNPbyTAP"
"339","CDC42BPB","QNPbyTAP"
"340","CDC42EP1","QNPbyTAP"
"341","CDC42EP4","QNPbyTAP"
"342","CDC42SE2","QNPbyTAP"
"343","CDC6","QNPbyTAP"
"344","CDH2","QNPbyTAP"
"345","CDIP1","QNPbyTAP"
"346","CDIPT","QNPbyTAP"
"347","CDK12","QNPbyTAP"
"348","CDK2AP2","QNPbyTAP"
"349","CDK5","QNPbyTAP"
"350","CDK5R1","QNPbyTAP"
"351","CDKN1A","QNPbyTAP"
"352","CDKN1C","QNPbyTAP"
"353","CDKN2AIPNL","QNPbyTAP"
"354","CDKN2B","QNPbyTAP"
"355","CDR2L","QNPbyTAP"
"356","CEACAM18","QNPbyTAP"
"357","CEBPA","QNPbyTAP"
"358","CEBPG","QNPbyTAP"
"359","CEMIP2","QNPbyTAP"
"360","CEND1","QNPbyTAP"
"361","CENPB","QNPbyTAP"
"362","CEP131","QNPbyTAP"
"363","CEP170B","QNPbyTAP"
"364","CEP19","QNPbyTAP"
"365","CEP55","QNPbyTAP"
"366","CEP78","QNPbyTAP"
"367","CEP89","QNPbyTAP"
"368","CEP95","QNPbyTAP"
"369","CEP97","QNPbyTAP"
"370","CERK","QNPbyTAP"
"371","CFAP298","QNPbyTAP"
"372","CFL1","QNPbyTAP"
"373","CFLAR","QNPbyTAP"
"374","CGGBP1","QNPbyTAP"
"375","CHAC1","QNPbyTAP"
"376","CHAF1B","QNPbyTAP"
"377","CHD2","QNPbyTAP"
"378","CHD3","QNPbyTAP"
"379","CHKA","QNPbyTAP"
"380","CHMP1A","QNPbyTAP"
"381","CHMP2A","QNPbyTAP"
"382","CHMP2B","QNPbyTAP"
"383","CHMP4B","QNPbyTAP"
"384","CHMP6","QNPbyTAP"
"385","CHPF2","QNPbyTAP"
"386","CHST12","QNPbyTAP"
"387","CHST2","QNPbyTAP"
"388","CHSY1","QNPbyTAP"
"389","CHTF18","QNPbyTAP"
"390","CHUK","QNPbyTAP"
"391","CIAO3","QNPbyTAP"
"392","CIART","QNPbyTAP"
"393","CIB1","QNPbyTAP"
"394","CIC","QNPbyTAP"
"395","CIP2A","QNPbyTAP"
"396","CKAP2","QNPbyTAP"
"397","CKAP4","QNPbyTAP"
"398","CKB","QNPbyTAP"
"399","CLCN7","QNPbyTAP"
"400","CLDND1","QNPbyTAP"
"401","CLEC11A","QNPbyTAP"
"402","CLEC16A","QNPbyTAP"
"403","CLINT1","QNPbyTAP"
"404","CLK4","QNPbyTAP"
"405","CLN3","QNPbyTAP"
"406","CLNS1A","QNPbyTAP"
"407","CLPB","QNPbyTAP"
"408","CLPTM1","QNPbyTAP"
"409","CLTA","QNPbyTAP"
"410","CLTC","QNPbyTAP"
"411","CLUAP1","QNPbyTAP"
"412","CLUH","QNPbyTAP"
"413","CNIH2","QNPbyTAP"
"414","CNN3","QNPbyTAP"
"415","CNNM1","QNPbyTAP"
"416","CNNM4","QNPbyTAP"
"417","CNOT6","QNPbyTAP"
"418","CNOT8","QNPbyTAP"
"419","CNP","QNPbyTAP"
"420","CNPPD1","QNPbyTAP"
"421","CNPY3","QNPbyTAP"
"422","CNPY4","QNPbyTAP"
"423","CNTF","QNPbyTAP"
"424","CNTROB","QNPbyTAP"
"425","COA4","QNPbyTAP"
"426","COASY","QNPbyTAP"
"427","COIL","QNPbyTAP"
"428","COL12A1","QNPbyTAP"
"429","COL6A2","QNPbyTAP"
"430","COLGALT1","QNPbyTAP"
"431","COMMD2","QNPbyTAP"
"432","COMT","QNPbyTAP"
"433","COPB1","QNPbyTAP"
"434","COPS3","QNPbyTAP"
"435","COPZ2","QNPbyTAP"
"436","COQ10A","QNPbyTAP"
"437","COQ10B","QNPbyTAP"
"438","COQ7","QNPbyTAP"
"439","COQ8B","QNPbyTAP"
"440","CORO1A","QNPbyTAP"
"441","CORO1B","QNPbyTAP"
"442","CORO1C","QNPbyTAP"
"443","CORO7-PAM16","QNPbyTAP"
"444","COX15","QNPbyTAP"
"445","COX16","QNPbyTAP"
"446","COX17","QNPbyTAP"
"447","COX5B","QNPbyTAP"
"448","COX6A2","QNPbyTAP"
"449","COX6B1","QNPbyTAP"
"450","COX8A","QNPbyTAP"
"451","COX8C","QNPbyTAP"
"452","CPD","QNPbyTAP"
"453","CPEB1","QNPbyTAP"
"454","CPEB3","QNPbyTAP"
"455","CPEB4","QNPbyTAP"
"456","CPOX","QNPbyTAP"
"457","CPSF7","QNPbyTAP"
"458","CPT1A","QNPbyTAP"
"459","CPT1C","QNPbyTAP"
"460","CPTP","QNPbyTAP"
"461","CRAMP1","QNPbyTAP"
"462","CRAT","QNPbyTAP"
"463","CREB3","QNPbyTAP"
"464","CREB3L2","QNPbyTAP"
"465","CREBBP","QNPbyTAP"
"466","CREBRF","QNPbyTAP"
"467","CREBZF","QNPbyTAP"
"468","CRELD1","QNPbyTAP"
"469","CRK","QNPbyTAP"
"470","CRTC3","QNPbyTAP"
"471","CRY2","QNPbyTAP"
"472","CRYAB","QNPbyTAP"
"473","CRYBA1","QNPbyTAP"
"474","CRYBG3","QNPbyTAP"
"475","CRYZL1","QNPbyTAP"
"476","CSF1","QNPbyTAP"
"477","CSGALNACT2","QNPbyTAP"
"478","CSNK1D","QNPbyTAP"
"479","CSNK1G2","QNPbyTAP"
"480","CSNK2B","QNPbyTAP"
"481","CSRNP1","QNPbyTAP"
"482","CSRP1","QNPbyTAP"
"483","CST3","QNPbyTAP"
"484","CSTB","QNPbyTAP"
"485","CSTF2T","QNPbyTAP"
"486","CTBP2","QNPbyTAP"
"487","CTC1","QNPbyTAP"
"488","CTDNEP1","QNPbyTAP"
"489","CTDSP1","QNPbyTAP"
"490","CTNNA1","QNPbyTAP"
"491","CTNNAL1","QNPbyTAP"
"492","CTNS","QNPbyTAP"
"493","CTR9","QNPbyTAP"
"494","CTSD","QNPbyTAP"
"495","CTSF","QNPbyTAP"
"496","CTSW","QNPbyTAP"
"497","CTU1","QNPbyTAP"
"498","CTU2","QNPbyTAP"
"499","CTXN1","QNPbyTAP"
"500","CUEDC1","QNPbyTAP"
"501","CUEDC2","QNPbyTAP"
"502","CUTC","QNPbyTAP"
"503","CWC25","QNPbyTAP"
"504","CWF19L1","QNPbyTAP"
"505","CXCL16","QNPbyTAP"
"506","CXCL17","QNPbyTAP"
"507","CXCR4","QNPbyTAP"
"508","CYB561A3","QNPbyTAP"
"509","CYB561D2","QNPbyTAP"
"510","CYB5A","QNPbyTAP"
"511","CYB5D1","QNPbyTAP"
"512","CYB5D2","QNPbyTAP"
"513","CYB5R1","QNPbyTAP"
"514","CYB5R3","QNPbyTAP"
"515","CYBC1","QNPbyTAP"
"516","CYFIP1","QNPbyTAP"
"517","CYFIP2","QNPbyTAP"
"518","CYP1B1","QNPbyTAP"
"519","CYP2U1","QNPbyTAP"
"520","CYTH1","QNPbyTAP"
"521","CYTH2","QNPbyTAP"
"522","DACT3","QNPbyTAP"
"523","DAG1","QNPbyTAP"
"524","DAGLA","QNPbyTAP"
"525","DBN1","QNPbyTAP"
"526","DBP","QNPbyTAP"
"527","DCAF7","QNPbyTAP"
"528","DCAKD","QNPbyTAP"
"529","DCBLD2","QNPbyTAP"
"530","DCHS1","QNPbyTAP"
"531","DCLK1","QNPbyTAP"
"532","DCLRE1A","QNPbyTAP"
"533","DCTN5","QNPbyTAP"
"534","DCTN6","QNPbyTAP"
"535","DCTPP1","QNPbyTAP"
"536","DDAH2","QNPbyTAP"
"537","DDB1","QNPbyTAP"
"538","DDIAS","QNPbyTAP"
"539","DDOST","QNPbyTAP"
"540","DDR1","QNPbyTAP"
"541","DDX41","QNPbyTAP"
"542","DDX42","QNPbyTAP"
"543","DDX5","QNPbyTAP"
"544","DDX52","QNPbyTAP"
"545","DEAF1","QNPbyTAP"
"546","DENND5A","QNPbyTAP"
"547","DENND6B","QNPbyTAP"
"548","DERL2","QNPbyTAP"
"549","DET1","QNPbyTAP"
"550","DEXI","QNPbyTAP"
"551","DFFB","QNPbyTAP"
"552","DGAT1","QNPbyTAP"
"553","DGAT2","QNPbyTAP"
"554","DGKE","QNPbyTAP"
"555","DHCR24","QNPbyTAP"
"556","DHCR7","QNPbyTAP"
"557","DHDH","QNPbyTAP"
"558","DHRS11","QNPbyTAP"
"559","DHRS13","QNPbyTAP"
"560","DHRS7B","QNPbyTAP"
"561","DHX32","QNPbyTAP"
"562","DHX33","QNPbyTAP"
"563","DHX38","QNPbyTAP"
"564","DHX40","QNPbyTAP"
"565","DHX58","QNPbyTAP"
"566","DIP2B","QNPbyTAP"
"567","DIRAS2","QNPbyTAP"
"568","DKK3","QNPbyTAP"
"569","DLG4","QNPbyTAP"
"570","DLST","QNPbyTAP"
"571","DLX1","QNPbyTAP"
"572","DLX3","QNPbyTAP"
"573","DLX4","QNPbyTAP"
"574","DLX5","QNPbyTAP"
"575","DMAC2","QNPbyTAP"
"576","DMPK","QNPbyTAP"
"577","DMRT2","QNPbyTAP"
"578","DMRT3","QNPbyTAP"
"579","DMWD","QNPbyTAP"
"580","DNAI2","QNPbyTAP"
"581","DNAJA3","QNPbyTAP"
"582","DNAJA4","QNPbyTAP"
"583","DNAJB4","QNPbyTAP"
"584","DNAJC17","QNPbyTAP"
"585","DNAJC28","QNPbyTAP"
"586","DNAJC30","QNPbyTAP"
"587","DNAJC4","QNPbyTAP"
"588","DNAJC7","QNPbyTAP"
"589","DNAL4","QNPbyTAP"
"590","DNASE1L2","QNPbyTAP"
"591","DNASE2","QNPbyTAP"
"592","DNLZ","QNPbyTAP"
"593","DOCK1","QNPbyTAP"
"594","DOCK8","QNPbyTAP"
"595","DOK1","QNPbyTAP"
"596","DOK4","QNPbyTAP"
"597","DOLK","QNPbyTAP"
"598","DOLPP1","QNPbyTAP"
"599","DONSON","QNPbyTAP"
"600","DPAGT1","QNPbyTAP"
"601","DPCD","QNPbyTAP"
"602","DPF2","QNPbyTAP"
"603","DPH1","QNPbyTAP"
"604","DPP7","QNPbyTAP"
"605","DPY19L3","QNPbyTAP"
"606","DPYSL3","QNPbyTAP"
"607","DPYSL4","QNPbyTAP"
"608","DRAP1","QNPbyTAP"
"609","DRC3","QNPbyTAP"
"610","DRG2","QNPbyTAP"
"611","DSTN","QNPbyTAP"
"612","DTX3L","QNPbyTAP"
"613","DTX4","QNPbyTAP"
"614","DUSP1","QNPbyTAP"
"615","DUSP10","QNPbyTAP"
"616","DUSP14","QNPbyTAP"
"617","DUSP18","QNPbyTAP"
"618","DUSP4","QNPbyTAP"
"619","DUSP8","QNPbyTAP"
"620","DVL2","QNPbyTAP"
"621","DXO","QNPbyTAP"
"622","DYNC1H1","QNPbyTAP"
"623","DYNLL2","QNPbyTAP"
"624","DYRK1A","QNPbyTAP"
"625","DYRK1B","QNPbyTAP"
"626","DZIP3","QNPbyTAP"
"627","E2F8","QNPbyTAP"
"628","E4F1","QNPbyTAP"
"629","EAF1","QNPbyTAP"
"630","EARS2","QNPbyTAP"
"631","EBF3","QNPbyTAP"
"632","ECE1","QNPbyTAP"
"633","ECH1","QNPbyTAP"
"634","ECI1","QNPbyTAP"
"635","ECM1","QNPbyTAP"
"636","EDEM1","QNPbyTAP"
"637","EDEM2","QNPbyTAP"
"638","EDRF1","QNPbyTAP"
"639","EED","QNPbyTAP"
"640","EEF1G","QNPbyTAP"
"641","EEF2K","QNPbyTAP"
"642","EFEMP2","QNPbyTAP"
"643","EFL1","QNPbyTAP"
"644","EFNB1","QNPbyTAP"
"645","EFTUD2","QNPbyTAP"
"646","EGLN2","QNPbyTAP"
"647","EGR1","QNPbyTAP"
"648","EHD1","QNPbyTAP"
"649","EHD2","QNPbyTAP"
"650","EHD4","QNPbyTAP"
"651","EID2","QNPbyTAP"
"652","EID2B","QNPbyTAP"
"653","EIF1","QNPbyTAP"
"654","EIF1AD","QNPbyTAP"
"655","EIF3A","QNPbyTAP"
"656","EIF3CL","QNPbyTAP"
"657","EIF3F","QNPbyTAP"
"658","EIF3K","QNPbyTAP"
"659","EIF4A1","QNPbyTAP"
"660","EIF4G2","QNPbyTAP"
"661","EIF5A","QNPbyTAP"
"662","ELAC2","QNPbyTAP"
"663","ELL","QNPbyTAP"
"664","ELOB","QNPbyTAP"
"665","ELOVL1","QNPbyTAP"
"666","ELP5","QNPbyTAP"
"667","EMC1","QNPbyTAP"
"668","EMC10","QNPbyTAP"
"669","EMC4","QNPbyTAP"
"670","EMC6","QNPbyTAP"
"671","EME1","QNPbyTAP"
"672","EME2","QNPbyTAP"
"673","EMILIN1","QNPbyTAP"
"674","EML2","QNPbyTAP"
"675","EML3","QNPbyTAP"
"676","EMP1","QNPbyTAP"
"677","EMP2","QNPbyTAP"
"678","EMP3","QNPbyTAP"
"679","EMSY","QNPbyTAP"
"680","EMX2","QNPbyTAP"
"681","ENDOV","QNPbyTAP"
"682","ENO3","QNPbyTAP"
"683","ENO4","QNPbyTAP"
"684","ENSA","QNPbyTAP"
"685","ENTPD1","QNPbyTAP"
"686","EPC2","QNPbyTAP"
"687","EPHB3","QNPbyTAP"
"688","EPN2","QNPbyTAP"
"689","ERAL1","QNPbyTAP"
"690","ERBB2","QNPbyTAP"
"691","ERCC1","QNPbyTAP"
"692","ERCC2","QNPbyTAP"
"693","ERF","QNPbyTAP"
"694","ERGIC1","QNPbyTAP"
"695","ERI2","QNPbyTAP"
"696","ERLIN1","QNPbyTAP"
"697","ERMP1","QNPbyTAP"
"698","ERN1","QNPbyTAP"
"699","ERRFI1","QNPbyTAP"
"700","ESRRA","QNPbyTAP"
"701","ETFB","QNPbyTAP"
"702","ETHE1","QNPbyTAP"
"703","ETS2","QNPbyTAP"
"704","ETV4","QNPbyTAP"
"705","EXOSC5","QNPbyTAP"
"706","EXT1","QNPbyTAP"
"707","EZH1","QNPbyTAP"
"708","F2R","QNPbyTAP"
"709","F8A1","QNPbyTAP"
"710","FAAP100","QNPbyTAP"
"711","FAAP24","QNPbyTAP"
"712","FABP3","QNPbyTAP"
"713","FADD","QNPbyTAP"
"714","FADS1","QNPbyTAP"
"715","FADS2","QNPbyTAP"
"716","FADS3","QNPbyTAP"
"717","FAHD1","QNPbyTAP"
"718","FAHD2A","QNPbyTAP"
"719","FAM104A","QNPbyTAP"
"720","FAM110B","QNPbyTAP"
"721","FAM111A","QNPbyTAP"
"722","FAM129B","QNPbyTAP"
"723","FAM160A2","QNPbyTAP"
"724","FAM160B1","QNPbyTAP"
"725","FAM162A","QNPbyTAP"
"726","FAM168A","QNPbyTAP"
"727","FAM171A2","QNPbyTAP"
"728","FAM173A","QNPbyTAP"
"729","FAM177A1","QNPbyTAP"
"730","FAM181B","QNPbyTAP"
"731","FAM204A","QNPbyTAP"
"732","ABITRAM","QNPbyTAP"
"733","FAM207A","QNPbyTAP"
"734","FAM20C","QNPbyTAP"
"735","FAM222B","QNPbyTAP"
"736","FAM3A","QNPbyTAP"
"737","FAM43A","QNPbyTAP"
"738","FAM45A","QNPbyTAP"
"739","FAM53B","QNPbyTAP"
"740","FAM57A","QNPbyTAP"
"741","FAM57B","QNPbyTAP"
"742","FAM89B","QNPbyTAP"
"743","FAM98C","QNPbyTAP"
"744","FAN1","QNPbyTAP"
"745","FANCI","QNPbyTAP"
"746","FAR1","QNPbyTAP"
"747","FAT1","QNPbyTAP"
"748","FAT4","QNPbyTAP"
"749","FBF1","QNPbyTAP"
"750","FBL","QNPbyTAP"
"751","FBRSL1","QNPbyTAP"
"752","FBXL15","QNPbyTAP"
"753","FBXL19","QNPbyTAP"
"754","FBXL20","QNPbyTAP"
"755","FBXL6","QNPbyTAP"
"756","FBXO46","QNPbyTAP"
"757","FBXO6","QNPbyTAP"
"758","FBXW11","QNPbyTAP"
"759","FBXW5","QNPbyTAP"
"760","FBXW9","QNPbyTAP"
"761","FCGRT","QNPbyTAP"
"762","FCHSD2","QNPbyTAP"
"763","FDX2","QNPbyTAP"
"764","FECH","QNPbyTAP"
"765","FEN1","QNPbyTAP"
"766","FGF11","QNPbyTAP"
"767","FGF22","QNPbyTAP"
"768","FGFBP3","QNPbyTAP"
"769","FGFR1","QNPbyTAP"
"770","FGFR2","QNPbyTAP"
"771","FGFR3","QNPbyTAP"
"772","FHOD1","QNPbyTAP"
"773","FIBP","QNPbyTAP"
"774","FILIP1L","QNPbyTAP"
"775","FKBP10","QNPbyTAP"
"776","FKBP14","QNPbyTAP"
"777","FKRP","QNPbyTAP"
"778","FLCN","QNPbyTAP"
"779","FLII","QNPbyTAP"
"780","FLNA","QNPbyTAP"
"781","FLNB","QNPbyTAP"
"782","FLOT1","QNPbyTAP"
"783","FLOT2","QNPbyTAP"
"784","FLRT3","QNPbyTAP"
"785","FLYWCH1","QNPbyTAP"
"786","FN3KRP","QNPbyTAP"
"787","FNDC3B","QNPbyTAP"
"788","FNDC8","QNPbyTAP"
"789","FOPNL","QNPbyTAP"
"790","FOS","QNPbyTAP"
"791","FOSB","QNPbyTAP"
"792","FOSL1","QNPbyTAP"
"793","FOXC1","QNPbyTAP"
"794","FOXD1","QNPbyTAP"
"795","FOXJ2","QNPbyTAP"
"796","FOXK2","QNPbyTAP"
"797","FRA10AC1","QNPbyTAP"
"798","FRMD8","QNPbyTAP"
"799","FRMPD1","QNPbyTAP"
"800","FSCN2","QNPbyTAP"
"801","FSTL1","QNPbyTAP"
"802","FTL","QNPbyTAP"
"803","FTSJ3","QNPbyTAP"
"804","FUCA1","QNPbyTAP"
"805","FURIN","QNPbyTAP"
"806","FUS","QNPbyTAP"
"807","FUZ","QNPbyTAP"
"808","FXR2","QNPbyTAP"
"809","FYTTD1","QNPbyTAP"
"810","FZD1","QNPbyTAP"
"811","FZD2","QNPbyTAP"
"812","FZD4","QNPbyTAP"
"813","FZD5","QNPbyTAP"
"814","FZD9","QNPbyTAP"
"815","G0S2","QNPbyTAP"
"816","G3BP1","QNPbyTAP"
"817","C6orf47","QNPbyTAP"
"818","G6PC3","QNPbyTAP"
"819","G6PD","QNPbyTAP"
"820","GAB2","QNPbyTAP"
"821","GABARAP","QNPbyTAP"
"822","GABARAPL1","QNPbyTAP"
"823","GABPA","QNPbyTAP"
"824","GAD1","QNPbyTAP"
"825","GADD45A","QNPbyTAP"
"826","GADD45B","QNPbyTAP"
"827","GADD45GIP1","QNPbyTAP"
"828","GAL3ST3","QNPbyTAP"
"829","GALK1","QNPbyTAP"
"830","GALNS","QNPbyTAP"
"831","GALNT10","QNPbyTAP"
"832","GALNT18","QNPbyTAP"
"833","GALNT2","QNPbyTAP"
"834","GANAB","QNPbyTAP"
"835","GAP43","QNPbyTAP"
"836","GAPDH","QNPbyTAP"
"837","GART","QNPbyTAP"
"838","GAS2L1","QNPbyTAP"
"839","GAS6","QNPbyTAP"
"840","GATA2","QNPbyTAP"
"841","GATD1","QNPbyTAP"
"842","GBF1","QNPbyTAP"
"843","GDPD1","QNPbyTAP"
"844","GDPD5","QNPbyTAP"
"845","GEMIN4","QNPbyTAP"
"846","GEMIN5","QNPbyTAP"
"847","GFAP","QNPbyTAP"
"848","GFER","QNPbyTAP"
"849","GGA2","QNPbyTAP"
"850","GGA3","QNPbyTAP"
"851","GGN","QNPbyTAP"
"852","GGNBP2","QNPbyTAP"
"853","GHDC","QNPbyTAP"
"854","GID4","QNPbyTAP"
"855","GIPC1","QNPbyTAP"
"856","GIT1","QNPbyTAP"
"857","GLB1","QNPbyTAP"
"858","GLB1L","QNPbyTAP"
"859","GLDC","QNPbyTAP"
"860","GLI3","QNPbyTAP"
"861","GLIS2","QNPbyTAP"
"862","GLOD4","QNPbyTAP"
"863","GLRX","QNPbyTAP"
"864","GLRX3","QNPbyTAP"
"865","GLUD2","QNPbyTAP"
"866","GLYR1","QNPbyTAP"
"867","GM2A","QNPbyTAP"
"868","GMFG","QNPbyTAP"
"869","GNA13","QNPbyTAP"
"870","GNB2","QNPbyTAP"
"871","GNE","QNPbyTAP"
"872","GNG3","QNPbyTAP"
"873","GNPTG","QNPbyTAP"
"874","GOLGB1","QNPbyTAP"
"875","GOLIM4","QNPbyTAP"
"876","GORASP1","QNPbyTAP"
"877","GORASP2","QNPbyTAP"
"878","GOSR1","QNPbyTAP"
"879","GOSR2","QNPbyTAP"
"880","GOT1","QNPbyTAP"
"881","GP1BA","QNPbyTAP"
"882","GPAA1","QNPbyTAP"
"883","GPAM","QNPbyTAP"
"884","GPATCH1","QNPbyTAP"
"885","GPATCH8","QNPbyTAP"
"886","GPD1","QNPbyTAP"
"887","GPHA2","QNPbyTAP"
"888","GPI","QNPbyTAP"
"889","GPR107","QNPbyTAP"
"890","GPR137","QNPbyTAP"
"891","GPRC5B","QNPbyTAP"
"892","GPS2","QNPbyTAP"
"893","GPT","QNPbyTAP"
"894","GPX8","QNPbyTAP"
"895","GRAMD1A","QNPbyTAP"
"896","GRAMD1C","QNPbyTAP"
"897","GRASP","QNPbyTAP"
"898","GRB2","QNPbyTAP"
"899","GRIA2","QNPbyTAP"
"900","GRIA3","QNPbyTAP"
"901","GRIK5","QNPbyTAP"
"902","GRINA","QNPbyTAP"
"903","GRK2","QNPbyTAP"
"904","GRK5","QNPbyTAP"
"905","GRN","QNPbyTAP"
"906","GRWD1","QNPbyTAP"
"907","GSDMA","QNPbyTAP"
"908","GSK3A","QNPbyTAP"
"909","GSK3B","QNPbyTAP"
"910","GSTK1","QNPbyTAP"
"911","GSTP1","QNPbyTAP"
"912","GSX1","QNPbyTAP"
"913","GTF2E1","QNPbyTAP"
"914","GTF2H1","QNPbyTAP"
"915","GTF2H4","QNPbyTAP"
"916","GTF3C1","QNPbyTAP"
"917","GTPBP8","QNPbyTAP"
"918","GUCY1B1","QNPbyTAP"
"919","GUK1","QNPbyTAP"
"920","GYS1","QNPbyTAP"
"921","H3F3A","QNPbyTAP"
"922","H3F3B","QNPbyTAP"
"923","H3F3A","QNPbyTAP"
"924","HABP4","QNPbyTAP"
"925","HACD2","QNPbyTAP"
"926","HAGH","QNPbyTAP"
"927","HAP1","QNPbyTAP"
"928","HAPLN4","QNPbyTAP"
"929","HAS2","QNPbyTAP"
"930","HAUS5","QNPbyTAP"
"931","HAUS7","QNPbyTAP"
"932","HBA2","QNPbyTAP"
"933","HBE1","QNPbyTAP"
"934","HBEGF","QNPbyTAP"
"935","HCST","QNPbyTAP"
"936","HDAC5","QNPbyTAP"
"937","HDDC3","QNPbyTAP"
"938","HDGFL3","QNPbyTAP"
"939","HEATR6","QNPbyTAP"
"940","HECTD2","QNPbyTAP"
"941","HECTD3","QNPbyTAP"
"942","HEG1","QNPbyTAP"
"943","HELZ","QNPbyTAP"
"944","HERC2","QNPbyTAP"
"945","HES1","QNPbyTAP"
"946","HEXD","QNPbyTAP"
"947","HEXIM1","QNPbyTAP"
"948","HEXIM2","QNPbyTAP"
"949","HGS","QNPbyTAP"
"950","HHEX","QNPbyTAP"
"951","HID1","QNPbyTAP"
"952","HIF1AN","QNPbyTAP"
"953","HIGD1B","QNPbyTAP"
"954","HIKESHI","QNPbyTAP"
"955","HINT1","QNPbyTAP"
"956","HINT2","QNPbyTAP"
"957","HIRIP3","QNPbyTAP"
"958","HIST1H1C","QNPbyTAP"
"959","HIST1H2AB","QNPbyTAP"
"960","HIST1H2AB","QNPbyTAP"
"961","HIST1H2BI","QNPbyTAP"
"962","HIST2H2AB","QNPbyTAP"
"963","HIST3H2BB","QNPbyTAP"
"964","HMG20B","QNPbyTAP"
"965","HMGB2","QNPbyTAP"
"966","HMMR","QNPbyTAP"
"967","HMOX1","QNPbyTAP"
"968","HMOX2","QNPbyTAP"
"969","HMX2","QNPbyTAP"
"970","HMX3","QNPbyTAP"
"971","HNRNPH1","QNPbyTAP"
"972","HNRNPL","QNPbyTAP"
"973","HNRNPR","QNPbyTAP"
"974","HNRNPUL1","QNPbyTAP"
"975","HNRNPUL2","QNPbyTAP"
"976","HOMER2","QNPbyTAP"
"977","HOMER3","QNPbyTAP"
"978","HOXA1","QNPbyTAP"
"979","HOXD10","QNPbyTAP"
"980","HPS1","QNPbyTAP"
"981","HPS5","QNPbyTAP"
"982","HPS6","QNPbyTAP"
"983","HR","QNPbyTAP"
"984","HRAS","QNPbyTAP"
"985","HRC","QNPbyTAP"
"986","HRCT1","QNPbyTAP"
"987","HRH1","QNPbyTAP"
"988","HS1BP3","QNPbyTAP"
"989","HS6ST1","QNPbyTAP"
"990","HSD3B7","QNPbyTAP"
"991","HSP90B1","QNPbyTAP"
"992","HSPA13","QNPbyTAP"
"993","HSPA4","QNPbyTAP"
"994","HSPB6","QNPbyTAP"
"995","HSPB8","QNPbyTAP"
"996","HSPB9","QNPbyTAP"
"997","HSPBAP1","QNPbyTAP"
"998","HUNK","QNPbyTAP"
"999","HYAL3","QNPbyTAP"
"1000","IBA57","QNPbyTAP"
"1001","ICMT","QNPbyTAP"
"1002","ID1","QNPbyTAP"
"1003","ID2","QNPbyTAP"
"1004","ID3","QNPbyTAP"
"1005","ID4","QNPbyTAP"
"1006","IDE","QNPbyTAP"
"1007","IDH2","QNPbyTAP"
"1008","IER3","QNPbyTAP"
"1009","IER5","QNPbyTAP"
"1010","IER5L","QNPbyTAP"
"1011","IFI35","QNPbyTAP"
"1012","IFIT1B","QNPbyTAP"
"1013","IFIT2","QNPbyTAP"
"1014","IFIT3","QNPbyTAP"
"1015","IFITM1","QNPbyTAP"
"1016","IFITM1","QNPbyTAP"
"1017","IFNAR1","QNPbyTAP"
"1018","IFNGR2","QNPbyTAP"
"1019","IFT20","QNPbyTAP"
"1020","IFT22","QNPbyTAP"
"1021","IFT57","QNPbyTAP"
"1022","IGF1R","QNPbyTAP"
"1023","IGF2","QNPbyTAP"
"1024","IGFBP3","QNPbyTAP"
"1025","IGFBP4","QNPbyTAP"
"1026","IGFBP5","QNPbyTAP"
"1027","IGFLR1","QNPbyTAP"
"1028","IGHMBP2","QNPbyTAP"
"1029","IGSF11","QNPbyTAP"
"1030","IRGM","QNPbyTAP"
"1031","IKBIP","QNPbyTAP"
"1032","IKBKG","QNPbyTAP"
"1033","IKZF5","QNPbyTAP"
"1034","IL10RB","QNPbyTAP"
"1035","IL11","QNPbyTAP"
"1036","IL18BP","QNPbyTAP"
"1037","IL33","QNPbyTAP"
"1038","IL4I1","QNPbyTAP"
"1039","IL4R","QNPbyTAP"
"1040","ILK","QNPbyTAP"
"1041","ILVBL","QNPbyTAP"
"1042","IMPDH1","QNPbyTAP"
"1043","IMPG2","QNPbyTAP"
"1044","INA","QNPbyTAP"
"1045","INCENP","QNPbyTAP"
"1046","INO80E","QNPbyTAP"
"1047","INPP5A","QNPbyTAP"
"1048","INPP5F","QNPbyTAP"
"1049","INPP5K","QNPbyTAP"
"1050","INPPL1","QNPbyTAP"
"1051","INTS2","QNPbyTAP"
"1052","INTS4","QNPbyTAP"
"1053","INTS5","QNPbyTAP"
"1054","IPO13","QNPbyTAP"
"1055","IPO7","QNPbyTAP"
"1056","IQCB1","QNPbyTAP"
"1057","IQCG","QNPbyTAP"
"1058","IQGAP1","QNPbyTAP"
"1059","IRAK1","QNPbyTAP"
"1060","IRF1","QNPbyTAP"
"1061","IRF2BP1","QNPbyTAP"
"1062","IRF2BPL","QNPbyTAP"
"1063","IRF3","QNPbyTAP"
"1064","IRGM","QNPbyTAP"
"1065","IRGQ","QNPbyTAP"
"1066","IRS2","QNPbyTAP"
"1067","IRX5","QNPbyTAP"
"1068","ISCA2","QNPbyTAP"
"1069","ISL1","QNPbyTAP"
"1070","ITGA3","QNPbyTAP"
"1071","ITGA6","QNPbyTAP"
"1072","ITGB1","QNPbyTAP"
"1073","ITM2B","QNPbyTAP"
"1074","ITSN1","QNPbyTAP"
"1075","IZUMO1","QNPbyTAP"
"1076","JADE2","QNPbyTAP"
"1077","JAK2","QNPbyTAP"
"1078","JAM3","QNPbyTAP"
"1079","JMJD4","QNPbyTAP"
"1080","JMJD6","QNPbyTAP"
"1081","JMJD8","QNPbyTAP"
"1082","JOSD1","QNPbyTAP"
"1083","JPT2","QNPbyTAP"
"1084","JRK","QNPbyTAP"
"1085","JTB","QNPbyTAP"
"1086","JUN","QNPbyTAP"
"1087","JUNB","QNPbyTAP"
"1088","JUP","QNPbyTAP"
"1089","KANK1","QNPbyTAP"
"1090","KANK2","QNPbyTAP"
"1091","KANSL1","QNPbyTAP"
"1092","KAT2A","QNPbyTAP"
"1093","KAT5","QNPbyTAP"
"1094","KAT8","QNPbyTAP"
"1095","KAZALD1","QNPbyTAP"
"1096","KCNA1","QNPbyTAP"
"1097","KCNC3","QNPbyTAP"
"1098","KCNE2","QNPbyTAP"
"1099","KCNE3","QNPbyTAP"
"1100","KCNH4","QNPbyTAP"
"1101","KCNJ14","QNPbyTAP"
"1102","KCNJ16","QNPbyTAP"
"1103","KCTD11","QNPbyTAP"
"1104","KCTD13","QNPbyTAP"
"1105","KCTD14","QNPbyTAP"
"1106","KCTD15","QNPbyTAP"
"1107","KCTD2","QNPbyTAP"
"1108","KCTD5","QNPbyTAP"
"1109","KCTD7","QNPbyTAP"
"1110","POGLUT3","QNPbyTAP"
"1111","KDELR1","QNPbyTAP"
"1112","KDELR3","QNPbyTAP"
"1113","KDM2A","QNPbyTAP"
"1114","KDM6B","QNPbyTAP"
"1115","KDM8","QNPbyTAP"
"1116","KDSR","QNPbyTAP"
"1117","KHNYN","QNPbyTAP"
"1118","KIF11","QNPbyTAP"
"1119","KIF18B","QNPbyTAP"
"1120","KIF1A","QNPbyTAP"
"1121","KIF1C","QNPbyTAP"
"1122","KIF20B","QNPbyTAP"
"1123","KIF22","QNPbyTAP"
"1124","KIF3A","QNPbyTAP"
"1125","KIF5A","QNPbyTAP"
"1126","KIF7","QNPbyTAP"
"1127","KITLG","QNPbyTAP"
"1128","KLC2","QNPbyTAP"
"1129","KLF13","QNPbyTAP"
"1130","KLF4","QNPbyTAP"
"1131","KLF5","QNPbyTAP"
"1132","KLF6","QNPbyTAP"
"1133","KLF9","QNPbyTAP"
"1134","KLHL11","QNPbyTAP"
"1135","KLHL21","QNPbyTAP"
"1136","KLHL25","QNPbyTAP"
"1137","KLRD1","QNPbyTAP"
"1138","KMT2B","QNPbyTAP"
"1139","KMT5B","QNPbyTAP"
"1140","KPNA1","QNPbyTAP"
"1141","KPNA2","QNPbyTAP"
"1142","KPNA4","QNPbyTAP"
"1143","KPNB1","QNPbyTAP"
"1144","KRT10","QNPbyTAP"
"1145","KRT15","QNPbyTAP"
"1146","KSR1","QNPbyTAP"
"1147","LACTB","QNPbyTAP"
"1148","LAMA5","QNPbyTAP"
"1149","LAMC1","QNPbyTAP"
"1150","LAMP1","QNPbyTAP"
"1151","LAMTOR1","QNPbyTAP"
"1152","LAPTM4A","QNPbyTAP"
"1153","LARP1","QNPbyTAP"
"1154","LASP1","QNPbyTAP"
"1155","LBX1","QNPbyTAP"
"1156","LCAT","QNPbyTAP"
"1157","LCMT1","QNPbyTAP"
"1158","LCMT2","QNPbyTAP"
"1159","LDB1","QNPbyTAP"
"1160","LDHA","QNPbyTAP"
"1161","LDLR","QNPbyTAP"
"1162","LFNG","QNPbyTAP"
"1163","LGALS1","QNPbyTAP"
"1164","LGALS3BP","QNPbyTAP"
"1165","LGALS13","QNPbyTAP"
"1166","LGI4","QNPbyTAP"
"1167","LHPP","QNPbyTAP"
"1168","LIG1","QNPbyTAP"
"1169","LIG3","QNPbyTAP"
"1170","LIG4","QNPbyTAP"
"1171","LIMD2","QNPbyTAP"
"1172","LIN37","QNPbyTAP"
"1173","LIN7B","QNPbyTAP"
"1174","LINS1","QNPbyTAP"
"1175","LIPA","QNPbyTAP"
"1176","LIPE","QNPbyTAP"
"1177","LIPT2","QNPbyTAP"
"1178","LITAF","QNPbyTAP"
"1179","LIX1L","QNPbyTAP"
"1180","LLGL1","QNPbyTAP"
"1181","LMAN2","QNPbyTAP"
"1182","LMF1","QNPbyTAP"
"1183","LMF2","QNPbyTAP"
"1184","LMNA","QNPbyTAP"
"1185","LMO1","QNPbyTAP"
"1186","C1orf74","QNPbyTAP"
"1187","FTL","QNPbyTAP"
"1188","PSMB6","QNPbyTAP"
"1189","PRMT1","QNPbyTAP"
"1190","ACTG1","QNPbyTAP"
"1191","CHCHD4","QNPbyTAP"
"1192","RPL30","QNPbyTAP"
"1193","PPP2CA","QNPbyTAP"
"1194","TMSB10","QNPbyTAP"
"1195","GNS","QNPbyTAP"
"1196","ZNF239","QNPbyTAP"
"1197","KCNK6","QNPbyTAP"
"1198","UBALD1","QNPbyTAP"
"1199","FUOM","QNPbyTAP"
"1200","HMGN1","QNPbyTAP"
"1201","ZFP36L2","QNPbyTAP"
"1202","NATD1","QNPbyTAP"
"1203","C12orf57","QNPbyTAP"
"1204","CD151","QNPbyTAP"
"1205","C17orf100","QNPbyTAP"
"1206","MIEN1","QNPbyTAP"
"1207","RAB1B","QNPbyTAP"
"1208","HNRNPAB","QNPbyTAP"
"1209","SELENOW","QNPbyTAP"
"1210","NHP2","QNPbyTAP"
"1211","POLR2I","QNPbyTAP"
"1212","PPP2CA","QNPbyTAP"
"1213","CLIP3","QNPbyTAP"
"1214","COMMD5","QNPbyTAP"
"1215","PCDHB7","QNPbyTAP"
"1216","PCDHB6","QNPbyTAP"
"1217","GNG5","QNPbyTAP"
"1218","RPL35A","QNPbyTAP"
"1219","GAPDH","QNPbyTAP"
"1220","RPL27A","QNPbyTAP"
"1221","C17orf53","QNPbyTAP"
"1222","CDV3","QNPbyTAP"
"1223","C9orf40","QNPbyTAP"
"1224","C7orf31","QNPbyTAP"
"1225","C8orf33","QNPbyTAP"
"1226","C6orf226","QNPbyTAP"
"1227","HNRNPA0","QNPbyTAP"
"1228","C19orf12","QNPbyTAP"
"1229","C19orf71","QNPbyTAP"
"1230","SAA2","QNPbyTAP"
"1231","C17orf98","QNPbyTAP"
"1232","LOXL3","QNPbyTAP"
"1233","LPXN","QNPbyTAP"
"1234","LRCH1","QNPbyTAP"
"1235","LRCH4","QNPbyTAP"
"1236","LRFN3","QNPbyTAP"
"1237","LRP1","QNPbyTAP"
"1238","LRP10","QNPbyTAP"
"1239","LRP3","QNPbyTAP"
"1240","LRP4","QNPbyTAP"
"1241","LRP5","QNPbyTAP"
"1242","LRPAP1","QNPbyTAP"
"1243","LRRC46","QNPbyTAP"
"1244","LRRC4B","QNPbyTAP"
"1245","LRRC58","QNPbyTAP"
"1246","LRRC59","QNPbyTAP"
"1247","LRRC75A","QNPbyTAP"
"1248","LRRC8A","QNPbyTAP"
"1249","LRRC8C","QNPbyTAP"
"1250","LRRK1","QNPbyTAP"
"1251","LRRK2","QNPbyTAP"
"1252","LRRN4CL","QNPbyTAP"
"1253","LRTOMT","QNPbyTAP"
"1254","LSAMP","QNPbyTAP"
"1255","LSM12","QNPbyTAP"
"1256","LSM14A","QNPbyTAP"
"1257","LSP1","QNPbyTAP"
"1258","LSR","QNPbyTAP"
"1259","LTBP3","QNPbyTAP"
"1260","LTBP4","QNPbyTAP"
"1261","LTN1","QNPbyTAP"
"1262","LTO1","QNPbyTAP"
"1263","LUC7L","QNPbyTAP"
"1264","LUC7L3","QNPbyTAP"
"1265","LYPLA2","QNPbyTAP"
"1266","LYRM1","QNPbyTAP"
"1267","LYRM7","QNPbyTAP"
"1268","LYRM9","QNPbyTAP"
"1269","LYSMD3","QNPbyTAP"
"1270","LZTS2","QNPbyTAP"
"1271","MAD2L1BP","QNPbyTAP"
"1272","MAEA","QNPbyTAP"
"1273","MAFB","QNPbyTAP"
"1274","MAFF","QNPbyTAP"
"1275","MAFG","QNPbyTAP"
"1276","MAFK","QNPbyTAP"
"1277","MAGED1","QNPbyTAP"
"1278","MAGEH1","QNPbyTAP"
"1279","MAML1","QNPbyTAP"
"1280","MAN1B1","QNPbyTAP"
"1281","MAN2A2","QNPbyTAP"
"1282","MANEA","QNPbyTAP"
"1283","MAP1A","QNPbyTAP"
"1284","MAP1B","QNPbyTAP"
"1285","MAP1LC3A","QNPbyTAP"
"1286","MAP2K4","QNPbyTAP"
"1287","MAP2K6","QNPbyTAP"
"1288","MAP3K10","QNPbyTAP"
"1289","MAP3K11","QNPbyTAP"
"1290","MAP3K14","QNPbyTAP"
"1291","MAP3K3","QNPbyTAP"
"1292","MAP4K2","QNPbyTAP"
"1293","MAP6","QNPbyTAP"
"1294","MAPK1IP1L","QNPbyTAP"
"1295","MAPK3","QNPbyTAP"
"1296","MAPK8IP1","QNPbyTAP"
"1297","MAPK8IP3","QNPbyTAP"
"1298","MAPK9","QNPbyTAP"
"1299","MAPKBP1","QNPbyTAP"
"1300","MAPT","QNPbyTAP"
"1301","MARCH2","QNPbyTAP"
"1302","MARCH5","QNPbyTAP"
"1303","MARCH8","QNPbyTAP"
"1304","MARK2","QNPbyTAP"
"1305","MARK4","QNPbyTAP"
"1306","MAST3","QNPbyTAP"
"1307","MAT2B","QNPbyTAP"
"1308","MATR3","QNPbyTAP"
"1309","MAVS","QNPbyTAP"
"1310","MAZ","QNPbyTAP"
"1311","MBD6","QNPbyTAP"
"1312","MBTD1","QNPbyTAP"
"1313","MCAT","QNPbyTAP"
"1314","MCEE","QNPbyTAP"
"1315","MCMBP","QNPbyTAP"
"1316","MCRIP1","QNPbyTAP"
"1317","MDH1","QNPbyTAP"
"1318","MDP1","QNPbyTAP"
"1319","MED1","QNPbyTAP"
"1320","MED10","QNPbyTAP"
"1321","MED11","QNPbyTAP"
"1322","MED13","QNPbyTAP"
"1323","MED13L","QNPbyTAP"
"1324","MED24","QNPbyTAP"
"1325","MED25","QNPbyTAP"
"1326","MED29","QNPbyTAP"
"1327","MED31","QNPbyTAP"
"1328","MED9","QNPbyTAP"
"1329","MEF2A","QNPbyTAP"
"1330","MEGF8","QNPbyTAP"
"1331","MEIS3","QNPbyTAP"
"1332","MEN1","QNPbyTAP"
"1333","MESD","QNPbyTAP"
"1334","MESP2","QNPbyTAP"
"1335","METRN","QNPbyTAP"
"1336","METTL22","QNPbyTAP"
"1337","METTL23","QNPbyTAP"
"1338","METTL2A","QNPbyTAP"
"1339","METTL9","QNPbyTAP"
"1340","MEX3B","QNPbyTAP"
"1341","MEX3D","QNPbyTAP"
"1342","MFAP3","QNPbyTAP"
"1343","MFGE8","QNPbyTAP"
"1344","MFSD11","QNPbyTAP"
"1345","MFSD13A","QNPbyTAP"
"1346","MFSD5","QNPbyTAP"
"1347","MFSD6","QNPbyTAP"
"1348","MGARP","QNPbyTAP"
"1349","MGAT1","QNPbyTAP"
"1350","MGAT2","QNPbyTAP"
"1351","MGAT4A","QNPbyTAP"
"1352","MGAT4B","QNPbyTAP"
"1353","MGAT5B","QNPbyTAP"
"1354","C17orf80","QNPbyTAP"
"1355","MGRN1","QNPbyTAP"
"1356","MIA","QNPbyTAP"
"1357","MID2","QNPbyTAP"
"1358","MIEF2","QNPbyTAP"
"1359","MIF4GD","QNPbyTAP"
"1360","MINK1","QNPbyTAP"
"1361","MINPP1","QNPbyTAP"
"1362","MIP","QNPbyTAP"
"1363","MIR129-2","QNPbyTAP"
"1364","MIR195","QNPbyTAP"
"1365","MIR21","QNPbyTAP"
"1366","MIR22","QNPbyTAP"
"1367","MIR27B","QNPbyTAP"
"1368","MIR9-3","QNPbyTAP"
"1369","MIR9-3","QNPbyTAP"
"1370","MIR365B","QNPbyTAP"
"1371","MIR497","QNPbyTAP"
"1372","MIR99A","QNPbyTAP"
"1373","MIRLET7C","QNPbyTAP"
"1374","MIRLET7I","QNPbyTAP"
"1375","MIS12","QNPbyTAP"
"1376","MIS18A","QNPbyTAP"
"1377","PFN1","QNPbyTAP"
"1378","MKI67","QNPbyTAP"
"1379","MKRN3","QNPbyTAP"
"1380","MKS1","QNPbyTAP"
"1381","MLLT6","QNPbyTAP"
"1382","MLST8","QNPbyTAP"
"1383","MLX","QNPbyTAP"
"1384","MLXIP","QNPbyTAP"
"1385","MMD","QNPbyTAP"
"1386","MMP11","QNPbyTAP"
"1387","MMP19","QNPbyTAP"
"1388","MNT","QNPbyTAP"
"1389","MOB2","QNPbyTAP"
"1390","MOB3A","QNPbyTAP"
"1391","MOCS2","QNPbyTAP"
"1392","MOCS3","QNPbyTAP"
"1393","MON1A","QNPbyTAP"
"1394","MON1B","QNPbyTAP"
"1395","MORC3","QNPbyTAP"
"1396","MORN4","QNPbyTAP"
"1397","MOSMO","QNPbyTAP"
"1398","MPDU1","QNPbyTAP"
"1399","MPG","QNPbyTAP"
"1400","MPHOSPH10","QNPbyTAP"
"1401","MPP2","QNPbyTAP"
"1402","MPRIP","QNPbyTAP"
"1403","MPV17L2","QNPbyTAP"
"1404","MRFAP1","QNPbyTAP"
"1405","MRGPRF","QNPbyTAP"
"1406","MRM1","QNPbyTAP"
"1407","MRM3","QNPbyTAP"
"1408","MRNIP","QNPbyTAP"
"1409","MRPL10","QNPbyTAP"
"1410","MRPL11","QNPbyTAP"
"1411","MRPL12","QNPbyTAP"
"1412","MRPL16","QNPbyTAP"
"1413","MRPL17","QNPbyTAP"
"1414","MRPL21","QNPbyTAP"
"1415","MRPL22","QNPbyTAP"
"1416","MRPL23","QNPbyTAP"
"1417","MRPL27","QNPbyTAP"
"1418","MRPL28","QNPbyTAP"
"1419","MRPL38","QNPbyTAP"
"1420","MRPL40","QNPbyTAP"
"1421","MRPL43","QNPbyTAP"
"1422","MRPL45","QNPbyTAP"
"1423","MRPL46","QNPbyTAP"
"1424","MRPL48","QNPbyTAP"
"1425","MRPL49","QNPbyTAP"
"1426","MRPL55","QNPbyTAP"
"1427","MRPL58","QNPbyTAP"
"1428","MRPS15","QNPbyTAP"
"1429","MRPS23","QNPbyTAP"
"1430","MRPS25","QNPbyTAP"
"1431","MRPS34","QNPbyTAP"
"1432","MRPS6","QNPbyTAP"
"1433","MRPS7","QNPbyTAP"
"1434","MSI2","QNPbyTAP"
"1435","MSL1","QNPbyTAP"
"1436","MSN","QNPbyTAP"
"1437","MSRB1","QNPbyTAP"
"1438","MSX1","QNPbyTAP"
"1439","MT3","QNPbyTAP"
"1440","MTA2","QNPbyTAP"
"1441","MTCH1","QNPbyTAP"
"1442","MTG1","QNPbyTAP"
"1443","MTMR10","QNPbyTAP"
"1444","MTMR11","QNPbyTAP"
"1445","MTMR4","QNPbyTAP"
"1446","MTMR6","QNPbyTAP"
"1447","MUS81","QNPbyTAP"
"1448","MUSTN1","QNPbyTAP"
"1449","MVB12A","QNPbyTAP"
"1450","MVD","QNPbyTAP"
"1451","MVP","QNPbyTAP"
"1452","MX1","QNPbyTAP"
"1453","MXI1","QNPbyTAP"
"1454","MXRA8","QNPbyTAP"
"1455","MYADML2","QNPbyTAP"
"1456","MYBBP1A","QNPbyTAP"
"1457","MYBPC2","QNPbyTAP"
"1458","MYCN","QNPbyTAP"
"1459","MYD88","QNPbyTAP"
"1460","MYH10","QNPbyTAP"
"1461","MYH14","QNPbyTAP"
"1462","MYH3","QNPbyTAP"
"1463","MYL12A","QNPbyTAP"
"1464","MYL12B","QNPbyTAP"
"1465","MYL6","QNPbyTAP"
"1466","MYL9","QNPbyTAP"
"1467","MYO18A","QNPbyTAP"
"1468","MYO19","QNPbyTAP"
"1469","MYO1C","QNPbyTAP"
"1470","MYOF","QNPbyTAP"
"1471","MYPOP","QNPbyTAP"
"1472","MYRF","QNPbyTAP"
"1473","MZF1","QNPbyTAP"
"1474","N6AMT1","QNPbyTAP"
"1475","NAA38","QNPbyTAP"
"1476","NAA40","QNPbyTAP"
"1477","NAA50","QNPbyTAP"
"1478","NAA60","QNPbyTAP"
"1479","NAALADL1","QNPbyTAP"
"1480","NACC2","QNPbyTAP"
"1481","NADSYN1","QNPbyTAP"
"1482","NAGA","QNPbyTAP"
"1483","NAGK","QNPbyTAP"
"1484","NAGLU","QNPbyTAP"
"1485","NAGPA","QNPbyTAP"
"1486","NANOS1","QNPbyTAP"
"1487","NAP1L4","QNPbyTAP"
"1488","NAPA","QNPbyTAP"
"1489","NARF","QNPbyTAP"
"1490","NARS2","QNPbyTAP"
"1491","NAT9","QNPbyTAP"
"1492","NAV2","QNPbyTAP"
"1493","NBR1","QNPbyTAP"
"1494","NCAN","QNPbyTAP"
"1495","NCBP2","QNPbyTAP"
"1496","NCK2","QNPbyTAP"
"1497","NCLN","QNPbyTAP"
"1498","NCOR1","QNPbyTAP"
"1499","NCS1","QNPbyTAP"
"1500","NCSTN","QNPbyTAP"
"1501","NDE1","QNPbyTAP"
"1502","NDEL1","QNPbyTAP"
"1503","NDRG4","QNPbyTAP"
"1504","NDUFA13","QNPbyTAP"
"1505","NDUFAB1","QNPbyTAP"
"1506","NDUFAF8","QNPbyTAP"
"1507","NDUFB10","QNPbyTAP"
"1508","NDUFB4","QNPbyTAP"
"1509","NDUFB7","QNPbyTAP"
"1510","NDUFB8","QNPbyTAP"
"1511","NDUFC1","QNPbyTAP"
"1512","NDUFC2-KCTD14","QNPbyTAP"
"1513","NDUFS7","QNPbyTAP"
"1514","NDUFS8","QNPbyTAP"
"1515","NDUFV1","QNPbyTAP"
"1516","NECAP2","QNPbyTAP"
"1517","NECTIN1","QNPbyTAP"
"1518","NECTIN2","QNPbyTAP"
"1519","NEDD9","QNPbyTAP"
"1520","NEPRO","QNPbyTAP"
"1521","NEU1","QNPbyTAP"
"1522","NEU3","QNPbyTAP"
"1523","NEURL1B","QNPbyTAP"
"1524","NEURL4","QNPbyTAP"
"1525","DKK1","QNPbyTAP"
"1526","NF1","QNPbyTAP"
"1527","NFATC2IP","QNPbyTAP"
"1528","NFE2L1","QNPbyTAP"
"1529","NFKB2","QNPbyTAP"
"1530","NFKBIB","QNPbyTAP"
"1531","NFKBID","QNPbyTAP"
"1532","NFKBIE","QNPbyTAP"
"1533","NFKBIZ","QNPbyTAP"
"1534","NGFR","QNPbyTAP"
"1535","NGRN","QNPbyTAP"
"1536","NHLRC2","QNPbyTAP"
"1537","NINJ1","QNPbyTAP"
"1538","NIPA2","QNPbyTAP"
"1539","NIT2","QNPbyTAP"
"1540","NKIRAS2","QNPbyTAP"
"1541","NKX6-1","QNPbyTAP"
"1542","NLE1","QNPbyTAP"
"1543","NLGN2","QNPbyTAP"
"1544","NLK","QNPbyTAP"
"1545","NLRC3","QNPbyTAP"
"1546","NLRP1","QNPbyTAP"
"1547","NME1","QNPbyTAP"
"1548","NME2","QNPbyTAP"
"1549","NME3","QNPbyTAP"
"1550","NMNAT1","QNPbyTAP"
"1551","NMRAL1","QNPbyTAP"
"1552","NMRK1","QNPbyTAP"
"1553","NMT1","QNPbyTAP"
"1554","NNAT","QNPbyTAP"
"1555","NOC3L","QNPbyTAP"
"1556","NOG","QNPbyTAP"
"1557","NOL11","QNPbyTAP"
"1558","NOL6","QNPbyTAP"
"1559","NOLC1","QNPbyTAP"
"1560","NOMO1","QNPbyTAP"
"1561","NOP53","QNPbyTAP"
"1562","NOSIP","QNPbyTAP"
"1563","NOTCH1","QNPbyTAP"
"1564","NOTCH2","QNPbyTAP"
"1565","NOTUM","QNPbyTAP"
"1566","NPAS1","QNPbyTAP"
"1567","NPC1","QNPbyTAP"
"1568","NPC2","QNPbyTAP"
"1569","NPEPL1","QNPbyTAP"
"1570","NPEPPS","QNPbyTAP"
"1571","NPLOC4","QNPbyTAP"
"1572","NPM3","QNPbyTAP"
"1573","NPR3","QNPbyTAP"
"1574","NPRL3","QNPbyTAP"
"1575","NPTXR","QNPbyTAP"
"1576","NQO1","QNPbyTAP"
"1577","NR1D1","QNPbyTAP"
"1578","NR1I3","QNPbyTAP"
"1579","NR2F2","QNPbyTAP"
"1580","TNFRSF10C","QNPbyTAP"
"1581","NRIP1","QNPbyTAP"
"1582","NRIP3","QNPbyTAP"
"1583","NRXN2","QNPbyTAP"
"1584","NSF","QNPbyTAP"
"1585","NSG2","QNPbyTAP"
"1586","NSMCE1","QNPbyTAP"
"1587","NSMF","QNPbyTAP"
"1588","NSRP1","QNPbyTAP"
"1589","NSUN3","QNPbyTAP"
"1590","NT5C2","QNPbyTAP"
"1591","NT5C3B","QNPbyTAP"
"1592","NTF4","QNPbyTAP"
"1593","NTHL1","QNPbyTAP"
"1594","NTN1","QNPbyTAP"
"1595","NTRK3","QNPbyTAP"
"1596","NUBP1","QNPbyTAP"
"1597","NUBP2","QNPbyTAP"
"1598","NUCB2","QNPbyTAP"
"1599","NUDCD2","QNPbyTAP"
"1600","NUDT16","QNPbyTAP"
"1601","NUDT19","QNPbyTAP"
"1602","NUDT22","QNPbyTAP"
"1603","NUDT4B","QNPbyTAP"
"1604","NUDT6","QNPbyTAP"
"1605","NUFIP2","QNPbyTAP"
"1606","NUMA1","QNPbyTAP"
"1607","NUMBL","QNPbyTAP"
"1608","NUP214","QNPbyTAP"
"1609","NUP62","QNPbyTAP"
"1610","NUP85","QNPbyTAP"
"1611","NUP88","QNPbyTAP"
"1612","NUP98","QNPbyTAP"
"1613","NXF1","QNPbyTAP"
"1614","NXN","QNPbyTAP"
"1615","NXPE3","QNPbyTAP"
"1616","NXPH1","QNPbyTAP"
"1617","OAF","QNPbyTAP"
"1618","OAT","QNPbyTAP"
"1619","OAZ1","QNPbyTAP"
"1620","OCEL1","QNPbyTAP"
"1621","OGA","QNPbyTAP"
"1622","OGFOD3","QNPbyTAP"
"1623","OLFML2A","QNPbyTAP"
"1624","OLIG1","QNPbyTAP"
"1625","OLIG2","QNPbyTAP"
"1626","OR2Y1","QNPbyTAP"
"1627","OR2T4","QNPbyTAP"
"1628","OR1D2","QNPbyTAP"
"1629","OR5H1","QNPbyTAP"
"1630","OR5H1","QNPbyTAP"
"1631","OR5H1","QNPbyTAP"
"1632","OR5K4","QNPbyTAP"
"1633","OR2AG2","QNPbyTAP"
"1634","OR2AG2","QNPbyTAP"
"1635","OR2AG2","QNPbyTAP"
"1636","OR5P2","QNPbyTAP"
"1637","OR5A1","QNPbyTAP"
"1638","OR5B3","QNPbyTAP"
"1639","OR9I1","QNPbyTAP"
"1640","OR52B4","QNPbyTAP"
"1641","OR51C1P","QNPbyTAP"
"1642","OR52J3","QNPbyTAP"
"1643","OR2AP1","QNPbyTAP"
"1644","OPLAH","QNPbyTAP"
"1645","ORAI1","QNPbyTAP"
"1646","ORAI3","QNPbyTAP"
"1647","ORMDL3","QNPbyTAP"
"1648","OSBP","QNPbyTAP"
"1649","OSBPL11","QNPbyTAP"
"1650","OSBPL5","QNPbyTAP"
"1651","OSR2","QNPbyTAP"
"1652","OSTF1","QNPbyTAP"
"1653","OSTM1","QNPbyTAP"
"1654","OTUB1","QNPbyTAP"
"1655","OTUD1","QNPbyTAP"
"1656","P2RX4","QNPbyTAP"
"1657","P3H4","QNPbyTAP"
"1658","P4HA3","QNPbyTAP"
"1659","P4HB","QNPbyTAP"
"1660","PACSIN3","QNPbyTAP"
"1661","PAF1","QNPbyTAP"
"1662","PAFAH1B1","QNPbyTAP"
"1663","PAFAH1B3","QNPbyTAP"
"1664","PAGR1","QNPbyTAP"
"1665","PAK2","QNPbyTAP"
"1666","PAK4","QNPbyTAP"
"1667","PALB2","QNPbyTAP"
"1668","PAM16","QNPbyTAP"
"1669","PANK1","QNPbyTAP"
"1670","PANK3","QNPbyTAP"
"1671","PAPSS2","QNPbyTAP"
"1672","PAQR4","QNPbyTAP"
"1673","PARN","QNPbyTAP"
"1674","PARP14","QNPbyTAP"
"1675","PARP3","QNPbyTAP"
"1676","PARP9","QNPbyTAP"
"1677","PARVA","QNPbyTAP"
"1678","PARVB","QNPbyTAP"
"1679","PATL1","QNPbyTAP"
"1680","PAXBP1","QNPbyTAP"
"1681","PC","QNPbyTAP"
"1682","PCDHB5","QNPbyTAP"
"1683","PCDHB5","QNPbyTAP"
"1684","PCDHB5","QNPbyTAP"
"1685","PCDHB2","QNPbyTAP"
"1686","PCDHB15","QNPbyTAP"
"1687","PCDHB3","QNPbyTAP"
"1688","PCF11","QNPbyTAP"
"1689","PCGF2","QNPbyTAP"
"1690","PCGF5","QNPbyTAP"
"1691","PCGF6","QNPbyTAP"
"1692","PCNX3","QNPbyTAP"
"1693","PCSK6","QNPbyTAP"
"1694","PCYT1A","QNPbyTAP"
"1695","PCYT2","QNPbyTAP"
"1696","PDCD11","QNPbyTAP"
"1697","PDCD2L","QNPbyTAP"
"1698","PDCD4","QNPbyTAP"
"1699","PDE3B","QNPbyTAP"
"1700","PDE8A","QNPbyTAP"
"1701","PDK2","QNPbyTAP"
"1702","PDLIM1","QNPbyTAP"
"1703","PDLIM7","QNPbyTAP"
"1704","PDPK1","QNPbyTAP"
"1705","PDRG1","QNPbyTAP"
"1706","PDZD11","QNPbyTAP"
"1707","PDZD8","QNPbyTAP"
"1708","PDZD9","QNPbyTAP"
"1709","PEAK1","QNPbyTAP"
"1710","PEF1","QNPbyTAP"
"1711","PELI1","QNPbyTAP"
"1712","PELP1","QNPbyTAP"
"1713","PET100","QNPbyTAP"
"1714","PEX11A","QNPbyTAP"
"1715","PEX12","QNPbyTAP"
"1716","PEX16","QNPbyTAP"
"1717","PFAS","QNPbyTAP"
"1718","PFN1","QNPbyTAP"
"1719","PGAP2","QNPbyTAP"
"1720","PGK1","QNPbyTAP"
"1721","PGM1","QNPbyTAP"
"1722","PGM2","QNPbyTAP"
"1723","PGM2L1","QNPbyTAP"
"1724","PGM3","QNPbyTAP"
"1725","PGP","QNPbyTAP"
"1726","PGS1","QNPbyTAP"
"1727","PHF12","QNPbyTAP"
"1728","PHF23","QNPbyTAP"
"1729","PHLDA1","QNPbyTAP"
"1730","PHLDA3","QNPbyTAP"
"1731","PHLDB3","QNPbyTAP"
"1732","PHOSPHO1","QNPbyTAP"
"1733","PHRF1","QNPbyTAP"
"1734","PHYHD1","QNPbyTAP"
"1735","PHYHIPL","QNPbyTAP"
"1736","PI4K2A","QNPbyTAP"
"1737","PI4K2B","QNPbyTAP"
"1738","PIANP","QNPbyTAP"
"1739","PIAS4","QNPbyTAP"
"1740","PICALM","QNPbyTAP"
"1741","PIDD1","QNPbyTAP"
"1742","PIGH","QNPbyTAP"
"1743","PIGL","QNPbyTAP"
"1744","PIGP","QNPbyTAP"
"1745","PIGQ","QNPbyTAP"
"1746","PIGS","QNPbyTAP"
"1747","PIGW","QNPbyTAP"
"1748","PIGX","QNPbyTAP"
"1749","PIH1D1","QNPbyTAP"
"1750","PIK3C2A","QNPbyTAP"
"1751","PIMREG","QNPbyTAP"
"1752","PINK1","QNPbyTAP"
"1753","PIP4K2B","QNPbyTAP"
"1754","PIP4K2C","QNPbyTAP"
"1755","PIP4P1","QNPbyTAP"
"1756","PIP5K1B","QNPbyTAP"
"1757","PITPNA","QNPbyTAP"
"1758","PITPNM1","QNPbyTAP"
"1759","PKD1","QNPbyTAP"
"1760","PKM","QNPbyTAP"
"1761","PLAT","QNPbyTAP"
"1762","PLBD2","QNPbyTAP"
"1763","PLCB3","QNPbyTAP"
"1764","PLCD1","QNPbyTAP"
"1765","PLCE1","QNPbyTAP"
"1766","PLCG1","QNPbyTAP"
"1767","PLD3","QNPbyTAP"
"1768","PLEC","QNPbyTAP"
"1769","PLEKHA1","QNPbyTAP"
"1770","PLEKHA3","QNPbyTAP"
"1771","PLEKHA4","QNPbyTAP"
"1772","PLEKHA7","QNPbyTAP"
"1773","PLEKHB1","QNPbyTAP"
"1774","PLEKHG2","QNPbyTAP"
"1775","PLEKHH3","QNPbyTAP"
"1776","PLEKHM1","QNPbyTAP"
"1777","PLGRKT","QNPbyTAP"
"1778","PLK1","QNPbyTAP"
"1779","PLK2","QNPbyTAP"
"1780","PLOD3","QNPbyTAP"
"1781","PLPP4","QNPbyTAP"
"1782","PLSCR3","QNPbyTAP"
"1783","PLXDC1","QNPbyTAP"
"1784","PLXNA1","QNPbyTAP"
"1785","PLXND1","QNPbyTAP"
"1786","PMM2","QNPbyTAP"
"1787","PMP22","QNPbyTAP"
"1788","PNKP","QNPbyTAP"
"1789","PNLIP","QNPbyTAP"
"1790","PNMA8B","QNPbyTAP"
"1791","PNP","QNPbyTAP"
"1792","POFUT2","QNPbyTAP"
"1793","POGLUT1","QNPbyTAP"
"1794","POLA2","QNPbyTAP"
"1795","POLD1","QNPbyTAP"
"1796","POLD4","QNPbyTAP"
"1797","POLDIP2","QNPbyTAP"
"1798","POLG","QNPbyTAP"
"1799","POLG2","QNPbyTAP"
"1800","POLL","QNPbyTAP"
"1801","POLQ","QNPbyTAP"
"1802","POLR2A","QNPbyTAP"
"1803","POLR2C","QNPbyTAP"
"1804","POLR2G","QNPbyTAP"
"1805","POLR3D","QNPbyTAP"
"1806","POLR3E","QNPbyTAP"
"1807","POLRMT","QNPbyTAP"
"1808","POMGNT1","QNPbyTAP"
"1809","POP4","QNPbyTAP"
"1810","POR","QNPbyTAP"
"1811","POU3F2","QNPbyTAP"
"1812","POU3F3","QNPbyTAP"
"1813","PPFIA1","QNPbyTAP"
"1814","PPFIA3","QNPbyTAP"
"1815","PPM1D","QNPbyTAP"
"1816","PPME1","QNPbyTAP"
"1817","PPP1CA","QNPbyTAP"
"1818","PPP1R11","QNPbyTAP"
"1819","PPP1R13L","QNPbyTAP"
"1820","PPP1R14B","QNPbyTAP"
"1821","PPP1R15A","QNPbyTAP"
"1822","PPP1R16A","QNPbyTAP"
"1823","PPP1R1B","QNPbyTAP"
"1824","PPP1R37","QNPbyTAP"
"1825","PPP1R3C","QNPbyTAP"
"1826","PPP1R3D","QNPbyTAP"
"1827","PPP1R9B","QNPbyTAP"
"1828","PPP2R2D","QNPbyTAP"
"1829","PPP2R5B","QNPbyTAP"
"1830","PPP4C","QNPbyTAP"
"1831","PPP4R1","QNPbyTAP"
"1832","PPP5C","QNPbyTAP"
"1833","PPP6R3","QNPbyTAP"
"1834","PPRC1","QNPbyTAP"
"1835","PQLC2","QNPbyTAP"
"1836","PQLC3","QNPbyTAP"
"1837","PRC1","QNPbyTAP"
"1838","PRCP","QNPbyTAP"
"1839","PRDM15","QNPbyTAP"
"1840","PRDX3","QNPbyTAP"
"1841","PRDX5","QNPbyTAP"
"1842","PRDX6","QNPbyTAP"
"1843","PRKAB1","QNPbyTAP"
"1844","PRKACB","QNPbyTAP"
"1845","PRKAR1A","QNPbyTAP"
"1846","PRKCA","QNPbyTAP"
"1847","PRKCB","QNPbyTAP"
"1848","PRKD2","QNPbyTAP"
"1849","PRKRIP1","QNPbyTAP"
"1850","PRMT3","QNPbyTAP"
"1851","PRNP","QNPbyTAP"
"1852","PROCA1","QNPbyTAP"
"1853","PROSER1","QNPbyTAP"
"1854","PROSER3","QNPbyTAP"
"1855","PRPF19","QNPbyTAP"
"1856","PRPF8","QNPbyTAP"
"1857","PRPSAP1","QNPbyTAP"
"1858","PRPSAP2","QNPbyTAP"
"1859","PRR12","QNPbyTAP"
"1860","PRRG4","QNPbyTAP"
"1861","PRRT2","QNPbyTAP"
"1862","PRSS23","QNPbyTAP"
"1863","PRSS53","QNPbyTAP"
"1864","PRX","QNPbyTAP"
"1865","PSAT1","QNPbyTAP"
"1866","PSD","QNPbyTAP"
"1867","PSENEN","QNPbyTAP"
"1868","PSMA1","QNPbyTAP"
"1869","PSMB3","QNPbyTAP"
"1870","PSMB6","QNPbyTAP"
"1871","PSMC3","QNPbyTAP"
"1872","PSMC3IP","QNPbyTAP"
"1873","PSMC4","QNPbyTAP"
"1874","PSMC5","QNPbyTAP"
"1875","PSMD11","QNPbyTAP"
"1876","PSMD12","QNPbyTAP"
"1877","PSMD13","QNPbyTAP"
"1878","PSMD2","QNPbyTAP"
"1879","PSMD3","QNPbyTAP"
"1880","PSMD8","QNPbyTAP"
"1881","PSME2","QNPbyTAP"
"1882","PSMG1","QNPbyTAP"
"1883","PSTK","QNPbyTAP"
"1884","PTAR1","QNPbyTAP"
"1885","PTDSS2","QNPbyTAP"
"1886","PTEN","QNPbyTAP"
"1887","PTGES3L","QNPbyTAP"
"1888","PTOV1","QNPbyTAP"
"1889","PTP4A3","QNPbyTAP"
"1890","PTPN23","QNPbyTAP"
"1891","PTPN9","QNPbyTAP"
"1892","PTPRCAP","QNPbyTAP"
"1893","PTPRE","QNPbyTAP"
"1894","PTRH2","QNPbyTAP"
"1895","PTRHD1","QNPbyTAP"
"1896","PTTG1IP","QNPbyTAP"
"1897","PURA","QNPbyTAP"
"1898","PVR","QNPbyTAP"
"1899","PWWP2A","QNPbyTAP"
"1900","PWWP2B","QNPbyTAP"
"1901","PXMP4","QNPbyTAP"
"1902","PXN","QNPbyTAP"
"1903","PYCARD","QNPbyTAP"
"1904","PYCR2","QNPbyTAP"
"1905","PYGB","QNPbyTAP"
"1906","PYURF","QNPbyTAP"
"1907","QPCTL","QNPbyTAP"
"1908","QPRT","QNPbyTAP"
"1909","QSOX2","QNPbyTAP"
"1910","RAB11FIP2","QNPbyTAP"
"1911","RAB11FIP3","QNPbyTAP"
"1912","RAB22A","QNPbyTAP"
"1913","RAB26","QNPbyTAP"
"1914","RAB30","QNPbyTAP"
"1915","RAB34","QNPbyTAP"
"1916","RAB3A","QNPbyTAP"
"1917","RAB3D","QNPbyTAP"
"1918","RAB3IL1","QNPbyTAP"
"1919","RAB4B-EGLN2","QNPbyTAP"
"1920","RAB5C","QNPbyTAP"
"1921","RAB6A","QNPbyTAP"
"1922","RAB7A","QNPbyTAP"
"1923","RABAC1","QNPbyTAP"
"1924","RABEP1","QNPbyTAP"
"1925","RABEP2","QNPbyTAP"
"1926","RABL3","QNPbyTAP"
"1927","RACK1","QNPbyTAP"
"1928","RAD50","QNPbyTAP"
"1929","RAD51C","QNPbyTAP"
"1930","RAD51D","QNPbyTAP"
"1931","RAD9A","QNPbyTAP"
"1932","RAI1","QNPbyTAP"
"1933","RAI14","QNPbyTAP"
"1934","RAMAC","QNPbyTAP"
"1935","RANBP1","QNPbyTAP"
"1936","RANBP6","QNPbyTAP"
"1937","RANGRF","QNPbyTAP"
"1938","RAPGEF2","QNPbyTAP"
"1939","RAPGEF6","QNPbyTAP"
"1940","RARA","QNPbyTAP"
"1941","RARG","QNPbyTAP"
"1942","RARS","QNPbyTAP"
"1943","RASGRP2","QNPbyTAP"
"1944","RASL11B","QNPbyTAP"
"1945","RASSF1","QNPbyTAP"
"1946","RASSF7","QNPbyTAP"
"1947","RBBP6","QNPbyTAP"
"1948","RBCK1","QNPbyTAP"
"1949","RBFA","QNPbyTAP"
"1950","RBFOX3","QNPbyTAP"
"1951","RBM14","QNPbyTAP"
"1952","RBM15B","QNPbyTAP"
"1953","RBM22","QNPbyTAP"
"1954","RBM25","QNPbyTAP"
"1955","RBM4","QNPbyTAP"
"1956","RBM42","QNPbyTAP"
"1957","RBM4B","QNPbyTAP"
"1958","RBMS1","QNPbyTAP"
"1959","RBP4","QNPbyTAP"
"1960","RCAN1","QNPbyTAP"
"1961","RCCD1","QNPbyTAP"
"1962","RCE1","QNPbyTAP"
"1963","RCL1","QNPbyTAP"
"1964","RCN3","QNPbyTAP"
"1965","RCVRN","QNPbyTAP"
"1966","RDM1","QNPbyTAP"
"1967","RECK","QNPbyTAP"
"1968","RECQL5","QNPbyTAP"
"1969","REEP4","QNPbyTAP"
"1970","RELA","QNPbyTAP"
"1971","RELL1","QNPbyTAP"
"1972","RELT","QNPbyTAP"
"1973","RETREG3","QNPbyTAP"
"1974","RETSAT","QNPbyTAP"
"1975","REXO5","QNPbyTAP"
"1976","RFC3","QNPbyTAP"
"1977","RFFL","QNPbyTAP"
"1978","RFK","QNPbyTAP"
"1979","RFLNB","QNPbyTAP"
"1980","RFX3","QNPbyTAP"
"1981","C1orf35","QNPbyTAP"
"1982","KIAA0753","QNPbyTAP"
"1983","C10orf88","QNPbyTAP"
"1984","C9orf78","QNPbyTAP"
"1985","MAP11","QNPbyTAP"
"1986","C15orf40","QNPbyTAP"
"1987","C19orf47","QNPbyTAP"
"1988","KIAA0100","QNPbyTAP"
"1989","RNASEK-C17orf49","QNPbyTAP"
"1990","KIAA0355","QNPbyTAP"
"1991","C11orf54","QNPbyTAP"
"1992","C16orf72","QNPbyTAP"
"1993","C16orf58","QNPbyTAP"
"1994","C5orf15","QNPbyTAP"
"1995","C17orf75","QNPbyTAP"
"1996","KIAA2026","QNPbyTAP"
"1997","C11orf58","QNPbyTAP"
"1998","C11orf24","QNPbyTAP"
"1999","C19orf25","QNPbyTAP"
"2000","C9orf85","QNPbyTAP"
"2001","RPL17-C18orf32","QNPbyTAP"
"2002","C1orf198","QNPbyTAP"
"2003","C11orf95","QNPbyTAP"
"2004","C19orf54","QNPbyTAP"
"2005","RPS12","QNPbyTAP"
"2006","C9orf16","QNPbyTAP"
"2007","SAP18","QNPbyTAP"
"2008","C18orf32","QNPbyTAP"
"2009","RNF227","QNPbyTAP"
"2010","C11orf96","QNPbyTAP"
"2011","C17orf58","QNPbyTAP"
"2012","C17orf97","QNPbyTAP"
"2013","C16orf91","QNPbyTAP"
"2014","C1orf53","QNPbyTAP"
"2015","C11orf98","QNPbyTAP"
"2016","RGS10","QNPbyTAP"
"2017","RHBDF1","QNPbyTAP"
"2018","RHBDL3","QNPbyTAP"
"2019","RHOB","QNPbyTAP"
"2020","RHOG","QNPbyTAP"
"2021","RHOQ","QNPbyTAP"
"2022","RHOT1","QNPbyTAP"
"2023","RHOT2","QNPbyTAP"
"2024","RHPN1","QNPbyTAP"
"2025","RIC1","QNPbyTAP"
"2026","RIC8A","QNPbyTAP"
"2027","RIN1","QNPbyTAP"
"2028","RING1","QNPbyTAP"
"2029","RIPOR1","QNPbyTAP"
"2030","RLBP1","QNPbyTAP"
"2031","RMDN3","QNPbyTAP"
"2032","RNASEH2C","QNPbyTAP"
"2033","RNASEK","QNPbyTAP"
"2034","RND2","QNPbyTAP"
"2035","RND3","QNPbyTAP"
"2036","RNF112","QNPbyTAP"
"2037","RNF121","QNPbyTAP"
"2038","RNF141","QNPbyTAP"
"2039","RNF145","QNPbyTAP"
"2040","RNF166","QNPbyTAP"
"2041","RNF167","QNPbyTAP"
"2042","RNF169","QNPbyTAP"
"2043","RNF19A","QNPbyTAP"
"2044","RNF225","QNPbyTAP"
"2045","RNF26","QNPbyTAP"
"2046","RNFT1","QNPbyTAP"
"2047","RNH1","QNPbyTAP"
"2048","RNPS1","QNPbyTAP"
"2049","ROBO1","QNPbyTAP"
"2050","ROCK2","QNPbyTAP"
"2051","ROGDI","QNPbyTAP"
"2052","ROM1","QNPbyTAP"
"2053","ROMO1","QNPbyTAP"
"2054","RORB","QNPbyTAP"
"2055","RPA1","QNPbyTAP"
"2056","RPAIN","QNPbyTAP"
"2057","RPAP1","QNPbyTAP"
"2058","RPL19","QNPbyTAP"
"2059","RPL23","QNPbyTAP"
"2060","RPL27","QNPbyTAP"
"2061","RPL36","QNPbyTAP"
"2062","RPP25L","QNPbyTAP"
"2063","RPP30","QNPbyTAP"
"2064","RPPH1","QNPbyTAP"
"2065","RPRML","QNPbyTAP"
"2066","RPS11","QNPbyTAP"
"2067","RPS16","QNPbyTAP"
"2068","RPS19","QNPbyTAP"
"2069","RPS3","QNPbyTAP"
"2070","RPS5","QNPbyTAP"
"2071","RPS6KA4","QNPbyTAP"
"2072","RPS6KB1","QNPbyTAP"
"2073","RPS6KB2","QNPbyTAP"
"2074","RPTOR","QNPbyTAP"
"2075","RPUSD1","QNPbyTAP"
"2076","RRAS","QNPbyTAP"
"2077","RRAS2","QNPbyTAP"
"2078","RRM1","QNPbyTAP"
"2079","RRN3","QNPbyTAP"
"2080","RRP8","QNPbyTAP"
"2081","RSF1","QNPbyTAP"
"2082","RTF2","QNPbyTAP"
"2083","RTL3","QNPbyTAP"
"2084","RTN2","QNPbyTAP"
"2085","RTN3","QNPbyTAP"
"2086","RTN4","QNPbyTAP"
"2087","RTN4RL1","QNPbyTAP"
"2088","RUBCN","QNPbyTAP"
"2089","RUFY1","QNPbyTAP"
"2090","RUNDC1","QNPbyTAP"
"2091","RUNDC3A","QNPbyTAP"
"2092","RUVBL2","QNPbyTAP"
"2093","RWDD2B","QNPbyTAP"
"2094","S100A10","QNPbyTAP"
"2095","S100A4","QNPbyTAP"
"2096","SAE1","QNPbyTAP"
"2097","SALL2","QNPbyTAP"
"2098","SAMD4B","QNPbyTAP"
"2099","SAP18","QNPbyTAP"
"2100","SAP30BP","QNPbyTAP"
"2101","SAP30L","QNPbyTAP"
"2102","SAR1B","QNPbyTAP"
"2103","SARAF","QNPbyTAP"
"2104","SARM1","QNPbyTAP"
"2105","SARS2","QNPbyTAP"
"2106","SART1","QNPbyTAP"
"2107","SAT2","QNPbyTAP"
"2108","SATB2","QNPbyTAP"
"2109","SAV1","QNPbyTAP"
"2110","SAXO2","QNPbyTAP"
"2111","SBF1","QNPbyTAP"
"2112","SBF2","QNPbyTAP"
"2113","SBSN","QNPbyTAP"
"2114","SCAF1","QNPbyTAP"
"2115","SCAF4","QNPbyTAP"
"2116","SCAND1","QNPbyTAP"
"2117","SCARF2","QNPbyTAP"
"2118","SCD","QNPbyTAP"
"2119","SCN1B","QNPbyTAP"
"2120","SCO1","QNPbyTAP"
"2121","SCPEP1","QNPbyTAP"
"2122","SCRN1","QNPbyTAP"
"2123","SCRN2","QNPbyTAP"
"2124","SCYL1","QNPbyTAP"
"2125","SDC3","QNPbyTAP"
"2126","SDF2","QNPbyTAP"
"2127","SDHAF1","QNPbyTAP"
"2128","SDHAF2","QNPbyTAP"
"2129","SDK2","QNPbyTAP"
"2130","SEBOX","QNPbyTAP"
"2131","SEC11A","QNPbyTAP"
"2132","SEC14L1","QNPbyTAP"
"2133","SEC23IP","QNPbyTAP"
"2134","SEC24A","QNPbyTAP"
"2135","SEC31A","QNPbyTAP"
"2136","SEC61B","QNPbyTAP"
"2137","SEL1L","QNPbyTAP"
"2138","SELENOS","QNPbyTAP"
"2139","SEMA3A","QNPbyTAP"
"2140","SEMA4B","QNPbyTAP"
"2141","SEMA4G","QNPbyTAP"
"2142","SEMA5B","QNPbyTAP"
"2143","SEMA6D","QNPbyTAP"
"2144","SENP3-EIF4A1","QNPbyTAP"
"2145","SENP7","QNPbyTAP"
"2146","SEPT4","QNPbyTAP"
"2147","SEPT5","QNPbyTAP"
"2148","SEPT8","QNPbyTAP"
"2149","SERINC3","QNPbyTAP"
"2150","SERPINE1","QNPbyTAP"
"2151","SERPINE2","QNPbyTAP"
"2152","SERPINF1","QNPbyTAP"
"2153","SERPINH1","QNPbyTAP"
"2154","SERTAD1","QNPbyTAP"
"2155","SERTAD3","QNPbyTAP"
"2156","SESN3","QNPbyTAP"
"2157","SETD1A","QNPbyTAP"
"2158","SETD4","QNPbyTAP"
"2159","SETD7","QNPbyTAP"
"2160","SEZ6","QNPbyTAP"
"2161","SF1","QNPbyTAP"
"2162","SF3A1","QNPbyTAP"
"2163","SF3A2","QNPbyTAP"
"2164","SF3B2","QNPbyTAP"
"2165","SF3B4","QNPbyTAP"
"2166","SFPQ","QNPbyTAP"
"2167","SFR1","QNPbyTAP"
"2168","SFXN2","QNPbyTAP"
"2169","SFXN3","QNPbyTAP"
"2170","SGCA","QNPbyTAP"
"2171","SGF29","QNPbyTAP"
"2172","SGMS1","QNPbyTAP"
"2173","SGSM2","QNPbyTAP"
"2174","SH3BGRL3","QNPbyTAP"
"2175","SH3BP5L","QNPbyTAP"
"2176","SH3GL3","QNPbyTAP"
"2177","SH3PXD2A","QNPbyTAP"
"2178","SH3PXD2B","QNPbyTAP"
"2179","SHC1","QNPbyTAP"
"2180","SHISA2","QNPbyTAP"
"2181","SHKBP1","QNPbyTAP"
"2182","SHMT1","QNPbyTAP"
"2183","SHOC2","QNPbyTAP"
"2184","SHOX2","QNPbyTAP"
"2185","SIDT2","QNPbyTAP"
"2186","SIM2","QNPbyTAP"
"2187","SIPA1","QNPbyTAP"
"2188","SIPA1L1","QNPbyTAP"
"2189","SIPA1L3","QNPbyTAP"
"2190","SIRPB1","QNPbyTAP"
"2191","SIRT2","QNPbyTAP"
"2192","SIRT3","QNPbyTAP"
"2193","SIRT7","QNPbyTAP"
"2194","SIX1","QNPbyTAP"
"2195","SIX5","QNPbyTAP"
"2196","SKA2","QNPbyTAP"
"2197","SKI","QNPbyTAP"
"2198","SKP1","QNPbyTAP"
"2199","SLC10A3","QNPbyTAP"
"2200","SLC12A4","QNPbyTAP"
"2201","SLC15A3","QNPbyTAP"
"2202","SLC16A12","QNPbyTAP"
"2203","SLC16A13","QNPbyTAP"
"2204","SLC16A6","QNPbyTAP"
"2205","SLC18A2","QNPbyTAP"
"2206","SLC19A1","QNPbyTAP"
"2207","SLC1A1","QNPbyTAP"
"2208","SLC1A5","QNPbyTAP"
"2209","SLC22A5","QNPbyTAP"
"2210","SLC25A11","QNPbyTAP"
"2211","SLC25A19","QNPbyTAP"
"2212","SLC25A2","QNPbyTAP"
"2213","SLC25A24","QNPbyTAP"
"2214","SLC25A28","QNPbyTAP"
"2215","SLC25A35","QNPbyTAP"
"2216","SLC25A39","QNPbyTAP"
"2217","SLC25A45","QNPbyTAP"
"2218","SLC25A52","QNPbyTAP"
"2219","SLC31A2","QNPbyTAP"
"2220","SLC35A2","QNPbyTAP"
"2221","SLC35A5","QNPbyTAP"
"2222","SLC35B1","QNPbyTAP"
"2223","SLC35C1","QNPbyTAP"
"2224","SLC35D1","QNPbyTAP"
"2225","SLC35G1","QNPbyTAP"
"2226","SLC35G6","QNPbyTAP"
"2227","SLC36A1","QNPbyTAP"
"2228","SLC38A10","QNPbyTAP"
"2229","SLC39A1","QNPbyTAP"
"2230","SLC39A3","QNPbyTAP"
"2231","SLC39A5","QNPbyTAP"
"2232","SLC3A1","QNPbyTAP"
"2233","SLC3A2","QNPbyTAP"
"2234","SLC41A2","QNPbyTAP"
"2235","SLC43A2","QNPbyTAP"
"2236","SLC46A1","QNPbyTAP"
"2237","SLC48A1","QNPbyTAP"
"2238","SLC4A2","QNPbyTAP"
"2239","SLC52A2","QNPbyTAP"
"2240","SLC5A2","QNPbyTAP"
"2241","SLC6A8","QNPbyTAP"
"2242","SLC8A2","QNPbyTAP"
"2243","SLC9A3R1","QNPbyTAP"
"2244","SLC9A3R2","QNPbyTAP"
"2245","SLF2","QNPbyTAP"
"2246","SLFN13","QNPbyTAP"
"2247","SLFN12","QNPbyTAP"
"2248","SLFN5","QNPbyTAP"
"2249","SLIT3","QNPbyTAP"
"2250","SLK","QNPbyTAP"
"2251","SLU7","QNPbyTAP"
"2252","SLX1A","QNPbyTAP"
"2253","SLX4","QNPbyTAP"
"2254","SMARCA2","QNPbyTAP"
"2255","SMARCD2","QNPbyTAP"
"2256","SMARCE1","QNPbyTAP"
"2257","SMC3","QNPbyTAP"
"2258","SMCR8","QNPbyTAP"
"2259","SMG8","QNPbyTAP"
"2260","SMG9","QNPbyTAP"
"2261","SMIM19","QNPbyTAP"
"2262","SMNDC1","QNPbyTAP"
"2263","SMO","QNPbyTAP"
"2264","SMPD1","QNPbyTAP"
"2265","SMTN","QNPbyTAP"
"2266","SMURF2","QNPbyTAP"
"2267","SMYD4","QNPbyTAP"
"2268","SNAP47","QNPbyTAP"
"2269","SNAPIN","QNPbyTAP"
"2270","SNF8","QNPbyTAP"
"2271","SNN","QNPbyTAP"
"2272","SNRPA","QNPbyTAP"
"2273","SNRPA1","QNPbyTAP"
"2274","SNRPC","QNPbyTAP"
"2275","SNU13","QNPbyTAP"
"2276","SNX1","QNPbyTAP"
"2277","SNX11","QNPbyTAP"
"2278","SNX15","QNPbyTAP"
"2279","SNX32","QNPbyTAP"
"2280","SNX33","QNPbyTAP"
"2281","SNX4","QNPbyTAP"
"2282","SOCS3","QNPbyTAP"
"2283","SOCS7","QNPbyTAP"
"2284","SOD1","QNPbyTAP"
"2285","SOD3","QNPbyTAP"
"2286","SON","QNPbyTAP"
"2287","SORBS1","QNPbyTAP"
"2288","SOWAHA","QNPbyTAP"
"2289","SOX12","QNPbyTAP"
"2290","SOX6","QNPbyTAP"
"2291","SOX8","QNPbyTAP"
"2292","SOX9","QNPbyTAP"
"2293","SP2","QNPbyTAP"
"2294","RSKR","QNPbyTAP"
"2295","SPAG7","QNPbyTAP"
"2296","SPAG9","QNPbyTAP"
"2297","SPARC","QNPbyTAP"
"2298","SPATA33","QNPbyTAP"
"2299","SPATA6L","QNPbyTAP"
"2300","SPCS2","QNPbyTAP"
"2301","SPDL1","QNPbyTAP"
"2302","SPECC1","QNPbyTAP"
"2303","SPEM1","QNPbyTAP"
"2304","SPHK1","QNPbyTAP"
"2305","SPHK2","QNPbyTAP"
"2306","SPICE1","QNPbyTAP"
"2307","SPINDOC","QNPbyTAP"
"2308","SPNS1","QNPbyTAP"
"2309","SPON1","QNPbyTAP"
"2310","SPRED3","QNPbyTAP"
"2311","SPRTN","QNPbyTAP"
"2312","SPRY4","QNPbyTAP"
"2313","SPRYD3","QNPbyTAP"
"2314","SPRYD4","QNPbyTAP"
"2315","SPSB3","QNPbyTAP"
"2316","SPTAN1","QNPbyTAP"
"2317","SPTBN1","QNPbyTAP"
"2318","SQSTM1","QNPbyTAP"
"2319","SREBF1","QNPbyTAP"
"2320","SRP14","QNPbyTAP"
"2321","SRP68","QNPbyTAP"
"2322","SRPRA","QNPbyTAP"
"2323","SRR","QNPbyTAP"
"2324","SRRM2","QNPbyTAP"
"2325","SRSF1","QNPbyTAP"
"2326","SRSF2","QNPbyTAP"
"2327","SSBP4","QNPbyTAP"
"2328","SSH2","QNPbyTAP"
"2329","SSH3","QNPbyTAP"
"2330","ZNRD2","QNPbyTAP"
"2331","ST3GAL2","QNPbyTAP"
"2332","ST3GAL6","QNPbyTAP"
"2333","ST5","QNPbyTAP"
"2334","STAC2","QNPbyTAP"
"2335","STAM2","QNPbyTAP"
"2336","STARD10","QNPbyTAP"
"2337","STARD3","QNPbyTAP"
"2338","STAT3","QNPbyTAP"
"2339","STAT5A","QNPbyTAP"
"2340","STC2","QNPbyTAP"
"2341","STIM1","QNPbyTAP"
"2342","STIP1","QNPbyTAP"
"2343","STK3","QNPbyTAP"
"2344","STK36","QNPbyTAP"
"2345","STK38L","QNPbyTAP"
"2346","STK40","QNPbyTAP"
"2347","STN1","QNPbyTAP"
"2348","STOM","QNPbyTAP"
"2349","STRADA","QNPbyTAP"
"2350","STRN4","QNPbyTAP"
"2351","STUB1","QNPbyTAP"
"2352","STX1B","QNPbyTAP"
"2353","STX4","QNPbyTAP"
"2354","STX5","QNPbyTAP"
"2355","STX8","QNPbyTAP"
"2356","STXBP1","QNPbyTAP"
"2357","SUFU","QNPbyTAP"
"2358","SUMO3","QNPbyTAP"
"2359","SUMO4","QNPbyTAP"
"2360","SUN2","QNPbyTAP"
"2361","SUOX","QNPbyTAP"
"2362","SUPT4H1","QNPbyTAP"
"2363","SUPT5H","QNPbyTAP"
"2364","SUPT6H","QNPbyTAP"
"2365","SURF4","QNPbyTAP"
"2366","SURF6","QNPbyTAP"
"2367","SVIP","QNPbyTAP"
"2368","SWAP70","QNPbyTAP"
"2369","SYDE1","QNPbyTAP"
"2370","SYMPK","QNPbyTAP"
"2371","SYNGR3","QNPbyTAP"
"2372","SYNJ1","QNPbyTAP"
"2373","SYT3","QNPbyTAP"
"2374","SYT4","QNPbyTAP"
"2375","SYVN1","QNPbyTAP"
"2376","TAB3","QNPbyTAP"
"2377","TACC2","QNPbyTAP"
"2378","TACO1","QNPbyTAP"
"2379","TADA2A","QNPbyTAP"
"2380","TAF10","QNPbyTAP"
"2381","TAF15","QNPbyTAP"
"2382","TAF5","QNPbyTAP"
"2383","TAF6L","QNPbyTAP"
"2384","TALDO1","QNPbyTAP"
"2385","TANC2","QNPbyTAP"
"2386","TAOK1","QNPbyTAP"
"2387","TAOK2","QNPbyTAP"
"2388","TAPBP","QNPbyTAP"
"2389","TAPBPL","QNPbyTAP"
"2390","TARSL2","QNPbyTAP"
"2391","TAX1BP3","QNPbyTAP"
"2392","TBC1D1","QNPbyTAP"
"2393","TBC1D10B","QNPbyTAP"
"2394","TBC1D17","QNPbyTAP"
"2395","TBC1D23","QNPbyTAP"
"2396","TBC1D24","QNPbyTAP"
"2397","TBC1D25","QNPbyTAP"
"2398","TBC1D9B","QNPbyTAP"
"2399","TBKBP1","QNPbyTAP"
"2400","TBL3","QNPbyTAP"
"2401","TBX2","QNPbyTAP"
"2402","TBX6","QNPbyTAP"
"2403","TCEAL8","QNPbyTAP"
"2404","TCF7","QNPbyTAP"
"2405","TCF7L2","QNPbyTAP"
"2406","TCIRG1","QNPbyTAP"
"2407","TCTEX1D2","QNPbyTAP"
"2408","TEAD1","QNPbyTAP"
"2409","TEDC2","QNPbyTAP"
"2410","TEFM","QNPbyTAP"
"2411","TELO2","QNPbyTAP"
"2412","TEPSIN","QNPbyTAP"
"2413","TESK1","QNPbyTAP"
"2414","TEX14","QNPbyTAP"
"2415","TEX2","QNPbyTAP"
"2416","TFAP2A","QNPbyTAP"
"2417","TFAP4","QNPbyTAP"
"2418","TFG","QNPbyTAP"
"2419","TFRC","QNPbyTAP"
"2420","TGFB1","QNPbyTAP"
"2421","TGOLN2","QNPbyTAP"
"2422","THAP12","QNPbyTAP"
"2423","THBS2","QNPbyTAP"
"2424","THBS3","QNPbyTAP"
"2425","THG1L","QNPbyTAP"
"2426","THOC6","QNPbyTAP"
"2427","THRA","QNPbyTAP"
"2428","TIAL1","QNPbyTAP"
"2429","TICRR","QNPbyTAP"
"2430","TIMM22","QNPbyTAP"
"2431","TIMM50","QNPbyTAP"
"2432","TIMMDC1","QNPbyTAP"
"2433","TIMP2","QNPbyTAP"
"2434","TJP1","QNPbyTAP"
"2435","TJP2","QNPbyTAP"
"2436","TK2","QNPbyTAP"
"2437","TKFC","QNPbyTAP"
"2438","TLCD1","QNPbyTAP"
"2439","TLE3","QNPbyTAP"
"2440","TLE4","QNPbyTAP"
"2441","TLK2","QNPbyTAP"
"2442","TLN1","QNPbyTAP"
"2443","TLNRD1","QNPbyTAP"
"2444","TLX1","QNPbyTAP"
"2445","TM2D2","QNPbyTAP"
"2446","TM2D3","QNPbyTAP"
"2447","TM6SF1","QNPbyTAP"
"2448","TM7SF2","QNPbyTAP"
"2449","TM9SF3","QNPbyTAP"
"2450","TMED1","QNPbyTAP"
"2451","TMED3","QNPbyTAP"
"2452","TMED9","QNPbyTAP"
"2453","TMEM100","QNPbyTAP"
"2454","TMEM101","QNPbyTAP"
"2455","TMEM104","QNPbyTAP"
"2456","TMEM107","QNPbyTAP"
"2457","TMEM109","QNPbyTAP"
"2458","TMEM11","QNPbyTAP"
"2459","TMEM115","QNPbyTAP"
"2460","TMEM126A","QNPbyTAP"
"2461","TMEM126B","QNPbyTAP"
"2462","TMEM127","QNPbyTAP"
"2463","TMEM129","QNPbyTAP"
"2464","TMEM132A","QNPbyTAP"
"2465","TMEM134","QNPbyTAP"
"2466","TMEM135","QNPbyTAP"
"2467","TMEM138","QNPbyTAP"
"2468","TMEM143","QNPbyTAP"
"2469","TMEM147","QNPbyTAP"
"2470","TMEM150A","QNPbyTAP"
"2471","TMEM160","QNPbyTAP"
"2472","TMEM176A","QNPbyTAP"
"2473","TMEM177","QNPbyTAP"
"2474","TMEM184B","QNPbyTAP"
"2475","TMEM186","QNPbyTAP"
"2476","TMEM189","QNPbyTAP"
"2477","TMEM199","QNPbyTAP"
"2478","TMEM203","QNPbyTAP"
"2479","TMEM206","QNPbyTAP"
"2480","TMEM216","QNPbyTAP"
"2481","TMEM220","QNPbyTAP"
"2482","TMEM254","QNPbyTAP"
"2483","TMEM256","QNPbyTAP"
"2484","TMEM39A","QNPbyTAP"
"2485","TMEM41B","QNPbyTAP"
"2486","TMEM43","QNPbyTAP"
"2487","TMEM50B","QNPbyTAP"
"2488","TMEM80","QNPbyTAP"
"2489","TMEM86A","QNPbyTAP"
"2490","TMEM88","QNPbyTAP"
"2491","TMEM8A","QNPbyTAP"
"2492","TMEM8B","QNPbyTAP"
"2493","TMEM97","QNPbyTAP"
"2494","TMEM98","QNPbyTAP"
"2495","TMEM9B","QNPbyTAP"
"2496","TMPRSS2","QNPbyTAP"
"2497","TMUB2","QNPbyTAP"
"2498","TNFAIP1","QNPbyTAP"
"2499","TNFRSF12A","QNPbyTAP"
"2500","TNFRSF17","QNPbyTAP"
"2501","TNFRSF21","QNPbyTAP"
"2502","TNFSF12","QNPbyTAP"
"2503","TNFSF13","QNPbyTAP"
"2504","TNIP1","QNPbyTAP"
"2505","TNK1","QNPbyTAP"
"2506","TNK2","QNPbyTAP"
"2507","TNKS1BP1","QNPbyTAP"
"2508","TNKS2","QNPbyTAP"
"2509","TNNT1","QNPbyTAP"
"2510","TNRC6A","QNPbyTAP"
"2511","TNRC6C","QNPbyTAP"
"2512","TOB1","QNPbyTAP"
"2513","TOLLIP","QNPbyTAP"
"2514","TOM1","QNPbyTAP"
"2515","TOM1L2","QNPbyTAP"
"2516","TOMM40","QNPbyTAP"
"2517","TOMM40L","QNPbyTAP"
"2518","TOMM70","QNPbyTAP"
"2519","TOP2A","QNPbyTAP"
"2520","TOP3A","QNPbyTAP"
"2521","TOR1A","QNPbyTAP"
"2522","TOR1AIP1","QNPbyTAP"
"2523","TP53I13","QNPbyTAP"
"2524","TP53INP2","QNPbyTAP"
"2525","TPBG","QNPbyTAP"
"2526","TPCN2","QNPbyTAP"
"2527","TPGS1","QNPbyTAP"
"2528","TPM1","QNPbyTAP"
"2529","TPM4","QNPbyTAP"
"2530","TPP1","QNPbyTAP"
"2531","TPRN","QNPbyTAP"
"2532","TRAF4","QNPbyTAP"
"2533","TRAF7","QNPbyTAP"
"2534","TRAP1","QNPbyTAP"
"2535","TRAPPC1","QNPbyTAP"
"2536","TRAPPC2L","QNPbyTAP"
"2537","TRAPPC3","QNPbyTAP"
"2538","TRAPPC5","QNPbyTAP"
"2539","TREX1","QNPbyTAP"
"2540","TRIB1","QNPbyTAP"
"2541","TRIB2","QNPbyTAP"
"2542","TRIM11","QNPbyTAP"
"2543","TRIM17","QNPbyTAP"
"2544","TRIM21","QNPbyTAP"
"2545","TRIM28","QNPbyTAP"
"2546","TRIM3","QNPbyTAP"
"2547","TRIM34","QNPbyTAP"
"2548","TRIM37","QNPbyTAP"
"2549","TRIM41","QNPbyTAP"
"2550","TRIM5","QNPbyTAP"
"2551","TRIM65","QNPbyTAP"
"2552","TRIM8","QNPbyTAP"
"2553","TRMT10C","QNPbyTAP"
"2554","TRMT112","QNPbyTAP"
"2555","TRNT1","QNPbyTAP"
"2556","TRPC1","QNPbyTAP"
"2557","TRPM3","QNPbyTAP"
"2558","TRUB1","QNPbyTAP"
"2559","TSC2","QNPbyTAP"
"2560","TSEN54","QNPbyTAP"
"2561","TSG101","QNPbyTAP"
"2562","TSHZ3","QNPbyTAP"
"2563","TSKU","QNPbyTAP"
"2564","TSPYL1","QNPbyTAP"
"2565","TSPYL2","QNPbyTAP"
"2566","TSR1","QNPbyTAP"
"2567","TSR3","QNPbyTAP"
"2568","TSSC4","QNPbyTAP"
"2569","TST","QNPbyTAP"
"2570","TTC1","QNPbyTAP"
"2571","TTC19","QNPbyTAP"
"2572","TTC3","QNPbyTAP"
"2573","TTC9B","QNPbyTAP"
"2574","TTC9C","QNPbyTAP"
"2575","TTL","QNPbyTAP"
"2576","TTLL13P","QNPbyTAP"
"2577","TTPAL","QNPbyTAP"
"2578","TTYH2","QNPbyTAP"
"2579","TUBA4A","QNPbyTAP"
"2580","TUBB2A","QNPbyTAP"
"2581","TUBB3","QNPbyTAP"
"2582","TUBB6","QNPbyTAP"
"2583","TUBD1","QNPbyTAP"
"2584","TUBG1","QNPbyTAP"
"2585","TUBGCP2","QNPbyTAP"
"2586","TUBGCP5","QNPbyTAP"
"2587","TUBGCP6","QNPbyTAP"
"2588","TUFM","QNPbyTAP"
"2589","TUT1","QNPbyTAP"
"2590","TVP23C-CDRT4","QNPbyTAP"
"2591","TWIST1","QNPbyTAP"
"2592","TWNK","QNPbyTAP"
"2593","TXNDC11","QNPbyTAP"
"2594","TXNDC17","QNPbyTAP"
"2595","TXNDC5","QNPbyTAP"
"2596","TYSND1","QNPbyTAP"
"2597","U2AF1L4","QNPbyTAP"
"2598","UAP1L1","QNPbyTAP"
"2599","UBA5","QNPbyTAP"
"2600","UBALD2","QNPbyTAP"
"2601","UBASH3B","QNPbyTAP"
"2602","UBC","QNPbyTAP"
"2603","UBE2B","QNPbyTAP"
"2604","UBE2G1","QNPbyTAP"
"2605","UBE2G2","QNPbyTAP"
"2606","UBE2M","QNPbyTAP"
"2607","UBE2O","QNPbyTAP"
"2608","UBE2Z","QNPbyTAP"
"2609","UBE3A","QNPbyTAP"
"2610","UBFD1","QNPbyTAP"
"2611","UBLCP1","QNPbyTAP"
"2612","UBN1","QNPbyTAP"
"2613","UBTD2","QNPbyTAP"
"2614","UBTF","QNPbyTAP"
"2615","UBXN1","QNPbyTAP"
"2616","UCKL1","QNPbyTAP"
"2617","UEVLD","QNPbyTAP"
"2618","ULK1","QNPbyTAP"
"2619","ULK2","QNPbyTAP"
"2620","UMPS","QNPbyTAP"
"2621","UNC119","QNPbyTAP"
"2622","UNC45A","QNPbyTAP"
"2623","UNC5B","QNPbyTAP"
"2624","UNK","QNPbyTAP"
"2625","UNKL","QNPbyTAP"
"2626","UQCC3","QNPbyTAP"
"2627","UQCR10","QNPbyTAP"
"2628","UQCRB","QNPbyTAP"
"2629","UQCRC2","QNPbyTAP"
"2630","URB1","QNPbyTAP"
"2631","URI1","QNPbyTAP"
"2632","UROD","QNPbyTAP"
"2633","USF2","QNPbyTAP"
"2634","USF3","QNPbyTAP"
"2635","USP16","QNPbyTAP"
"2636","USP22","QNPbyTAP"
"2637","USP25","QNPbyTAP"
"2638","USP31","QNPbyTAP"
"2639","USP6","QNPbyTAP"
"2640","USP35","QNPbyTAP"
"2641","USP47","QNPbyTAP"
"2642","USP7","QNPbyTAP"
"2643","UTP18","QNPbyTAP"
"2644","UTP6","QNPbyTAP"
"2645","UVRAG","QNPbyTAP"
"2646","VAMP2","QNPbyTAP"
"2647","VAMP7","QNPbyTAP"
"2648","VASP","QNPbyTAP"
"2649","VAT1","QNPbyTAP"
"2650","VAT1L","QNPbyTAP"
"2651","VDAC1","QNPbyTAP"
"2652","VEGFB","QNPbyTAP"
"2653","VEZF1","QNPbyTAP"
"2654","VGLL3","QNPbyTAP"
"2655","VIM","QNPbyTAP"
"2656","VKORC1","QNPbyTAP"
"2657","VLDLR","QNPbyTAP"
"2658","VMP1","QNPbyTAP"
"2659","VPS13A","QNPbyTAP"
"2660","VPS26C","QNPbyTAP"
"2661","VPS33A","QNPbyTAP"
"2662","VPS33B","QNPbyTAP"
"2663","VPS35L","QNPbyTAP"
"2664","VPS37C","QNPbyTAP"
"2665","VPS53","QNPbyTAP"
"2666","VRK3","QNPbyTAP"
"2667","VSIG10L","QNPbyTAP"
"2668","VSTM2B","QNPbyTAP"
"2669","VTI1A","QNPbyTAP"
"2670","VWA1","QNPbyTAP"
"2671","WARS","QNPbyTAP"
"2672","WBP1L","QNPbyTAP"
"2673","WBP2","QNPbyTAP"
"2674","WDR11","QNPbyTAP"
"2675","WDR24","QNPbyTAP"
"2676","WDR45","QNPbyTAP"
"2677","WDR45B","QNPbyTAP"
"2678","WDR53","QNPbyTAP"
"2679","WDR5B","QNPbyTAP"
"2680","WDR6","QNPbyTAP"
"2681","WDR73","QNPbyTAP"
"2682","WDR74","QNPbyTAP"
"2683","WDR81","QNPbyTAP"
"2684","WDR90","QNPbyTAP"
"2685","WEE1","QNPbyTAP"
"2686","WHAMM","QNPbyTAP"
"2687","WIPF2","QNPbyTAP"
"2688","WIPI1","QNPbyTAP"
"2689","WLS","QNPbyTAP"
"2690","WRAP53","QNPbyTAP"
"2691","WRB","QNPbyTAP"
"2692","WSB1","QNPbyTAP"
"2693","WSCD1","QNPbyTAP"
"2694","WWC2","QNPbyTAP"
"2695","XAF1","QNPbyTAP"
"2696","XBP1","QNPbyTAP"
"2697","XPNPEP1","QNPbyTAP"
"2698","XPO6","QNPbyTAP"
"2699","XRCC1","QNPbyTAP"
"2700","XYLT1","QNPbyTAP"
"2701","XYLT2","QNPbyTAP"
"2702","YIF1A","QNPbyTAP"
"2703","YPEL3","QNPbyTAP"
"2704","YWHAE","QNPbyTAP"
"2705","ZBTB11","QNPbyTAP"
"2706","ZBTB21","QNPbyTAP"
"2707","ZBTB22","QNPbyTAP"
"2708","ZBTB3","QNPbyTAP"
"2709","ZBTB4","QNPbyTAP"
"2710","ZBTB45","QNPbyTAP"
"2711","ZBTB7A","QNPbyTAP"
"2712","ZBTB7B","QNPbyTAP"
"2713","ZBTB9","QNPbyTAP"
"2714","ZC2HC1A","QNPbyTAP"
"2715","ZC3H11A","QNPbyTAP"
"2716","ZC3H7A","QNPbyTAP"
"2717","ZCCHC14","QNPbyTAP"
"2718","ZDHHC13","QNPbyTAP"
"2719","ZDHHC24","QNPbyTAP"
"2720","ZDHHC5","QNPbyTAP"
"2721","ZDHHC6","QNPbyTAP"
"2722","ZFAND2A","QNPbyTAP"
"2723","ZFAND4","QNPbyTAP"
"2724","ZFAND5","QNPbyTAP"
"2725","ZFAND6","QNPbyTAP"
"2726","ZFHX4","QNPbyTAP"
"2727","ZNF274","QNPbyTAP"
"2728","ZNF112","QNPbyTAP"
"2729","ZNF205","QNPbyTAP"
"2730","ZNF143","QNPbyTAP"
"2731","ZNF148","QNPbyTAP"
"2732","ZNF174","QNPbyTAP"
"2733","ZNF18","QNPbyTAP"
"2734","ZNF180","QNPbyTAP"
"2735","ZFP2","QNPbyTAP"
"2736","ZNF207","QNPbyTAP"
"2737","ZNF213","QNPbyTAP"
"2738","ZNF260","QNPbyTAP"
"2739","ZNF263","QNPbyTAP"
"2740","ZNF286A","QNPbyTAP"
"2741","ZNF287","QNPbyTAP"
"2742","ZFP3","QNPbyTAP"
"2743","ZNF354A","QNPbyTAP"
"2744","ZNF354C","QNPbyTAP"
"2745","ZFP36","QNPbyTAP"
"2746","ZFP36L2","QNPbyTAP"
"2747","ZNF382","QNPbyTAP"
"2748","ZNF570","QNPbyTAP"
"2749","ZNF808","QNPbyTAP"
"2750","ZNF428","QNPbyTAP"
"2751","ZNF496","QNPbyTAP"
"2752","ZNF507","QNPbyTAP"
"2753","ZNF511","QNPbyTAP"
"2754","ZNF513","QNPbyTAP"
"2755","ZNF518A","QNPbyTAP"
"2756","ZNF536","QNPbyTAP"
"2757","ZNF566","QNPbyTAP"
"2758","ZNF574","QNPbyTAP"
"2759","ZNF592","QNPbyTAP"
"2760","ZNF593","QNPbyTAP"
"2761","ZNF597","QNPbyTAP"
"2762","ZNF598","QNPbyTAP"
"2763","ZNF226","QNPbyTAP"
"2764","ZFP62","QNPbyTAP"
"2765","ZNF629","QNPbyTAP"
"2766","ZNF641","QNPbyTAP"
"2767","ZNF646","QNPbyTAP"
"2768","ZNF652","QNPbyTAP"
"2769","ZNF668","QNPbyTAP"
"2770","ZNF672","QNPbyTAP"
"2771","ZNF688","QNPbyTAP"
"2772","ZNF692","QNPbyTAP"
"2773","ZNF703","QNPbyTAP"
"2774","ZNF710","QNPbyTAP"
"2775","ZNF764","QNPbyTAP"
"2776","ZNF771","QNPbyTAP"
"2777","ZNF420","QNPbyTAP"
"2778","ZNF830","QNPbyTAP"
"2779","ZNF879","QNPbyTAP"
"2780","ZFP91","QNPbyTAP"
"2781","ZFYVE27","QNPbyTAP"
"2782","ZKSCAN2","QNPbyTAP"
"2783","ZNF354B","QNPbyTAP"
"2784","ZNF48","QNPbyTAP"
"2785","ZNF768","QNPbyTAP"
"2786","ZNHIT2","QNPbyTAP"
"2787","ZNHIT3","QNPbyTAP"
"2788","ZRANB1","QNPbyTAP"
"2789","ZSWIM7","QNPbyTAP"
"2790","ZSWIM9","QNPbyTAP"
"2791","ZYX","QNPbyTAP"
"2792","ZZEF1","QNPbyTAP"
