"","Sample_Name","HuGroup_Name","Treatment","Age","Study","Gender","Tissue"
"4","M_PSVZ_GSM2652134","M_PSVZ_5","PSVZ","No_data","GSE99777","M","subventricular_zone"
"5","M_PSVZ_GSM2652135","M_PSVZ_6","PSVZ","No_data","GSE99777","M","subventricular_zone"
"6","M_PSVZ_GSM2652136","M_PSVZ_7","PSVZ","No_data","GSE99777","M","subventricular_zone"
"1","M_QSVZ_GSM2652126","M_QSVZ_1","QSVZ","No_data","GSE99777","M","subventricular_zone"
"2","M_QSVZ_GSM2652127","M_QSVZ_2","QSVZ","No_data","GSE99777","M","subventricular_zone"
"3","M_QSVZ_GSM2652129","M_QSVZ_4","QSVZ","No_data","GSE99777","M","subventricular_zone"
