"Module","StudySRP027383","StudySRP091303","GenderM","DiseaseCON","DiseaseGrade_2","DiseaseGrade_3","DiseaseGrade_4","Age","Tissueprefrontal_cortex","p.value.StudySRP027383","p.value.StudySRP091303","p.value.GenderM","p.value.DiseaseCON","p.value.DiseaseGrade_2","p.value.DiseaseGrade_3","p.value.DiseaseGrade_4","p.value.Age","p.value.Tissueprefrontal_cortex"
"MEyellow","-7.18175519054398e-16","8.83624770575686e-18","-2.68882138776405e-16","8.61290205822485e-16","0.00810389495719838","-0.072079309233319","0.0189648226078719","2.31585584042904e-16","4.2934406030426e-17","0.999999999999989","1","0.999999999999996","0.999999999999986","0.873090831249497","0.154862656689058","0.708524784587484","0.999999999999996","0.999999999999999"
"MEdarkolivegreen","2.63813493620035e-16","-1.01169615220054e-16","1.55122225828364e-16","-2.37602906100198e-16","-0.011031395790349","0.0840548668776578","-0.106839649468196","-1.13787018002354e-16","-2.24971950790742e-17","0.999999999999996","0.999999999999998","0.999999999999998","0.999999999999996","0.827865486772484","0.0969759796019734","0.034694887783918","0.999999999999998","1"
"MEgreenyellow","-6.01732205729455e-18","1.31811879119925e-16","3.22821196857559e-17","-1.19045398538908e-16","-0.0731518281274358","0.105497985108958","-0.0466584832508815","1.70219741080224e-17","1.73472347597681e-17","1","0.999999999999998","1","0.999999999999998","0.148798739986065","0.0370483409377279","0.357489607910366","1","1"
"MEdarkmagenta","2.87089959010584e-16","-6.46404723367647e-17","1.49159113879693e-16","-3.67951112287268e-16","-0.0972352254556568","-0.0115073515858331","0.0218372630130776","-5.67444312024601e-17","-1.29020058525775e-17","0.999999999999996","0.999999999999999","0.999999999999998","0.999999999999994","0.0547190107158354","0.820562042530664","0.666851764747199","0.999999999999999","1"
"MEdarkorange","1.01481323344643e-16","1.24683249835833e-18","2.38524477946811e-18","-8.23993651088983e-17","-0.0502284493459021","0.0643575965558641","0.00116647428216134","-3.12250225675825e-17","-2.1467203015213e-17","0.999999999999998","1","1","0.999999999999999","0.321857086901618","0.204144670107756","0.981656896883194","1","1"
"MEdarkgrey","-1.01481323344643e-16","1.51788304147971e-17","-1.99493199737333e-17","9.69276742202041e-17","-0.0589707549322297","0.0565741329685953","-0.0375530883383427","2.42861286636753e-17","2.60208521396521e-17","0.999999999999998","1","1","0.999999999999998","0.244687326756668","0.264424942877965","0.459028178764967","1","1"
"MEred","1.95806912350882e-16","-4.55907013530155e-17","2.10335221462188e-16","-2.34404509691366e-16","0.005378489230997","0.116368995656549","-0.0479521688418317","1.60461921527855e-17","1.21647483752874e-16","0.999999999999997","0.999999999999999","0.999999999999997","0.999999999999996","0.915572035514389","0.0213630994175699","0.344301060794743","1","0.999999999999998"
"MEmagenta","-6.15826833971767e-17","6.51063404577545e-17","-3.30681662608079e-17","1.30104260698261e-18","-0.0359865977523249","0.016529211672876","0.00629652954986005","-4.05491612509579e-17","-9.10729824887824e-18","0.999999999999999","0.999999999999999","1","1","0.477989124014541","0.744560678189061","0.901229432398835","0.999999999999999","1"
"MEblack","1.09504419421036e-16","-2.16840434497101e-19","-2.24429849704499e-17","-1.28369537222284e-16","0.0266797814388424","-0.0217653041673336","-0.00293818349366198","-2.68882138776405e-17","-2.21177243187043e-17","0.999999999999998","1","1","0.999999999999998","0.598913840440929","0.667883975676489","0.953817983155091","1","1"
"MEgrey60","1.29670579829266e-16","5.42101086242752e-20","-4.30428262476745e-17","-9.93129189996722e-17","0.073345682555088","-0.113523939486998","0.00608687346970292","-2.99239799605999e-17","1.57426155444895e-16","0.999999999999998","1","0.999999999999999","0.999999999999998","0.147722242941066","0.0247767827524298","0.904502245070872","1","0.999999999999998"
"MEcyan","-3.90312782094782e-17","6.25042552437893e-17","-6.83047368665868e-17","-8.02309607639273e-18","0.019650488115795","-0.025681058612195","5.57330965474938e-05","1.17093834628434e-17","3.55618312575245e-17","0.999999999999999","0.999999999999999","0.999999999999999","1","0.698492219308656","0.612668706459421","0.999123506218689","1","0.999999999999999"
"MElightgreen","6.60279123043672e-17","-1.72930246511438e-16","-3.06016063184034e-16","7.94720192431875e-17","-0.0615848731783187","-0.00322857965687451","0.0379769680970611","-6.63531729561129e-17","-1.74556549770166e-16","0.999999999999999","0.999999999999997","0.999999999999995","0.999999999999999","0.22435969735687","0.949259429359024","0.45397062601811","0.999999999999999","0.999999999999997"
"MEsalmon","5.20850723662036e-16","6.39679281766448e-18","4.48859699408999e-16","-6.47051856539349e-16","-0.00516436650192451","0.040261788222306","-0.0122965824451539","-5.29090660172926e-17","3.90312782094782e-17","0.999999999999992","1","0.999999999999993","0.99999999999999","0.918921404426176","0.427254601755516","0.808485834853314","0.999999999999999","0.999999999999999"
"MEblue","-1.17527515497429e-16","-1.08853898117545e-16","-1.71574993795831e-16","2.68665298341908e-16","-0.0100660699267479","-0.00635350271050162","0.00562164685322126","2.94902990916057e-17","-2.16840434497101e-18","0.999999999999998","0.999999999999998","0.999999999999997","0.999999999999996","0.84272319275073","0.900340345834882","0.911770307511919","1","1"
"MEdarkred","-6.85215773010839e-17","4.98732999343332e-17","-1.07336015076065e-17","-3.51281503885303e-17","-0.0875578558284267","0.104681758155109","0.00459859241781743","-2.51534904016637e-17","-3.46944695195361e-18","0.999999999999999","0.999999999999999","1","0.999999999999999","0.0837869849964418","0.0385453208883352","0.927778148145447","1","1"
"MEplum1","6.47810798060089e-17","-1.47044919643347e-17","8.39985633133145e-17","-7.26415455565288e-17","-0.00379919082704119","0.0138699006681622","-0.00488596735542091","7.44846892497542e-17","1.9298798670242e-17","0.999999999999999","1","0.999999999999999","0.999999999999999","0.940307098566147","0.78454990193077","0.92327833847495","0.999999999999999","1"
"MEsteelblue","-8.27679938475434e-16","2.17924636669586e-17","-5.61237254587121e-16","1.0321604682062e-15","-0.00311688104605354","-0.00543245477480091","0.00419628031274346","7.41594285980085e-17","3.31765864780564e-17","0.999999999999987","1","0.999999999999991","0.999999999999984","0.951012653770287","0.914728124225323","0.934081516266446","0.999999999999999","1"
"MEsaddlebrown","9.10729824887824e-17","-9.1398243140528e-17","9.2374025095765e-17","-4.42354486374086e-17","-0.067221572009839","-0.00563467590189913","0.0221526487278083","1.16226472890446e-16","7.37257477290143e-17","0.999999999999999","0.999999999999999","0.999999999999999","0.999999999999999","0.184685510318077","0.911566656545392","0.662335154655966","0.999999999999998","0.999999999999999"
"MEbrown","2.03179487123784e-16","4.65664833082524e-17","2.09576279941448e-16","-3.17237555669259e-16","-0.0619503431339878","0.114932867584255","-0.0206156092539954","8.15320033709099e-17","3.77302356024956e-17","0.999999999999997","0.999999999999999","0.999999999999997","0.999999999999995","0.221616497309732","0.0230315499821519","0.684459493070157","0.999999999999999","0.999999999999999"
"MEorange","-9.10729824887824e-17","4.02239005992122e-17","-1.24466409401336e-16","9.10729824887824e-17","-0.0131301099909873","0.138457140553828","-0.0266376327111718","-9.80118763926896e-17","-3.72965547335014e-17","0.999999999999999","0.999999999999999","0.999999999999998","0.999999999999999","0.795781048034685","0.00610167452711405","0.599491505007337","0.999999999999998","0.999999999999999"
"MEdarkgreen","2.32019264911898e-17","3.06829214813398e-17","8.06646416329215e-17","-4.85722573273506e-17","0.0413537853059083","-0.160324426117358","0.017987321711167","-1.21430643318376e-17","4.98732999343332e-17","1","1","0.999999999999999","0.999999999999999","0.41481534225147","0.0014694045180805","0.722914600655209","1","0.999999999999999"
"MEmidnightblue","-2.61075883134509e-16","9.31329666165048e-17","-3.14418630020796e-16","2.43728648374741e-16","-0.000726624903790998","0.0439528216988574","-0.0178308443094764","-1.17961196366423e-16","-1.37910516340156e-16","0.999999999999996","0.999999999999999","0.999999999999995","0.999999999999996","0.988573025935529","0.386080573320628","0.725227355519702","0.999999999999998","0.999999999999998"
"MEpurple","-1.29150162786473e-15","3.03576608295941e-17","-8.09465341977678e-16","1.58878986356026e-15","0.0110941209570653","0.0230899566645851","-0.0122010111120473","-8.43509290193722e-17","-7.11236625150491e-17","0.99999999999998","1","0.999999999999987","0.999999999999975","0.826902118787588","0.648984611795081","0.809945839433532","0.999999999999999","0.999999999999999"
"MElightcyan","2.58365377703296e-16","2.49908600757909e-17","2.6665952432281e-16","-3.47920477150598e-16","0.0367125087372998","-0.0141793938048248","-0.00593036570490672","5.83300768797201e-17","3.17671236538253e-17","0.999999999999996","1","0.999999999999996","0.999999999999994","0.469150025308128","0.779864407447949","0.906946448922288","0.999999999999999","1"
"MEtan","-2.00360561475321e-16","-8.3320936955511e-17","-2.04588949948015e-16","3.36102673470506e-16","-0.00604834520459723","0.0096010288057295","-0.000607013644592073","1.69135538907739e-17","4.7271214720368e-17","0.999999999999997","0.999999999999999","0.999999999999997","0.999999999999995","0.905103863706397","0.849901120605282","0.990453946040884","1","0.999999999999999"
"MEpaleturquoise","2.6779793660392e-17","-1.48908392127306e-17","1.55339066262861e-16","-9.46779547122967e-17","-0.00742448212791673","0.0632431348241757","-0.00542450124688337","4.57262266245761e-17","1.53414607406699e-17","1","1","0.999999999999998","0.999999999999998","0.883651715344485","0.212105172767308","0.914852495224121","0.999999999999999","1"
"MEdarkturquoise","3.17454396103756e-16","-2.59124319224036e-17","1.92771146267923e-16","-3.45209971719385e-16","-0.00500769626908869","0.0159881798295251","-0.00503084817619572","-5.89805981832114e-17","1.90819582357449e-17","0.999999999999995","1","0.999999999999997","0.999999999999995","0.921372996590361","0.752644919974976","0.921010665694841","0.999999999999999","1"
"MEsienna3","2.02745806254789e-16","3.36102673470506e-18","5.57279916657549e-17","-2.29850860566927e-16","0.0210382521903786","-0.0265004034278976","-0.00144620150224017","-5.68121938382404e-17","-6.26668855696622e-17","0.999999999999997","1","0.999999999999999","0.999999999999996","0.678347978066536","0.601374024297215","0.97725918750668","0.999999999999999","0.999999999999999"
"MEpink","-1.28640587765405e-16","6.34664846718702e-17","1.7726705520138e-17","1.39563924653197e-16","0.0248172931368532","0.0168718826993612","-0.0263594966266917","3.89228579922296e-17","2.47740196412938e-17","0.999999999999998","0.999999999999999","1","0.999999999999998","0.624675744091323","0.739454795832805","0.603309752642375","0.999999999999999","1"
"MEroyalblue","1.65557671738537e-16","-3.27971157176865e-18","8.41882986934994e-17","-2.35922392732846e-16","0.0366858803816994","-0.0341938348081052","-0.00535220735266134","1.21430643318376e-17","2.32019264911898e-17","0.999999999999997","1","0.999999999999999","0.999999999999996","0.469472667794092","0.500202141643445","0.915983064995851","1","1"
"MEskyblue3","2.00360561475321e-16","6.81963166493382e-17","2.14455189717633e-16","-3.17237555669259e-16","-0.00660085704226488","0.0133461853476978","-0.00235314913234962","-2.94902990916057e-17","1.43114686768087e-17","0.999999999999997","0.999999999999999","0.999999999999997","0.999999999999995","0.896481751308502","0.792496223229315","0.963006100242591","1","1"
"MEwhite","3.49113099540332e-17","-7.68699340292223e-17","3.42607886505419e-17","-2.84060969191202e-17","-0.00991562163590681","0.0819206357177198","-0.0118591806606234","2.94902990916057e-17","3.25260651745651e-17","0.999999999999999","0.999999999999999","0.999999999999999","1","0.845043974072625","0.105790033211276","0.815173205227101","1","1"
"MEgreen","4.60894343523588e-16","7.80354513646442e-17","3.58654078658205e-16","-6.67218016947579e-16","-0.00345089793376552","0.0465905339343311","-0.0212124021314885","-1.04083408558608e-17","-2.81892564846231e-17","0.999999999999993","0.999999999999999","0.999999999999994","0.99999999999999","0.94577065207783","0.358190967612134","0.675835819744872","1","1"
"MEturquoise","3.87927537315313e-16","-1.37043154602168e-16","2.42861286636753e-16","-4.11996825544492e-16","-0.0457676579581186","0.0879562479156024","-0.0131174997530799","4.59701721133854e-17","8.50014503228635e-17","0.999999999999994","0.999999999999998","0.999999999999996","0.999999999999994","0.366752873718533","0.0823833396074599","0.79597286362852","0.999999999999999","0.999999999999999"
"MEviolet","4.38017677684144e-16","7.74662452240893e-17","3.89011739487799e-16","-5.83300768797201e-16","0.0152115880236676","0.0766155009554741","-0.0276261760076744","5.20417042793042e-18","3.59955121265187e-17","0.999999999999993","0.999999999999999","0.999999999999994","0.999999999999991","0.76429614384509","0.130445690601886","0.586009903259919","1","0.999999999999999"
"MElightyellow","2.71050543121376e-17","-1.96240593219876e-16","1.10805462028019e-16","1.2793585635329e-16","-0.0282117387245491","-0.105570429375241","0.0437306490389986","1.04083408558608e-16","6.37510877421477e-17","1","0.999999999999997","0.999999999999998","0.999999999999998","0.578090753202983","0.036917891958712","0.388488512269348","0.999999999999998","0.999999999999999"
"MEskyblue","-2.80157841370254e-16","-2.3052848692473e-17","-1.42491270518907e-16","3.48137317585095e-16","0.0119381923328607","-0.0260914309172506","-0.0121731725639262","2.12503625807159e-17","1.9298798670242e-17","0.999999999999996","1","0.999999999999998","0.999999999999994","0.813964199343866","0.607000029225869","0.810371241838304","1","1"
"MEyellowgreen","-2.99239799605999e-16","3.86247023947961e-17","-1.15359111152458e-16","3.23309087835177e-16","-0.0544535829941433","-0.142847339457256","0.025737097899633","8.99887803162969e-17","3.51281503885303e-17","0.999999999999995","0.999999999999999","0.999999999999998","0.999999999999995","0.282778035973045","0.00465324139629776","0.611893234978267","0.999999999999999","0.999999999999999"
"MEgrey","-9.15066633577766e-17","9.82558218814988e-17","1.0587234214321e-16","-1.53956708492942e-17","0.0464037437996883","-0.0299778553586585","-0.0298394662514509","1.43114686768087e-17","1.36609473733174e-17","0.999999999999999","0.999999999999998","0.999999999999998","1","0.360123418751564","0.554514585526377","0.556344923930098","1","1"
