"","Term","Overlap","P.value","Adjusted.P.value","Old.P.value","Old.Adjusted.P.value","Odds.Ratio","Combined.Score","Genes","Overlap_Number"
"1","FOS_ENCODE","23/637",0.00406910101029584,0.423186505070767,0,0,1.83282996916064,10.0885068233939,"FNBP4;ATPAF2;ZNF143;ELAC2;GALNT18;GTF2H1;ELP4;HPS5;FANCF;CTTNBP2NL;ABTB2;TOM1L2;IMMP1L;GID4;COMMD9;MPRIP;CYP2R1;FAR1;TPP1;EIF3F;ZBED5;NUCB2;LINC00346",23
"2","SMAD4_CHEA","18/584",0.0417969201634874,1,0,0,1.56456435574717,4.96738641300808,"SEMA5A;KCNF1;PDHX;CELF1;GALNT18;SDC3;PAX6;TMEM163;PLEKHA7;TOM1L2;GID4;RASSF10;ADORA2B;ST5;RPS6KA2;AKIP1;TCP11L1;TEAD1",18
