"","darkgrey....QNPbyTAP__"
"1","ACAN"
"2","ADAMTSL3"
"3","DACT3"
"4","DLX1"
"5","DLX5"
"6","LGALS1"
"7","LITAF"
"8","MKRN3"
"9","NTN1"
"10","PDLIM1"
"11","PLK2"
"12","PRX"
"13","STAT5A"
"14","TIMP2"
"15","UBE3A"
