"","HuAgeGBsplit_24....PGBObyQGBO__"
"1","AC008443.4"
"2","AC103982.1"
"3","ACTN2"
"4","AFDN-DT"
"5","AL033527.3"
"6","COL5A2"
"7","CYP27C1"
"8","DNAJC5G"
"9","EIF2S2P3"
"10","MYO15B"
"11","NTSR1"
"12","OSCAR"
"13","PHC2"
"14","PLK2"
"15","RGS9BP"
"16","SYNE3"
"17","TBX5-AS1"
"18","TERT"
