"","HuAgeGBsplit_36....QGBCbyPGBC__"
"1","AC118282.4"
"2","AC119751.3"
"3","AC119751.5"
"4","AC244452.3"
"5","ANKRD20A17P"
"6","CR381653.1"
"7","CR381653.2"
"8","HCAR1"
"9","HOMER2P1"
"10","HSPA1L"
"11","LINC01666"
