"","HuAgeGBsplit_23....QGBObyPGBO__"
"1","AC005592.1"
"2","AC015910.1"
"3","AC022167.5"
"4","AC136604.3"
"5","AL031121.1"
"6","CEACAMP7"
"7","GAPDHP16"
"8","GAPDHP37"
"9","KRT18P52"
"10","MTATP6P20"
"11","NPM1P12"
"12","RN7SL769P"
"13","RN7SL825P"
"14","YBX2P1"
