"","HuAgeGBsplit_31....PGBCbyQGBC__"
"1","AC016712.1"
"2","AC068533.3"
"3","AC130343.2"
"4","AL137074.1"
"5","AL353726.2"
"6","HMGN2P7"
"7","MTCO2P4"
"8","RPL12P13"
"9","RPL30P4"
"10","RPSAP29"
"11","SMARCE1P6"
"12","TPST1"
"13","TUBBP2"
"14","VKORC1L1"
