"","HuAgeGBsplit_04....NPCbyNSC__"
"1","BCAM"
"2","CCDC17"
"3","CPSF4L"
"4","CRYBB3"
"5","CYP4F8"
"6","GFRA4"
"7","GJD2"
"8","KRT79"
"9","KRTDAP"
"10","LYPD2"
"11","MYH6"
"12","OR4D11"
"13","PAX4"
"14","PROX2"
"15","RESP18"
"16","SLC25A47"
"17","SPATA3"
"18","TBATA"
"19","TEKT5"
