"","saddlebrown....QSVZbyPSVZ__"
"1","ANPEP"
"2","ATG2A"
"3","CDA"
"4","CR1"
"5","DBI"
"6","HSD11B1"
"7","IRAK2"
"8","IRAK3"
"9","MEI1"
"10","MXD1"
"11","PLEK"
"12","SLC25A37"
"13","SLC39A8"
"14","SLC43A2"
"15","TBC1D2"
"16","TNFAIP8"
"17","UNC5C"
