"","sienna3....QSVZbyPSVZ__"
"1","ANO3"
"2","ARPP21"
"3","C9orf135"
"4","DGKH"
"5","GABRA4"
"6","GPR6"
"7","INPP5A"
"8","ITM2C"
"9","KCNAB1"
"10","LAMP5"
"11","PDE10A"
"12","PDE1B"
"13","PENK"
"14","PTPN5"
"15","SLC9A7"
"16","SV2C"
"17","SYNDIG1L"
"18","SYNPR"
"19","TMEM159"
"20","TTC22"
