"","Term","Overlap","P.value","Adjusted.P.value","Old.P.value","Old.Adjusted.P.value","Odds.Ratio","Combined.Score","Genes","Overlap_Number"
"1","thioridazine_MCF7_UP","38/155",6.0627791538276e-08,0.000244087488733099,0,0,2.52613385185554,41.9805868491302,"CEMIP;HIST2H2AA4;HIST1H2BJ;EPAS1;HIST1H2BI;IRS2;SLC7A11;NDRG1;ICAM1;ZFP36;ATXN1;HIST1H2AE;HIST1H3F;MIR22HG;PMAIP1;HIST1H3H;PHLDA1;HIST1H2AB;IER3;DUSP4;DUSP5;SVIL;TIPARP;GDF15;AKR1C1;GEM;FOSL2;HIST1H4A;HIST1H4B;NPC1;MAFF;HIST1H4H;C16ORF45;TRIB3;HIST1H4C;HIST1H4D;OPTN;CD44",38
"2","thioridazine_PC3_UP","43/196",2.55655080728467e-07,0.000514633677506405,0,0,2.26056419476601,34.3140909692878,"CARS;CDKN1A;AMIGO2;SEL1L;FAM129A;IRS2;SLC1A4;SLC7A11;PTPRH;SLC7A1;NDRG1;HDAC9;CYR61;ICAM1;AKAP12;ZFP36;ATXN1;MIR22HG;PMAIP1;STX3;SLC38A2;IL11;DUSP5;ARG2;WARS;GDF15;CSGALNACT2;SAMD4A;KLF4;TM4SF1;GEM;FOSL2;SLC4A7;GPRC5A;KLF5;NPC1;MAFF;TRIB3;AMOTL2;NUPR1;IL6ST;SEC24D;OPTN",43
"3","cytochalasin B_MCF7_UP","11/23",3.13089572002132e-06,0.00420166205626861,0,0,4.92798423045046,62.4582154604444,"DUSP4;MUS81;ATXN1;GDF15;CRISPLD2;DAPK3;MAFF;SLC7A11;PDLIM5;MGLL;VCL",11
"4","withaferin A_MCF7_UP","21/76",7.28208755955446e-06,0.00732942112869156,0,0,2.84714878386073,33.6820348528542,"DUSP4;ABCC3;DUSP5;SYNM;ABHD4;GDF15;AKR1C1;PIK3CD;SLC1A4;SLC7A11;LYST;NDRG1;GEM;FOSL1;MAFF;MIR22HG;PMAIP1;TRIB3;NUPR1;ULBP2;PHLDA1",21
"5","mebendazole_MCF7_UP","14/40",1.27760265473792e-05,0.0102872565759497,0,0,3.60638845955693,40.6365690283387,"DUSP4;CEMIP;GDF15;SLC7A11;FOSL1;ATXN1;CRISPLD2;MAFF;PMAIP1;TRIB3;PHLDA1;TNFRSF21;MGLL;IER3",14
"6","tonzonium bromide_PC3_UP","31/146",2.28222041301644e-05,0.0153136989713403,0,0,2.18782861538679,23.3830235471685,"CARS;CDKN1A;SEL1L;ZBTB43;PDGFA;IRS2;SLC7A11;NDRG1;ZFP36;ATXN1;HIST1H2AE;HIST1H3F;PMAIP1;HIST1H3H;STX3;SLC38A2;HIST1H2AB;IER3;IL11;DUSP5;GDF15;CSGALNACT2;SAMD4A;KLF4;GEM;FOSL2;GPRC5A;KLF5;MAFF;TRIB3;NUPR1",31
"7","azacyclonol_MCF7_UP","28/126",2.33207524248432e-05,0.0134127641803456,0,0,2.28977045051234,24.4230738606359,"HIST2H2AA4;HIST1H2BJ;HIST1H2BI;IRS2;SLC7A11;ICAM1;ZFP36;HIST1H2AE;HIST1H3F;PMAIP1;HIST1H3H;PHLDA1;HIST1H2AB;DUSP4;DUSP5;EGR2;ANXA1;GDF15;KLF4;GEM;FOSL1;HIST1H4A;HIST1H4B;MAFF;HIST1H4H;TRIB3;HIST1H4C;HIST1H4D",28
"8","thioguanosine_MCF7_UP","23/95",2.91563829033846e-05,0.0146729496961283,0,0,2.49464464871607,26.0511666950912,"MSTO2P;CDKN1A;SUN1;GDF15;SLC1A4;SLC7A11;DICER1;IKZF5;HIST1H4A;DLG1;HIST1H4B;MARS;MAFF;HIST1H3F;MIR22HG;PMAIP1;HIST1H4H;TRIB3;HIST1H3H;AMOTL2;HIST1H4C;SEC24D;HIST1H4D",23
"9","suloctidil_MCF7_UP","26/117",4.49722630792676e-05,0.0201175923507924,0,0,2.28977045051234,22.9193763449494,"HIST1H2BJ;IRS2;SLC7A11;ICAM1;ZFP36;HIST1H3F;MIR22HG;PMAIP1;HIST1H3H;PHLDA1;IER3;DUSP4;EGR2;EGR3;ANXA1;GDF15;GEM;FOSL1;HIST1H4A;HIST1H4B;MAFF;HIST1H4H;TRIB3;HIST1H4C;SEC24D;HIST1H4D",26
"10","clonidine_HL60_UP","20/79",4.7973543735516e-05,0.0193141487079188,0,0,2.60859924741912,25.9421565842593,"DUSP4;ABCA1;LINC00273;ANXA1;BCL2A1;PLOD2;THBS1;SEL1L3;PTGS1;NT5E;FCGR2A;MAFB;AXL;PECAM1;LPXN;SGK1;PHLDA1;HIST1H2BD;CTSB;IER3",20
"11","helveticoside_PC3_UP","54/324",5.63180298898479e-05,0.0206123989396843,0,0,1.71732783788425,16.803187064014,"CDKN1A;HIST2H2AA4;HIST1H1T;IRS2;SLC7A11;CYR61;IKZF5;GLIPR1;ZFP36;HIST1H2AE;RBM5;IER3;HIST1H2AB;IL11;GEM;GPRC5A;NUPR1;SGK1;IL6ST;HIST1H2BD;NFAT5;HIST1H2BI;ZBTB43;THBS1;HDAC9;TOR1AIP1;EFNB2;ARSJ;HIST1H3F;PMAIP1;HIST1H3H;STX3;PDLIM5;SLC38A2;LINC00273;EGR2;JAG1;TIPARP;GDF15;KLF4;FOSL2;SLC4A7;HIST1H4A;DLG1;HIST1H4B;KLF5;DLC1;MAFF;HIST1H4H;SNAI2;AMOTL2;ATP13A3;HIST1H4C;HIST1H4D",54
"12","felodipine_MCF7_UP","21/87",6.68880257974844e-05,0.022440932655056,0,0,2.48716445486685,23.9078449267329,"HIST2H2AA4;HIST1H2BI;GDF15;IRS2;SLC7A11;GEM;ICAM1;ZFP36L1;ZFP36;HIST1H4A;HIST1H4B;MAFF;HIST1H2AE;HIST1H3F;PMAIP1;HIST1H4H;HIST1H3H;HIST1H4C;PHLDA1;HIST1H4D;HIST1H2AB",21
"13","azacitidine_PC3_UP","26/120",7.07639844818271e-05,0.0219150616556797,0,0,2.23252618924953,21.3343783180293,"HIST1H2BI;CLU;HDAC9;CYR61;AKAP12;ZFP36;HIST1H2AE;HIST1H3F;PMAIP1;HIST1H3H;PHLDA1;HIST1H2AB;IL11;GDF15;MSANTD3-TMEFF1;KLF4;GEM;HIST1H4A;BMP2;HIST1H4B;KLF5;MAFF;HIST1H4H;NABP1;HIST1H4C;HIST1H4D",26
"14","metixene_PC3_UP","10/26",8.94210143193084e-05,0.0257149288321097,0,0,3.96306424127135,36.9442985134818,"SLC4A7;DUSP5;CDKN1A;GDF15;AMIGO2;SAMD4A;SLC7A11;NUPR1;HDAC9;CYR61",10
"15","BW-B70C_MCF7_UP","14/47",9.81301032400712e-05,0.0263381197096351,0,0,3.069266774091,28.3269271727464,"DUSP4;EPAS1;TIPARP;GDF15;AKR1C1;SLC7A11;KLF4;GEM;ATXN1;MAFF;PMAIP1;C16ORF45;PHLDA1;IER3",14
"16","8-azaguanine_PC3_UP","53/323",9.96894114797244e-05,0.0250843481635856,0,0,1.69074381562598,15.577585451752,"CDKN1A;HIST2H2AA4;NAB1;TNC;CYR61;ICAM1;AKAP12;ZFP36;MYC;HIST1H2AE;MIR22HG;PHLDA1;IER3;HIST1H2AB;DUSP4;IL11;DUSP5;SPHK1;PLAUR;TM4SF1;GEM;GPRC5A;ANGPTL4;SGK1;BCL2A1;HIST1H2BI;ZBTB43;ZFP36L1;HIST1H3F;PMAIP1;HIST1H3H;PDLIM5;JAG1;AOC2;TIPARP;SAMD4A;KLF4;FOSL2;FOSL1;IRGQ;HIST1H4A;DLG1;BMP2;HIST1H4B;KLF5;DLC1;MARS;MAFF;HIST1H4H;SNAI2;AMOTL2;HIST1H4C;HIST1H4D",53
"17","calmidazolium_MCF7_UP","34/182",0.00014457028255767,0.0342376445633635,0,0,1.92491691718894,17.0196241125279,"HIST2H2AA4;HIST1H2BJ;HIST1H2BI;IRS2;SLC7A11;CYR61;ZFP36;MYC;HIST1H2AE;HIST1H3F;PMAIP1;HIST1H3H;PHLDA1;SLC38A2;HIST1H2AB;IER3;DUSP4;DUSP5;TIPARP;GDF15;AKR1C1;DUSP8;GEM;FOSL2;HIST1H4A;HIST1H4B;MAFF;ID1;HIST1H4H;C16ORF45;TRIB3;HIST1H4C;HIST1H4D;HIST1H2BD",34
"18","niclosamide_PC3_UP","32/168",0.000154142979364503,0.0344766463845271,0,0,1.96266038615343,17.2275065849224,"CARS;CDKN1A;AMIGO2;FAM129A;CHM;IRS2;SLC1A4;SLC7A11;LYST;TANK;SLC7A1;HDAC9;ICAM1;ARHGAP12;ATXN1;IFI16;PMAIP1;STX3;PDLIM5;SLC38A2;IER3;DUSP5;GDF15;CSGALNACT2;KLF4;GEM;NPC1;MAFF;TRIB3;NUPR1;RGL1;SEC24D",32
"19","alexidine_MCF7_UP","22/99",0.000168251643056741,0.0356516376287599,0,0,2.28977045051234,19.898219300291,"LINC00273;DUSP4;CEMIP;EGR3;EPAS1;GDF15;IRS2;SLC1A4;SLC7A11;ATXN1;GPRC5A;CRISPLD2;MYC;MAFF;HIST1H3F;PMAIP1;C16ORF45;TRIB3;HIST1H3H;NUPR1;PHLDA1;IER3",22
"20","vanoxerine_MCF7_UP","16/61",0.000170850512420977,0.0343922081503426,0,0,2.70267987601456,23.4449954447348,"EGR3;TIPARP;GDF15;SLC7A11;ZFP36;HIST1H4A;HIST1H4B;MYC;ID1;MAFF;HIST1H3F;PMAIP1;HIST1H4H;HIST1H3H;HIST1H4C;HIST1H4D",16
"21","mebendazole_HL60_UP","55/346",0.000174603159333851,0.0334739199751468,0,0,1.63791383382024,14.1728599196969,"CDKN1A;MTMR11;NAB1;TRAC;ELK3;ICAM1;GLIPR1;ZFP36;CAPN2;FLOT1;IER3;CTSB;DUSP4;ANXA1;NCOA3;IFNGR2;PLAUR;EMP1;DDB2;EHBP1L1;PECAM1;SGK1;IL6ST;CHST2;CD44;PLEC;NFAT5;SDC4;BCL2A1;SLC20A1;PDGFA;IQGAP1;TANK;THBS1;PTGS1;SEL1L3;ATXN1;FLRT2;SPP1;SH3BP5;LPXN;STX3;S100A10;PHC2;JAG1;SSH1;FAM111A;IRGQ;MAFB;FCGR2A;AXL;MAFF;SERINC1;LRP10;SP140L",55
"22","colforsin_MCF7_UP","23/106",0.000176627108098481,0.032322760782022,0,0,2.23576643045308,19.3203080474379,"DUSP4;SVIL;CEMIP;SLC26A2;EPAS1;GDF15;IGFBP3;AKR1C1;IRS2;NDRG1;THBS1;TM4SF1;GEM;CYR61;FOSL2;NPC1;MYC;SH3BP5;SNAI2;C16ORF45;HIST1H3H;PHLDA1;IER3",23
"23","lomustine_MCF7_UP","17/68",0.000204256558444483,0.0357537784477169,0,0,2.57599175682638,21.8859704143544,"DUSP4;ABCC3;ANXA1;ABHD4;GDF15;AKR1C1;PDGFA;SLC1A4;SLC7A11;FOSL1;KIAA0513;MAFF;MIR22HG;PMAIP1;SNAI2;NUPR1;PHLDA1",17
"24","MS-275_PC3_UP","65/431",0.000225613257818252,0.0378466239990118,0,0,1.55396254472125,13.0481390761631,"SEMA5A;CDKN1A;SERPINE2;SERPINE1;TNC;PIK3CD;IRS2;IL1RAP;OLFML2A;PTPRH;CLU;CYR61;EPS8;DUSP5;IL11;SUN1;ANXA1;DST;CSGALNACT2;EMP1;SYNGR3;F3;GEM;GPRC5A;NOV;CRISPLD2;ANGPTL4;SGK1;CHST2;CD44;RGS17;CEMIP;TMEM63A;LAMA4;AMIGO2;ADRB2;PPL;THBS1;KIAA0040;EFNB2;NT5E;ATXN1;APH1B;PMAIP1;STOM;HIST1H3H;ABCA1;SVIL;EGR2;JAG1;GDF15;PLK2;AKR1C1;AHNAK2;FN1;SAMD4A;KLF4;HS3ST1;FOSL2;SLC4A7;BMP2;SYT11;C16ORF45;RGL1;CNIH3",65
"25","norcyclobenzaprine_PC3_UP","10/29",0.000257008121201302,0.0413885878382577,0,0,3.55309207838121,29.3712905667653,"ATXN1;GDF15;FAM129A;SLC1A4;TRIB3;SLC7A11;STX3;NUPR1;NDRG1;PHLDA1",10
"26","astemizole_MCF7_UP","32/173",0.000269026158503206,0.0416576659282271,0,0,1.90593609753628,15.6681325737395,"HIST2H2AA4;HIST1H2BI;IRS2;SLC1A4;SLC7A11;ICAM1;ZFP36;HIST1H2AE;HIST1H3F;PMAIP1;HIST1H3H;PHLDA1;HIST1H2AB;DUSP4;DUSP5;EGR2;EGR3;ANXA1;TIPARP;GDF15;KLF4;GEM;FOSL1;HIST1H4A;HIST1H4B;MAFF;HIST1H4H;TRIB3;NUPR1;HIST1H4C;SEC24D;HIST1H4D",32
"27","thiostrepton_MCF7_UP","16/64",0.000311149417476476,0.0463958353614923,0,0,2.57599175682638,20.8017447684539,"CDKN1A;ABHD4;GDF15;NAP1L2;SLC1A4;SLC7A11;NDRG1;FOSL1;MAFF;MIR22HG;PMAIP1;TNFSF9;TRIB3;NUPR1;SEC24D;ULBP2",16
