"","Term","Overlap","P.value","Adjusted.P.value","Old.P.value","Old.Adjusted.P.value","Odds.Ratio","Combined.Score","Genes","Overlap_Number"
"1","lens","19/947",0.127553606491257,1,0,0,1.32869920347979,2.73608206003283,"CD151;PGAP2;CCDC34;PSMD13;CELF1;HFE;MRPL17;SLC39A13;PAX6;PROX1;ELP4;CHRDL1;DKK3;ARFGAP2;NAP1L4;ABTB2;EXT2;CHL1;MAP3K5",19
"2","pituitary","7/294",0.158296424601185,1,0,0,1.57678965625985,2.9064741383971,"FBXO3;LIN7C;PAM;ARHGAP36;TRIM66;BET1L;MAPK8IP1",7
"3","cerebral_cortex","8/349",0.159736177109882,1,0,0,1.51805537106966,2.78446531088928,"TUB;OLFM1;FAM160A2;BRSK2;CHL1;CRY2;APBB1;BTBD10",8
"4","lacrimal_gland","14/749",0.24369318869752,1,0,0,1.23785356192362,1.74765769422524,"EHF;PLA2G12A;HARBI1;NAT10;PAX6;ATG13;EIF3M;COMMD9;RASSF10;DEAF1;ST5;ARFIP2;FBXO3;FJX1",14
"5","cerebral_cortex_prefrontal","7/344",0.264731456328978,1,0,0,1.34760511319883,1.79102020907864,"OLFM1;GABBR1;BRSK2;APBB1;BTBD10;SLC25A22;B4GALNT4",7
"6","hippocampus","4/176",0.275652839768252,1,0,0,1.50511739915713,1.93951389512323,"OLFM1;RIC3;GABBR1;SHISA6",4
"7","B-cells_GL7negative_Alum","7/379",0.348487072232309,1,0,0,1.22315609219102,1.28939506447865,"GABBR1;PSMA1;SWAP70;TRAF6;PRMT3;SAAL1;DNHD1",7
"8","heart","10/568",0.355751664071698,1,0,0,1.16593601343158,1.20502094531708,"SCUBE2;PDHX;EXT2;EHD4;SMPD1;APIP;NDUFS3;PROX1;NAV2;PAM",10
"9","osteoblast_day21","5/264",0.368440406933072,1,0,0,1.25426449929761,1.25235337445677,"RCN1;MDK;FBXO3;CHRDL1;BET1L",5
"10","prostate","6/329",0.378285943075432,1,0,0,1.20775377926287,1.17406337427172,"CHID1;EHF;PLA2G12A;PGAP2;ARFIP2;NUCB2",6
"11","lymph_nodes","2/90",0.395155249601329,1,0,0,1.47167034584253,1.36641141182402,"MADD;DGKZ",2
"12","neuro2a","7/425",0.461633433922907,1,0,0,1.09076743280093,0.843145921514015,"LMO1;TUB;STC2;FBXO3;MRPL23;FJX1;TRIM44",7
"13","min6","6/361",0.46395772463994,1,0,0,1.1006952725138,0.84529196851626,"LMO1;CD151;TSSC4;PAX6;TRPM5;HTATIP2",6
"14","mammary_gland__lact","2/104",0.467347272435729,1,0,0,1.27356087620988,0.968775692314368,"EHF;FAM160A2",2
"15","intestine_large","6/374",0.498007876830153,1,0,0,1.06243581116974,0.740665848165053,"SLC35C1;RASSF7;FAM3B;ZDHHC13;CDHR5;LIN7C",6
"16","adrenal_gland","4/245",0.507739707526068,1,0,0,1.0812271928639,0.732841032007911,"RIC3;CD151;TH;PRDM11",4
"17","3T3-L1","3/181",0.516601281603511,1,0,0,1.09765467783835,0.724983261659407,"MTCH2;CD151;TRIM44",3
"18","ciliary_bodies","5/317",0.523542346741218,1,0,0,1.04456097102388,0.675974429528522,"PTDSS2;PAX6;CHRDL1;SBF2;DKK3",5
"19","nih_3T3","4/252",0.529861707498792,1,0,0,1.05119310417324,0.667653984790803,"MRPL17;NAV2;IPO7;FANCF",4
"20","macrophage_peri_LPS_thio_1hrs","9/598",0.551337347633229,1,0,0,0.996699816164256,0.593443453803422,"PTDSS2;EHF;RNH1;CD151;CHL1;TPP1;SPTY2D1;ATG13;CD44",9
"21","bladder","3/195",0.566947222524044,1,0,0,1.01884870096791,0.578185493178763,"ALKBH3;SCUBE2;PPFIBP2",3
"22","adipose_white","3/199",0.580731972079321,1,0,0,0.998369330094179,0.542579736724184,"DEPDC7;NAV2;CHRDL1",3
"23","mammary_gland_non-lactating","3/201",0.587520033313423,1,0,0,0.988435306909163,0.525694310851338,"STIM1;STC2;TEAD1",3
"24","iris","2/133",0.599202469810448,1,0,0,0.995867151322014,0.510039062830335,"SMPD1;DKK3",2
"25","cerebellum","6/428",0.629474221258699,1,0,0,0.928390171442718,0.429724309098977,"MTCH2;TRIM3;DENND5A;DGKZ;MAPK8IP1;SHISA6",6
"26","dendritic_plasmacytoid_B220+","3/214",0.629901007421524,1,0,0,0.928390171442718,0.429095069957188,"API5;SCLT1;ZDHHC13",3
"27","dendritic_cells_lymphoid_CD8a+","2/142",0.63482274606825,1,0,0,0.932748810745266,0.423849882572783,"PRR5L;HPS5",2
"28","mast_cells_IgE","8/598",0.684961654906319,1,0,0,0.885955392146005,0.335238805311924,"ALKBH3;BRSK2;STIM1;PSMD13;PDE3B;BMI1;CKAP5;RBMX",8
"29","adipose_brown","6/456",0.689196862719364,1,0,0,0.871383757406762,0.324353717671668,"PEX16;PDHX;MTCH2;NDUFS3;TALDO1;PNPLA2",6
"30","follicular_B-cells","8/603",0.693805905930971,1,0,0,0.878609161697034,0.321187029130354,"FNBP4;PXK;CELF1;SWAP70;AMBRA1;PHRF1;CKAP5;TSPAN32",8
"31","C2C12","2/167",0.7207528515151,1,0,0,0.793115755244478,0.259712881115895,"RRAS2;CD44",2
"32","stomach","3/249",0.728572194355991,1,0,0,0.797893560998963,0.25266780359749,"CASP6;SLC35C1;FAM3B",3
"33","salivary_gland","6/480",0.735096887661661,1,0,0,0.827814569536424,0.254762391149791,"ABTB2;COMMD9;RASSF10;ST5;SPTY2D1;FANCF",6
"34","thymocyte_DP_CD4+CD8+","5/410",0.744618701183194,1,0,0,0.807623970279438,0.238154580935738,"RRM1;CASP6;TRAF6;CKAP5;RBMX",5
"35","microglia","1/90",0.746512391356218,1,0,0,0.735835172921266,0.215116308218617,"PIK3C2A",1
"36","skeletal_muscle","9/710",0.748968365811001,1,0,0,0.83947392967074,0.242657101418005,"PDHX;USP47;STIM1;DNHD1;PRDM11;SH3BGR;HIPK3;QSER1;ARFGAP2",9
"37","olfactory_bulb","5/414",0.752163922844126,1,0,0,0.79982084013181,0.227789772116281,"CELF1;NAV2;DUSP8;FJX1;SBF2",5
"38","macrophage_bone_marrow_0hr","2/180",0.758312168390422,1,0,0,0.735835172921266,0.203576266717815,"RNF141;SH3BGR",2
"39","stem_cells__HSC","2/186",0.774128075686724,1,0,0,0.712098554439935,0.182310009697358,"WEE1;PRMT3",2
"40","dendritic_cells_myeloid_CD8a-","2/188",0.779196225113432,1,0,0,0.704523037903339,0.175773123314426,"HFE;PRR5L",2
"41","spleen","1/100",0.7824483294637,1,0,0,0.662251655629139,0.162468471114125,"MADD",1
"42","osteoclasts","1/110",0.813304187616615,1,0,0,0.602046959662854,0.124413055329735,"TRAF6",1
"43","epidermis","4/373",0.817600973661768,1,0,0,0.710189443033929,0.143018566948145,"TRAF6;ANO9;BBOX1;LRP4",4
"44","T-cells_foxP3+","1/112",0.818930633465556,1,0,0,0.591296121097446,0.118114886080465,"TOX",1
"45","B-cells_GL7_positive_KLH","2/207",0.822573828888682,1,0,0,0.639856672105448,0.124974910454715,"DNHD1;ARNTL",2
"46","umbilical_cord","2/208",0.824630662312081,1,0,0,0.636780438104941,0.122783797079052,"LRCH2;PRDM11",2
"47","hypothalamus","3/296",0.827206241150082,1,0,0,0.67120100232683,0.12732765595073,"TUB;CHL1;ARHGAP36",3
"48","B-cells_GL7_negative_KLH","2/212",0.832645827243477,1,0,0,0.624765712857678,0.114423906414847,"PSMA1;NUP160",2
"49","liver","11/928",0.83342548362605,1,0,0,0.784996574560402,0.143034997153943,"PEX16;DEPDC7;CYP2R1;CAT;RDH16;MRPL17;NR1H3;BBOX1;PROX1;ELP4;NAV2",11
"50","MEF","3/300",0.833988332691951,1,0,0,0.662251655629139,0.120222428012743,"TMEM41B;PIK3C2A;TEAD1",3
"51","osteoblast_day14","3/301",0.835647790635754,1,0,0,0.660051484015753,0.118510961961972,"TOX;CHRDL1;BET1L",3
"52","retinal_pigment_epithelium","5/473",0.844839362315837,1,0,0,0.700054604259132,0.118035348182809,"ABTB2;RIC3;TMEM41B;SMPD1;LGR4",5
"53","retina","7/664",0.877603739101141,1,0,0,0.698156865874092,0.0911514368090911,"RIC3;MADD;FAR1;AP2A2;SBF2;DRD4;FANCF",7
"54","pancreas","7/667",0.880378637649811,1,0,0,0.695016730045573,0.088547351286306,"CHID1;EHF;GABBR1;STC2;APIP;SH3BGR;NUCB2",7
"55","uterus","1/141",0.883856473452512,1,0,0,0.469682025268893,0.0579872198930057,"DCHS1",1
"56","B-cells_GL7_positive_Alum","1/142",0.885622664667624,1,0,0,0.466374405372633,0.0566478432385386,"PSMA1",1
"57","Baf3","4/440",0.901977406626371,1,0,0,0.602046959662854,0.0621106606377391,"CCDC34;IPO7;TSPAN32;FANCF",4
"58","macrophage_peri_LPS_thio_0hrs","3/353",0.904293201081065,1,0,0,0.562820103934113,0.0566206219332515,"RNH1;TPP1;ATG13",3
"59","lung","3/354",0.90531407347641,1,0,0,0.561230216634864,0.0558274514379649,"SCUBE2;EHD4;LRP4",3
"60","C3H_10T1_2","1/155",0.906288264057292,1,0,0,0.427259132663961,0.0420413806009599,"TOX",1
"61","B-cells_marginal_zone","3/380",0.928629440496995,1,0,0,0.522830254444057,0.0387132274610239,"CCDC34;API5;ZDHHC13",3
"62","mega_erythrocyte_progenitor","5/562",0.929321700379098,1,0,0,0.589191864438736,0.0431879483009211,"PTDSS2;CCDC34;CD44;FANCF;ARFGAP2",5
"63","osteoblast_day5","1/175",0.931049795149435,1,0,0,0.378429517502365,0.0270359574173712,"LRRC56",1
"64","T-cells_CD4+","1/191",0.946069771032274,1,0,0,0.346728615512638,0.0192222734704159,"PHF21A",1
"65","placenta","3/411",0.949506778082858,1,0,0,0.483395369072364,0.0250459758176954,"UEVLD;SCT;CTR9",3
"66","thymocyte_SP_CD4+","1/203",0.95515143445435,1,0,0,0.326232342674453,0.0149692953260859,"TOX",1
"67","cornea","3/427",0.957912983188093,1,0,0,0.465282193650449,0.0200063605077476,"EHF;RDH16;PAX6",3
"68","macrophage_bone_marrow_24h_LPS","4/551",0.968529817657758,1,0,0,0.480763452362351,0.0153728965498842,"TRAF6;DNHD1;ACP2;ATG13",4
"69","granulocytes_mac1+gr1+","4/557",0.970497617199233,1,0,0,0.475584671906024,0.0142420162916948,"BRSK2;PAX6;NAV2;ARFGAP2",4
"70","intestine_small","3/466",0.973241170304492,1,0,0,0.426342267572407,0.0115638369018186,"MTCH2;FAM3B;CDHR5",3
"71","nucleus_accumbens","2/383",0.980549469460325,1,0,0,0.345823318866391,0.00679272433344025,"NLGN3;DUSP8",2
"72","mast_cells_IgE+antigen_1hr","1/265",0.982732871845118,1,0,0,0.249906285143071,0.00435285358834497,"TOLLIP",1
"73","mast_cells","3/515",0.985094731936279,1,0,0,0.385777663473285,0.00579340367000305,"OSBPL5;PSMD13;SAAL1",3
"74","embryonic_stem_line_V26_2_p16","5/728",0.986607117584339,1,0,0,0.454843170074958,0.00613282146184811,"WEE1;MDK;PRMT3;NAT10;NUP160",5
"75","bone_marrow","2/413",0.986954113586143,1,0,0,0.320702980934208,0.00421138541236543,"PTDSS2;RRM1",2
"76","dorsal_root_ganglia","3/541",0.989143720329479,1,0,0,0.367237516984735,0.00400863219222494,"CALCB;CHL1;DGKZ",3
"77","kidney","3/554",0.990749160249461,1,0,0,0.358620030124083,0.00333297672653038,"SIGIRR;RDH16;SLC5A12",3
"78","amygdala","1/308",0.991108227760648,1,0,0,0.215016771308162,0.00192043088471692,"B4GALNT4",1
"79","spinal_cord","1/353",0.995566571826066,1,0,0,0.187606701311371,0.000833590034390678,"MAPK8IP1",1
"80","macrophage_bone_marrow_2hr_LPS","1/365",0.996318350920443,1,0,0,0.181438809761408,0.000669226713226792,"SPTY2D1",1
"81","embryonic_stem_line_Bruce4_p13","5/876",0.997408652142618,1,0,0,0.377997520336267,0.000980794403712564,"API5;MDK;NAT10;NUP98;NUP160",5
"82","NK_cells","3/669",0.99783979782244,1,0,0,0.296973836604995,0.000642217438277832,"ALKBH3;CTR9;PRR5L",3
"83","macrophage_peri_LPS_thio_7hrs","3/707",0.998681504451118,1,0,0,0.281012017947301,0.000370757569695424,"PEX16;PPFIBP2;TRAF6",3
"84","eyecup","4/828",0.998747959967264,1,0,0,0.319928336052724,0.000400814054358276,"CD151;SCLT1;SBF2;SH3BGR",4
"85","dorsal_striatum","1/477",0.999351978073736,1,0,0,0.138836825079484,8.9998470465943e-05,"CELF1",1
"86","macrophage_bone_marrow_6hr_LPS","2/730",0.99984291797908,1,0,0,0.181438809761408,2.85030136246889e-05,"GABBR1;LRRC56",2
"87","testis","18/3059",0.999994620666825,1,0,0,0.389687146169484,2.09626263143257e-06,"USP47;MTCH2;LRRC56;BRSK2;KDM4D;SPAG6;SCLT1;HIPK3;ALKBH3;PTDSS2;STK33;PSMC3;CHL1;TOLLIP;ANKRD42;NUP98;RNF141;SBF2",18
