"","NPC","NSC","No_data","8","dentate_gyrus","NPC","NSC","No_data","8","dentate_gyrus"
"NPC",1,0.953700949649578,0.98846602894327,0.98846602894327,0.98846602894327,NA,0,0,0,0
"NSC",0.953700949649578,1,0.988248391648638,0.988248391648638,0.988248391648638,0,NA,0,0,0
"No_data",0.98846602894327,0.988248391648638,1,1,1,0,0,NA,0,0
"8",0.98846602894327,0.988248391648638,1,1,1,0,0,0,NA,0
"dentate_gyrus",0.98846602894327,0.988248391648638,1,1,1,0,0,0,0,NA
