"","Term","Overlap","P.value","Adjusted.P.value","Old.P.value","Old.Adjusted.P.value","Odds.Ratio","Combined.Score","Genes","Overlap_Number"
"1","Peroxisome_Homo sapiens_hsa04146","39/83",5.03959682793826e-05,0.0147660187058591,0,0,1.76945779729727,17.5098454828325,"ABCD4;PEX11A;MPV17L;ECI2;MPV17L2;DDO;PEX26;PRDX5;SCP2;PRDX1;PMVK;NUDT19;HACL1;MPV17;MLYCD;HMGCLL1;PEX16;GSTK1;ACOT8;PHYH;ACSL1;IDH1;EPHX2;ECH1;ACSL6;PIPOX;PEX2;ACSL3;PEX1;PEX12;PEX7;NUDT7;SLC25A17;AMACR;PEX3;ACOX1;PXMP2;PXMP4;PEX11G",39
"2","Oxidative phosphorylation_Homo sapiens_hsa00190","49/133",0.00577794821730267,0.846469413834841,0,0,1.38738863728706,7.15019403089206,"COX7B;NDUFA11;COX4I2;UQCRFS1;ATP6V1E1;ATP6V1G1;ATP6V0B;ATP6V1G2;COX6B1;COX7A2L;PPA2;NDUFS5;NDUFS4;NDUFS3;NDUFS1;UQCRC2;ATP6V0D1;NDUFB9;NDUFB10;NDUFB6;NDUFB11;NDUFB5;NDUFB4;NDUFB3;NDUFB2;NDUFA4L2;COX7A2;UQCR11;ATP5H;UQCR10;ATP5O;COX7A1;UQCRH;ATP5L;ATP5E;COX11;NDUFV3;ATP6V0E2;ATP6V1D;ATP6V1F;NDUFA8;NDUFA7;NDUFA6;NDUFA4;NDUFA3;NDUFA1;COX6C;ATP4A;UQCRQ",49
"3","Fatty acid elongation_Homo sapiens_hsa00062","11/25",0.0448097355957668,1,0,0,1.65693842967426,5.14534036654652,"HADHB;ELOVL1;ACAA2;ACOT7;ELOVL4;ELOVL5;TECR;ACOT2;ELOVL6;ELOVL7;PPT2",11
"4","Alzheimer's disease_Homo sapiens_hsa05010","54/168",0.0615074866915059,1,0,0,1.21042580089841,3.3753890027191,"APP;COX7B;NDUFA11;COX4I2;ATP2A3;PPP3CA;CAPN2;UQCRFS1;PSENEN;COX6B1;BACE1;COX7A2L;NDUFS5;NDUFS4;NDUFS3;NDUFS1;UQCRC2;MAPT;NDUFB9;NDUFB10;NDUFB6;NDUFB11;NDUFB5;NDUFB4;NDUFB3;PSEN2;NDUFB2;NDUFA4L2;COX7A2;UQCR11;ATP5H;UQCR10;ATP5O;COX7A1;HSD17B10;UQCRH;ATP5E;NDUFV3;NAE1;APBB1;SNCA;NDUFA8;NDUFA7;NDUFA6;NDUFA4;NDUFA3;NDUFA1;COX6C;GRIN2B;GRIN1;CDK5;UQCRQ;CALM1;CDK5R1",54
"5","Valine, leucine and isoleucine degradation_Homo sapiens_hsa00280","18/48",0.0633957681491517,1,0,0,1.41216343438147,3.89525254406349,"BCKDHA;MCCC2;ACAA2;HMGCS1;MCCC1;ABAT;HSD17B10;ACAT2;ALDH3A2;HADHB;MCEE;ALDH6A1;AUH;ALDH1B1;HMGCS2;ACADM;BCAT1;HMGCLL1",18
"6","Axon guidance_Homo sapiens_hsa04360","41/127",0.0878628109324151,1,0,0,1.21572075190846,2.95660691012695,"SEMA5A;EPHB6;SEMA7A;SEMA3C;SEMA3B;CXCR4;EFNA4;GNAI1;PPP3CA;PAK1;EFNB3;ABLIM2;DPYSL5;PLXNA2;NCK2;PAK7;FYN;SRGAP3;PLXNA3;SEMA6B;EPHA4;NTNG2;EPHA7;UNC5B;SEMA6D;LIMK2;SEMA4C;LIMK1;SEMA4F;SEMA4G;L1CAM;RHOD;PTK2;NFATC4;EFNA1;CXCL12;EFNA2;CDK5;PLXNB3;PLXNB1;NGEF",41
"7","Synthesis and degradation of ketone bodies_Homo sapiens_hsa00072","5/10",0.0975609346892338,1,0,0,1.8828845791753,4.38199609305189,"BDH2;HMGCS1;HMGCS2;HMGCLL1;ACAT2",5
"8","Sulfur relay system_Homo sapiens_hsa04122","5/10",0.0975609346892338,1,0,0,1.8828845791753,4.38199609305189,"TRMU;NFS1;CTU1;TST;URM1",5
"9","Glycosylphosphatidylinositol(GPI)-anchor biosynthesis_Homo sapiens_hsa00563","10/25",0.100401128543351,1,0,0,1.50630766334024,3.46237142732601,"DPM2;PIGB;PIGP;PIGZ;PIGW;PIGG;PIGF;GPLD1;PIGX;PIGH",10
"10","Glutathione metabolism_Homo sapiens_hsa00480","18/52",0.124198471699977,1,0,0,1.30353547789059,2.71901130200088,"GSTK1;GSTM2;GGT7;GSTM1;GPX4;GSTP1;MGST3;IDH1;MGST1;GSTT2;GSTT1;OPLAH;GGCT;GCLC;GSTA4;ANPEP;GGT1;GSTM5",18
"11","Protein export_Homo sapiens_hsa03060","9/23",0.130526633585644,1,0,0,1.47356184457197,3.00043418636859,"SEC61A2;SRP19;IMMP1L;SPCS2;SPCS1;SRP14;SEC62;SEC63;SEC11C",9
"12","Steroid biosynthesis_Homo sapiens_hsa00100","8/20",0.134824399858552,1,0,0,1.50630766334024,3.01831231637148,"NSDHL;SC5D;DHCR24;MSMO1;DHCR7;LSS;TM7SF2;FDFT1",8
"13","Parkinson's disease_Homo sapiens_hsa05012","44/142",0.135254040165907,1,0,0,1.16685804906638,2.33441678456518,"NDUFB9;COX7B;NDUFA11;NDUFB10;NDUFB6;NDUFB11;NDUFB5;NDUFB4;COX4I2;NDUFB3;NDUFB2;NDUFA4L2;COX7A2;UQCR11;ATP5H;UQCR10;ATP5O;COX7A1;UQCRH;GNAI1;UCHL1;ATP5E;UQCRFS1;NDUFV3;SNCA;NDUFA8;NDUFA7;GPR37;NDUFA6;NDUFA4;NDUFA3;NDUFA1;COX6C;SEPT5;COX6B1;COX7A2L;PINK1;UQCRQ;NDUFS5;NDUFS4;NDUFS3;NDUFS1;UQCRC2;SLC25A4",44
"14","Glycine, serine and threonine metabolism_Homo sapiens_hsa00260","14/40",0.151252108902469,1,0,0,1.31801920542271,2.48948421635869,"GAMT;AOC2;MAOB;GLDC;PGAM2;AMT;PIPOX;BPGM;SDSL;GCAT;GRHPR;CTH;PHGDH;PSPH",14
"15","Non-alcoholic fatty liver disease (NAFLD)_Homo sapiens_hsa04932","46/151",0.158766655244823,1,0,0,1.14718795552402,2.11119263061638,"NDUFB9;COX7B;NDUFA11;NDUFB10;NDUFB6;IRS1;NDUFB11;NDUFB5;NDUFB4;COX4I2;NDUFB3;PRKAG1;NDUFB2;NDUFA4L2;PIK3R3;COX7A2;PIK3R2;UQCR11;UQCR10;COX7A1;ADIPOR2;UQCRH;MAPK8;AKT3;MLX;UQCRFS1;NDUFV3;NDUFA8;PRKAB2;NDUFA7;NDUFA6;NDUFA4;NDUFA3;NDUFA1;NR1H3;COX6C;COX6B1;MAPK10;COX7A2L;UQCRQ;DDIT3;NDUFS5;NDUFS4;NDUFS3;NDUFS1;UQCRC2",46
"16","Vitamin digestion and absorption_Homo sapiens_hsa04977","9/24",0.161943881111726,1,0,0,1.41216343438147,2.5708511814938,"SLC46A1;LMBRD1;BTD;FOLH1;SLC23A1;SLC19A3;APOA1;SLC19A1;SLC19A2",9
"17","Epithelial cell signaling in Helicobacter pylori infection_Homo sapiens_hsa05120","22/68",0.171157605386272,1,0,0,1.21833708064284,2.1505726470399,"MAP2K4;ATP6V1G1;ATP6V0B;ATP6V1G2;CHUK;SRC;MAPK12;MAPK10;PAK1;MAPK8;PTPRZ1;CCL5;CXCR2;PLCG1;ATP6V1E1;ATP6V0D1;ATP6V0E2;ATP6V1D;MAP3K14;GIT1;JAM3;ATP6V1F",22
"18","Basal cell carcinoma_Homo sapiens_hsa05217","18/55",0.18659770550833,1,0,0,1.23243354273292,2.06900978519385,"APC2;FZD1;WNT2B;FZD2;FZD4;HHIP;WNT5A;LEF1;FZD6;WNT8B;FZD8;WNT7A;GLI1;BMP4;APC;STK36;WNT3;WNT4",18
"19","Huntington's disease_Homo sapiens_hsa05016","57/193",0.194068215419414,1,0,0,1.11217016593774,1.82345365291377,"COX7B;NDUFA11;COX4I2;CLTB;DNALI1;BBC3;CREB3L4;CREB3L1;UQCRFS1;IFT57;COX6B1;CREB3;COX7A2L;NDUFS5;NDUFS4;NDUFS3;NDUFS1;UQCRC2;SLC25A4;NDUFB9;DNAH1;HDAC2;NDUFB10;NDUFB6;DCTN2;NDUFB11;NDUFB5;NDUFB4;NDUFB3;NDUFA4L2;NDUFB2;UQCR11;COX7A2;ATP5H;UQCR10;ATP5O;COX7A1;UQCRH;ATP5E;POLR2G;NDUFV3;POLR2H;PPARGC1A;POLR2K;POLR2L;NDUFA8;NDUFA7;NDUFA6;NDUFA4;NDUFA3;NDUFA1;COX6C;GRIN2B;GRIN1;UQCRQ;DLG4;DNAL1",57
"20","Alanine, aspartate and glutamate metabolism_Homo sapiens_hsa00250","12/35",0.196620934488969,1,0,0,1.29112085429163,2.09997914102339,"GLUD1;FOLH1;GAD1;ADSSL1;GPT;ABAT;NAT8L;RIMKLB;ASPA;DDO;ASS1;GLS",12
"21","Propanoate metabolism_Homo sapiens_hsa00640","11/32",0.208015270904636,1,0,0,1.29448314818302,2.03252466882593,"BCKDHA;LDHB;MCEE;ALDH6A1;ACSS2;ECHDC1;ABAT;SUCLG1;ACADM;MLYCD;ACAT2",11
"22","Aldosterone-regulated sodium reabsorption_Homo sapiens_hsa04960","13/39",0.215041488593917,1,0,0,1.25525638611686,1.92923404163254,"PRKCG;IRS1;PDPK1;PRKCB;NEDD4L;PIK3R3;PIK3R2;ATP1B3;ATP1A1;ATP1B2;SLC9A3R2;SFN;SGK1",13
"23","Cardiac muscle contraction_Homo sapiens_hsa04260","24/78",0.234069441892286,1,0,0,1.15869820256941,1.68258905021577,"COX7B;COX4I2;TPM1;ATP1B3;UQCR11;COX7A2;ATP1B2;UQCR10;ATP1A1;COX6C;COX7A1;UQCRH;COX6B1;CACNB1;CACNG7;COX7A2L;CACNB3;CACNG8;SLC9A6;UQCRQ;UQCRFS1;TNNI3;UQCRC2;MYH6",24
"24","Circadian rhythm_Homo sapiens_hsa04710","10/30",0.256840652795091,1,0,0,1.25525638611686,1.70626927059368,"PER2;PRKAB2;BHLHE40;CRY2;RORC;PRKAG1;FBXL3;CSNK1E;ARNTL;RBX1",10
"25","Fatty acid degradation_Homo sapiens_hsa00071","14/44",0.26224883297634,1,0,0,1.19819927765701,1.60374358061439,"GCDH;ACAA2;ACSL1;ECI2;ACSL6;ACSL3;CPT1C;ACAT2;HADHB;ALDH3A2;ALDH1B1;ACOX1;ACSBG1;ACADM",14
"26","PPAR signaling pathway_Homo sapiens_hsa03320","21/69",0.271643547649647,1,0,0,1.14610365688931,1.49367627662809,"SLC27A1;GK;ACSL1;PDPK1;ACSL6;ILK;APOA1;NR1H3;DBI;ACSL3;SORBS1;CPT1C;FABP3;SCP2;FABP5;ACOX1;FABP7;ACSBG1;HMGCS2;ACADM;ANGPTL4",21
"27","Fatty acid metabolism_Homo sapiens_hsa01212","15/48",0.277454714099993,1,0,0,1.17680286198456,1.50877606800207,"ACAA2;ELOVL5;ACSL1;TECR;ACSL6;ELOVL6;ACSL3;CPT1C;ACAT2;HADHB;ACOX1;ACSBG1;ACADM;PPT2;FADS1",15
"28","beta-Alanine metabolism_Homo sapiens_hsa00410","10/31",0.295072996992959,1,0,0,1.21476424462922,1.48265924747618,"ALDH3A2;ALDH3A1;ALDH6A1;AOC2;ALDH1B1;SMOX;GAD1;ABAT;ACADM;MLYCD",10
"29","Cocaine addiction_Homo sapiens_hsa05030","15/49",0.308258875075067,1,0,0,1.1527864770461,1.3566168163227,"GPSM1;GRIA2;DDC;MAOB;GRIN2B;GNAI1;GRIN1;GRM3;CREB3;CDK5;CREB3L4;DLG4;CREB3L1;GNAS;CDK5R1",15
"30","FoxO signaling pathway_Homo sapiens_hsa04068","38/133",0.329241443725682,1,0,0,1.07593404524303,1.19532391087194,"CDKN1B;IRS1;FOXG1;ARAF;FBXO25;AGAP2;PRKAG1;FOXO6;PIK3R3;PIK3R2;FOXO3;FOXO1;MAPK8;AKT3;S1PR1;HOMER3;GABARAPL2;PRKAB2;GABARAPL1;TGFB2;CHUK;TGFB3;GADD45A;PDPK1;BNIP3;STAT3;CSNK1E;FBXO32;SIRT1;ATG12;MAPK12;MAPK10;G6PC3;CCNG2;MDM2;RAF1;SGK1;SGK2",38
"31","Taurine and hypotaurine metabolism_Homo sapiens_hsa00430","4/11",0.330275874703766,1,0,0,1.36937060303658,1.51702571309736,"GGT7;GAD1;GGT1;CDO1",4
"32","Ubiquinone and other terpenoid-quinone biosynthesis_Homo sapiens_hsa00130","4/11",0.330275874703766,1,0,0,1.36937060303658,1.51702571309736,"VKORC1;NQO1;COQ2;GGCX",4
"33","Wnt signaling pathway_Homo sapiens_hsa04310","40/142",0.361472556094751,1,0,0,1.0607800446058,1.07941705576837,"CAMK2B;WNT2B;LEF1;WNT8B;PRICKLE1;CXXC4;NKD2;PPP3CA;FRAT1;PORCN;MAPK8;FRAT2;CAMK2G;WNT3;WNT4;PRKCG;FZD1;APC2;FZD2;PRKCB;FZD4;SERPINF1;CTNNBIP1;WNT5A;FZD6;FZD8;WNT7A;CSNK1E;RBX1;NFATC4;VANGL1;MAPK10;SFRP4;SFRP1;VANGL2;DAAM1;APC;DAAM2;BAMBI;CSNK2B",40
"34","Phosphatidylinositol signaling system_Homo sapiens_hsa04070","28/98",0.361687121864692,1,0,0,1.07593404524303,1.09419882736511,"IPPK;PI4K2B;TMEM55B;DGKE;MTMR2;DGKA;PIK3R3;PIK3R2;MTM1;PIK3C2B;PPIP5K2;INPP5E;INPP5J;PIP4K2B;PLCG1;IP6K1;IP6K2;PRKCG;PRKCB;OCRL;SYNJ2;INPP4A;PI4KA;PI4KB;CALM1;PLCD4;PLCD1;CDS2",28
"35","Insulin resistance_Homo sapiens_hsa04931","31/109",0.362091012600969,1,0,0,1.07099856797127,1.08798426546497,"PYGB;SLC27A1;IRS1;SLC2A1;PRKAG1;PIK3R3;PIK3R2;PYGM;PYGL;PRKCZ;FOXO1;PTPRF;MAPK8;CREB3L4;CREB3L1;AKT3;MLX;PPARGC1A;MGEA5;PRKAB2;PRKCB;PDPK1;STAT3;NR1H3;MAPK10;CREB3;G6PC3;PPP1R3C;PPP1R3E;RPS6KB2;OGT",31
"36","Terpenoid backbone biosynthesis_Homo sapiens_hsa00900","7/22",0.362768743409217,1,0,0,1.19819927765701,1.21496174793595,"IDI1;HMGCS1;FNTA;PMVK;PDSS2;HMGCS2;ACAT2",7
"37","Pyruvate metabolism_Homo sapiens_hsa00620","12/40",0.367157901913189,1,0,0,1.12973074750518,1.13194871739494,"ALDH3A2;LDHB;GRHPR;ACSS2;ALDH1B1;GLO1;LDHD;HAGHL;ACYP2;PDHB;ACYP1;ACAT2",12
"38","Vasopressin-regulated water reabsorption_Homo sapiens_hsa04962","13/44",0.38094690075327,1,0,0,1.11261361496722,1.07377815012636,"DCTN6;DYNC2H1;DCTN2;AQP4;AQP3;DYNC2LI1;CREB3;DYNC1LI1;DYNC1LI2;CREB3L4;CREB3L1;GNAS;VAMP2",13
"39","Adipocytokine signaling pathway_Homo sapiens_hsa04920","20/70",0.394857806338884,1,0,0,1.07593404524303,0.999789722509062,"PRKAB2;CHUK;IRS1;ACSL1;STAT3;SLC2A1;PRKAG1;ACSL6;ACSL3;CPT1C;ADIPOR2;CAMKK1;MAPK10;POMC;MAPK8;G6PC3;NPY;AKT3;ACSBG1;PPARGC1A",20
"40","Dopaminergic synapse_Homo sapiens_hsa04728","36/129",0.396209088335724,1,0,0,1.05091232326063,0.972948507457468,"GRIA1;CAMK2B;GRIA2;DDC;MAOB;PPP2R2A;GNAI1;ARNTL;PPP3CA;MAPK8;CREB3L4;KIF5C;PPP2R3C;CREB3L1;GNG7;KIF5A;AKT3;GNG8;DRD3;CAMK2G;PRKCG;PRKCB;PPP2R5B;PPP2R3A;GRIN2B;GNG11;MAPK12;GNAO1;MAPK10;CREB3;PPP2R2C;PPP2R2B;GNAS;GNB4;GNB5;CALM1",36
"41","Synaptic vesicle cycle_Homo sapiens_hsa04721","18/63",0.404756448924599,1,0,0,1.07593404524303,0.973149800624534,"SNAP25;ATP6V1G1;ATP6V0B;RAB3A;UNC13A;ATP6V1G2;STXBP1;CLTB;CPLX1;STX1B;SLC17A6;ATP6V1E1;ATP6V0D1;ATP6V0E2;ATP6V1D;STX1A;VAMP2;ATP6V1F",18
"42","Proximal tubule bicarbonate reclamation_Homo sapiens_hsa04964","7/23",0.412595478239151,1,0,0,1.14610365688931,1.01463139884395,"GLUD1;ATP1B3;ATP1A1;ATP1B2;SLC38A3;SLC4A4;GLS",7
"43","Renin-angiotensin system_Homo sapiens_hsa04614","7/23",0.412595478239151,1,0,0,1.14610365688931,1.01463139884395,"CPA3;ACE2;ENPEP;CMA1;ANPEP;LNPEP;AGT",7
"44","Biosynthesis of unsaturated fatty acids_Homo sapiens_hsa01040","7/23",0.412595478239151,1,0,0,1.14610365688931,1.01463139884395,"ACOT7;ELOVL5;ACOX1;TECR;ACOT2;ELOVL6;FADS1",7
"45","Amphetamine addiction_Homo sapiens_hsa05031","19/67",0.414191458844429,1,0,0,1.06790468669644,0.941279972041085,"PRKCG;GRIA1;CAMK2B;GRIA2;DDC;MAOB;PRKCB;SIRT1;GRIN2B;GRIN1;PPP3CA;CREB3;ARC;CREB3L4;CREB3L1;GNAS;CALM1;CAMK2G;STX1A",19
"46","Collecting duct acid secretion_Homo sapiens_hsa04966","8/27",0.429625209824527,1,0,0,1.1157834543261,0.942660786959081,"ATP4A;ATP6V1G1;ATP6V1G2;ATP6V0E2;ATP6V1E1;ATP6V0D1;ATP6V1D;ATP6V1F",8
"47","Sphingolipid signaling pathway_Homo sapiens_hsa04071","33/120",0.441511296339883,1,0,0,1.03558651854641,0.846645490765213,"PIK3R3;PPP2R2A;PIK3R2;PRKCZ;GNAI1;PLD2;SMPD2;MAPK8;PPP2R3C;SMPD1;AKT3;ADORA1;S1PR1;FCER1A;S1PR3;FYN;S1PR5;PRKCG;CERS4;PRKCB;PDPK1;SPHK1;PPP2R5B;PPP2R3A;MAPK12;MAPK10;PPP2R2C;PPP2R2B;BCL2;DEGS1;DEGS2;RAF1;CERS2",33
"48","Other types of O-glycan biosynthesis_Homo sapiens_hsa00514","9/31",0.444112482390846,1,0,0,1.0932878201663,0.887397026165975,"POMT2;LFNG;FUT9;MGAT5B;MFNG;CHST10;RFNG;POMGNT1;OGT",9
"49","ErbB signaling pathway_Homo sapiens_hsa04012","24/87",0.454103943893804,1,0,0,1.03883287126913,0.820084956622963,"PRKCG;CAMK2B;MAP2K4;SHC2;CDKN1B;PRKCB;SRC;ARAF;PIK3R3;PIK3R2;ELK1;PTK2;MAPK10;PAK1;MAPK8;ERBB3;AKT3;RPS6KB2;NCK2;PAK7;PLCG1;RAF1;MAP2K7;CAMK2G",24
"50","Histidine metabolism_Homo sapiens_hsa00340","7/24",0.462109703886913,1,0,0,1.09834933785226,0.847874024432424,"ALDH3A2;ALDH3A1;DDC;MAOB;ALDH1B1;HDC;ASPA",7
"51","Fatty acid biosynthesis_Homo sapiens_hsa00061","4/13",0.467805854129043,1,0,0,1.15869820256941,0.88026523846262,"ACSL1;ACSL6;ACSBG1;ACSL3",4
"52","GABAergic synapse_Homo sapiens_hsa04727","24/88",0.479805190346244,1,0,0,1.02702795227743,0.754223766357637,"PRKCG;GABRA2;GABARAPL2;GABRB1;GABARAPL1;GABBR1;PRKCB;SRC;PLCL1;GABRA4;GAD1;SLC6A13;ABAT;SLC6A1;GNG11;GNAI1;GLS;GNAO1;GNG7;GNB4;GNG8;GNB5;SLC38A3;SLC38A5",24
"53","Primary bile acid biosynthesis_Homo sapiens_hsa00120","5/17",0.485467345656012,1,0,0,1.10757916422076,0.800384609874819,"ACOT8;AMACR;SCP2;CYP7B1;CYP46A1",5
"54","Vibrio cholerae infection_Homo sapiens_hsa05110","14/51",0.495481203256156,1,0,0,1.03374055327271,0.725919349900371,"SLC12A2;ATP6V1G1;ATP6V0B;ATP6V1G2;SEC61A2;GNAS;KDELR3;PLCG1;ATP6V1E1;ATP6V0D1;ATP6V0E2;ATP6V1D;ATP6V1F;TJP2",14
"55","Sulfur metabolism_Homo sapiens_hsa00920","3/10",0.520575936959608,1,0,0,1.12973074750518,0.73751027215382,"TST;BPNT1;PAPSS2",3
"56","Notch signaling pathway_Homo sapiens_hsa04330","13/48",0.521864338505494,1,0,0,1.01989581371995,0.663286807754146,"PSENEN;HDAC2;NUMBL;PSEN2;DTX1;DTX3;RFNG;DTX4;LFNG;MFNG;CIR1;HES1;HES5",13
"57","Choline metabolism in cancer_Homo sapiens_hsa05231","27/101",0.521864855629784,1,0,0,1.00669076510362,0.654697938363066,"SLC22A4;DGKE;SLC22A5;SLC44A1;DGKA;PIK3R3;PIK3R2;PLD2;MAPK8;PDGFD;AKT3;PLCG1;WASF1;RALGDS;WASF3;PDGFRB;PRKCG;PDGFRA;PCYT1B;CHKA;PRKCB;PDPK1;TSC1;MAPK10;RPS6KB2;CHPT1;RAF1",27
"58","AMPK signaling pathway_Homo sapiens_hsa04152","33/124",0.528523744769549,1,0,0,1.00218050181911,0.639057981316884,"PFKFB3;IRS1;PRKAG1;PIK3R3;PPP2R2A;PIK3R2;FOXO3;ADIPOR2;FOXO1;CAMKK1;CREB3L4;PPP2R3C;CREB3L1;AKT3;MLYCD;PPARGC1A;RAB2A;PRKAB2;PDPK1;PPP2R5B;TSC1;PPP2R3A;CPT1C;SIRT1;CREB3;G6PC3;PPP2R2C;PPP2R2B;AKT1S1;RPS6KB2;ULK1;PFKM;PFKP",33
"59","Cysteine and methionine metabolism_Homo sapiens_hsa00270","12/45",0.549960404316075,1,0,0,1.00420510889349,0.600423267934245,"LDHB;GCLC;AHCYL1;TST;ADI1;CTH;AMD1;DNMT3B;SDSL;CDO1;BCAT1;ENOPH1",12
"60","Signaling pathways regulating pluripotency of stem cells_Homo sapiens_hsa04550","37/142",0.585595432851918,1,0,0,0.981221541260366,0.525077271777506,"WNT2B;DLX5;PIK3R3;WNT8B;PIK3R2;BMI1;ACVR1B;AKT3;PCGF1;WNT3;WNT4;FZD1;APC2;PCGF6;FZD2;FZD4;PCGF2;WNT5A;FZD6;STAT3;FZD8;WNT7A;PAX6;MAPK12;ACVR2A;TBX3;BMP4;APC;ID2;ID1;ID4;ID3;IL6ST;RAF1;FGFR3;NODAL;FGFR1",37
"61","Cyanoamino acid metabolism_Homo sapiens_hsa00460","2/7",0.593004744048599,1,0,0,1.07593404524303,0.562232433961274,"GGT7;GGT1",2
"62","Glycosaminoglycan biosynthesis - keratan sulfate_Homo sapiens_hsa00533","4/15",0.593512389303729,1,0,0,1.00420510889349,0.523890983659144,"B3GNT7;CHST1;B4GALT4;CHST2",4
"63","Glucagon signaling pathway_Homo sapiens_hsa04922","26/101",0.611011457479953,1,0,0,0.969405921951638,0.477567714581054,"CAMK2B;PYGB;SLC2A1;PRKAG1;PYGM;PYGL;PDHB;FOXO1;LDHB;PPP3CA;PHKG1;CREB3L4;CREB3L1;AKT3;PHKG2;PPARGC1A;CAMK2G;PRKAB2;PGAM2;PHKA1;CPT1C;SIRT1;CREB3;G6PC3;GNAS;CALM1",26
"64","Longevity regulating pathway - mammal_Homo sapiens_hsa04211","24/94",0.627675400336229,1,0,0,0.961472976600151,0.447788852125114,"PRKAB2;IRS1;PRKAG1;PIK3R3;TSC1;PIK3R2;FOXO3;SIRT1;ATG13;ADIPOR2;FOXO1;CAMKK1;CREB3;SESN3;CREB3L4;ATG101;CREB3L1;RB1CC1;AKT3;AKT1S1;RPS6KB2;ULK1;PPARGC1A;APPL1",24
"65","Alcoholism_Homo sapiens_hsa05034","46/179",0.630801661223592,1,0,0,0.967739560246521,0.445899347877953,"HDAC5;SHC2;DDC;HDAC2;HDAC10;MAOB;HIST1H2BJ;HDAC11;ARAF;HDAC8;GNAI1;CAMKK1;HDAC7;CREB3L4;CREB3L1;GNG7;NPY;GNG8;HIST1H3I;HIST1H2AC;HIST1H3D;HIST1H2AL;NTRK2;HIST1H4K;H3F3B;H3F3C;GRIN2B;GNG11;GRIN1;GNAO1;CREB3;ADORA2B;PKIA;GNAS;GNB4;CRH;HIST1H2BE;HIST1H4H;HIST1H4I;HIST1H2BG;HIST1H4J;GNB5;RAF1;CALM1;HIST1H2BC;HIST1H4F",46
"66","Central carbon metabolism in cancer_Homo sapiens_hsa05230","17/67",0.632503497389348,1,0,0,0.95549366704418,0.437682533955109,"PDGFRB;PDGFRA;IDH1;PGAM2;SLC2A1;PIK3R3;PIK3R2;PDHB;SLC1A5;GLS;SIRT3;AKT3;RAF1;PFKM;FGFR3;PFKP;FGFR1",17
"67","Inositol phosphate metabolism_Homo sapiens_hsa00562","18/71",0.635224600734677,1,0,0,0.954702040145221,0.43322148463017,"IPPK;PI4K2B;MTMR2;OCRL;SYNJ2;PIK3C2B;MTM1;INPP4A;MINPP1;ALDH6A1;INPP5E;INPP5J;PI4KA;PIP4K2B;PLCG1;PI4KB;PLCD4;PLCD1",18
"68","Butanoate metabolism_Homo sapiens_hsa00650","7/28",0.644451528502526,1,0,0,0.941442289587648,0.413628005404201,"BDH2;HMGCS1;GAD1;ABAT;HMGCS2;HMGCLL1;ACAT2",7
"69","RNA polymerase_Homo sapiens_hsa03020","8/32",0.644901398460667,1,0,0,0.941442289587648,0.412971045448959,"POLR3GL;POLR3E;POLR1D;POLR2G;POLR3H;POLR2H;POLR2K;POLR2L",8
"70","Arginine biosynthesis_Homo sapiens_hsa00220","5/20",0.646048621056804,1,0,0,0.941442289587648,0.411297790658985,"GLUD1;ARG2;GPT;ASS1;GLS",5
"71","ABC transporters_Homo sapiens_hsa02010","11/44",0.648474067591566,1,0,0,0.941442289587648,0.407769972056905,"ABCD4;ABCA2;ABCA5;ABCC8;ABCA6;ABCC5;ABCA7;ABCC9;ABCC10;ABCG4;ABCG1",11
"72","mTOR signaling pathway_Homo sapiens_hsa04150","15/60",0.655391772020397,1,0,0,0.941442289587648,0.397780170335624,"PRKCG;IRS1;PDPK1;PRKCB;PIK3R3;TSC1;PIK3R2;VEGFA;RRAGA;RRAGB;AKT3;AKT1S1;RPS6KB2;ULK1;RICTOR",15
"73","TGF-beta signaling pathway_Homo sapiens_hsa04350","21/84",0.666849263503466,1,0,0,0.941442289587648,0.381464178455492,"LEFTY1;TGFB2;ZFYVE9;TGFB3;SMURF1;NOG;CHRD;ACVR1B;THBS1;DCN;ACVR2A;RBX1;SMAD7;BMP4;BAMBI;ID2;ID1;RPS6KB2;ID4;ID3;NODAL",21
"74","Melanogenesis_Homo sapiens_hsa04916","25/100",0.674456650918153,1,0,0,0.941442289587648,0.370785044123425,"CAMK2B;WNT2B;LEF1;WNT8B;GNAI1;CREB3L4;CREB3L1;CAMK2G;WNT3;WNT4;PRKCG;FZD1;FZD2;PRKCB;FZD4;WNT5A;FZD6;FZD8;WNT7A;GNAO1;POMC;CREB3;GNAS;RAF1;CALM1",25
"75","Endocytosis_Homo sapiens_hsa04144","66/259",0.67563131723545,1,0,0,0.959616851162699,0.3762731951809,"VPS29;SH3GL3;ZFYVE9;SH3KBP1;WIPF3;ARPC1A;CLTB;ZFYVE27;PSD2;KIF5C;KIF5A;GIT1;PSD;SH3GLB2;PDGFRA;IST1;ARAP2;VPS37D;VPS37A;VPS37B;ARFGAP3;RUFY1;ACAP3;RABEP1;BIN1;DNAJC6;AMPH;STAMBP;CHMP7;VPS28;CHMP5;SRC;AGAP2;NEDD4L;AGAP1;CXCR4;PARD6G;SNX32;VPS26B;PRKCZ;PLD2;CYTH3;CYTH2;ERBB3;CXCR2;MVB12B;MVB12A;RAB11FIP2;RAB11FIP3;RAB11FIP4;CYTH1;TGFB2;TGFB3;SMURF1;VTA1;STAM;SNF8;HSPA2;IGF2R;EHD3;CHMP2B;CHMP2A;MDM2;FGFR3;SMAP1;FOLR1",66
"76","N-Glycan biosynthesis_Homo sapiens_hsa00510","12/49",0.680605507904253,1,0,0,0.92222918163688,0.354848357913625,"DPM2;DPM3;TUSC3;DAD1;MGAT5B;DOLPP1;ALG5;MGAT4B;ALG2;MGAT3;ALG12;ALG1",12
"77","VEGF signaling pathway_Homo sapiens_hsa04370","15/61",0.68269441415478,1,0,0,0.926008809430474,0.353464911904759,"PRKCG;SHC2;PRKCB;SRC;SPHK1;HSPB1;PIK3R3;PIK3R2;MAPK12;PTK2;VEGFA;PPP3CA;AKT3;PLCG1;RAF1",15
"78","Pentose phosphate pathway_Homo sapiens_hsa00030","7/29",0.683943013079807,1,0,0,0.908978762360488,0.345303469479547,"PGM2;TALDO1;IDNK;ALDOC;ALDOA;PFKM;PFKP",7
"79","p53 signaling pathway_Homo sapiens_hsa04115","17/69",0.684770868475027,1,0,0,0.927798198434204,0.351330267195616,"STEAP3;CD82;GADD45A;GORAB;TNFRSF10B;RCHY1;PPM1D;THBS1;BBC3;DDB2;SESN3;ZMAT3;PERP;CCNG2;MDM2;SFN;RPRM",17
"80","Insulin secretion_Homo sapiens_hsa04911","21/85",0.689770711731523,1,0,0,0.930366497945441,0.345534431646974,"PRKCG;CAMK2B;SNAP25;ADCYAP1R1;RAB3A;KCNJ11;ABCC8;PRKCB;SLC2A1;ATP1B3;ATP1B2;ATP1A1;CREB3;CREB3L4;CREB3L1;GNAS;KCNN1;KCNN2;CAMK2G;STX1A;VAMP2",21
"81","2-Oxocarboxylic acid metabolism_Homo sapiens_hsa01210","4/17",0.699671168381348,1,0,0,0.88606333137661,0.316452923468929,"IDH1;IDH3B;GPT;BCAT1",4
"82","Phenylalanine metabolism_Homo sapiens_hsa00360","4/17",0.699671168381348,1,0,0,0.88606333137661,0.316452923468929,"ALDH3A1;DDC;AOC2;MAOB",4
"83","Selenocompound metabolism_Homo sapiens_hsa00450","4/17",0.699671168381348,1,0,0,0.88606333137661,0.316452923468929,"TXNRD3;CTH;INMT;PAPSS2",4
"84","Proteoglycans in cancer_Homo sapiens_hsa05205","51/203",0.703792727997014,1,0,0,0.946079936334386,0.332330811101929,"WNT2B;ARAF;HSPB2;ELK1;CTSL;AKT3;PRKCG;PRKCB;PDPK1;WNT5A;PLAUR;ANK2;ANK3;DCN;MRAS;ARHGEF1;RAF1;PPP1R12C;CAMK2B;CD63;DDX5;SDC4;SRC;SDC2;TWIST1;PIK3R3;WNT8B;PIK3R2;THBS1;VTN;PAK1;ERBB3;PLCG1;CAMK2G;WNT3;WNT4;FZD1;TGFB2;FZD2;FZD4;LUM;FZD6;STAT3;FZD8;WNT7A;PTK2;MAPK12;VEGFA;RPS6KB2;MDM2;FGFR1",51
"85","Colorectal cancer_Homo sapiens_hsa05210","15/62",0.708717769362273,1,0,0,0.911073183471918,0.313680584089754,"APC2;TGFB2;TGFB3;LEF1;ARAF;PIK3R3;PIK3R2;MAPK10;MAPK8;APC;AKT3;BCL2;RAF1;RALGDS;APPL1",15
"86","Renal cell carcinoma_Homo sapiens_hsa05211","16/66",0.708903962113102,1,0,0,0.91291373535772,0.314074475079511,"TGFB2;EPAS1;TGFB3;ARAF;SLC2A1;PIK3R3;PIK3R2;RBX1;VEGFA;PAK1;RAP1A;AKT3;RAPGEF1;PAK7;VHL;RAF1",16
"87","Hedgehog signaling pathway_Homo sapiens_hsa04340","12/50",0.709523432165079,1,0,0,0.903784598004142,0.310144310257226,"BMP4;WNT2B;STK36;HHIP;WNT5A;WNT8B;WNT7A;CSNK1E;GLI1;WNT3;CSNK1G1;WNT4",12
"88","Arginine and proline metabolism_Homo sapiens_hsa00330","12/50",0.709523432165079,1,0,0,0.903784598004142,0.310144310257226,"GAMT;ALDH3A2;ARG2;MAOB;ALDH1B1;SMOX;P4HA2;AMD1;SAT2;HOGA1;PRODH;L3HYPDH",12
"89","ECM-receptor interaction_Homo sapiens_hsa04512","20/82",0.711015524005732,1,0,0,0.918480282524535,0.313257817757554,"SDC4;LAMA2;LAMC3;ITGB4;GP1BB;TNC;GP1BA;LAMB1;LAMC1;THBS2;THBS1;THBS4;COL1A1;VTN;COL1A2;SV2A;COL6A1;SPP1;COL9A3;AGRN",20
"90","Glutamatergic synapse_Homo sapiens_hsa04724","28/114",0.718563402899659,1,0,0,0.924925758191374,0.305689196871198,"GRIA1;GRIA2;GRIK5;SLC1A2;SLC1A3;GNAI1;GLS;PLD2;GRM3;PPP3CA;GNG7;GNG8;SLC17A6;HOMER3;DLGAP1;SLC38A3;PRKCG;PRKCB;TRPC1;GRIN2B;GNG11;GRIN1;GNAO1;DLG4;GNAS;GNB4;GNB5;SHANK1",28
"91","Thyroid hormone signaling pathway_Homo sapiens_hsa04919","29/118",0.719656224853857,1,0,0,0.925485640611586,0.304467789838044,"HDAC2;THRA;SRC;SLC2A1;PIK3R3;PIK3R2;ATP1A1;FOXO1;MED17;MED13;AKT3;PLCG1;SLC16A2;WNT4;PRKCG;PRKCB;PDPK1;ATP1B3;ATP1B2;MED27;BMP4;SLCO1C1;RCAN2;MDM2;RAF1;PLCD4;MYH6;PLCD1;PFKP",29
"92","Cell adhesion molecules (CAMs)_Homo sapiens_hsa04514","35/142",0.726504589972873,1,0,0,0.928182539030076,0.296564046778255,"CNTNAP1;NLGN1;NLGN2;SDC4;SDC2;NRXN1;ICAM2;NRXN2;CLDN2;PTPRF;ALCAM;CDH2;NRCAM;NCAM1;CD34;NEO1;MPZL1;LRRC4B;JAM3;NTNG2;CADM3;CADM1;L1CAM;CLDN11;CLDN5;CLDN10;MAG;OCLN;VCAN;NFASC;CLDN3;CLDN9;CNTN1;CNTN2;ESAM",35
"93","Glycolysis / Gluconeogenesis_Homo sapiens_hsa00010","16/67",0.732872715080918,1,0,0,0.899288157218052,0.279483688497786,"ACSS2;PGAM2;BPGM;PDHB;ENO2;ALDH3A2;MINPP1;ALDH3A1;LDHB;G6PC3;ALDH1B1;PGM2;ALDOC;ALDOA;PFKM;PFKP",16
"94","Glycerolipid metabolism_Homo sapiens_hsa00561","14/59",0.734188230685362,1,0,0,0.893572342659463,0.276104773550297,"AGPAT5;PNLIPRP2;DGKE;DGAT2;DGAT1;GK;DGKA;MBOAT2;AGPAT1;AGPAT3;AGPAT4;ALDH3A2;ALDH1B1;MGLL",14
"95","Sphingolipid metabolism_Homo sapiens_hsa00600","11/47",0.738681036824534,1,0,0,0.881350228550139,0.26695134735712,"NEU3;SMPD2;CERS4;NEU4;GAL3ST1;SMPD1;SPHK1;DEGS1;DEGS2;GBA2;CERS2",11
"96","Insulin signaling pathway_Homo sapiens_hsa04910","34/139",0.741755668857445,1,0,0,0.921123391251224,0.275172143821445,"PYGB;SHC2;IRS1;ARAF;PRKAG1;PIK3R3;PIK3R2;PYGM;PYGL;ELK1;PRKCZ;FOXO1;PTPRF;SOCS2;MAPK8;PHKG1;AKT3;PHKG2;FLOT1;PPARGC1A;PRKAB2;PDPK1;TSC1;PHKA1;SORBS1;MAPK10;G6PC3;PPP1R3C;PRKAR1B;PPP1R3E;RPS6KB2;RAPGEF1;RAF1;CALM1",34
"97","Tight junction_Homo sapiens_hsa04530","34/139",0.741755668857445,1,0,0,0.921123391251224,0.275172143821445,"RAB3B;SRC;PARD6G;PPP2R2A;CLDN2;PRKCZ;GNAI1;EPB41L1;AKT3;EPB41L3;SYMPK;SPTAN1;JAM3;PRKCG;YES1;PRKCB;SHROOM2;SHROOM3;CGN;SHROOM1;CLDN11;CLDN5;CLDN10;OCLN;CLDN3;MRAS;PPP2R2C;CLDN9;PPP2R2B;CSNK2B;AMOTL1;MYL9;MYH6;TJP2",34
"98","Other glycan degradation_Homo sapiens_hsa00511","4/18",0.744618691190513,1,0,0,0.836837590744576,0.246769192271381,"NEU3;NEU4;GBA2;HEXDC",4
"99","Pantothenate and CoA biosynthesis_Homo sapiens_hsa00770","4/18",0.744618691190513,1,0,0,0.836837590744576,0.246769192271381,"PANK2;VNN1;PANK1;BCAT1",4
"100","Glycosphingolipid biosynthesis - globo series_Homo sapiens_hsa00603","3/14",0.76145856893989,1,0,0,0.80695053393227,0.219909768376077,"FUT9;B3GALT5;A4GALT",3
"101","Folate biosynthesis_Homo sapiens_hsa00790","3/14",0.76145856893989,1,0,0,0.80695053393227,0.219909768376077,"QDPR;GGH;PTS",3
"102","Endometrial cancer_Homo sapiens_hsa05213","12/52",0.762243390773756,1,0,0,0.86902365192706,0.235930678416557,"APC2;APC;PDPK1;AKT3;LEF1;ARAF;ILK;PIK3R3;PIK3R2;RAF1;FOXO3;ELK1",12
"103","Lysine degradation_Homo sapiens_hsa00310","12/52",0.762243390773756,1,0,0,0.86902365192706,0.235930678416557,"ALDH3A2;KMT2E;GCDH;HYKK;ALDH1B1;DOT1L;KMT2B;PIPOX;SETMAR;PLOD2;AASS;ACAT2",12
"104","Nicotine addiction_Homo sapiens_hsa05033","9/40",0.772708992798001,1,0,0,0.847298060628883,0.218478148526526,"GRIA1;CHRNB2;GABRA2;GRIA2;GABRB1;GABRA4;SLC17A6;GRIN2B;GRIN1",9
"105","Tryptophan metabolism_Homo sapiens_hsa00380","9/40",0.772708992798001,1,0,0,0.847298060628883,0.218478148526526,"ALDH3A2;GCDH;DDC;MAOB;TDO2;ALDH1B1;CYP1B1;ACAT2;INMT",9
"106","Glioma_Homo sapiens_hsa05214","15/65",0.778617711990178,1,0,0,0.86902365192706,0.217460216578785,"PDGFRB;PRKCG;CAMK2B;PDGFRA;SHC2;PRKCB;ARAF;PIK3R3;PIK3R2;AKT3;MDM2;PLCG1;RAF1;CALM1;CAMK2G",15
"107","Fructose and mannose metabolism_Homo sapiens_hsa00051","7/32",0.784653471747227,1,0,0,0.823762003389192,0.199773073748546,"PFKFB3;PMM1;FPGT;ALDOC;ALDOA;PFKM;PFKP",7
"108","Caffeine metabolism_Homo sapiens_hsa00232","1/5",0.786334559418362,1,0,0,0.753153831670119,0.181037792506441,"NAT1",1
"109","Glyoxylate and dicarboxylate metabolism_Homo sapiens_hsa00630","6/28",0.793127174295631,1,0,0,0.80695053393227,0.187028296329896,"GRHPR;MCEE;GLDC;AMT;HOGA1;ACAT2",6
"110","Carbohydrate digestion and absorption_Homo sapiens_hsa04973","10/45",0.793633748552979,1,0,0,0.836837590744576,0.193420948569855,"G6PC3;PRKCB;AKT3;PIK3R3;PIK3R2;ATP1B3;ATP1A1;ATP1B2;SLC37A4;TAS1R3",10
"111","Ether lipid metabolism_Homo sapiens_hsa00565","10/45",0.793633748552979,1,0,0,0.836837590744576,0.193420948569855,"PLA2G16;PLA2G12A;GAL3ST1;LPCAT4;ENPP2;PLA2G3;CHPT1;PLA2G7;PAFAH1B3;PLD2",10
"112","Biosynthesis of amino acids_Homo sapiens_hsa01230","17/74",0.795125074593568,1,0,0,0.865109130972434,0.198331329310514,"ARG2;IDH1;PGAM2;TALDO1;GPT;ENO2;SDSL;ASS1;CTH;IDH3B;PHGDH;ALDOC;ALDOA;BCAT1;PFKM;PSPH;PFKP",17
"113","Long-term potentiation_Homo sapiens_hsa04720","15/66",0.799121733084439,1,0,0,0.855856626897862,0.19191899147518,"PRKCG;GRIA1;CAMK2B;GRIA2;PRKCB;ARAF;GRIN2B;GRIN1;PPP3CA;RAP1A;PPP1R1A;RAF1;CALM1;CAMK2G;RAPGEF3",15
"114","Hippo signaling pathway_Homo sapiens_hsa04390","36/153",0.826676466290583,1,0,0,0.88606333137661,0.168654955134371,"YAP1;WNT2B;LEF1;PARD6G;WNT8B;PPP2R2A;PRKCZ;AMOT;CTGF;BBC3;YWHAQ;WNT3;YWHAG;WNT4;FZD1;APC2;TGFB2;FZD2;TGFB3;FZD4;WNT5A;FZD6;FZD8;WNT7A;CSNK1E;SMAD7;BMP4;DLG1;DLG3;APC;PPP2R2C;DLG4;PPP2R2B;ID2;ID1;AJUBA",36
"115","AGE-RAGE signaling pathway in diabetic complications_Homo sapiens_hsa04933","23/101",0.835321144828007,1,0,0,0.85755139249568,0.154306960156642,"TGFB2;CDKN1B;PRKCB;TGFB3;STAT3;PIK3R3;PIK3R2;PRKCZ;AGER;F3;FOXO1;MAPK12;VEGFA;COL1A1;MAPK10;MAPK8;COL3A1;COL1A2;AKT3;BCL2;PLCG1;PLCD4;PLCD1",23
"116","SNARE interactions in vesicular transport_Homo sapiens_hsa04130","7/34",0.837085201976465,1,0,0,0.775305414954534,0.13787211164189,"STX1B;STX7;USE1;VAMP5;VAMP2;STX1A;BET1",7
"117","Longevity regulating pathway - multiple species_Homo sapiens_hsa04213","14/64",0.839163297606993,1,0,0,0.823762003389192,0.144446632559397,"PRKAB2;HDAC2;IRS1;PRKAG1;PIK3R3;PIK3R2;HSPA2;FOXO3;SIRT1;FOXO1;AKT3;AKT1S1;RPS6KB2;CRYAB",14
"118","Prostate cancer_Homo sapiens_hsa05215","20/89",0.840050253751318,1,0,0,0.846240260303504,0.147494230156067,"PDGFRB;PDGFRA;CDKN1B;CHUK;PDPK1;GSTP1;LEF1;ARAF;PIK3R3;PIK3R2;FOXO1;CREB3;CREB3L4;CREB3L1;PDGFD;AKT3;BCL2;MDM2;RAF1;FGFR1",20
"119","Vitamin B6 metabolism_Homo sapiens_hsa00750","1/6",0.843087263700217,1,0,0,0.627628193058432,0.107126599309005,"PDXP",1
"120","Metabolism of xenobiotics by cytochrome P450_Homo sapiens_hsa00980","16/73",0.849333836511382,1,0,0,0.825374062104239,0.134786026226909,"GSTK1;CBR1;GSTM2;GSTM1;GSTP1;MGST3;EPHX1;MGST1;GSTT2;GSTT1;ALDH3A1;GSTA4;CYP2S1;CYP1B1;CBR3;GSTM5",16
"121","Glycosphingolipid biosynthesis - lacto and neolacto series_Homo sapiens_hsa00601","5/26",0.858984667909729,1,0,0,0.724186376605883,0.110079375116591,"FUT9;B3GALT1;ST3GAL4;B3GALT5;B4GALT4",5
"122","Glycerophospholipid metabolism_Homo sapiens_hsa00564","21/95",0.865545873419857,1,0,0,0.832433182372236,0.12019910908232,"AGPAT5;ACHE;DGKE;PLA2G12A;PCYT1B;PCYT2;CHKA;DGKA;PLA2G3;MBOAT2;TAZ;AGPAT1;AGPAT3;PLD2;AGPAT4;PLA2G16;LPCAT4;ETNK1;CHPT1;ADPRM;CDS2",21
"123","Morphine addiction_Homo sapiens_hsa05032","20/91",0.867606871935891,1,0,0,0.827641573263867,0.117538825232222,"PRKCG;GABRA2;GABRB1;GABBR1;PRKCB;PDE1B;GABRA4;GNG11;GNAI1;GNAO1;GNG7;PDE4B;ADORA1;GNAS;GNB4;PDE4A;GNG8;GNB5;PDE8B;PDE8A",20
"124","Mucin type O-Glycan biosynthesis_Homo sapiens_hsa00512","6/31",0.869156701986537,1,0,0,0.728858546777534,0.10220917910689,"GALNT11;GALNT6;C1GALT1C1;GALNT16;GALNT15;C1GALT1",6
"125","Dorso-ventral axis formation_Homo sapiens_hsa04320","5/27",0.881192920252261,1,0,0,0.697364658953813,0.0882017743037611,"CPEB1;FMN2;CPEB3;CPEB2;CPEB4",5
"126","Retrograde endocannabinoid signaling_Homo sapiens_hsa04723","22/101",0.887061239494064,1,0,0,0.820266549343693,0.098301775096924,"PRKCG;GRIA1;GABRA2;GRIA2;GABRB1;DAGLA;PRKCB;GABRA4;ABHD6;GNG11;GNAI1;MAPK12;GNAO1;MAPK10;MAPK8;CNR1;GNG7;GNB4;GNG8;SLC17A6;GNB5;MGLL",22
"127","Bladder cancer_Homo sapiens_hsa05219","8/41",0.88780166360548,1,0,0,0.734784226019628,0.0874444022630063,"SRC;DAPK3;ARAF;MDM2;RAF1;THBS1;FGFR3;VEGFA",8
"128","Fat digestion and absorption_Homo sapiens_hsa04975","8/41",0.88780166360548,1,0,0,0.734784226019628,0.0874444022630063,"PNLIPRP2;PLA2G12A;DGAT2;DGAT1;PLA2G3;APOA1;AGPAT1;ACAT2",8
"129","Purine metabolism_Homo sapiens_hsa00230","40/176",0.894116053481793,1,0,0,0.855856626897862,0.0957872156379331,"PDE1B;NPR2;AK1;NUDT2;AK3;GMPR;HDDC3;PAPSS2;NT5C;DGUOK;POLD4;GUK1;PDE4B;PDE6D;PDE4A;PGM2;ENPP4;NT5M;POLR2G;NUDT16;POLR2H;PDE8B;PDE8A;POLR2K;POLR2L;ENTPD2;POLR3GL;PDE6G;ENTPD5;AMPD2;NME5;NME1;NME7;IMPDH1;POLR3E;ADSSL1;POLR1D;POLR3H;ADPRM;PDE9A",40
"130","Fc epsilon RI signaling pathway_Homo sapiens_hsa04664","14/68",0.897695475867547,1,0,0,0.775305414954534,0.0836743577122642,"MAP2K4;PDPK1;PIK3R3;PIK3R2;MAPK12;IL4;MAPK10;MAPK8;AKT3;FCER1A;FYN;PLCG1;RAF1;MAP2K7",14
"131","Mineral absorption_Homo sapiens_hsa04978","10/51",0.903847774480337,1,0,0,0.738386109480508,0.0746466444640616,"SLC46A1;TRPV6;CYBRD1;ATP1B3;SLC30A1;ATP1B2;ATP1A1;STEAP2;CLCN2;SLC26A6",10
"132","Rheumatoid arthritis_Homo sapiens_hsa05323","19/90",0.904301296380776,1,0,0,0.794995711207347,0.0799707505008852,"ATP6V1G1;ATP6V0B;TGFB2;ATP6V1G2;CSF1;TGFB3;IL18;CXCL5;VEGFA;CXCL12;CTSL;IL23A;CTSK;CCL5;ATP6V1E1;ATP6V0D1;ATP6V0E2;ATP6V1D;ATP6V1F",19
"133","Regulation of lipolysis in adipocytes_Homo sapiens_hsa04923","11/56",0.910949929281514,1,0,0,0.739704656104581,0.0689902898043321,"PLA2G16;IRS1;NPY;AKT3;ADORA1;NPY1R;GNAS;PIK3R3;PIK3R2;MGLL;GNAI1",11
"134","Circadian entrainment_Homo sapiens_hsa04713","20/95",0.911552851542711,1,0,0,0.792793507021177,0.0734172004498709,"PRKCG;GRIA1;CAMK2B;GRIA2;ADCYAP1R1;PRKCB;GRIN2B;GNG11;GNAI1;GRIN1;GNAO1;PER2;RASD1;GNG7;GNAS;GNB4;GNG8;GNB5;CALM1;CAMK2G",20
"135","Gastric acid secretion_Homo sapiens_hsa04971","15/74",0.916104294915447,1,0,0,0.763331586152147,0.0668869773428895,"PRKCG;CAMK2B;KCNE2;KCNJ10;PRKCB;KCNJ16;ATP1B3;ATP1B2;ATP1A1;GNAI1;ATP4A;GNAS;CALM1;CAMK2G;KCNK2",15
"136","Carbon metabolism_Homo sapiens_hsa01200","24/113",0.920442890982188,1,0,0,0.799809378764728,0.0663044546662311,"ACSS2;GLDC;IDH1;PGAM2;AMT;TALDO1;GPT;PDHB;ENO2;SDSL;ACAT2;GLUD1;ALDH6A1;MCEE;IDH3B;IDNK;SUCLG1;PHGDH;ALDOC;ACADM;ALDOA;PFKM;PSPH;PFKP",24
"137","Type II diabetes mellitus_Homo sapiens_hsa04930","9/48",0.922172005939591,1,0,0,0.706081717190736,0.0572092228914066,"SOCS2;MAPK10;MAPK8;KCNJ11;IRS1;ABCC8;PIK3R3;PIK3R2;PRKCZ",9
"138","Acute myeloid leukemia_Homo sapiens_hsa05221","11/57",0.92219499729264,1,0,0,0.726727381436079,0.0588638888339271,"CHUK;JUP;AKT3;LEF1;STAT3;RPS6KB2;ARAF;PIK3R3;PIK3R2;PIM2;RAF1",11
"139","Pancreatic cancer_Homo sapiens_hsa05212","13/66",0.923522310931129,1,0,0,0.741742409978147,0.0590132638901889,"TGFB2;CHUK;TGFB3;STAT3;ARAF;PIK3R3;PIK3R2;VEGFA;MAPK10;MAPK8;AKT3;RAF1;RALGDS",13
"140","Regulation of autophagy_Homo sapiens_hsa04140","7/39",0.924406168625039,1,0,0,0.675907284832158,0.0531288320267,"GABARAPL2;GABARAPL1;ATG16L2;ATG4C;ULK1;ATG13;ATG12",7
"141","alpha-Linolenic acid metabolism_Homo sapiens_hsa00592","4/25",0.929710879505477,1,0,0,0.602523065336095,0.0439128591502411,"PLA2G16;PLA2G12A;ACOX1;PLA2G3",4
"142","Focal adhesion_Homo sapiens_hsa04510","45/202",0.930500862852412,1,0,0,0.838908970919687,0.0604285221970332,"SHC2;LAMA2;LAMC3;ITGB4;SRC;TNC;PIK3R3;ILK;PIK3R2;LAMC1;THBS2;ELK1;THBS1;THBS4;VTN;PAK1;MAPK8;RAP1A;PDGFD;AKT3;PAK7;SPP1;CAPN2;FYN;PRKCG;PDGFRB;PDGFRA;PRKCB;PDPK1;LAMB1;PTK2;PGF;VEGFA;COL1A1;MAPK10;COL1A2;COL6A1;RAPGEF1;BCL2;COL9A3;RAF1;MYL9;PPP1R12C;VCL;BCAR1",45
"143","Galactose metabolism_Homo sapiens_hsa00052","5/30",0.930710050468451,1,0,0,0.627628193058432,0.0450684045826931,"GALE;G6PC3;PGM2;PFKM;PFKP",5
"144","Citrate cycle (TCA cycle)_Homo sapiens_hsa00020","5/30",0.930710050468451,1,0,0,0.627628193058432,0.0450684045826931,"ACLY;IDH1;IDH3B;SUCLG1;PDHB",5
"145","Fc gamma R-mediated phagocytosis_Homo sapiens_hsa04666","19/93",0.930936021536606,1,0,0,0.769350688265175,0.0550583698344945,"PRKCG;GSN;PRKCB;SPHK1;LIMK2;ARPC1A;LIMK1;PIK3R3;PIK3R2;PLD2;PAK1;BIN1;AKT3;RPS6KB2;AMPH;PLCG1;RAF1;WASF1;WASF3",19
"146","Phospholipase D signaling pathway_Homo sapiens_hsa04072","31/144",0.931220134102662,1,0,0,0.810686416033808,0.0577691739762213,"AGPAT5;DGKE;SHC2;DGKA;LPAR1;LPAR2;PIK3R3;PIK3R2;AGPAT1;AGPAT3;PLD2;AGPAT4;GRM3;CYTH3;CYTH2;PDGFD;AKT3;CXCR2;FCER1A;FYN;PLCG1;RALGDS;CYTH1;PDGFRB;PDGFRA;SPHK1;TSC1;MRAS;GNAS;RAF1;RAPGEF3",31
"147","Lysosome_Homo sapiens_hsa04142","26/123",0.931645474257796,1,0,0,0.796016244854597,0.0563602817400068,"SCARB2;CD63;CLTB;MFSD8;GGA2;LAPTM4B;LAPTM4A;CTSO;GM2A;CTSL;CTSK;SMPD1;AP1S2;IDS;ARSG;AP3S1;ABCA2;ATP6V0B;SORT1;M6PR;AP3D1;IGF2R;GNPTG;NPC1;PPT2;ATP6V0D1",26
"148","Malaria_Homo sapiens_hsa05144","9/49",0.932938547509796,1,0,0,0.69167188622766,0.048013058152755,"TGFB2;CD81;TGFB3;SDC2;IL18;ACKR1;THBS2;THBS1;THBS4",9
"149","Prion diseases_Homo sapiens_hsa05020","6/35",0.932961847365213,1,0,0,0.645560427145816,0.0447960651359729,"C8G;CCL5;NCAM1;FYN;LAMC1;ELK1",6
"150","HIF-1 signaling pathway_Homo sapiens_hsa04066","21/103",0.940667698164365,1,0,0,0.76777817791614,0.046961412281676,"PRKCG;CAMK2B;PFKFB3;CDKN1B;PRKCB;STAT3;SLC2A1;PIK3R3;PIK3R2;PDHB;ENO2;RBX1;VEGFA;AKT3;NPPA;RPS6KB2;BCL2;PLCG1;VHL;ALDOA;CAMK2G",21
"151","Drug metabolism - cytochrome P450_Homo sapiens_hsa00982","13/69",0.948493505208716,1,0,0,0.709492739979097,0.0375182152350194,"GSTK1;GSTM2;GSTM1;MAOB;GSTP1;MGST3;MGST1;GSTT2;FMO1;GSTT1;ALDH3A1;GSTA4;GSTM5",13
"152","Bacterial invasion of epithelial cells_Homo sapiens_hsa05100","15/78",0.948861641226769,1,0,0,0.724186376605883,0.0380141978787287,"SHC2;ARHGEF26;SRC;ARPC1A;CLTB;ILK;SEPT1;PIK3R3;PIK3R2;PTK2;SEPT3;ELMO3;WASF1;VCL;BCAR1",15
"153","Amoebiasis_Homo sapiens_hsa05146","20/100",0.948917525941088,1,0,0,0.753153831670119,0.0394904089082484,"PRKCG;TGFB2;ARG2;LAMA2;PRKCB;TGFB3;LAMC3;PIK3R3;HSPB1;PIK3R2;LAMB1;LAMC1;PTK2;COL1A1;COL3A1;COL1A2;C8G;GNAS;RAB7B;VCL",20
"154","Amyotrophic lateral sclerosis (ALS)_Homo sapiens_hsa05014","9/51",0.950644600884766,1,0,0,0.664547498532458,0.0336360698013865,"GRIA1;PPP3CA;GRIA2;CCS;SLC1A2;BCL2;GRIN2B;MAPK12;GRIN1",9
"155","Shigellosis_Homo sapiens_hsa05131","12/65",0.952075272692628,1,0,0,0.695218921541648,0.0341430211517136,"MAPK10;MAPK8;CHUK;SRC;ARPC1A;PFN4;ELMO3;WASF1;VCL;MAPK12;PFN2;U2AF1L4",12
"156","Leukocyte transendothelial migration_Homo sapiens_hsa04670","24/118",0.952558209636911,1,0,0,0.765919150850968,0.0372267814115575,"PRKCG;PRKCB;PIK3R3;CXCR4;PIK3R2;CLDN2;PTK2;GNAI1;MAPK12;CLDN11;CLDN5;CLDN10;OCLN;CLDN3;RAP1A;CXCL12;CLDN9;ESAM;PLCG1;MYL9;VCL;RAPGEF3;BCAR1;JAM3",24
"157","Adrenergic signaling in cardiomyocytes_Homo sapiens_hsa04261","31/148",0.952810336998365,1,0,0,0.788775972357219,0.0381289666444816,"CAMK2B;PIK3R3;PPP2R2A;PIK3R2;ATP1A1;GNAI1;CACNG7;CACNG8;CREB3L4;PPP2R3C;CREB3L1;AKT3;TNNI3;CAMK2G;TPM1;PPP2R5B;ATP1B3;ATP1B2;PPP2R3A;MAPK12;CACNB1;CREB3;CACNB3;PPP1R1A;PPP2R2C;PPP2R2B;GNAS;BCL2;CALM1;RAPGEF3;MYH6",31
"158","Phototransduction_Homo sapiens_hsa04744","4/27",0.953244382849841,1,0,0,0.557891727163051,0.0267140723404073,"GNAT2;PDE6G;GNAT1;CALM1",4
"159","Non-small cell lung cancer_Homo sapiens_hsa05223","10/56",0.953257401879666,1,0,0,0.672458778276892,0.0321908138004825,"PRKCG;PDPK1;PRKCB;AKT3;ARAF;PIK3R3;PIK3R2;PLCG1;RAF1;FOXO3",10
"160","Endocrine and other factor-regulated calcium reabsorption_Homo sapiens_hsa04961","8/47",0.955928769436004,1,0,0,0.640981984400101,0.0288902615862355,"PRKCG;PRKCB;CLTB;GNAS;ATP1B3;PTH1R;ATP1A1;ATP1B2",8
"161","Cholinergic synapse_Homo sapiens_hsa04725","22/111",0.960626114695455,1,0,0,0.746368662015433,0.0299816323657625,"CHRNB2;PRKCG;CAMK2B;ACHE;PRKCB;PIK3R3;PIK3R2;GNG11;GNAI1;GNAO1;CREB3;CREB3L4;CREB3L1;GNG7;AKT3;KCNQ2;GNB4;BCL2;GNG8;FYN;GNB5;CAMK2G",22
"162","Neurotrophin signaling pathway_Homo sapiens_hsa04722","24/120",0.96186656574001,1,0,0,0.753153831670119,0.0292822767756206,"CAMK2B;NTRK2;SHC2;IRS1;PDPK1;SORT1;KIDINS220;PSEN2;PIK3R3;PIK3R2;FOXO3;MAPK12;MAPK10;MAPK8;RAP1A;AKT3;BCL2;RAPGEF1;PLCG1;RAF1;MAP2K7;CALM1;CAMK2G;SH2B1",24
"163","Arachidonic acid metabolism_Homo sapiens_hsa00590","11/62",0.961941599894422,1,0,0,0.668120334546073,0.0259240959679497,"CBR1;PLA2G16;PLA2G12A;CYP2U1;EPHX2;PLA2G3;ALOX12;PTGDS;GGT1;PTGES;CBR3",11
"164","Prolactin signaling pathway_Homo sapiens_hsa04917","13/72",0.966039278418074,1,0,0,0.679930542479968,0.0234921337896024,"SHC2;SRC;LHB;STAT3;PIK3R3;PIK3R2;FOXO3;MAPK12;SOCS2;MAPK10;MAPK8;AKT3;RAF1",13
"165","Nicotinate and nicotinamide metabolism_Homo sapiens_hsa00760","4/29",0.969313757206328,1,0,0,0.519416435634565,0.0161886129140107,"NT5C;NMNAT1;NT5M;NMNAT2",4
"166","Chemical carcinogenesis_Homo sapiens_hsa05204","15/82",0.969898871184039,1,0,0,0.688860211893401,0.0210539580285027,"GSTK1;CBR1;GSTM2;GSTM1;GSTP1;MGST3;EPHX1;MGST1;GSTT2;GSTT1;ALDH3A1;GSTA4;NAT1;CYP1B1;GSTM5",15
"167","Chronic myeloid leukemia_Homo sapiens_hsa05220","13/73",0.970573105500769,1,0,0,0.670616425459695,0.0200303412695018,"SHC2;HDAC2;TGFB2;CDKN1B;CHUK;TGFB3;ARAF;PIK3R3;PIK3R2;BCR;AKT3;MDM2;RAF1",13
"168","Pancreatic secretion_Homo sapiens_hsa04972","18/96",0.97162193449522,1,0,0,0.706081717190736,0.020327038080482,"CPA3;PRKCG;SLC12A2;PNLIPRP2;CPA2;PLA2G12A;PRKCB;RAB3D;TRPC1;ATP2A3;PLA2G3;ATP1B3;ATP1B2;ATP1A1;SLC4A4;RAP1A;CTRL;GNAS",18
"169","Cytosolic DNA-sensing pathway_Homo sapiens_hsa04623","11/64",0.971902364567794,1,0,0,0.647241574091508,0.0184463379640723,"IL33;CHUK;POLR3GL;CCL5;POLR3E;IL18;POLR1D;POLR3H;POLR2H;POLR2K;POLR2L",11
"170","Basal transcription factors_Homo sapiens_hsa03022","7/45",0.973063777941489,1,0,0,0.585786313521203,0.0159952767629955,"ERCC3;TAF13;TAF11;GTF2IRD1;TAF9B;GTF2F2;GTF2H5",7
"171","Tyrosine metabolism_Homo sapiens_hsa00350","5/35",0.97372124110212,1,0,0,0.537967022621513,0.0143261782301742,"ALDH3A1;DDC;AOC2;MAOB;FAH",5
"172","Hypertrophic cardiomyopathy (HCM)_Homo sapiens_hsa05410","15/83",0.973769042676819,1,0,0,0.680560691268179,0.0180900694620998,"PRKAB2;TGFB2;LAMA2;ITGB4;TGFB3;TPM1;PRKAG1;CACNB1;CACNG7;CACNB3;CACNG8;SGCB;LMNA;TNNI3;MYH6",15
"173","Pathogenic Escherichia coli infection_Homo sapiens_hsa05130","9/55",0.974122439067225,1,0,0,0.616216771366461,0.0161561412512729,"TUBB2B;OCLN;TUBB2A;YWHAQ;ARPC1A;NCK2;FYN;ARHGEF2;TUBB4A",9
"174","Long-term depression_Homo sapiens_hsa04730","10/60",0.974973837643822,1,0,0,0.627628193058432,0.015907011567269,"PRKCG;GRIA1;GNAO1;GRIA2;PRKCB;ARAF;CRH;GNAS;RAF1;GNAI1",10
"175","Rap1 signaling pathway_Homo sapiens_hsa04015","44/211",0.977422195122476,1,0,0,0.785278876622872,0.0179330886574343,"CSF1;SRC;LPAR1;LPAR2;PIK3R3;PARD6G;PIK3R2;PRKCZ;EFNA4;THBS1;GNAI1;RAP1A;CNR1;PDGFD;AKT3;KRIT1;PLCG1;RALGDS;PRKCG;FARP2;PDGFRB;PDGFRA;PRKCB;GRIN2B;PGF;MAPK12;VEGFA;GRIN1;EFNA1;GNAO1;MRAS;EFNA2;ADORA2B;ID1;RAPGEF1;GNAS;PFN4;CALM1;RAF1;FGFR3;RAPGEF3;BCAR1;PFN2;FGFR1",44
"176","Maturity onset diabetes of the young_Homo sapiens_hsa04950","3/26",0.982737419594676,1,0,0,0.43451182596353,0.00756629172627986,"PAX4;HES1;PAX6",3
"177","Salmonella infection_Homo sapiens_hsa05132","15/86",0.982842733130153,1,0,0,0.656820202037894,0.0113670343759811,"DYNC2H1;ARPC1A;IL18;KLC1;MAPK12;MAPK10;DYNC1LI1;DYNC1LI2;MAPK8;KLC2;PFN4;LBP;RAB7B;WASF1;PFN2",15
"178","Glycosaminoglycan biosynthesis - chondroitin sulfate / dermatan sulfate_Homo sapiens_hsa00532","2/20",0.982869639420012,1,0,0,0.376576915835059,0.00650679068526249,"CHST11;B3GALT6",2
"179","One carbon pool by folate_Homo sapiens_hsa00670","2/20",0.982869639420012,1,0,0,0.376576915835059,0.00650679068526249,"ALDH1L1;AMT",2
"180","GnRH signaling pathway_Homo sapiens_hsa04912","16/91",0.98371087544895,1,0,0,0.662113258611093,0.010874052149459,"CAMK2B;MAP2K4;PRKCB;SRC;LHB;ELK1;MAPK12;PLD2;MAPK10;MAPK8;GNAS;RAF1;MAP2K7;CALM1;CAMK2G;MAP3K4",16
"181","RNA degradation_Homo sapiens_hsa03018","13/77",0.983755297119882,1,0,0,0.635779208552698,0.0104128520510402,"ZCCHC7;BTG1;PABPC5;WDR61;ENO2;TOB1;CNOT7;C1D;DHX36;NUDT16;PFKM;PFKP;MPHOSPH6",13
"182","Hepatitis C_Homo sapiens_hsa05160","25/133",0.985975878925378,1,0,0,0.707851345554623,0.0099972593717854,"CD81;ARAF;PIK3R3;PPP2R2A;PIK3R2;CLDN2;MAPK8;AKT3;CHUK;PDPK1;STAT3;NR1H3;EIF2AK4;MAPK12;CLDN11;MAPK10;CLDN5;CLDN10;OCLN;CLDN3;PPP2R2C;CLDN9;PPP2R2B;RAF1;TLR3",25
"183","Protein processing in endoplasmic reticulum_Homo sapiens_hsa04141","33/169",0.986929758080324,1,0,0,0.735327705476743,0.00967427216951247,"SEC23A;TUSC3;SAR1B;DERL3;UBE2D1;RNF5;SEC61A2;DNAJB2;MAPK8;CAPN2;FBXO6;SEC62;MAP2K7;UBXN6;SEC63;SEC13;SSR4;WFS1;FBXO2;UBE2E3;AMFR;UBE2E1;UBE2E2;EIF2AK4;HSPA2;SVIP;RBX1;MAPK10;NPLOC4;DAD1;DDIT3;BCL2;CRYAB",33
"184","Gap junction_Homo sapiens_hsa04540","15/88",0.987191730623861,1,0,0,0.641892470173396,0.00827463741377618,"PDGFRB;PRKCG;PDGFRA;PRKCB;SRC;LPAR1;TUBB4A;GNAI1;GJD2;GJA1;TUBB2B;TUBB2A;PDGFD;GNAS;RAF1",15
"185","Base excision repair_Homo sapiens_hsa03410","4/33",0.987227709701863,1,0,0,0.45645686767886,0.00586755093320148,"POLB;POLD4;NTHL1;NEIL1",4
"186","Proteasome_Homo sapiens_hsa03050","6/44",0.987668987534177,1,0,0,0.513513976138717,0.00637151207466212,"PSMB6;PSMD14;PSMA1;PSMA2;PSME4;PSMA7",6
"187","Adherens junction_Homo sapiens_hsa04520","12/74",0.987680179330698,1,0,0,0.610665268921718,0.00757001354798948,"FARP2;YES1;SRC;CSNK2B;LEF1;FYN;SORBS1;WASF1;PTPRF;VCL;WASF3;FGFR1",12
"188","Arrhythmogenic right ventricular cardiomyopathy (ARVC)_Homo sapiens_hsa05412","12/74",0.987680179330698,1,0,0,0.610665268921718,0.00757001354798948,"CACNB1;CACNG7;GJA1;CACNB3;CACNG8;CDH2;LAMA2;JUP;ITGB4;SGCB;LEF1;LMNA",12
"189","Serotonergic synapse_Homo sapiens_hsa04726","20/112",0.988598594793434,1,0,0,0.672458778276892,0.00771101724247198,"PRKCG;APP;GABRB1;DDC;MAOB;PRKCB;TRPC1;ARAF;ALOX12;GNG11;GNAI1;GNAO1;GNG7;GNAS;GNB4;GNG8;KCNN2;GNB5;RAF1;RAPGEF3",20
"190","Ras signaling pathway_Homo sapiens_hsa04014","46/227",0.988918217309537,1,0,0,0.763107406538006,0.00850379657355891,"SHC2;CSF1;PLA2G3;PIK3R3;PIK3R2;ELK1;EFNA4;RASGRP1;PLD2;PAK1;MAPK8;SYNGAP1;RAP1A;PDGFD;GNG7;AKT3;PAK7;GNG8;PLCG1;RALGDS;PRKCG;PDGFRB;PDGFRA;PLA2G12A;CHUK;PRKCB;GRIN2B;GNG11;PGF;VEGFA;GRIN1;EFNA1;MAPK10;PLA2G16;MRAS;EFNA2;RASA2;GNB4;GNB5;RIN1;CALM1;RAF1;RGL2;FGFR3;PLA1A;FGFR1",46
"191","Ovarian steroidogenesis_Homo sapiens_hsa04913","7/50",0.989415641086735,1,0,0,0.527207682169083,0.00560989656070699,"GDF9;STAR;CYP11A1;LHB;ACOT2;GNAS;CYP1B1",7
"192","Glycosphingolipid biosynthesis - ganglio series_Homo sapiens_hsa00604","1/15",0.990256964542973,1,0,0,0.251051277223373,0.0024579952021568,"ST3GAL5",1
"193","T cell receptor signaling pathway_Homo sapiens_hsa04660","18/104",0.990387604070111,1,0,0,0.651767738945295,0.00629535499108345,"CHUK;PDPK1;PIK3R3;PIK3R2;RASGRP1;MAPK12;IL4;PPP3CA;DLG1;PAK1;AKT3;NCK2;PAK7;FYN;PLCG1;RAF1;MAP2K7;MAP3K14",18
"194","Protein digestion and absorption_Homo sapiens_hsa04974","15/90",0.990506035549696,1,0,0,0.627628193058432,0.00598714581356018,"CPA3;CPA2;ELN;SLC3A1;ATP1B3;ATP1B2;SLC1A5;ATP1A1;COL1A1;ACE2;COL3A1;COL1A2;CTRL;COL6A1;COL9A3",15
"195","Thyroid hormone synthesis_Homo sapiens_hsa04918","11/71",0.990933483232739,1,0,0,0.58342902453319,0.00531379440268301,"PRKCG;CREB3;CREB3L4;PRKCB;CREB3L1;GNAS;ATP1B3;ATP1B2;ATP1A1;ASGR1;SLC5A5",11
"196","cAMP signaling pathway_Homo sapiens_hsa04024","39/199",0.991289266453221,1,0,0,0.738015061184287,0.00645681535627034,"GRIA1;CAMK2B;GRIA2;ADCYAP1R1;HHIP;PIK3R3;PIK3R2;ATP1A1;GLI1;GNAI1;PLD2;PAK1;MAPK8;RAP1A;HCAR1;CREB3L4;CREB3L1;NPY;AKT3;ADORA1;PDE4B;PDE4A;TNNI3;CAMK2G;GABBR1;NPY1R;ATP1B3;ATP1B2;GRIN2B;GRIN1;MAPK10;CREB3;ACOX1;FXYD1;GNAS;CALM1;RAF1;MYL9;RAPGEF3",39
"197","Small cell lung cancer_Homo sapiens_hsa05222","14/86",0.991563630610309,1,0,0,0.613032188568701,0.00519370493183099,"CDKN1B;CHUK;LAMA2;LAMC3;PIK3R3;PIK3R2;LAMB1;LAMC1;TRAF1;PIAS2;PTK2;AKT3;BCL2;BIRC7",14
"198","Linoleic acid metabolism_Homo sapiens_hsa00591","3/29",0.991658897739037,1,0,0,0.389562326725923,0.00326300673836599,"PLA2G16;PLA2G12A;PLA2G3",3
"199","Pyrimidine metabolism_Homo sapiens_hsa00240","18/105",0.99166599935713,1,0,0,0.645560427145816,0.00540264524060955,"TXNRD3;POLR3GL;ENTPD5;NUDT2;NME5;UCKL1;NME1;NT5C;POLD4;NME7;POLR3E;POLR1D;NT5M;POLR2G;POLR3H;POLR2H;POLR2K;POLR2L",18
"200","mRNA surveillance pathway_Homo sapiens_hsa03015","15/91",0.991847165957759,1,0,0,0.6207311799479,0.00508146070973042,"RNMT;PABPC5;PPP2R5B;UPF3B;PPP2R2A;CASC3;PPP2R3A;NXT2;SMG6;NXF1;PPP2R2C;PPP2R3C;PPP2R2B;MAGOH;SYMPK",15
"201","African trypanosomiasis_Homo sapiens_hsa05143","4/35",0.991880163651746,1,0,0,0.430373618097211,0.00350882826045085,"PRKCG;PRKCB;IL18;APOA1",4
"202","NOD-like receptor signaling pathway_Homo sapiens_hsa04621","8/57",0.992530642711966,1,0,0,0.528529004680785,0.00396258946359398,"MAPK10;MAPK8;CHUK;CCL5;TRIP6;IL18;TAB3;MAPK12",8
"203","Metabolic pathways_Homo sapiens_hsa01100","293/1239",0.992832159480107,1,0,0,0.890532980949737,0.0064061851687652,"PI4K2B;PANK2;AHCYL1;GLDC;PANK1;ABAT;ENO2;GBA2;GLS;NSDHL;C1GALT1C1;HYKK;TDO2;SCP2;ANPEP;MLYCD;ATP6V1E1;PTGDS;GAMT;MCCC2;ATP6V1G1;ACOT8;ATP6V1G2;ACSL1;ALG5;MCCC1;ALG2;ACSL6;TALDO1;ALG1;HOGA1;ACSL3;CMBL;INPP4A;BTD;CYP2U1;ACOT2;IDNK;SUCLG1;UQCRC2;ATP6V0D1;PTGES;LIPT2;GCDH;MTMR2;MAOB;PLA2G3;ATP5H;ATP5O;SDSL;PLA2G7;ATP5L;LDHB;DGUOK;RDH12;RDH10;ATP5E;INPP5E;ST3GAL4;INPP5J;ST3GAL5;PLCG1;RIMKLB;HMGCLL1;FDFT1;PMM1;CHKA;PRDX6;GLUD1;ALDH6A1;ADI1;CYP2S1;PPT2;CDS2;PYGB;COX7B;PIGP;GPT;PYGM;PYGL;PIGW;PIGX;SMPD2;MCEE;AUH;GUK1;SMPD1;B3GALT1;REV3L;IDS;PHGDH;ACADM;ENOPH1;AASS;CBR1;ARG2;PCYT1B;ATP6V0B;SPHK1;PGAM2;AMPD2;NME5;NME1;HADHB;PIGB;BDH2;NME7;ADSSL1;ACSBG1;ALDOC;ALDOA;PIGF;PAFAH1B3;MGLL;PIGH;HDC;NDUFA4L2;UQCR11;UQCR10;PAPSS2;PTS;NT5C;MGAT3;SC5D;NT5M;ATP6V0E2;CBR3;AOC2;GK;GAD1;AGL;C1GALT1;NMNAT2;COX6C;FAH;NMNAT1;LPCAT4;ETNK1;PLCD4;PLCD1;GALNT11;DGKE;ACAA2;NDUFA11;GALNT16;TUSC3;GALNT15;DGKA;CPOX;SAT2;MSMO1;TM7SF2;UROD;FPGT;GGT1;PSPH;DGAT2;PCYT2;DGAT1;PIPOX;OCRL;ALG12;COX6B1;ALDH3A2;ACLY;MINPP1;PLA2G16;DPM2;ALDH3A1;DPM3;FOLH1;POLG2;IPPK;IDI1;NDUFB10;NDUFB11;AK1;ALOX12;ACAT2;UQCRH;PLD2;MTM1;CYP11A1;FUT9;PMVK;COX11;NDUFV3;PRODH;ATP6V1D;ATP6V1F;GGT7;POLR3GL;UROS;IDH1;EPHX2;B3GALT6;DHCR24;B3GALT5;SYNJ2;UCKL1;QDPR;GRHPR;GCLC;COQ2;G6PC3;AMACR;NAT1;UQCRQ;P4HA2;PI4KA;DEGS1;DEGS2;DHCR7;PI4KB;PNLIPRP2;GAL3ST1;COX4I2;AMD1;PIK3C2B;DNMT3B;IDH3B;PGM2;UQCRFS1;HMGCS2;A4GALT;BCKDHA;CERS4;PLA2G12A;HMGCS1;AMT;BPGM;LSS;TST;ACOX1;DAD1;NDUFS5;NDUFS4;ALDH1A1;NDUFS3;POLR1D;NDUFS1;BCAT1;NAT8L;ASPA;B4GALT4;CERS2;AGPAT5;NDUFB9;DDC;ACSS2;NDUFB6;NDUFB5;NDUFB4;PON2;NDUFB3;NDUFB2;PDXP;PDHB;AGPAT1;PPOX;HSD17B10;AGPAT3;AGPAT4;POLD4;NFS1;ALDH1B1;MGAT5B;POLR2G;BPNT1;POLR2H;POLR2K;POLR2L;NDUFA8;GALNT6;NDUFA7;NDUFA6;MMAB;NDUFA4;NDUFA3;NDUFA1;MBOAT2;TRIT1;ASS1;GALE;GNPDA2;IMPDH1;CTH;MGAT4B;CHPT1;POLR3H;CDO1;PFKM;PFKP",293
"204","Nucleotide excision repair_Homo sapiens_hsa03420","6/47",0.993300216813558,1,0,0,0.480736488300076,0.00323166810826648,"POLD4;ERCC3;XPA;GTF2H5;RBX1;DDB2",6
"205","Porphyrin and chlorophyll metabolism_Homo sapiens_hsa00860","5/42",0.993973115801434,1,0,0,0.448305852184594,0.00271006230050686,"UROD;MMAB;UROS;CPOX;PPOX",5
"206","Glycosaminoglycan biosynthesis - heparan sulfate / heparin_Homo sapiens_hsa00534","2/24",0.994145657186118,1,0,0,0.313814096529216,0.00184257410921613,"B3GALT6;HS3ST1",2
"207","Apoptosis_Homo sapiens_hsa04210","25/140",0.994215020508136,1,0,0,0.672458778276892,0.003901456075242,"PIK3R3;PIK3R2;BBC3;CTSO;MAPK8;CASP6;CTSL;CTSK;AKT3;LMNA;CAPN2;SPTAN1;ENDOG;CHUK;GADD45A;PDPK1;TNFRSF10B;TRAF1;SEPT4;PTPN13;MAPK10;DDIT3;BCL2;RAF1;MAP3K14",25
"208","Amino sugar and nucleotide sugar metabolism_Homo sapiens_hsa00520","6/48",0.994555935011546,1,0,0,0.470721144793824,0.0025696375043606,"CYB5R2;GALE;PMM1;GNPDA2;FPGT;PGM2",6
"209","Nitrogen metabolism_Homo sapiens_hsa00910","1/17",0.99474634976804,1,0,0,0.221515832844153,0.00116683446756456,"GLUD1",1
"210","Asthma_Homo sapiens_hsa05310","3/31",0.994915693355208,1,0,0,0.364429273388767,0.00185759648312331,"IL4;FCER1A;EPX",3
"211","Toxoplasmosis_Homo sapiens_hsa05145","20/118",0.995054309673538,1,0,0,0.638265959042473,0.00316449755808973,"TGFB2;CHUK;LAMA2;TGFB3;LAMC3;PDPK1;STAT3;PIK3R3;PIK3R2;LAMB1;HSPA2;LAMC1;GNAI1;MAPK12;GNAO1;MAPK10;MAPK8;AKT3;BCL2;BIRC7",20
"212","Chagas disease (American trypanosomiasis)_Homo sapiens_hsa05142","17/104",0.995192134670577,1,0,0,0.615558420115001,0.00296665936410348,"MAP2K4;TGFB2;CHUK;TGFB3;PIK3R3;PPP2R2A;PIK3R2;GNAI1;MAPK12;GNAO1;MAPK10;MAPK8;PPP2R2C;PPP2R2B;CCL5;AKT3;GNAS",17
"213","Ubiquitin mediated proteolysis_Homo sapiens_hsa04120","24/137",0.995320394955094,1,0,0,0.659696786864338,0.00309436627807757,"PIAS4;UBE2H;SMURF1;FBXO2;UBE2E3;UBE2E1;UBE2D1;UBE2E2;NEDD4L;UBE2QL1;RNF7;RCHY1;PIAS2;RBX1;RHOBTB2;DDB2;CDC34;UBE2R2;UBA3;MDM2;NHLRC1;BIRC7;VHL;ANAPC2",24
"214","Dilated cardiomyopathy_Homo sapiens_hsa05414","14/90",0.995547034409445,1,0,0,0.585786313521203,0.00261431134631787,"TGFB2;LAMA2;ITGB4;TGFB3;TPM1;CACNB1;CACNG7;CACNB3;CACNG8;SGCB;LMNA;GNAS;TNNI3;MYH6",14
"215","TNF signaling pathway_Homo sapiens_hsa04668","18/110",0.996008527690356,1,0,0,0.616216771366461,0.0024645340178877,"MAP2K4;CSF1;CHUK;PIK3R3;PIK3R2;TRAF1;CXCL5;MAPK12;MAPK10;CREB3;MAPK8;CREB3L4;CREB3L1;CCL5;AKT3;TAB3;MAP2K7;MAP3K14",18
"216","Aldosterone synthesis and secretion_Homo sapiens_hsa04925","12/81",0.996164733529318,1,0,0,0.557891727163051,0.00214377704640682,"PRKCG;CAMK2B;CREB3;DAGLA;STAR;CREB3L4;PRKCB;CYP11A1;CREB3L1;GNAS;CALM1;CAMK2G",12
"217","Bile secretion_Homo sapiens_hsa04976","10/71",0.996251036846559,1,0,0,0.5303900223029,0.00199214923524896,"EPHX1;SLC2A1;GNAS;AQP4;ATP1B3;KCNN2;ATP1B2;ATP1A1;SLC22A8;SLC4A4",10
"218","Melanoma_Homo sapiens_hsa05218","10/71",0.996251036846559,1,0,0,0.5303900223029,0.00199214923524896,"PDGFRB;PDGFRA;PDGFD;AKT3;ARAF;MDM2;PIK3R3;PIK3R2;RAF1;FGFR1",10
"219","Vascular smooth muscle contraction_Homo sapiens_hsa04270","20/120",0.996298268770774,1,0,0,0.627628193058432,0.00232762166032721,"PRKCG;PPP1R14A;PLA2G12A;RAMP2;CALCRL;PRKCB;NPR2;ARAF;PLA2G3;MYL6B;MYL6;CALD1;ADORA2B;GNAS;ARHGEF1;RAF1;CALM1;MYL9;PPP1R12C;RAMP1",20
"220","Glycosaminoglycan degradation_Homo sapiens_hsa00531","1/19",0.997166794915661,1,0,0,0.198198376755294,0.000562333628669339,"IDS",1
"221","Inflammatory mediator regulation of TRP channels_Homo sapiens_hsa04750","15/98",0.997315322763953,1,0,0,0.57639323852305,0.00154951070646,"PRKCG;CAMK2B;PRKCB;SRC;PIK3R3;PIK3R2;ALOX12;MAPK12;MAPK10;MAPK8;GNAS;PLCG1;CALM1;CAMK2G;ASIC1",15
"222","Progesterone-mediated oocyte maturation_Homo sapiens_hsa04914","15/98",0.997315322763953,1,0,0,0.57639323852305,0.00154951070646,"ARAF;PIK3R3;PIK3R2;PKMYT1;GNAI1;MAPK12;MAPK10;CPEB1;MAPK8;AKT3;RAF1;CPEB3;CPEB2;ANAPC2;CPEB4",15
"223","Ascorbate and aldarate metabolism_Homo sapiens_hsa00053","2/27",0.99742216061487,1,0,0,0.278945863581525,0.000720006062685958,"ALDH3A2;ALDH1B1",2
"224","Hepatitis B_Homo sapiens_hsa05161","25/146",0.997422628120264,1,0,0,0.644823486018937,0.00166409533890778,"CDKN1B;SRC;PIK3R3;PIK3R2;ELK1;MAPK8;YWHAQ;CREB3L4;CREB3L1;AKT3;PRKCG;MAP2K4;TGFB2;CHUK;PRKCB;TGFB3;STAT3;NFATC4;DDB2;MAPK10;CREB3;BCL2;RAF1;TLR3;LAMTOR5",25
"225","Estrogen signaling pathway_Homo sapiens_hsa04915","15/99",0.997722919123062,1,0,0,0.570571084598575,0.00130071798837168,"SHC2;GABBR1;SRC;PIK3R3;PIK3R2;HSPA2;GNAI1;GNAO1;CREB3;CREB3L4;CREB3L1;AKT3;GNAS;RAF1;CALM1",15
"226","Renin secretion_Homo sapiens_hsa04924","8/64",0.998095440993023,1,0,0,0.470721144793824,0.000897371015631601,"PPP3CA;ADCYAP1R1;PDE1B;ADORA1;GNAS;CALM1;GNAI1;AGT",8
"227","Fanconi anemia pathway_Homo sapiens_hsa03460","6/53",0.998124305208561,1,0,0,0.426313489624595,0.000800384865752677,"SLX1B;REV3L;HES1;FANCE;FAN1;FANCF",6
"228","Oxytocin signaling pathway_Homo sapiens_hsa04921","27/158",0.998219090097646,1,0,0,0.643517514401684,0.00114706842994334,"CAMK2B;SRC;NPR2;PRKAG1;PIK3R3;PIK3R2;MYL6B;ELK1;GNAI1;CAMKK1;PPP3CA;CACNG7;CACNG8;CAMK2G;PRKCG;PRKAB2;PRKCB;NFATC4;CACNB1;GNAO1;MYL6;CACNB3;GNAS;RAF1;CALM1;MYL9;PPP1R12C",27
"229","Inflammatory bowel disease (IBD)_Homo sapiens_hsa05321","8/65",0.998443701606577,1,0,0,0.463479281027765,0.000721873931883965,"IL4;TGFB2;IL23A;TGFB3;STAT3;RORC;IL18;IL12RB1",8
"230","Homologous recombination_Homo sapiens_hsa03440","2/29",0.998516124974247,1,0,0,0.259708217817282,0.00038566074539368,"RAD52;POLD4",2
"231","MAPK signaling pathway_Homo sapiens_hsa04010","48/255",0.998556822105615,1,0,0,0.708850665101288,0.00102373650505304,"HSPB1;ELK1;RASGRP1;PPP3CA;CACNG7;PAK1;CACNG8;MAPK8;RAP1A;AKT3;STMN1;MAP2K7;MAP4K3;MAP3K4;MAP4K4;PRKCG;DUSP4;PDGFRB;DUSP5;MAP4K2;PDGFRA;MAP2K4;NTRK2;TGFB2;CHUK;PRKCB;GADD45A;TGFB3;HSPA2;DUSP8;MAPK8IP3;MAPK12;MAPK8IP1;CACNB1;MAPK10;PPM1A;CACNB3;MRAS;DDIT3;RASA2;MAPT;RAF1;MAP3K13;MAP3K14;FGFR3;PTPN5;FGFR1;MAP3K12",48
"232","Legionellosis_Homo sapiens_hsa05134","6/55",0.998789228825604,1,0,0,0.410811180910974,0.000497699697027625,"CLK1;SAR1B;BNIP3;EEF1A2;IL18;HSPA2",6
"233","Starch and sucrose metabolism_Homo sapiens_hsa00500","6/56",0.999029305601167,1,0,0,0.403475266966135,0.000391841391616296,"PYGB;G6PC3;AGL;PGM2;PYGM;PYGL",6
"234","B cell receptor signaling pathway_Homo sapiens_hsa04662","9/73",0.999070225795716,1,0,0,0.464272909933635,0.000431869777219551,"PPP3CA;IFITM1;CHUK;CD81;PRKCB;AKT3;PIK3R3;PIK3R2;RAF1",9
"235","Salivary secretion_Homo sapiens_hsa04970","12/89",0.999081983738776,1,0,0,0.507744156182102,0.00046633147462008,"PRKCG;CST3;SLC12A2;TRPV6;PRKCB;GNAS;ATP1B3;AQP5;ATP1B2;ATP1A1;CALM1;VAMP2",12
"236","Mismatch repair_Homo sapiens_hsa03430","1/23",0.999175048815842,1,0,0,0.16372909384133,0.000135124252968164,"POLD4",1
"237","Epstein-Barr virus infection_Homo sapiens_hsa05169","35/202",0.999293146220326,1,0,0,0.652484755159756,0.000461374396699349,"HDAC5;HDAC2;CDKN1B;PSMD14;AKAP8L;HSPB2;PIK3R3;HSPB1;PIK3R2;MAPK8;YWHAQ;AKT3;POLR2G;PLCG1;POLR2H;MAP2K7;YWHAG;POLR2K;POLR2L;MAP2K4;CHUK;POLR3GL;STAT3;EIF2AK4;HSPA2;TRAF1;MAPK12;MAPK10;CSNK2B;POLR3E;MDM2;BCL2;POLR1D;POLR3H;MAP3K14",35
"238","Platelet activation_Homo sapiens_hsa04611","18/122",0.999404690442705,1,0,0,0.555605285658284,0.000330855627168604,"GP1BB;SRC;PIK3R3;PIK3R2;GP1BA;PRKCZ;RASGRP1;GNAI1;MAPK12;COL1A1;COL3A1;RAP1A;COL1A2;TBXA2R;AKT3;GNAS;ARHGEF1;FYN",18
"239","Drug metabolism - other enzymes_Homo sapiens_hsa00983","4/46",0.999408876707568,1,0,0,0.32745818768266,0.000193625395917507,"TPMT;NAT1;IMPDH1;UCKL1",4
"240","Intestinal immune network for IgA production_Homo sapiens_hsa04672","4/48",0.999638922592138,1,0,0,0.313814096529216,0.000113331642504669,"IL4;CXCL12;CXCR4;MAP3K14",4
"241","Transcriptional misregulation in cancer_Homo sapiens_hsa05202","29/180",0.99969908670062,1,0,0,0.606707253289818,0.000182593755167939,"DDX5;HDAC2;CCNT2;CDKN1B;LDB1;PRCC;DOT1L;PLAT;BMI1;MLLT3;FOXO1;TSPAN7;HIST1H3I;PROM1;HIST1H3D;CDKN2C;JUP;H3F3B;EYA1;H3F3C;ASPSCR1;TRAF1;PTK2;BAIAP3;PER2;DDIT3;ID2;MDM2;NUPR1",29
"242","Toll-like receptor signaling pathway_Homo sapiens_hsa04620","14/106",0.999723894167392,1,0,0,0.497365737895361,0.000137344542859656,"MAP2K4;CHUK;PIK3R3;PIK3R2;MAPK12;MAPK10;MAPK8;CTSK;CCL5;AKT3;SPP1;LBP;MAP2K7;TLR3",14
"243","PI3K-Akt signaling pathway_Homo sapiens_hsa04151","64/341",0.999724092406866,1,0,0,0.706771924147912,0.000195030646941694,"CDKN1B;CSF1;IRS1;LAMC3;ITGB4;TNC;PPP2R2A;LAMC1;YWHAQ;CREB3L4;CREB3L1;AKT3;YWHAG;PDGFRB;PDGFRA;CHUK;PDPK1;PPP2R5B;TSC1;PGF;CREB3;COL6A1;SGK1;RAF1;SGK2;PHLPP1;LAMA2;LPAR1;LPAR2;PIK3R3;PIK3R2;FOXO3;THBS2;EFNA4;THBS1;THBS4;VTN;PPP2R3C;PDGFD;GNG7;SPP1;THEM4;GNG8;LAMB1;PPP2R3A;GNG11;PTK2;VEGFA;COL1A1;EFNA1;IL4;COL1A2;EFNA2;G6PC3;PPP2R2C;PPP2R2B;RPS6KB2;GNB4;MDM2;BCL2;COL9A3;GNB5;FGFR3;FGFR1",64
"244","Complement and coagulation cascades_Homo sapiens_hsa04610","9/79",0.999725073872776,1,0,0,0.429011676267789,0.000117962734952097,"VTN;C8G;PLAUR;SERPING1;PLAT;MASP1;A2M;CLU;F3",9
"245","Type I diabetes mellitus_Homo sapiens_hsa04940","3/43",0.999767480972299,1,0,0,0.262728080815158,6.10963812117491e-05,"PTPRN;GAD1;CPE",3
"246","DNA replication_Homo sapiens_hsa03030","2/36",0.999789428625539,1,0,0,0.209209397686144,4.40581492763157e-05,"POLD4;RNASEH1",2
"247","Pentose and glucuronate interconversions_Homo sapiens_hsa00040","2/36",0.999789428625539,1,0,0,0.209209397686144,4.40581492763157e-05,"ALDH3A2;ALDH1B1",2
"248","Pertussis_Homo sapiens_hsa05133","8/75",0.999806876640051,1,0,0,0.401682043557397,7.7581677541134e-05,"MAPK10;MAPK8;IL23A;SERPING1;CALM1;CXCL5;GNAI1;MAPK12",8
"249","RIG-I-like receptor signaling pathway_Homo sapiens_hsa04622","7/70",0.999839408089143,1,0,0,0.376576915835059,6.04800629329912e-05,"MAPK10;CYLD;SIKE1;MAPK8;CHUK;ATG12;MAPK12",7
"250","NF-kappa B signaling pathway_Homo sapiens_hsa04064","11/93",0.999846221440389,1,0,0,0.445413556364049,6.85003222044988e-05,"PIAS4;CXCL12;CHUK;PRKCB;CSNK2B;BCL2;TAB3;LBP;TRAF1;PLCG1;MAP3K14",11
"251","Regulation of actin cytoskeleton_Homo sapiens_hsa04810","35/214",0.999860331891816,1,0,0,0.615896824963882,8.60271521441621e-05,"CYFIP2;NCKAP1;ITGB4;SRC;ARPC1A;ARAF;PIK3R3;PIK3R2;PAK1;PDGFD;PAK7;PIP4K2B;WASF1;GIT1;APC2;PDGFRB;PDGFRA;GSN;LIMK2;LIMK1;PTK2;ENAH;MRAS;APC;PFN4;ARHGEF4;ARHGEF1;RAF1;MYL9;FGFR3;PPP1R12C;VCL;BCAR1;PFN2;FGFR1",35
"252","Thyroid cancer_Homo sapiens_hsa05216","1/29",0.999868556556691,1,0,0,0.129854108908641,1.70695930703327e-05,"LEF1",1
"253","Viral carcinogenesis_Homo sapiens_hsa05203","33/205",0.999870033580521,1,0,0,0.606196986466193,7.87903719922465e-05,"HDAC5;HDAC2;CDKN1B;HDAC10;HIST1H2BJ;SRC;HDAC11;PIK3R3;PIK3R2;HDAC8;HDAC7;POLB;YWHAQ;CREB3L4;CREB3L1;YWHAG;GSN;HIST1H4K;STAT3;TRAF1;CREB3;DLG1;RASA2;MDM2;HIST1H4H;HIST1H2BE;HIST1H4I;HIST1H4J;HIST1H2BG;ATP6V0D1;IL6ST;HIST1H4F;HIST1H2BC",33
"254","Retinol metabolism_Homo sapiens_hsa00830","6/65",0.999872773006482,1,0,0,0.347609460770824,4.42281201772399e-05,"DGAT1;RDH12;RDH10;CYP2S1;ALDH1A1;RDH5",6
"255","Viral myocarditis_Homo sapiens_hsa05416","5/59",0.999880391571131,1,0,0,0.319132979521237,3.8173277249238e-05,"CXADR;LAMA2;SGCB;FYN;MYH6",5
"256","Chemokine signaling pathway_Homo sapiens_hsa04062","29/187",0.999891625432571,1,0,0,0.583996286589129,6.32937747188959e-05,"SHC2;SRC;PIK3R3;CXCR4;PIK3R2;FOXO3;CXCL14;PRKCZ;CXCL5;GNAI1;PAK1;RAP1A;GNG7;CCL5;AKT3;CXCR2;GNG8;CCL17;CHUK;PRKCB;STAT3;PPBP;GNG11;PTK2;CXCL12;GNB4;GNB5;RAF1;BCAR1",29
"257","Oocyte meiosis_Homo sapiens_hsa04114","16/123",0.999913878574617,1,0,0,0.489856150679752,4.21889266406051e-05,"CAMK2B;PPP2R5B;PKMYT1;MAPK12;REC8;RBX1;PPP3CA;CPEB1;YWHAQ;CPEB3;CALM1;CPEB2;CAMK2G;YWHAG;ANAPC2;CPEB4",16
"258","Phagosome_Homo sapiens_hsa04145","22/154",0.999915457730812,1,0,0,0.537967022621513,4.54828754805019e-05,"DYNC2H1;ATP6V1G1;ATP6V0B;ATP6V1G2;STX7;M6PR;THBS2;THBS1;TUBB4A;THBS4;SEC61A2;DYNC1LI1;DYNC1LI2;TUBB2B;TUBB2A;CTSL;ATP6V1E1;ATP6V0D1;RAB7B;ATP6V0E2;ATP6V1D;ATP6V1F",22
"259","Pathways in cancer_Homo sapiens_hsa05200","74/397",0.999919346585523,1,0,0,0.701931782664846,5.661547814862e-05,"CDKN1B;WNT2B;LAMC3;HHIP;ARAF;SLC2A1;LAMC1;GLI1;AKT3;APPL1;PRKCG;APC2;PDGFRB;PDGFRA;CHUK;PRKCB;DAPK3;WNT5A;TRAF1;PGF;PIAS2;RBX1;BCR;ARHGEF1;BIRC7;RAF1;HDAC2;LAMA2;EPAS1;GSTP1;LEF1;LPAR1;WNT8B;LPAR2;PIK3R3;CXCR4;PIK3R2;RASGRP1;FOXO1;GNAI1;MAPK8;STK36;GNG7;GNG8;PLCG1;VHL;RALGDS;WNT3;WNT4;FZD1;TGFB2;FZD2;JUP;FZD4;TGFB3;FZD6;STAT3;FZD8;WNT7A;LAMB1;GNG11;PTK2;VEGFA;BMP4;MAPK10;CXCL12;APC;MDM2;BCL2;GNAS;GNB4;GNB5;FGFR3;FGFR1",74
"260","cGMP-PKG signaling pathway_Homo sapiens_hsa04022","24/167",0.999946325204325,1,0,0,0.541188382038409,2.90489554329894e-05,"MEF2B;KCNJ8;IRS1;NPR2;ATP2A3;PIK3R3;ATP1B3;PIK3R2;ATP1B2;ATP1A1;ADRA2C;GNAI1;NFATC4;PPP3CA;CREB3;CREB3L4;CREB3L1;AKT3;ADORA1;GTF2IRD1;RAF1;CALM1;MYL9;SLC25A4",24
"261","Taste transduction_Homo sapiens_hsa04742","8/83",0.999963877744541,1,0,0,0.362965702009696,1.31113766186895e-05,"GABRA2;GABBR1;ENTPD2;PDE1B;GABRA4;SCN2A;SCN3A;TAS1R3",8
"262","Ribosome biogenesis in eukaryotes_Homo sapiens_hsa03008","9/89",0.999964225222952,1,0,0,0.380808117136577,1.36235691800617e-05,"RBM28;POP5;NXF1;IMP3;CSNK2B;FCF1;SBDS;NXT2;UTP18",9
"263","Calcium signaling pathway_Homo sapiens_hsa04020","26/180",0.999965162185555,1,0,0,0.543944433983975,1.89501653527453e-05,"CAMK2B;PDE1B;ATP2A3;PPP3CA;CYSLTR2;ERBB3;PHKG1;TBXA2R;PHKG2;PLCG1;CAMK2G;PDGFRB;PRKCG;PDGFRA;PRKCB;SPHK1;PHKA1;GRIN1;P2RX6;ADORA2B;ORAI2;GNAS;CALM1;SLC25A4;PLCD4;PLCD1",26
"264","Systemic lupus erythematosus_Homo sapiens_hsa05322","17/135",0.999972038943913,1,0,0,0.474207968088593,1.32595409690022e-05,"HIST1H2AL;HIST1H4K;H3F3B;HIST1H2BJ;H3F3C;GRIN2B;C8G;HIST1H2BE;HIST1H4H;HIST1H4I;HIST1H2BG;HIST1H3I;HIST1H4J;HIST1H2AC;HIST1H3D;HIST1H2BC;HIST1H4F",17
"265","Aminoacyl-tRNA biosynthesis_Homo sapiens_hsa00970","5/66",0.999975740774527,1,0,0,0.285285542299287,6.9208902428517e-06,"IARS2;VARS2;YARS2;CARS2;HARS2",5
"266","Leishmaniasis_Homo sapiens_hsa05140","6/73",0.999977838021784,1,0,0,0.30951527328909,6.85954675510772e-06,"IL4;TGFB2;PRKCB;TGFB3;ELK1;MAPK12",6
"267","Osteoclast differentiation_Homo sapiens_hsa04380","16/132",0.999980569067638,1,0,0,0.45645686767886,8.86946869339478e-06,"TGFB2;CSF1;CHUK;PIK3R3;PIK3R2;MAPK12;MAPK10;CYLD;PPP3CA;MAPK8;CTSK;AKT3;FYN;MAP2K7;SQSTM1;MAP3K14",16
"268","Primary immunodeficiency_Homo sapiens_hsa05340","1/37",0.999986167681089,1,0,0,0.101777544820286,1.4078291947773e-06,"RFXANK",1
"269","Allograft rejection_Homo sapiens_hsa05330","1/38",0.999989022654623,1,0,0,0.0990991883776472,1.08785198823499e-06,"IL4",1
"270","Ribosome_Homo sapiens_hsa03010","16/137",0.999989759522838,1,0,0,0.439797857909558,4.50376298030913e-06,"RPL34;MRPL27;RPL13A;MRPS6;MRPL32;MRPS5;RPS14;MRPL20;MRPS9;RPS27;RPL36;RPL38;RPL37;MRPL9;RPS21;RPL17",16
"271","Steroid hormone biosynthesis_Homo sapiens_hsa00140","3/58",0.999992557969488,1,0,0,0.194781163362962,1.4495727548759e-06,"CYP11A1;CYP1B1;CYP7B1",3
"272","HTLV-I infection_Homo sapiens_hsa05166","38/258",0.999992805517454,1,0,0,0.554648170609777,3.99042093723452e-06,"WNT2B;SLC2A1;PIK3R3;WNT8B;PIK3R2;ELK1;POLB;PPP3CA;POLD4;MAPK8;KAT5;TERT;AKT3;MSX1;WNT3;WNT4;FZD1;APC2;PDGFRB;PDGFRA;MAP2K4;TGFB2;FZD2;CDKN2C;CHUK;FZD4;TGFB3;FZD6;WNT5A;FZD8;WNT7A;NFATC4;DLG1;MRAS;APC;MAP3K14;SLC25A4;ANAPC2",38
"273","Cell cycle_Homo sapiens_hsa04110","13/124",0.999992938928708,1,0,0,0.394798379504498,2.78770934585487e-06,"TGFB2;HDAC2;CDKN1B;CDKN2C;TGFB3;GADD45A;PKMYT1;RBX1;YWHAQ;MDM2;SFN;YWHAG;ANAPC2",13
"274","Measles_Homo sapiens_hsa05162","15/136",0.999993108800747,1,0,0,0.415342186582786,2.86221562816848e-06,"CDKN1B;CHUK;STAT3;PIK3R3;TNFRSF10B;PIK3R2;EIF2AK4;HSPA2;RCHY1;BBC3;IL4;AKT3;CSNK2B;FYN;RAB9B",15
"275","Olfactory transduction_Homo sapiens_hsa04740","5/415",0.999993564659622,1,0,0,0.045370712751212,2.91976919214181e-07,"CAMK2B;PDE1B;GNG7;CALM1;CAMK2G",5
"276","Hematopoietic cell lineage_Homo sapiens_hsa04640","7/88",0.999993617786264,1,0,0,0.299549819414252,1.91179707298697e-06,"IL4;CSF1;GP1BB;ANPEP;CD9;GP1BA;CD34",7
"277","MicroRNAs in cancer_Homo sapiens_hsa05206","31/297",0.999994117061478,1,0,0,0.39306008050124,2.31235509081091e-06,"CDKN1B;IRS1;TNC;PIK3R2;BMI1;THBS1;GLS;ERBB3;STMN1;DNMT3B;CYP1B1;PLCG1;WNT3;PRKCG;APC2;PDGFRB;PDGFRA;TGFB2;PRKCB;STAT3;TPM1;SIRT1;VEGFA;APC;FSCN1;MDM2;BCL2;ZFPM2;RAF1;FGFR3;RECK",31
"278","Neuroactive ligand-receptor interaction_Homo sapiens_hsa04080","38/277",0.999994163133201,1,0,0,0.516603711253872,3.01535585069782e-06,"GRIA1;GRIA2;ADCYAP1R1;GABRB1;CALCRL;THRA;GRIK5;LHB;LPAR1;OPRL1;LPAR2;PTH1R;GRM3;CYSLTR2;TBXA2R;CNR1;GALR1;ADORA1;S1PR1;S1PR3;S1PR5;DRD3;NTSR2;GABRA2;CHRNB2;CHRNB1;GABBR1;GABRA4;NPY1R;GPR50;ADRA2C;GRIN2B;GRIN1;P2RX6;GLRB;ADORA2B;MC5R;APLNR",38
"279","Influenza A_Homo sapiens_hsa05164","21/175",0.999994259104854,1,0,0,0.451892299002071,2.59427375240921e-06,"MAP2K4;IL33;PRKCB;IL18;PIK3R3;TNFRSF10B;PIK3R2;EIF2AK4;HSPA2;NXT2;MAPK12;MAPK10;NXF1;MAPK8;CCL5;AKT3;RAF1;MAP2K7;RAE1;TLR3;AGFG1",21
"280","Cytokine-cytokine receptor interaction_Homo sapiens_hsa04060","27/265",0.999994300195786,1,0,0,0.383682140662136,2.18691931458753e-06,"CNTFR;CTF1;CSF1;CXCR4;ACVR1B;CXCL14;CXCL5;CCL5;CXCR2;IL12RB1;CCL17;PDGFRB;PDGFRA;TGFB2;TNFRSF12A;CD70;TGFB3;IL18;TNFRSF10B;PPBP;ACVR2A;VEGFA;IL4;CXCL12;IL23A;IL6ST;IL17B",27
"281","Tuberculosis_Homo sapiens_hsa05152","20/178",0.999994789481108,1,0,0,0.423120130151752,2.20468117547336e-06,"CAMK2B;TGFB2;ATP6V0B;TGFB3;SRC;SPHK1;IL18;RFXANK;MAPK12;MAPK10;PPP3CA;MAPK8;IL23A;AKT3;BCL2;LBP;RAF1;ATP6V0D1;CALM1;CAMK2G",20
"282","Jak-STAT signaling pathway_Homo sapiens_hsa04630","17/158",0.999994852742735,1,0,0,0.405177694252912,2.08555919762672e-06,"PIAS4;CNTFR;CTF1;FHL1;STAT3;PIK3R3;PIK3R2;STAM;PIAS2;SOCS2;IL4;IL23A;AKT3;BCL2;IL6ST;RAF1;IL12RB1",17
"283","Herpes simplex infection_Homo sapiens_hsa05168","18/185",0.999994856995669,1,0,0,0.366399161353031,1.8843973192739e-06,"CHUK;TAF13;EIF2AK4;TRAF1;HCFC2;ARNTL;MAPK10;PER2;NXF1;MAPK8;CDC34;UBE2R2;CCL5;CSNK2B;GTF2IRD1;SRSF5;TAF9B;TLR3",18
"284","RNA transport_Homo sapiens_hsa03013","14/172",0.999994969524984,1,0,0,0.306516094284351,1.54192543247145e-06,"CYFIP2;EIF4A2;POP5;EIF2B3;SEC13;PABPC5;UPF3B;CASC3;TRNT1;NXT2;NXF1;MAGOH;EEF1A2;RAE1",14
"285","Natural killer cell mediated cytotoxicity_Homo sapiens_hsa04650","13/135",0.999995094564312,1,0,0,0.362629622655983,1.77886065562462e-06,"PRKCG;SHC2;PRKCB;ARAF;ICAM2;PIK3R3;TNFRSF10B;PIK3R2;PPP3CA;PAK1;FYN;PLCG1;RAF1",13
"286","Spliceosome_Homo sapiens_hsa03040","12/134",0.999995262617005,1,0,0,0.33723305895677,1.59760594305529e-06,"DDX5;PRPF38B;SYF2;BUD31;SF3B6;MAGOH;RP9;SRSF5;HSPA2;TXNL4A;PQBP1;U2AF1L4",12
"287","Antigen processing and presentation_Homo sapiens_hsa04612","3/77",0.999996086755206,1,0,0,0.146718278896776,5.74145664478525e-07,"CTSL;RFXANK;HSPA2",3
"288","Staphylococcus aureus infection_Homo sapiens_hsa05150","1/56",0.999996485326805,1,0,0,0.0672458778276892,2.36347699650315e-07,"MASP1",1
"289","Autoimmune thyroid disease_Homo sapiens_hsa05320","1/53",0.999996507506857,1,0,0,0.0710522482707659,2.48149923213027e-07,"IL4",1
