"","Term","Overlap","P.value","Adjusted.P.value","Old.P.value","Old.Adjusted.P.value","Odds.Ratio","Combined.Score","Genes","Overlap_Number"
"1","osteopetrosis","28/85",0.000141610426653404,0.0264811497841866,0,0,2.00250312891114,17.7470452963356,"CEBPA;THRA;LHB;LRP5;TCIRG1;IQGAP1;RELA;IGF1R;ADCY5;AKAP13;SLC9A3R1;CCND1;KPNA2;JAK2;MEN1;TFAP2A;CREBBP;FUS;STAT3;AIP;HMGA2;AXIN2;FOS;CLCN7;OSTM1;GIPC1;GNAQ;PLEKHM1",28
"2","hermansky-pudlak_syndrome","27/85",0.000359968395535972,0.0336570449826134,0,0,1.93098516002146,15.3117358594483,"CEBPA;THRA;LHB;IQGAP1;RELA;IGF1R;ADCY5;AKAP13;SLC9A3R1;CCND1;BLOC1S3;KPNA2;JAK2;MEN1;TFAP2A;CREBBP;FUS;HPS1;STAT3;AIP;HMGA2;HPS6;AXIN2;FOS;HPS5;GIPC1;GNAQ",27
"3","gastric_cancer","27/87",0.000543660423073669,0.033888166371592,0,0,1.88659469657269,14.1818827281763,"CEBPA;THRA;LHB;IQGAP1;RELA;IGF1R;ADCY5;AKAP13;SLC9A3R1;CCND1;ERBB2;KPNA2;JAK2;MEN1;TFAP2A;CREBBP;FUS;STAT3;AIP;HMGA2;AXIN2;FOS;KLF6;IRF1;GIPC1;GNAQ;FGFR2",27
"4","thyroid_carcinoma","28/93",0.000743043874058117,0.034737301112217,0,0,1.83024479524136,13.1864661910109,"CEBPA;NDUFA13;THRA;LHB;PTEN;IQGAP1;RELA;IGF1R;ADCY5;AKAP13;SLC9A3R1;CCND1;KPNA2;JAK2;HRAS;MEN1;TFAP2A;CREBBP;FUS;STAT3;AIP;HMGA2;AXIN2;FOS;MINPP1;PRKAR1A;GIPC1;GNAQ",28
"5","dementia","27/89",0.000804797029679891,0.0300994089100279,0,0,1.84419931013285,13.1397733775003,"APP;CEBPA;THRA;LHB;IQGAP1;RELA;IGF1R;ADCY5;AKAP13;SLC9A3R1;CCND1;KPNA2;JAK2;MEN1;TFAP2A;CREBBP;FUS;STAT3;AIP;HMGA2;AXIN2;FOS;GIPC1;GNAQ;CHMP2B;MAPT;ITM2B",27
"6","ovarian_cancer","27/89",0.000804797029679891,0.0250828407583566,0,0,1.84419931013285,13.1397733775003,"CEBPA;THRA;LHB;BRCA1;IQGAP1;RELA;IGF1R;ADCY5;SEPT9;AKAP13;SLC9A3R1;CCND1;ERBB2;KPNA2;JAK2;MEN1;TFAP2A;CREBBP;FUS;STAT3;AIP;RRAS2;HMGA2;AXIN2;FOS;GIPC1;GNAQ",27
"7","diamond-blackfan_anemia","26/85",0.000869768431645314,0.0232352423882391,0,0,1.85946719113177,13.1041925520448,"RPL5;CEBPA;THRA;LHB;IQGAP1;RELA;IGF1R;ADCY5;AKAP13;SLC9A3R1;CCND1;RPS19;KPNA2;JAK2;MEN1;TFAP2A;CREBBP;FUS;STAT3;AIP;HMGA2;AXIN2;FOS;GIPC1;GNAQ;RPS24",26
"8","leigh_syndrome","27/91",0.00116901827843621,0.0273258022584463,0,0,1.8036674571629,12.1776248998092,"CEBPA;THRA;COX15;LHB;IQGAP1;RELA;IGF1R;ADCY5;AKAP13;SLC9A3R1;CCND1;KPNA2;JAK2;NDUFV1;MEN1;TFAP2A;CREBBP;FUS;STAT3;AIP;HMGA2;AXIN2;FOS;NDUFS8;NDUFS7;GIPC1;GNAQ",27
"9","breast_cancer","30/105",0.00126345065488739,0.0262516969404379,0,0,1.73686495874946,11.5916781349584,"CEBPA;TSG101;THRA;LHB;HMMR;IQGAP1;PPM1D;RELA;IGF1R;ADCY5;SLC9A3R1;AKAP13;BRIP1;CCND1;KPNA2;JAK2;MEN1;TFAP2A;NQO1;CREBBP;FUS;STAT3;AIP;HMGA2;AXIN2;FOS;PALB2;GNAQ;GIPC1;TP53",30
"10","disorder_of_glycosylation","28/96",0.00128021353342907,0.0239399930751236,0,0,1.77304964539007,11.8098021134265,"CEBPA;B4GALT1;THRA;LHB;IQGAP1;RELA;IGF1R;ADCY5;AKAP13;SLC9A3R1;CCND1;KPNA2;JAK2;MEN1;MPDU1;TFAP2A;ALG8;CREBBP;FUS;SLC35C1;STAT3;AIP;COG1;HMGA2;AXIN2;FOS;GIPC1;GNAQ",28
"11","glioblastoma","25/83",0.00138193866839429,0.0234929573627029,0,0,1.83103233603105,12.0560074953249,"CEBPA;THRA;LHB;IQGAP1;RELA;IGF1R;ADCY5;AKAP13;SLC9A3R1;CCND1;ERBB2;KPNA2;JAK2;MEN1;TFAP2A;CREBBP;FUS;STAT3;AIP;HMGA2;AXIN2;FOS;WDR11;GIPC1;GNAQ",25
"12","lipodystrophy","25/83",0.00138193866839429,0.021535210915811,0,0,1.83103233603105,12.0560074953249,"CEBPA;THRA;LHB;IQGAP1;RELA;IGF1R;ADCY5;AKAP13;SLC9A3R1;CCND1;LMNA;KPNA2;JAK2;MEN1;TFAP2A;CREBBP;FUS;STAT3;AIP;HMGA2;AXIN2;FOS;BSCL2;GIPC1;GNAQ",25
"13","lissencephaly","25/83",0.00138193866839429,0.0198786562299793,0,0,1.83103233603105,12.0560074953249,"YWHAE;CEBPA;THRA;LHB;IQGAP1;RELA;IGF1R;ADCY5;AKAP13;SLC9A3R1;CCND1;KPNA2;JAK2;MEN1;TFAP2A;CREBBP;FUS;STAT3;AIP;HMGA2;AXIN2;FOS;GIPC1;GNAQ;PAFAH1B1",25
"14","vitreoretinopathy","25/83",0.00138193866839429,0.0184587522135523,0,0,1.83103233603105,12.0560074953249,"CEBPA;THRA;LHB;LRP5;IQGAP1;RELA;IGF1R;ADCY5;AKAP13;SLC9A3R1;CCND1;KPNA2;JAK2;MEN1;TFAP2A;CREBBP;FUS;FZD4;STAT3;AIP;HMGA2;AXIN2;FOS;GIPC1;GNAQ",25
"15","skin/hair/eye_pigmentation","26/89",0.0018259560778945,0.0227635857710848,0,0,1.77589563197978,11.1981790458978,"CEBPA;THRA;LHB;IQGAP1;RELA;IGF1R;ADCY5;AKAP13;SLC9A3R1;HERC2;CCND1;KPNA2;JAK2;MEN1;TFAP2A;CREBBP;FUS;STAT3;AIP;HMGA2;AXIN2;FOS;TPCN2;KITLG;GIPC1;GNAQ",26
"16","ceroid-lipofuscinosis,_neuronal","25/85",0.00199639880236143,0.0233329110025992,0,0,1.78794922224209,11.114625997261,"CEBPA;THRA;LHB;IQGAP1;RELA;IGF1R;ADCY5;AKAP13;SLC9A3R1;CCND1;KPNA2;JAK2;CTSD;MEN1;TFAP2A;CREBBP;FUS;STAT3;AIP;HMGA2;AXIN2;FOS;GIPC1;GNAQ;TPP1",25
"17","fanconi_anemia","26/90",0.00217279731676089,0.0239007704843698,0,0,1.75616345829112,10.7683374700166,"CEBPA;THRA;LHB;IQGAP1;RELA;IGF1R;ADCY5;AKAP13;SLC9A3R1;BRIP1;CCND1;KPNA2;JAK2;MEN1;TFAP2A;FANCI;CREBBP;FUS;STAT3;AIP;HMGA2;AXIN2;FOS;PALB2;GIPC1;GNAQ",26
"18","charcot-marie-tooth_disease","29/104",0.0022616432655718,0.0234959605923293,0,0,1.69511339724106,10.3260606158724,"CEBPA;THRA;HSPB8;LHB;IQGAP1;LITAF;HOXD10;RELA;IGF1R;ADCY5;SLC9A3R1;AKAP13;CCND1;LMNA;KPNA2;JAK2;SBF2;MEN1;TFAP2A;CREBBP;FUS;STAT3;AIP;HMGA2;AXIN2;FOS;GNAQ;GIPC1;PMP22",29
"19","encephalopathy","26/91",0.00257430967698227,0.0253366268208255,0,0,1.73686495874946,10.3554908682882,"CEBPA;THRA;GLDC;STXBP1;LHB;IQGAP1;RELA;IGF1R;ADCY5;AKAP13;SLC9A3R1;CCND1;KPNA2;JAK2;MEN1;TFAP2A;CREBBP;FUS;STAT3;AIP;HMGA2;AXIN2;FOS;ETHE1;GIPC1;GNAQ",26
"20","coronary_artery_disease","25/87",0.00283010933956134,0.0264615223248985,0,0,1.74684694127101,10.2495194986304,"CEBPA;THRA;LHB;IQGAP1;RELA;IGF1R;ADCY5;AKAP13;SLC9A3R1;CCND1;CCL2;KPNA2;JAK2;MEN1;MEF2A;TFAP2A;CREBBP;FUS;STAT3;AIP;HMGA2;AXIN2;FOS;GIPC1;GNAQ",25
"21","adenocarcinoma","24/83",0.00310835368057802,0.0276791494413376,0,0,1.75779104258981,10.1488914451732,"TFAP2A;CEBPA;CREBBP;THRA;FUS;LHB;STAT3;AIP;HMGA2;AXIN2;FOS;IQGAP1;RELA;IGF1R;ADCY5;AKAP13;SLC9A3R1;CCND1;GIPC1;GNAQ;ERBB2;KPNA2;JAK2;MEN1",24
"22","arthrogryposis","24/83",0.00310835368057802,0.0264210062849132,0,0,1.75779104258981,10.1488914451732,"TFAP2A;CEBPA;CREBBP;THRA;FUS;LHB;STAT3;AIP;HMGA2;AXIN2;FOS;IQGAP1;RELA;IGF1R;ADCY5;AKAP13;SLC9A3R1;MYH3;CCND1;GIPC1;GNAQ;KPNA2;JAK2;MEN1",24
"23","atopy","24/83",0.00310835368057802,0.0252722668812213,0,0,1.75779104258981,10.1488914451732,"TFAP2A;CEBPA;CREBBP;IL4R;THRA;FUS;LHB;STAT3;AIP;HMGA2;AXIN2;FOS;IQGAP1;RELA;IGF1R;ADCY5;AKAP13;SLC9A3R1;CCND1;GIPC1;GNAQ;KPNA2;JAK2;MEN1",24
"24","bare_lymphocyte_syndrome","24/83",0.00310835368057802,0.0242192557611704,0,0,1.75779104258981,10.1488914451732,"TFAP2A;CEBPA;CREBBP;THRA;FUS;LHB;STAT3;AIP;HMGA2;AXIN2;FOS;IQGAP1;RELA;IGF1R;TAPBP;ADCY5;AKAP13;SLC9A3R1;CCND1;GIPC1;GNAQ;KPNA2;JAK2;MEN1",24
"25","cholestasis","24/83",0.00310835368057802,0.0232504855307236,0,0,1.75779104258981,10.1488914451732,"TFAP2A;CEBPA;HSD3B7;CREBBP;THRA;FUS;LHB;STAT3;AIP;HMGA2;AXIN2;FOS;IQGAP1;RELA;IGF1R;ADCY5;AKAP13;SLC9A3R1;CCND1;GIPC1;GNAQ;KPNA2;JAK2;MEN1",24
"26","episodic_ataxia","24/83",0.00310835368057802,0.0223562360872342,0,0,1.75779104258981,10.1488914451732,"TFAP2A;CEBPA;CREBBP;THRA;FUS;KCNA1;LHB;STAT3;AIP;HMGA2;AXIN2;FOS;IQGAP1;RELA;IGF1R;ADCY5;AKAP13;SLC9A3R1;CCND1;GIPC1;GNAQ;KPNA2;JAK2;MEN1",24
"27","infections","24/83",0.00310835368057802,0.0215282273432626,0,0,1.75779104258981,10.1488914451732,"TFAP2A;CEBPA;CREBBP;THRA;FUS;LHB;STAT3;AIP;HMGA2;AXIN2;FOS;IQGAP1;RELA;IGF1R;ADCY5;AKAP13;SLC9A3R1;CCND1;GIPC1;GNAQ;KPNA2;JAK2;MYD88;MEN1",24
"28","kallmann_syndrome","24/83",0.00310835368057802,0.0207593620810032,0,0,1.75779104258981,10.1488914451732,"TFAP2A;CEBPA;CREBBP;THRA;FUS;LHB;STAT3;AIP;HMGA2;AXIN2;FOS;IQGAP1;RELA;IGF1R;ADCY5;AKAP13;SLC9A3R1;CCND1;GIPC1;GNAQ;KPNA2;JAK2;MEN1;FGFR1",24
"29","lymphedema","24/83",0.00310835368057802,0.0200435220092445,0,0,1.75779104258981,10.1488914451732,"TFAP2A;CEBPA;CREBBP;THRA;FUS;LHB;STAT3;AIP;HMGA2;AXIN2;FOS;IQGAP1;RELA;IGF1R;ADCY5;AKAP13;SLC9A3R1;CCND1;GIPC1;GNAQ;IKBKG;KPNA2;JAK2;MEN1",24
"30","meckel_syndrome","24/83",0.00310835368057802,0.0193754046089363,0,0,1.75779104258981,10.1488914451732,"TFAP2A;CEBPA;CREBBP;THRA;FUS;LHB;STAT3;AIP;HMGA2;AXIN2;FOS;IQGAP1;RELA;IGF1R;ADCY5;AKAP13;SLC9A3R1;CCND1;GIPC1;GNAQ;MKS1;KPNA2;JAK2;MEN1",24
"31","mitochondrial_dna_depletion_syndrome","24/83",0.00310835368057802,0.0187503915570351,0,0,1.75779104258981,10.1488914451732,"TFAP2A;CEBPA;CREBBP;THRA;FUS;LHB;STAT3;AIP;HMGA2;AXIN2;FOS;IQGAP1;RELA;IGF1R;ADCY5;AKAP13;SLC9A3R1;CCND1;GIPC1;GNAQ;TK2;KPNA2;JAK2;MEN1",24
"32","nephronophthisis","24/83",0.00310835368057802,0.0181644418208778,0,0,1.75779104258981,10.1488914451732,"TFAP2A;NEK8;CEBPA;CREBBP;THRA;FUS;LHB;STAT3;AIP;HMGA2;AXIN2;FOS;IQGAP1;RELA;IGF1R;ADCY5;AKAP13;SLC9A3R1;CCND1;GIPC1;GNAQ;KPNA2;JAK2;MEN1",24
"33","paget_disease","24/83",0.00310835368057802,0.0176140041899421,0,0,1.75779104258981,10.1488914451732,"TFAP2A;CEBPA;CREBBP;THRA;FUS;LHB;STAT3;AIP;HMGA2;AXIN2;FOS;IQGAP1;RELA;IGF1R;ADCY5;AKAP13;SLC9A3R1;CCND1;GIPC1;GNAQ;KPNA2;JAK2;SQSTM1;MEN1",24
"34","ectodermal_dysplasia","25/88",0.00334696334688885,0.0184082984078887,0,0,1.72699640784747,9.84336454795353,"CEBPA;THRA;LHB;IQGAP1;RELA;IGF1R;ADCY5;AKAP13;SLC9A3R1;CCND1;IKBKG;KPNA2;JAK2;MEN1;TFAP2A;CREBBP;FUS;STAT3;AIP;HMGA2;AXIN2;FOS;NFKBIA;GIPC1;GNAQ",25
"35","aids","24/84",0.00368568157241334,0.0196920701154655,0,0,1.73686495874946,9.73217509657156,"TFAP2A;CEBPA;CREBBP;IL4R;THRA;FUS;LHB;STAT3;AIP;HMGA2;AXIN2;FOS;IQGAP1;RELA;IGF1R;ADCY5;AKAP13;SLC9A3R1;CCND1;GIPC1;GNAQ;KPNA2;JAK2;MEN1",24
"36","amelogenesis_imperfecta","24/84",0.00368568157241334,0.0191450681678137,0,0,1.73686495874946,9.73217509657156,"TFAP2A;CEBPA;CREBBP;DLX3;THRA;FUS;LHB;STAT3;AIP;HMGA2;AXIN2;FOS;IQGAP1;RELA;IGF1R;ADCY5;AKAP13;SLC9A3R1;CCND1;GIPC1;GNAQ;KPNA2;JAK2;MEN1",24
"37","cutis_laxa","24/84",0.00368568157241334,0.018627633893008,0,0,1.73686495874946,9.73217509657156,"TFAP2A;CEBPA;CREBBP;THRA;FUS;LHB;STAT3;AIP;HMGA2;AXIN2;FOS;IQGAP1;RELA;IGF1R;ADCY5;AKAP13;SLC9A3R1;EFEMP2;CCND1;GIPC1;GNAQ;KPNA2;JAK2;MEN1",24
"38","dermatitis","24/84",0.00368568157241334,0.0181374330010867,0,0,1.73686495874946,9.73217509657156,"TFAP2A;CEBPA;CREBBP;THRA;FUS;LHB;STAT3;AIP;HMGA2;AXIN2;FOS;IQGAP1;RELA;IGF1R;ADCY5;AKAP13;SOCS3;SLC9A3R1;CCND1;GIPC1;GNAQ;KPNA2;JAK2;MEN1",24
"39","endometrial_cancer","24/84",0.00368568157241334,0.0176723706164434,0,0,1.73686495874946,9.73217509657156,"TFAP2A;CEBPA;CREBBP;THRA;FUS;LHB;STAT3;PTEN;AIP;HMGA2;AXIN2;FOS;IQGAP1;RELA;IGF1R;ADCY5;AKAP13;SLC9A3R1;CCND1;GIPC1;GNAQ;KPNA2;JAK2;MEN1",24
"40","neutropenia","24/84",0.00368568157241334,0.0172305613510324,0,0,1.73686495874946,9.73217509657156,"TFAP2A;CEBPA;CREBBP;THRA;FUS;LHB;STAT3;AIP;HMGA2;AXIN2;FOS;IQGAP1;RELA;IGF1R;ADCY5;AKAP13;SLC9A3R1;G6PC3;CCND1;GIPC1;GNAQ;KPNA2;JAK2;MEN1",24
"41","nevus","24/84",0.00368568157241334,0.0168103037571047,0,0,1.73686495874946,9.73217509657156,"TFAP2A;CEBPA;CREBBP;THRA;FUS;LHB;STAT3;AIP;HMGA2;AXIN2;FOS;IQGAP1;KRT10;RELA;IGF1R;ADCY5;AKAP13;SLC9A3R1;CCND1;GIPC1;GNAQ;KPNA2;JAK2;MEN1",24
"42","porphyria","24/84",0.00368568157241334,0.0164100584295546,0,0,1.73686495874946,9.73217509657156,"TFAP2A;CEBPA;CREBBP;THRA;FUS;LHB;STAT3;AIP;HMGA2;AXIN2;FOS;IQGAP1;RELA;IGF1R;ADCY5;AKAP13;SLC9A3R1;CCND1;UROD;GIPC1;GNAQ;KPNA2;JAK2;MEN1",24
"43","atrial_fibrillation","24/85",0.00435031850933945,0.018918827005732,0,0,1.7164312533524,9.33310560948197,"TFAP2A;CEBPA;CREBBP;KCNE2;THRA;FUS;LHB;STAT3;AIP;HMGA2;AXIN2;FOS;IQGAP1;RELA;IGF1R;ADCY5;AKAP13;SLC9A3R1;CCND1;GIPC1;GNAQ;KPNA2;JAK2;MEN1",24
"44","hepatocellular_carcinoma","24/85",0.00435031850933945,0.0184888536646926,0,0,1.7164312533524,9.33310560948197,"TFAP2A;CEBPA;CREBBP;THRA;FUS;LHB;STAT3;AIP;HMGA2;AXIN2;FOS;IQGAP1;RELA;IGF1R;ADCY5;AKAP13;SLC9A3R1;CCND1;GIPC1;GNAQ;KPNA2;JAK2;TP53;MEN1",24
"45","leukodystrophy","24/85",0.00435031850933945,0.0180779902499217,0,0,1.7164312533524,9.33310560948197,"TFAP2A;CEBPA;CREBBP;THRA;FUS;TREX1;LHB;STAT3;AIP;HMGA2;AXIN2;FOS;IQGAP1;RELA;IGF1R;ADCY5;AKAP13;SLC9A3R1;CCND1;GIPC1;GNAQ;KPNA2;JAK2;MEN1",24
"46","optic_atrophy","24/85",0.00435031850933945,0.0176849904618799,0,0,1.7164312533524,9.33310560948197,"TFAP2A;CEBPA;CREBBP;THRA;FUS;LHB;STAT3;AIP;HMGA2;AXIN2;FOS;IQGAP1;RELA;IGF1R;ADCY5;AKAP13;SLC9A3R1;CCND1;OPA3;GIPC1;GNAQ;KPNA2;JAK2;MEN1",24
"47","seizures","24/85",0.00435031850933945,0.017308714069074,0,0,1.7164312533524,9.33310560948197,"TFAP2A;CEBPA;CREBBP;THRA;FUS;LHB;STAT3;AIP;HMGA2;AXIN2;FOS;IQGAP1;RELA;IGF1R;ADCY5;AKAP13;SLC9A3R1;CCND1;GIPC1;GNAQ;KPNA2;JAK2;SCN1B;MEN1",24
"48","arrhythmogenic_right_ventricular_dysplasia","25/90",0.00462122828835229,0.0180035352067058,0,0,1.68861870989531,9.07986279288104,"CEBPA;THRA;LHB;IQGAP1;RELA;IGF1R;ADCY5;AKAP13;SLC9A3R1;TMEM43;CCND1;KPNA2;JAK2;MEN1;TFAP2A;CREBBP;JUP;FUS;STAT3;AIP;HMGA2;AXIN2;FOS;GIPC1;GNAQ",25
"49","glycogen_storage_disease","25/90",0.00462122828835229,0.0176361161208546,0,0,1.68861870989531,9.07986279288104,"CEBPA;THRA;GBE1;LHB;IQGAP1;RELA;IGF1R;ADCY5;GYS1;AKAP13;SLC9A3R1;CCND1;KPNA2;JAK2;MEN1;TFAP2A;CREBBP;FUS;STAT3;AIP;HMGA2;AXIN2;FOS;GIPC1;GNAQ",25
"50","brachydactyly","24/86",0.0051120815438766,0.0191191849740985,0,0,1.69647275040645,8.9508423449295,"TFAP2A;CEBPA;CREBBP;THRA;FUS;NOG;LHB;STAT3;AIP;HMGA2;AXIN2;FOS;IQGAP1;RELA;IGF1R;ADCY5;AKAP13;SLC9A3R1;CCND1;GIPC1;GNAQ;KPNA2;JAK2;MEN1",24
"51","complex_i","24/86",0.0051120815438766,0.0187442989942142,0,0,1.69647275040645,8.9508423449295,"TFAP2A;CEBPA;CREBBP;THRA;FUS;LHB;STAT3;AIP;HMGA2;AXIN2;FOS;IQGAP1;RELA;IGF1R;ADCY5;AKAP13;SLC9A3R1;CCND1;GIPC1;GNAQ;KPNA2;JAK2;NDUFV1;MEN1",24
"52","cone_dystrophy","24/86",0.0051120815438766,0.0183838317058639,0,0,1.69647275040645,8.9508423449295,"TFAP2A;CEBPA;CREBBP;THRA;FUS;LHB;STAT3;AIP;HMGA2;AXIN2;FOS;IQGAP1;RLBP1;RELA;IGF1R;ADCY5;AKAP13;SLC9A3R1;CCND1;GIPC1;GNAQ;KPNA2;JAK2;MEN1",24
"53","hiv","24/86",0.0051120815438766,0.0180369669566967,0,0,1.69647275040645,8.9508423449295,"TFAP2A;CEBPA;CREBBP;THRA;FUS;LHB;STAT3;AIP;HMGA2;AXIN2;FOS;IQGAP1;RELA;IGF1R;ADCY5;AKAP13;SLC9A3R1;CCND1;GIPC1;GNAQ;CCL2;KPNA2;JAK2;MEN1",24
"54","hypercholesterolemia","24/86",0.0051120815438766,0.0177029490500912,0,0,1.69647275040645,8.9508423449295,"TFAP2A;CEBPA;CREBBP;THRA;FUS;LHB;STAT3;AIP;HMGA2;AXIN2;FOS;IQGAP1;RELA;IGF1R;ADCY5;AKAP13;SLC9A3R1;CCND1;GIPC1;GNAQ;KPNA2;JAK2;LDLR;MEN1",24
"55","microcephaly","25/91",0.00539657740948263,0.0183483631922409,0,0,1.67006246033602,8.72105003409447,"CEBPA;THRA;LHB;IQGAP1;RELA;IGF1R;ADCY5;AKAP13;SLC9A3R1;CCND1;KPNA2;JAK2;MEN1;TFAP2A;CREBBP;FUS;STAT3;AIP;HMGA2;AXIN2;FOS;MYCN;SLC25A19;GIPC1;GNAQ",25
"56","orofacial_cleft","26/96",0.00565307161453826,0.0188772212842617,0,0,1.64640324214792,8.52105256185815,"CEBPA;THRA;SATB2;LHB;IQGAP1;RELA;IGF1R;ADCY5;AKAP13;SLC9A3R1;CCND1;UBB;MSX1;KPNA2;JAK2;MEN1;TFAP2A;CREBBP;FUS;STAT3;AIP;HMGA2;AXIN2;FOS;GIPC1;GNAQ",26
"57","hypotrichosis","24/87",0.00598140557266799,0.0196232077559458,0,0,1.67697306362017,8.58459229521741,"TFAP2A;CEBPA;CREBBP;THRA;FUS;LHB;STAT3;AIP;HMGA2;HR;AXIN2;FOS;IQGAP1;RELA;IGF1R;ADCY5;AKAP13;SLC9A3R1;CCND1;GIPC1;GNAQ;KPNA2;JAK2;MEN1",24
"58","major_affective_disorder","24/87",0.00598140557266799,0.0192848765877399,0,0,1.67697306362017,8.58459229521741,"TFAP2A;CEBPA;CREBBP;XBP1;THRA;FUS;LHB;STAT3;AIP;HMGA2;AXIN2;FOS;IQGAP1;RELA;IGF1R;ADCY5;AKAP13;SLC9A3R1;CCND1;GIPC1;GNAQ;KPNA2;JAK2;MEN1",24
"59","osteoporosis","24/87",0.00598140557266799,0.0189580142726934,0,0,1.67697306362017,8.58459229521741,"TFAP2A;CEBPA;CREBBP;THRA;FUS;LHB;STAT3;AIP;LRP5;HMGA2;AXIN2;FOS;IQGAP1;RELA;IGF1R;ADCY5;AKAP13;SLC9A3R1;CCND1;GIPC1;GNAQ;KPNA2;JAK2;MEN1",24
"60","xeroderma_pigmentosum","24/87",0.00598140557266799,0.0186420473681486,0,0,1.67697306362017,8.58459229521741,"TFAP2A;CEBPA;CREBBP;THRA;FUS;LHB;STAT3;AIP;HMGA2;AXIN2;FOS;IQGAP1;RELA;IGF1R;ADCY5;AKAP13;SLC9A3R1;CCND1;GIPC1;GNAQ;ERCC2;KPNA2;JAK2;MEN1",24
"61","bardet-biedl_syndrome","25/92",0.00627696205278618,0.0192424902273937,0,0,1.65190960750628,8.37661749224087,"CEBPA;THRA;LHB;IQGAP1;RELA;IGF1R;ADCY5;AKAP13;SLC9A3R1;CCND1;KPNA2;JAK2;MEN1;TFAP2A;BBS1;CREBBP;FUS;STAT3;AIP;HMGA2;AXIN2;FOS;GIPC1;GNAQ;MKS1",25
"62","adrenoleukodystrophy","23/83",0.00662799293865088,0.0199908819278664,0,0,1.68454974914857,8.45046505514332,"TFAP2A;CEBPA;CREBBP;THRA;FUS;LHB;STAT3;AIP;HMGA2;AXIN2;FOS;IQGAP1;RELA;IGF1R;ADCY5;AKAP13;SLC9A3R1;CCND1;GIPC1;GNAQ;KPNA2;JAK2;MEN1",23
"63","asperger_syndrome","23/83",0.00662799293865088,0.0196735663417097,0,0,1.68454974914857,8.45046505514332,"TFAP2A;CEBPA;CREBBP;THRA;FUS;LHB;STAT3;AIP;HMGA2;AXIN2;FOS;IQGAP1;RELA;IGF1R;ADCY5;AKAP13;SLC9A3R1;CCND1;GIPC1;GNAQ;KPNA2;JAK2;MEN1",23
"64","autoimmune_disease","23/83",0.00662799293865088,0.0193661668676205,0,0,1.68454974914857,8.45046505514332,"TFAP2A;CEBPA;CREBBP;THRA;FUS;LHB;STAT3;AIP;HMGA2;AXIN2;FOS;IQGAP1;RELA;IGF1R;ADCY5;AKAP13;SLC9A3R1;CCND1;GIPC1;GNAQ;KPNA2;JAK2;MEN1",23
"65","bartter_syndrome","23/83",0.00662799293865088,0.0190682258388879,0,0,1.68454974914857,8.45046505514332,"TFAP2A;CEBPA;CREBBP;THRA;FUS;LHB;STAT3;AIP;HMGA2;AXIN2;FOS;IQGAP1;RELA;IGF1R;ADCY5;AKAP13;SLC9A3R1;CCND1;GIPC1;GNAQ;KPNA2;JAK2;MEN1",23
"66","central_hypoventilation_syndrome","23/83",0.00662799293865088,0.0187793133261775,0,0,1.68454974914857,8.45046505514332,"TFAP2A;CEBPA;CREBBP;THRA;FUS;LHB;STAT3;AIP;HMGA2;AXIN2;FOS;IQGAP1;RELA;IGF1R;ADCY5;AKAP13;SLC9A3R1;CCND1;GIPC1;GNAQ;KPNA2;JAK2;MEN1",23
"67","dyskeratosis","23/83",0.00662799293865088,0.0184990250675778,0,0,1.68454974914857,8.45046505514332,"TFAP2A;CEBPA;CREBBP;THRA;FUS;LHB;STAT3;AIP;HMGA2;AXIN2;FOS;IQGAP1;RELA;IGF1R;ADCY5;AKAP13;SLC9A3R1;CCND1;GIPC1;GNAQ;KPNA2;JAK2;MEN1",23
"68","fetal_hemoglobin_quantitative_trait_locus","23/83",0.00662799293865088,0.0182269805812899,0,0,1.68454974914857,8.45046505514332,"TFAP2A;CEBPA;CREBBP;THRA;FUS;LHB;STAT3;AIP;HMGA2;AXIN2;FOS;IQGAP1;RELA;IGF1R;ADCY5;AKAP13;SLC9A3R1;CCND1;GIPC1;GNAQ;KPNA2;JAK2;MEN1",23
"69","goiter","23/83",0.00662799293865088,0.0179628214424306,0,0,1.68454974914857,8.45046505514332,"TFAP2A;CEBPA;CREBBP;THRA;FUS;LHB;STAT3;AIP;HMGA2;AXIN2;FOS;IQGAP1;RELA;IGF1R;ADCY5;AKAP13;SLC9A3R1;CCND1;GIPC1;GNAQ;KPNA2;JAK2;MEN1",23
"70","hemochromatosis","23/83",0.00662799293865088,0.0177062097075388,0,0,1.68454974914857,8.45046505514332,"TFAP2A;CEBPA;CREBBP;THRA;FUS;LHB;STAT3;AIP;HMGA2;AXIN2;FOS;IQGAP1;RELA;IGF1R;ADCY5;AKAP13;SLC9A3R1;CCND1;GIPC1;GNAQ;KPNA2;JAK2;MEN1",23
"71","homocystinuria","23/83",0.00662799293865088,0.0174568264722213,0,0,1.68454974914857,8.45046505514332,"TFAP2A;CEBPA;CREBBP;THRA;FUS;LHB;STAT3;AIP;HMGA2;AXIN2;FOS;IQGAP1;RELA;IGF1R;ADCY5;AKAP13;SLC9A3R1;CCND1;GIPC1;GNAQ;KPNA2;JAK2;MEN1",23
"72","keratosis","23/83",0.00662799293865088,0.017214370548996,0,0,1.68454974914857,8.45046505514332,"TFAP2A;CEBPA;CREBBP;THRA;FUS;LHB;STAT3;AIP;HMGA2;AXIN2;FOS;IQGAP1;RELA;IGF1R;ADCY5;AKAP13;SLC9A3R1;CCND1;GIPC1;GNAQ;KPNA2;JAK2;MEN1",23
"73","lymphoproliferative_syndrome","23/83",0.00662799293865088,0.0169785572538043,0,0,1.68454974914857,8.45046505514332,"TFAP2A;CEBPA;CREBBP;THRA;FUS;LHB;STAT3;AIP;HMGA2;AXIN2;FOS;IQGAP1;RELA;IGF1R;ADCY5;AKAP13;SLC9A3R1;CCND1;GIPC1;GNAQ;KPNA2;JAK2;MEN1",23
"74","malignant_hyperthermia","23/83",0.00662799293865088,0.0167491172909151,0,0,1.68454974914857,8.45046505514332,"TFAP2A;CEBPA;CREBBP;THRA;FUS;LHB;STAT3;AIP;HMGA2;AXIN2;FOS;IQGAP1;RELA;IGF1R;ADCY5;AKAP13;SLC9A3R1;CCND1;GIPC1;GNAQ;KPNA2;JAK2;MEN1",23
"75","mucopolysaccharidosis","23/83",0.00662799293865088,0.0165257957270362,0,0,1.68454974914857,8.45046505514332,"TFAP2A;CEBPA;CREBBP;THRA;FUS;LHB;STAT3;AIP;HMGA2;AXIN2;FOS;IQGAP1;RELA;IGF1R;ADCY5;AKAP13;SLC9A3R1;CCND1;GIPC1;GNAQ;KPNA2;JAK2;MEN1",23
"76","otosclerosis","23/83",0.00662799293865088,0.0163083510464173,0,0,1.68454974914857,8.45046505514332,"TFAP2A;CEBPA;CREBBP;THRA;FUS;LHB;STAT3;AIP;HMGA2;AXIN2;FOS;IQGAP1;RELA;IGF1R;ADCY5;AKAP13;SLC9A3R1;CCND1;GIPC1;GNAQ;KPNA2;JAK2;MEN1",23
"77","pheochromocytoma","23/83",0.00662799293865088,0.0160965542795807,0,0,1.68454974914857,8.45046505514332,"TFAP2A;CEBPA;CREBBP;THRA;FUS;LHB;STAT3;AIP;HMGA2;AXIN2;FOS;IQGAP1;RELA;IGF1R;ADCY5;AKAP13;SLC9A3R1;CCND1;GIPC1;GNAQ;KPNA2;JAK2;MEN1",23
"78","preeclampsia","23/83",0.00662799293865088,0.0158901881990733,0,0,1.68454974914857,8.45046505514332,"TFAP2A;CEBPA;CREBBP;THRA;FUS;LHB;STAT3;AIP;HMGA2;AXIN2;FOS;IQGAP1;RELA;IGF1R;ADCY5;AKAP13;SLC9A3R1;CCND1;GIPC1;GNAQ;KPNA2;JAK2;MEN1",23
"79","refsum_disease","23/83",0.00662799293865088,0.0156890465763002,0,0,1.68454974914857,8.45046505514332,"TFAP2A;CEBPA;CREBBP;THRA;FUS;LHB;STAT3;AIP;HMGA2;AXIN2;FOS;IQGAP1;RELA;IGF1R;ADCY5;AKAP13;SLC9A3R1;CCND1;GIPC1;GNAQ;KPNA2;JAK2;MEN1",23
"80","restless_legs_syndrome","23/83",0.00662799293865088,0.0154929334940964,0,0,1.68454974914857,8.45046505514332,"TFAP2A;CEBPA;CREBBP;THRA;FUS;LHB;STAT3;AIP;HMGA2;AXIN2;FOS;IQGAP1;RELA;IGF1R;ADCY5;AKAP13;SLC9A3R1;CCND1;GIPC1;GNAQ;KPNA2;JAK2;MEN1",23
"81","alopecia","24/88",0.00696932278895762,0.0160896711300627,0,0,1.65791655153357,8.23360688549601,"TFAP2A;CEBPA;CREBBP;THRA;FUS;LHB;STAT3;AIP;HMGA2;HR;AXIN2;FOS;IQGAP1;RELA;IGF1R;ADCY5;AKAP13;SLC9A3R1;CCND1;GIPC1;GNAQ;KPNA2;JAK2;MEN1",24
"82","ehlers-danlos","24/88",0.00696932278895762,0.0158934556284765,0,0,1.65791655153357,8.23360688549601,"TFAP2A;CEBPA;CREBBP;THRA;FUS;LHB;STAT3;AIP;HMGA2;AXIN2;FOS;IQGAP1;RELA;IGF1R;ADCY5;AKAP13;SLC9A3R1;CCND1;GIPC1;GNAQ;KPNA2;JAK2;B4GALT7;MEN1",24
"83","long_qt_syndrome","24/88",0.00696932278895762,0.015701968211266,0,0,1.65791655153357,8.23360688549601,"TFAP2A;CEBPA;CREBBP;KCNE2;THRA;FUS;LHB;STAT3;AIP;HMGA2;AXIN2;FOS;IQGAP1;RELA;IGF1R;ADCY5;AKAP13;SLC9A3R1;CCND1;GIPC1;GNAQ;KPNA2;JAK2;MEN1",24
"84","pancreatic_cancer","24/88",0.00696932278895762,0.0155150400182747,0,0,1.65791655153357,8.23360688549601,"TFAP2A;CEBPA;CREBBP;THRA;FUS;LHB;STAT3;AIP;HMGA2;AXIN2;FOS;IQGAP1;RELA;IGF1R;ADCY5;AKAP13;SLC9A3R1;CCND1;GIPC1;GNAQ;KPNA2;JAK2;TP53;MEN1",24
"85","thrombophilia","24/88",0.00696932278895762,0.0153325101357068,0,0,1.65791655153357,8.23360688549601,"TFAP2A;CEBPA;CREBBP;THRA;FUS;LHB;STAT3;AIP;HMGA2;PLAT;AXIN2;FOS;IQGAP1;RELA;IGF1R;ADCY5;AKAP13;SLC9A3R1;CCND1;GIPC1;GNAQ;KPNA2;JAK2;MEN1",24
"86","neuropathy","29/112",0.00715456966524745,0.0155570293883869,0,0,1.5740338688667,7.7757336278581,"CEBPA;THRA;HSPB8;LHB;IQGAP1;RELA;IGF1R;ADCY5;SLC9A3R1;AKAP13;CCND1;PRX;KPNA2;JAK2;MEN1;POLG;TFAP2A;CREBBP;FUS;STAT3;AIP;HMGA2;GP1BA;AXIN2;FOS;BSCL2;GNAQ;GIPC1;PMP22",29
"87","cardiomyopathy,_hypertrophic","25/93",0.00727272427783145,0.0156321774707412,0,0,1.63414713860836,8.04592660866243,"CEBPA;THRA;COX15;LHB;IQGAP1;RELA;IGF1R;ADCY5;AKAP13;SLC9A3R1;CCND1;KPNA2;JAK2;MEN1;TFAP2A;CREBBP;FUS;TPM1;STAT3;AIP;HMGA2;AXIN2;FOS;GIPC1;GNAQ",25
"88","amyloidosis","23/84",0.00773739055284587,0.0164419549247975,0,0,1.66449558546823,8.09226285137412,"TFAP2A;CEBPA;CREBBP;THRA;FUS;LHB;STAT3;AIP;HMGA2;AXIN2;FOS;IQGAP1;RELA;IGF1R;ADCY5;AKAP13;SLC9A3R1;CCND1;GIPC1;GNAQ;KPNA2;JAK2;MEN1",23
"89","body_mass_index","23/84",0.00773739055284587,0.0162572138582267,0,0,1.66449558546823,8.09226285137412,"TFAP2A;CEBPA;CREBBP;THRA;FUS;LHB;STAT3;AIP;HMGA2;AXIN2;FOS;IQGAP1;RELA;IGF1R;ADCY5;AKAP13;SLC9A3R1;CCND1;GIPC1;GNAQ;KPNA2;JAK2;MEN1",23
"90","colon_cancer","23/84",0.00773739055284587,0.0160765781486909,0,0,1.66449558546823,8.09226285137412,"TFAP2A;CEBPA;CREBBP;THRA;FUS;LHB;STAT3;AIP;HMGA2;AXIN2;FOS;IQGAP1;RELA;IGF1R;ADCY5;AKAP13;SLC9A3R1;CCND1;GIPC1;GNAQ;KPNA2;JAK2;MEN1",23
"91","dyslexia","23/84",0.00773739055284587,0.0158999124547492,0,0,1.66449558546823,8.09226285137412,"TFAP2A;CEBPA;CREBBP;THRA;FUS;LHB;STAT3;AIP;HMGA2;AXIN2;FOS;IQGAP1;RELA;IGF1R;ADCY5;AKAP13;SLC9A3R1;CCND1;GIPC1;GNAQ;KPNA2;JAK2;MEN1",23
"92","epiphyseal_dysplasia,_multiple","23/84",0.00773739055284587,0.0157270873193715,0,0,1.66449558546823,8.09226285137412,"TFAP2A;CEBPA;CREBBP;THRA;FUS;LHB;STAT3;AIP;HMGA2;AXIN2;FOS;IQGAP1;RELA;IGF1R;ADCY5;AKAP13;SLC9A3R1;CCND1;GIPC1;GNAQ;KPNA2;JAK2;MEN1",23
"93","hypoglycemia","23/84",0.00773739055284587,0.0155579788535718,0,0,1.66449558546823,8.09226285137412,"TFAP2A;CEBPA;CREBBP;THRA;FUS;LHB;STAT3;AIP;HMGA2;AXIN2;FOS;IQGAP1;RELA;IGF1R;ADCY5;AKAP13;SLC9A3R1;CCND1;GIPC1;GNAQ;KPNA2;JAK2;MEN1",23
"94","night_blindness","23/84",0.00773739055284587,0.0153924684402359,0,0,1.66449558546823,8.09226285137412,"TFAP2A;CEBPA;CREBBP;THRA;FUS;LHB;STAT3;AIP;HMGA2;AXIN2;FOS;IQGAP1;RELA;IGF1R;ADCY5;AKAP13;SLC9A3R1;CCND1;GIPC1;GNAQ;KPNA2;JAK2;MEN1",23
"95","ovarian_failure","23/84",0.00773739055284587,0.0152304424566545,0,0,1.66449558546823,8.09226285137412,"TFAP2A;CEBPA;CREBBP;THRA;FUS;LHB;STAT3;AIP;HMGA2;AXIN2;FOS;IQGAP1;RELA;IGF1R;ADCY5;AKAP13;SLC9A3R1;CCND1;GIPC1;GNAQ;KPNA2;JAK2;MEN1",23
"96","polydactyly","23/84",0.00773739055284587,0.0150717920143977,0,0,1.66449558546823,8.09226285137412,"TFAP2A;CEBPA;CREBBP;THRA;FUS;LHB;STAT3;AIP;HMGA2;AXIN2;FOS;IQGAP1;RELA;IGF1R;ADCY5;AKAP13;SLC9A3R1;CCND1;GIPC1;GNAQ;KPNA2;JAK2;MEN1",23
"97","pseudohypoaldosteronism","23/84",0.00773739055284587,0.0149164127152802,0,0,1.66449558546823,8.09226285137412,"TFAP2A;CEBPA;CREBBP;THRA;FUS;LHB;STAT3;AIP;HMGA2;AXIN2;FOS;IQGAP1;RELA;IGF1R;ADCY5;AKAP13;SLC9A3R1;CCND1;GIPC1;GNAQ;KPNA2;JAK2;MEN1",23
"98","sarcoma","23/84",0.00773739055284587,0.0147642044222671,0,0,1.66449558546823,8.09226285137412,"TFAP2A;CEBPA;CREBBP;THRA;FUS;LHB;STAT3;AIP;HMGA2;AXIN2;FOS;IQGAP1;RELA;IGF1R;ADCY5;AKAP13;SLC9A3R1;CCND1;GIPC1;GNAQ;KPNA2;JAK2;MEN1",23
"99","squamous_cell_carcinoma","23/84",0.00773739055284587,0.0146150710442644,0,0,1.66449558546823,8.09226285137412,"TFAP2A;CEBPA;CREBBP;THRA;FUS;LHB;STAT3;AIP;HMGA2;AXIN2;FOS;IQGAP1;RELA;IGF1R;ADCY5;AKAP13;SLC9A3R1;CCND1;GIPC1;GNAQ;KPNA2;JAK2;MEN1",23
"100","wilms_tumor","23/84",0.00773739055284587,0.0144689203338218,0,0,1.66449558546823,8.09226285137412,"TFAP2A;CEBPA;CREBBP;THRA;FUS;LHB;STAT3;AIP;HMGA2;AXIN2;FOS;IQGAP1;RELA;IGF1R;ADCY5;AKAP13;SLC9A3R1;CCND1;GIPC1;GNAQ;KPNA2;JAK2;MEN1",23
"101","alzheimer_disease","27/103",0.00777332955782029,0.0143922042308158,0,0,1.59353144273615,7.73987255764485,"APP;CEBPA;THRA;LHB;IQGAP1;RELA;IGF1R;ADCY5;SLC9A3R1;AKAP13;CCND1;APOE;KPNA2;JAK2;MEN1;TFAP2A;CREBBP;ACE;FUS;STAT3;AIP;HMGA2;AXIN2;FOS;GNAQ;GIPC1;BLMH",27
"102","bone_mineral_density","24/89",0.00808743441997512,0.0148269631032877,0,0,1.63928827567364,7.89717902202951,"TFAP2A;CEBPA;CREBBP;THRA;FUS;LHB;STAT3;AIP;LRP5;HMGA2;AXIN2;FOS;IQGAP1;RELA;IGF1R;ADCY5;AKAP13;SLC9A3R1;CCND1;GIPC1;GNAQ;KPNA2;JAK2;MEN1",24
"103","ciliary_dyskinesia","24/89",0.00808743441997512,0.0146830120051976,0,0,1.63928827567364,7.89717902202951,"TFAP2A;CEBPA;DNAI2;CREBBP;THRA;FUS;LHB;STAT3;AIP;HMGA2;AXIN2;FOS;IQGAP1;RELA;IGF1R;ADCY5;AKAP13;SLC9A3R1;CCND1;GIPC1;GNAQ;KPNA2;JAK2;MEN1",24
"104","fibrosis","24/89",0.00808743441997512,0.0145418291974553,0,0,1.63928827567364,7.89717902202951,"TFAP2A;CEBPA;CREBBP;TGFB1;THRA;FUS;LHB;STAT3;AIP;HMGA2;AXIN2;FOS;IQGAP1;RELA;IGF1R;ADCY5;AKAP13;SLC9A3R1;CCND1;GIPC1;GNAQ;KPNA2;JAK2;MEN1",24
"105","zellweger_syndrome","24/89",0.00808743441997512,0.0144033355860509,0,0,1.63928827567364,7.89717902202951,"PEX16;TFAP2A;CEBPA;CREBBP;THRA;FUS;LHB;STAT3;AIP;HMGA2;AXIN2;FOS;IQGAP1;RELA;IGF1R;ADCY5;AKAP13;SLC9A3R1;CCND1;GIPC1;GNAQ;KPNA2;JAK2;MEN1",24
"106","adenoma","22/80",0.00858903960937922,0.0151523623297539,0,0,1.67173252279635,7.95288022465826,"TFAP2A;CEBPA;CREBBP;THRA;FUS;LHB;STAT3;HMGA2;AXIN2;FOS;IQGAP1;RELA;IGF1R;ADCY5;AKAP13;SLC9A3R1;CCND1;GIPC1;GNAQ;KPNA2;JAK2;MEN1",22
"107","parkinson_disease","26/99",0.00866180816239401,0.0151379264146512,0,0,1.59651223481011,7.58156804336282,"CEBPA;THRA;LRRK2;LHB;IQGAP1;RELA;IGF1R;ADCY5;SLC9A3R1;AKAP13;CCND1;KPNA2;JAK2;MEN1;TFAP2A;CREBBP;FUS;STAT3;AIP;HMGA2;AXIN2;FOS;PINK1;GNAQ;GIPC1;MAPT",26
"108","joubert_syndrome","23/85",0.00899388665369721,0.0155727481874202,0,0,1.64491328446272,7.74953223260582,"TFAP2A;CEBPA;CREBBP;THRA;FUS;LHB;STAT3;AIP;HMGA2;AXIN2;FOS;IQGAP1;RELA;IGF1R;ADCY5;AKAP13;SLC9A3R1;CCND1;GIPC1;GNAQ;KPNA2;JAK2;MEN1",23
"109","leukoencephalopathy","23/85",0.00899388665369721,0.0154298789379943,0,0,1.64491328446272,7.74953223260582,"TFAP2A;CEBPA;CREBBP;THRA;FUS;LHB;STAT3;AIP;HMGA2;AXIN2;FOS;IQGAP1;RELA;IGF1R;ADCY5;AKAP13;SLC9A3R1;CCND1;GIPC1;GNAQ;KPNA2;JAK2;MEN1",23
"110","myasthenic_syndrome","23/85",0.00899388665369721,0.0152896073112853,0,0,1.64491328446272,7.74953223260582,"TFAP2A;CEBPA;CREBBP;THRA;FUS;LHB;STAT3;AIP;HMGA2;AXIN2;FOS;IQGAP1;RELA;IGF1R;ADCY5;AKAP13;SLC9A3R1;CCND1;GIPC1;GNAQ;KPNA2;JAK2;MEN1",23
"111","osteoarthritis","23/85",0.00899388665369721,0.0151518631012737,0,0,1.64491328446272,7.74953223260582,"TFAP2A;CEBPA;CREBBP;THRA;FUS;LHB;STAT3;AIP;HMGA2;AXIN2;FOS;IQGAP1;RELA;IGF1R;ADCY5;AKAP13;SLC9A3R1;CCND1;GIPC1;GNAQ;KPNA2;JAK2;MEN1",23
"112","renal_cell_carcinoma","23/85",0.00899388665369721,0.015016578609298,0,0,1.64491328446272,7.74953223260582,"TFAP2A;CEBPA;CREBBP;THRA;FUS;LHB;STAT3;AIP;HMGA2;AXIN2;FOS;IQGAP1;RELA;IGF1R;ADCY5;AKAP13;SLC9A3R1;CCND1;GIPC1;GNAQ;KPNA2;JAK2;MEN1",23
"113","rickets","23/85",0.00899388665369721,0.0148836885331095,0,0,1.64491328446272,7.74953223260582,"TFAP2A;CEBPA;CREBBP;THRA;FUS;LHB;STAT3;AIP;HMGA2;AXIN2;FOS;IQGAP1;RELA;IGF1R;ADCY5;AKAP13;SLC9A3R1;CCND1;GIPC1;GNAQ;KPNA2;JAK2;MEN1",23
"114","split-hand/foot_malformation","23/85",0.00899388665369721,0.0147531298617665,0,0,1.64491328446272,7.74953223260582,"TFAP2A;CEBPA;CREBBP;THRA;FUS;LHB;STAT3;AIP;HMGA2;AXIN2;FOS;IQGAP1;RELA;IGF1R;ADCY5;AKAP13;SLC9A3R1;CCND1;GIPC1;GNAQ;KPNA2;JAK2;MEN1",23
"115","thalassemia","23/85",0.00899388665369721,0.014624841776012,0,0,1.64491328446272,7.74953223260582,"TFAP2A;CEBPA;CREBBP;THRA;FUS;LHB;STAT3;AIP;HMGA2;AXIN2;FOS;IQGAP1;RELA;IGF1R;ADCY5;AKAP13;SLC9A3R1;CCND1;GIPC1;GNAQ;KPNA2;JAK2;MEN1",23
"116","waardenburg_syndrome","23/85",0.00899388665369721,0.014498765553805,0,0,1.64491328446272,7.74953223260582,"TFAP2A;CEBPA;CREBBP;THRA;FUS;LHB;STAT3;AIP;HMGA2;AXIN2;FOS;IQGAP1;RELA;IGF1R;ADCY5;AKAP13;SLC9A3R1;CCND1;GIPC1;GNAQ;KPNA2;JAK2;MEN1",23
"117","anomalies","24/90",0.00934787459102631,0.0149406200728369,0,0,1.62107396149949,7.57464036958804,"TFAP2A;CEBPA;FOXC1;CREBBP;THRA;FUS;LHB;STAT3;AIP;HMGA2;AXIN2;FOS;IQGAP1;RELA;IGF1R;ADCY5;AKAP13;SLC9A3R1;CCND1;GIPC1;GNAQ;KPNA2;JAK2;MEN1",24
"118","cdeficiency","24/90",0.00934787459102631,0.0148140046484908,0,0,1.62107396149949,7.57464036958804,"TFAP2A;CEBPA;CREBBP;THRA;FUS;LHB;STAT3;AIP;HMGA2;AXIN2;FOS;IQGAP1;RELA;IGF1R;ADCY5;AKAP13;SLC9A3R1;CCND1;GIPC1;GNAQ;CD59;KPNA2;JAK2;MEN1",24
"119","epidermolysis_bullosa","24/90",0.00934787459102631,0.0146895172144699,0,0,1.62107396149949,7.57464036958804,"TFAP2A;CEBPA;CREBBP;THRA;FUS;LHB;STAT3;AIP;HMGA2;AXIN2;FOS;IQGAP1;RELA;IGF1R;ADCY5;AKAP13;SLC9A3R1;CCND1;GIPC1;GNAQ;ITGA6;KPNA2;JAK2;MEN1",24
"120","hypogonadism","24/90",0.00934787459102631,0.014567104571016,0,0,1.62107396149949,7.57464036958804,"TFAP2A;CEBPA;CREBBP;THRA;FUS;LHB;STAT3;AIP;HMGA2;AXIN2;FOS;IQGAP1;RELA;IGF1R;ADCY5;AKAP13;SLC9A3R1;CCND1;GIPC1;GNAQ;KPNA2;JAK2;MEN1;FGFR1",24
"121","leber_amaurosis","24/90",0.00934787459102631,0.0144467152770407,0,0,1.62107396149949,7.57464036958804,"TFAP2A;CEBPA;CREBBP;THRA;FUS;LHB;STAT3;AIP;HMGA2;AXIN2;FOS;IQGAP1;RELA;IGF1R;ADCY5;AKAP13;SLC9A3R1;CCND1;IMPDH1;GIPC1;GNAQ;KPNA2;JAK2;MEN1",24
"122","melanoma","24/90",0.00934787459102631,0.0143282995780485,0,0,1.62107396149949,7.57464036958804,"TFAP2A;CEBPA;CREBBP;THRA;FUS;LHB;STAT3;AIP;HMGA2;AXIN2;FOS;IQGAP1;RELA;IGF1R;ADCY5;AKAP13;SLC9A3R1;CCND1;GIPC1;GNAQ;NF1;KPNA2;JAK2;MEN1",24
"123","macular_degeneration","25/95",0.00965426431048743,0.0146776213500906,0,0,1.59974404095345,7.42338116106116,"CEBPA;THRA;LHB;IQGAP1;RELA;IGF1R;ADCY5;CST3;AKAP13;SLC9A3R1;CCND1;APOE;KPNA2;JAK2;MEN1;TFAP2A;CREBBP;FUS;STAT3;AIP;HMGA2;AXIN2;FOS;GIPC1;GNAQ",25
"124","albinism","23/86",0.0104110553358397,0.0157005431274357,0,0,1.62578638580618,7.42153117696663,"TFAP2A;CEBPA;CREBBP;THRA;FUS;LHB;STAT3;AIP;HMGA2;AXIN2;FOS;IQGAP1;RELA;IGF1R;ADCY5;AKAP13;SLC9A3R1;CCND1;GIPC1;GNAQ;KPNA2;JAK2;MEN1",23
"125","attention-deficit_hyperactivity_disorder","23/86",0.0104110553358397,0.0155749387824162,0,0,1.62578638580618,7.42153117696663,"TFAP2A;CEBPA;CREBBP;THRA;FUS;LHB;STAT3;AIP;HMGA2;AXIN2;FOS;IQGAP1;RELA;IGF1R;ADCY5;AKAP13;SLC9A3R1;CCND1;GIPC1;GNAQ;KPNA2;JAK2;MEN1",23
"126","chondrodysplasia","23/86",0.0104110553358397,0.0154513281571589,0,0,1.62578638580618,7.42153117696663,"TFAP2A;CEBPA;CREBBP;THRA;FUS;LHB;STAT3;AIP;HMGA2;AXIN2;FOS;IQGAP1;RELA;IGF1R;ADCY5;AKAP13;SLC9A3R1;CCND1;GIPC1;GNAQ;KPNA2;JAK2;MEN1",23
"127","coloboma","23/86",0.0104110553358397,0.0153296641559215,0,0,1.62578638580618,7.42153117696663,"TFAP2A;CEBPA;CREBBP;THRA;FUS;LHB;STAT3;AIP;HMGA2;AXIN2;FOS;IQGAP1;RELA;IGF1R;ADCY5;AKAP13;SLC9A3R1;CCND1;GIPC1;GNAQ;KPNA2;JAK2;MEN1",23
"128","coronary_heart_disease","23/86",0.0104110553358397,0.0152099011547033,0,0,1.62578638580618,7.42153117696663,"TFAP2A;CEBPA;CREBBP;THRA;FUS;LHB;STAT3;AIP;HMGA2;AXIN2;FOS;IQGAP1;RELA;IGF1R;ADCY5;AKAP13;SLC9A3R1;CCND1;GIPC1;GNAQ;KPNA2;JAK2;MEN1",23
"129","holoprosencephaly","23/86",0.0104110553358397,0.0150919949442017,0,0,1.62578638580618,7.42153117696663,"TFAP2A;CEBPA;CREBBP;THRA;FUS;LHB;STAT3;AIP;HMGA2;AXIN2;FOS;IQGAP1;RELA;IGF1R;ADCY5;AKAP13;SLC9A3R1;CCND1;GIPC1;GNAQ;KPNA2;JAK2;MEN1",23
"130","hypothyroidism","23/86",0.0104110553358397,0.0149759026754002,0,0,1.62578638580618,7.42153117696663,"TFAP2A;CEBPA;CREBBP;THRA;FUS;LHB;STAT3;AIP;HMGA2;AXIN2;FOS;IQGAP1;RELA;IGF1R;ADCY5;AKAP13;SLC9A3R1;CCND1;GIPC1;GNAQ;KPNA2;JAK2;MEN1",23
"131","multiple_sclerosis","23/86",0.0104110553358397,0.014861582807649,0,0,1.62578638580618,7.42153117696663,"TFAP2A;CEBPA;CREBBP;THRA;FUS;LHB;STAT3;AIP;HMGA2;AXIN2;FOS;IQGAP1;RELA;IGF1R;ADCY5;AKAP13;SLC9A3R1;CCND1;GIPC1;GNAQ;KPNA2;JAK2;MEN1",23
"132","spinal_muscular_atrophy","23/86",0.0104110553358397,0.0147489950591062,0,0,1.62578638580618,7.42153117696663,"TFAP2A;CEBPA;CREBBP;THRA;FUS;LHB;STAT3;AIP;HMGA2;AXIN2;FOS;IQGAP1;RELA;IGF1R;ADCY5;AKAP13;SLC9A3R1;CCND1;GIPC1;GNAQ;KPNA2;JAK2;MEN1",23
"133","tuberculosis","23/86",0.0104110553358397,0.0146381003594137,0,0,1.62578638580618,7.42153117696663,"TFAP2A;CEBPA;CREBBP;THRA;FUS;LHB;STAT3;AIP;HMGA2;AXIN2;FOS;IQGAP1;RELA;IGF1R;ADCY5;AKAP13;SLC9A3R1;CCND1;GIPC1;GNAQ;KPNA2;JAK2;MEN1",23
"134","lateral_sclerosis","25/96",0.0110631365959015,0.0154388548017431,0,0,1.58308004052685,7.13040894901143,"CEBPA;THRA;LHB;IQGAP1;RELA;IGF1R;ADCY5;AKAP13;SLC9A3R1;CCND1;KPNA2;JAK2;MEN1;TFAP2A;CREBBP;FUS;STAT3;AIP;HMGA2;AXIN2;FOS;SOD1;GIPC1;GNAQ;CHMP2B",25
"135","diabetes_mellitus,_type_2","27/106",0.0115223695290427,0.0159606155698591,0,0,1.54843149624362,6.91136972114871,"CEBPA;THRA;LHB;IRS2;IQGAP1;RELA;IGF1R;ADCY5;SLC9A3R1;AKAP13;CCND1;AKT2;KPNA2;JAK2;MEN1;TFAP2A;TCF7L2;CREBBP;FUS;STAT3;AIP;HMGA2;AXIN2;FOS;MAPK8IP1;GNAQ;GIPC1",27
"136","hirschsprung_disease","23/87",0.0120029625631748,0.0165040735243653,0,0,1.60709918596933,7.10755971953941,"TFAP2A;CEBPA;CREBBP;THRA;FUS;LHB;STAT3;AIP;HMGA2;AXIN2;FOS;IQGAP1;RELA;IGF1R;ADCY5;AKAP13;SLC9A3R1;CCND1;GIPC1;GNAQ;KPNA2;JAK2;MEN1",23
"137","macular_dystrophy","23/87",0.0120029625631748,0.0163836058344065,0,0,1.60709918596933,7.10755971953941,"TFAP2A;CEBPA;CREBBP;THRA;FUS;LHB;STAT3;AIP;HMGA2;AXIN2;FOS;IQGAP1;RELA;IGF1R;ADCY5;AKAP13;SLC9A3R1;CCND1;GIPC1;GNAQ;KPNA2;JAK2;MEN1",23
"138","nephropathy","23/87",0.0120029625631748,0.0162648840529977,0,0,1.60709918596933,7.10755971953941,"TFAP2A;CEBPA;CREBBP;THRA;FUS;LHB;STAT3;AIP;HMGA2;AXIN2;FOS;IQGAP1;RELA;IGF1R;ADCY5;AKAP13;SLC9A3R1;CCND1;GIPC1;GNAQ;KPNA2;JAK2;MEN1",23
"139","thrombocytopenia","23/87",0.0120029625631748,0.0161478704986596,0,0,1.60709918596933,7.10755971953941,"TFAP2A;CEBPA;CREBBP;THRA;FUS;LHB;STAT3;AIP;HMGA2;AXIN2;FOS;IQGAP1;RELA;IGF1R;ADCY5;AKAP13;SLC9A3R1;CCND1;GIPC1;GNAQ;KPNA2;JAK2;MEN1",23
"140","lung_cancer","25/97",0.0126334902063846,0.0168747333470995,0,0,1.56675962773791,6.84893936365593,"CEBPA;THRA;LHB;IQGAP1;RELA;IGF1R;ADCY5;SLC9A3R1;AKAP13;RASSF1;CCND1;KPNA2;JAK2;MEN1;TFAP2A;CREBBP;FUS;STAT3;AIP;HMGA2;AXIN2;FOS;GNAQ;GIPC1;IRF1",25
"141","prostate_cancer","27/107",0.0130562110211832,0.0173156841202926,0,0,1.53396017384882,6.65507289657966,"CEBPA;THRA;LHB;PTEN;IQGAP1;RELA;IGF1R;ADCY5;SLC9A3R1;AKAP13;CCND1;MXI1;KPNA2;JAK2;MEN1;TFAP2A;CREBBP;FUS;ELAC2;STAT3;AIP;HMGA2;AXIN2;FOS;KLF6;GNAQ;GIPC1",27
"142","usher_syndrome","23/88",0.0137840985801608,0.0181522988344371,0,0,1.58883669521967,6.80695713208108,"TFAP2A;CEBPA;CREBBP;THRA;FUS;LHB;STAT3;AIP;HMGA2;AXIN2;FOS;IQGAP1;RELA;IGF1R;ADCY5;AKAP13;SLC9A3R1;CCND1;GIPC1;GNAQ;KPNA2;JAK2;MEN1",23
"143","glaucoma","24/93",0.0141115219849676,0.018453528749573,0,0,1.56878125306403,6.68420614293748,"TFAP2A;CEBPA;FOXC1;CREBBP;THRA;FUS;LHB;STAT3;AIP;HMGA2;AXIN2;FOS;IQGAP1;RELA;IGF1R;ADCY5;AKAP13;SLC9A3R1;CCND1;GIPC1;GNAQ;KPNA2;JAK2;MEN1",24
"144","myocardial_infarction","24/93",0.0141115219849676,0.0183253792443676,0,0,1.56878125306403,6.68420614293748,"TFAP2A;CEBPA;CREBBP;THRA;FUS;LHB;STAT3;AIP;HMGA2;AXIN2;FOS;IQGAP1;RELA;IGF1R;ADCY5;AKAP13;SLC9A3R1;CCND1;GIPC1;GNAQ;APOE;KPNA2;JAK2;MEN1",24
"145","psoriasis","23/89",0.0157693017684646,0.0203369615910544,0,0,1.57098459752058,6.51909931786989,"TFAP2A;CEBPA;CREBBP;THRA;FUS;LHB;STAT3;AIP;HMGA2;AXIN2;FOS;IQGAP1;RELA;IGF1R;ADCY5;AKAP13;SLC9A3R1;CCND1;GIPC1;GNAQ;KPNA2;JAK2;MEN1",23
"146","dystonia","24/94",0.0160715718580168,0.0205848214893777,0,0,1.55209209079739,6.41123190711678,"TFAP2A;CEBPA;CREBBP;THRA;FUS;LHB;STAT3;AIP;ATP1A3;HMGA2;AXIN2;FOS;IQGAP1;RELA;IGF1R;ADCY5;AKAP13;SLC9A3R1;CCND1;GIPC1;GNAQ;KPNA2;JAK2;MEN1",24
"147","ichthyosis","24/94",0.0160715718580168,0.0204447886901302,0,0,1.55209209079739,6.41123190711678,"TFAP2A;CEBPA;CREBBP;THRA;FUS;LHB;STAT3;AIP;HMGA2;AXIN2;FOS;IQGAP1;KRT10;RELA;IGF1R;ADCY5;AKAP13;SLC9A3R1;CCND1;GIPC1;GNAQ;KPNA2;JAK2;MEN1",24
"148","muscular_dystrophy","27/109",0.0166150058898044,0.0209932844688745,0,0,1.50581411561306,6.16999657636924,"CEBPA;THRA;LHB;IQGAP1;RELA;IGF1R;ADCY5;SLC9A3R1;AKAP13;CCND1;SGCA;LMNA;KPNA2;JAK2;MEN1;TFAP2A;CREBBP;FKRP;FUS;STAT3;AIP;HMGA2;AXIN2;FOS;GNAQ;GIPC1;COL6A2",27
"149","rheumatoid_arthritis","23/90",0.0179736744243457,0.0225575645459909,0,0,1.55352921310368,6.24339640952676,"TFAP2A;CEBPA;CREBBP;THRA;FUS;LHB;STAT3;AIP;HMGA2;AXIN2;FOS;IQGAP1;RELA;IGF1R;ADCY5;AKAP13;SLC9A3R1;CCND1;GIPC1;GNAQ;KPNA2;JAK2;MEN1",23
"150","immunodeficiency","26/105",0.0185780192612679,0.023160597345714,0,0,1.50528296424953,5.99972094880384,"CEBPA;THRA;LHB;IQGAP1;RELA;IGF1R;ADCY5;SLC9A3R1;AKAP13;CCND1;IKBKG;KPNA2;JAK2;MEN1;TFAP2A;STAT5B;CREBBP;FUS;STAT3;AIP;HMGA2;AXIN2;FOS;NFKBIA;GNAQ;GIPC1",26
"151","celiac_disease","23/91",0.0204124911562932,0.0252790453392506,0,0,1.53645746350914,5.97929054681251,"TFAP2A;CEBPA;CREBBP;THRA;FUS;LHB;STAT3;AIP;HMGA2;AXIN2;FOS;IQGAP1;RELA;IGF1R;ADCY5;AKAP13;SLC9A3R1;CCND1;GIPC1;GNAQ;KPNA2;JAK2;MEN1",23
"152","convulsions","23/91",0.0204124911562932,0.0251127358304397,0,0,1.53645746350914,5.97929054681251,"TFAP2A;CEBPA;CREBBP;THRA;FUS;LHB;STAT3;AIP;HMGA2;AXIN2;FOS;IQGAP1;RELA;IGF1R;ADCY5;AKAP13;SLC9A3R1;CCND1;GIPC1;GNAQ;KPNA2;JAK2;MEN1",23
"153","corneal_dystrophy","23/91",0.0204124911562932,0.0249486003021362,0,0,1.53645746350914,5.97929054681251,"TFAP2A;CEBPA;CREBBP;THRA;FUS;LHB;STAT3;AIP;HMGA2;AXIN2;FOS;IQGAP1;RELA;IGF1R;ADCY5;AKAP13;SLC9A3R1;CCND1;GIPC1;GNAQ;KPNA2;JAK2;MEN1",23
"154","malaria","23/91",0.0204124911562932,0.0247865964040703,0,0,1.53645746350914,5.97929054681251,"TFAP2A;CEBPA;CREBBP;THRA;FUS;LHB;STAT3;AIP;HMGA2;AXIN2;FOS;IQGAP1;RELA;IGF1R;ADCY5;AKAP13;SLC9A3R1;CCND1;GIPC1;GNAQ;KPNA2;JAK2;MEN1",23
"155","autism","24/96",0.0206333627513051,0.0248931537709294,0,0,1.51975683890577,5.89794219180983,"TFAP2A;CEBPA;CREBBP;THRA;FUS;LHB;STAT3;PTEN;AIP;HMGA2;AXIN2;FOS;IQGAP1;RELA;IGF1R;ADCY5;AKAP13;SLC9A3R1;CCND1;GIPC1;GNAQ;KPNA2;JAK2;MEN1",24
"156","hypertension","26/106",0.0208711073732984,0.0250185710179923,0,0,1.49108218156793,5.76957773516038,"CEBPA;THRA;LHB;NPR3;ECE1;IQGAP1;RELA;ADD1;IGF1R;ADCY5;SLC9A3R1;AKAP13;CCND1;KPNA2;JAK2;MEN1;TFAP2A;CREBBP;FUS;STAT3;AIP;HMGA2;AXIN2;FOS;GNAQ;GIPC1",26
"157","colorectal_cancer","27/111",0.02090366733921,0.0248979986779126,0,0,1.47868232974616,5.7192928582372,"CEBPA;THRA;LHB;IQGAP1;RELA;IGF1R;ADCY5;SLC9A3R1;AKAP13;FLCN;CCND1;KPNA2;JAK2;MEN1;TFAP2A;CREBBP;FUS;STAT3;AIP;HMGA2;AXIN2;FOS;GNAQ;GIPC1;BAX;TP53;FGFR3",27
"158","cholesterol_level","23/92",0.0231011006510009,0.0273411760869441,0,0,1.51975683890577,5.72625382273557,"TFAP2A;CEBPA;CREBBP;THRA;FUS;LHB;STAT3;AIP;HMGA2;AXIN2;FOS;IQGAP1;RELA;IGF1R;ADCY5;AKAP13;SLC9A3R1;CCND1;GIPC1;GNAQ;KPNA2;JAK2;MEN1",23
"159","cone-rod_dystrophy","23/92",0.0231011006510009,0.0271692190046363,0,0,1.51975683890577,5.72625382273557,"TFAP2A;CEBPA;CREBBP;THRA;FUS;LHB;STAT3;AIP;HMGA2;AXIN2;FOS;IQGAP1;RELA;IGF1R;ADCY5;AKAP13;SLC9A3R1;CCND1;GIPC1;GNAQ;KPNA2;JAK2;MEN1",23
"160","myopia","23/92",0.0231011006510009,0.0269994113858573,0,0,1.51975683890577,5.72625382273557,"TFAP2A;CEBPA;CREBBP;THRA;FUS;LHB;STAT3;AIP;HMGA2;AXIN2;FOS;IQGAP1;RELA;IGF1R;ADCY5;AKAP13;SLC9A3R1;CCND1;GIPC1;GNAQ;KPNA2;JAK2;MEN1",23
"161","migraine","23/93",0.0260548217291728,0.0302624326916479,0,0,1.50341536751969,5.48378638121662,"TFAP2A;CEBPA;CREBBP;THRA;FUS;LHB;STAT3;AIP;HMGA2;AXIN2;FOS;IQGAP1;RELA;IGF1R;ADCY5;AKAP13;SLC9A3R1;CCND1;GIPC1;GNAQ;KPNA2;JAK2;MEN1",23
"162","cataract","29/124",0.0284008779011769,0.0327837294291363,0,0,1.42170801058927,5.06317881390845,"CEBPA;THRA;LHB;CRYBA1;IQGAP1;RELA;IGF1R;ADCY5;SLC9A3R1;AKAP13;CCND1;OPA3;KPNA2;JAK2;MEN1;TFAP2A;CREBBP;FUS;STAT3;AIP;SLC16A12;HMGA2;AXIN2;FOS;MIP;GNAQ;GIPC1;CRYAB;GALK1",29
"163","spastic_paraplegia","26/109",0.0290919474762439,0.0333754244052614,0,0,1.45004322244221,5.12922899056496,"CEBPA;THRA;LHB;IQGAP1;RELA;IGF1R;ADCY5;SLC9A3R1;AKAP13;ZFYVE27;CCND1;KIF5A;KPNA2;JAK2;MEN1;TFAP2A;CREBBP;FUS;STAT3;AIP;NIPA1;HMGA2;AXIN2;FOS;GNAQ;GIPC1",26
"164","lymphoma","24/99",0.0292929350451859,0.0334010905698157,0,0,1.47370360136318,5.20277633493162,"TFAP2A;CEBPA;CREBBP;THRA;FUS;LHB;STAT3;AIP;HMGA2;IQGAP1;AXIN2;FOS;RELA;IGF1R;ADCY5;SLC9A3R1;AKAP13;CCND1;BCL6;GNAQ;GIPC1;KPNA2;JAK2;MEN1",24
"165","aneurysm","23/95",0.0328180690058401,0.0371938115399521,0,0,1.47176451767717,5.02868972720015,"TFAP2A;CEBPA;CREBBP;THRA;FUS;LHB;STAT3;AIP;HMGA2;AXIN2;FOS;IQGAP1;RELA;IGF1R;ADCY5;AKAP13;SLC9A3R1;CCND1;GIPC1;GNAQ;KPNA2;JAK2;MEN1",23
"166","microphthalmia","23/96",0.0366570885750233,0.0412944311055986,0,0,1.4564336372847,4.81518582214101,"TFAP2A;CEBPA;CREBBP;THRA;FUS;LHB;STAT3;AIP;HMGA2;AXIN2;FOS;IQGAP1;RELA;IGF1R;ADCY5;AKAP13;SLC9A3R1;CCND1;GIPC1;GNAQ;KPNA2;JAK2;MEN1",23
"167","blood","26/113",0.0436339875279211,0.0488596147767739,0,0,1.39871425881593,4.38065962546757,"CEBPA;CD151;THRA;LHB;IQGAP1;RELA;IGF1R;ADCY5;SLC9A3R1;AKAP13;CCND1;BSG;KPNA2;JAK2;MEN1;TFAP2A;CREBBP;FUS;STAT3;AIP;HMGA2;AXIN2;FOS;GNAQ;GIPC1;CD44",26
"168","diabetes_mellitus,_type_1","24/103",0.0448136864279695,0.049881900964466,0,0,1.41647239354325,4.39848912292175,"TFAP2A;CEBPA;CREBBP;THRA;FUS;LHB;STAT3;AIP;HMGA2;SUMO4;IQGAP1;AXIN2;FOS;RELA;IGF1R;ADCY5;SLC9A3R1;AKAP13;CCND1;GNAQ;GIPC1;KPNA2;JAK2;MEN1",24
