"","Term","Overlap","P.value","Adjusted.P.value","Old.P.value","Old.Adjusted.P.value","Odds.Ratio","Combined.Score","Genes","Overlap_Number"
"1","spinal_cord","59/353",0.555961024351634,1,0,0,0.990158828188983,0.581279757616914,"ACHE;SLC44A1;DIRAS1;PLEKHB1;HDAC11;MAST1;AATK;FAIM2;GPR62;HAPLN2;FGF9;HABP4;DIP2A;APC2;TSC22D4;RNF208;ATP1B2;VWA5B2;MAPK8IP2;MAPK8IP3;RUNDC3A;EML2;MAPK8IP1;STX1B;KATNAL1;PACS2;VAMP1;ARHGEF4;FAM181B;FLYWCH1;MAPT;RELL2;BRSK1;TMPRSS5;CABP7;USP54;NXPH4;HSPA4L;SEZ6L2;TTBK2;SLC25A27;GJC3;ZFP14;EFNB3;CASKIN1;APOD;FAM43B;WASF3;ABCA2;MYPOP;WSCD1;IQSEC1;TNK2;HAGHL;LIMK1;GFAP;NFASC;EZH1;HCN2",59
"2","hippocampus","23/176",0.931360234430373,1,0,0,0.774181387333046,0.0550513755613392,"HRK;BRSK1;ROBO3;RIC3;CNTNAP1;KSR1;CTTNBP2;CABP7;CPNE7;PLEKHG5;CAMK2A;LIN7B;CAMKK1;DDN;SLC4A8;GJC3;EFNA2;FAM131A;PTK2B;SLC17A7;TBKBP1;PLXNA4;CDK5R1",23
"3","mammary_gland_non-lactating","25/201",0.96691097887715,1,0,0,0.73683714130768,0.0247937201129812,"NOTCH3;FITM1;ATP2A1;SLC2A4;KCNA7;NDRG2;TOB1;GOLGA4;PDLIM3;PDK4;TMEM38A;SCN1B;STAT5B;PSPN;KSR1;ACTN2;FZD9;STAC3;COBL;SYPL2;PLIN4;TCAP;SCN4A;TRIM54;SMTNL1",25
"4","cerebral_cortex_prefrontal","44/344",0.985252604074942,1,0,0,0.757742753223851,0.0112579506747234,"CYFIP2;HRK;RTN4R;BRSK1;CRTC1;CAMK2A;DTX1;FBLL1;SOBP;LIN7B;SYNGR1;SIPA1L1;BCL7A;CAMK2N1;CREG2;KCNMB4;BSN;MARK4;GRASP;RGS6;B4GALNT4;PRRT1;MEF2C;FBXW7;LMO4;KCNJ9;TTC7B;VPS37D;TTC9B;RUNDC3A;SRCIN1;PGM2L1;SYT17;CACNB1;ARHGAP32;IRGQ;EFNA3;DAAM1;RIMBP2;ARHGEF4;SPIRE1;APBA2;GAS8;R3HDM2",44
"5","spleen","9/100",0.991854483558726,1,0,0,0.533175355450237,0.00436077320878301,"ST6GAL1;ACAP1;AKNA;SLC40A1;DTX1;PRKD2;DLL1;KAZALD1;ARHGAP4",9
"6","B-cells_GL7_positive_Alum","13/142",0.997126762614286,1,0,0,0.542353647954075,0.00156055377344232,"KHNYN;PLEKHA2;WHRN;HDAC11;EIF2AK3;KLHL24;IFFO1;PPM1A;PTP4A3;ABLIM1;CARNS1;NEIL1;ORAOV1",13
"7","osteoclasts","9/110",0.997340460642599,1,0,0,0.484704868591124,0.0012908089151523,"ABCD4;SLC37A2;TFRC;EYA1;UBN2;NCKAP5L;STARD9;HBP1;GPR137B",9
"8","ovary","14/153",0.997891360112391,1,0,0,0.542080971409101,0.00114426039961774,"OVGP1;TLE2;TMEM86A;INHBB;FOXL2;HSD17B7;SERPINA5;SULF2;GDF9;LBX2;GRB14;HOXC4;ZP3;INHA",14
"9","lung","41/354",0.997985608517461,1,0,0,0.686132754973626,0.00138353393530814,"DOCK6;CLIC5;NOTCH3;RAMP2;COL13A1;PDGFB;LTBP4;SEMA3G;ADRB2;AGER;DLL1;RASIP1;THBS3;HDAC7;DLL4;PDZD2;ATP7B;SNX25;PRX;S1PR1;BEND7;EGFL7;FOXF2;NEBL;ABCA3;TIE1;STARD9;MTUS1;SHROOM3;NPNT;DUSP7;ACER2;RNF144A;BCAM;PTPRB;CYP1A1;CDHR3;PECAM1;CHI3L1;TRIM16;TEK",41
"10","mast_cells_IgE+antigen_1hr","28/265",0.998650263751719,1,0,0,0.62595010283466,0.000845438231161583,"CDKN1A;SHC2;SLC44A1;CAMK2A;TMEM51;CHD2;ARHGAP6;NDRG1;INPP5D;LEPR;SLC26A11;HAVCR2;KLHDC2;KDM6B;PLK3;JUND;CISH;DENND4A;LIMK1;COBL;NSUN6;CSNK1E;RSBN1;TTC39B;IL4;BMP2K;PRKD2;TSSK3",28
"11","macrophage_peri_LPS_thio_0hrs","39/353",0.999242779198926,1,0,0,0.654511767785938,0.000495797662966131,"STEAP3;TTYH2;IDUA;LIPA;LITAF;PLD3;KLC4;SYNGR1;ADAMTSL5;LONRF3;CIC;AMZ1;ATP6V0A1;VAT1;IQSEC1;ABCC5;NCKAP5L;DENND2A;RPS6;ARID3A;RENBP;ARHGAP25;GPR137B;MARCH2;SPSB2;SLC6A8;P2RX4;NPC1;SESTD1;NINJ1;IL3RA;PLEKHM1;PLIN2;HPSE;RGL2;ABCG1;SKAP2;LGMN;DNASE1L1",39
"12","adipose_white","18/199",0.999490890621641,1,0,0,0.535854628593203,0.000272878085145649,"CFD;AOC3;ST6GAL1;USP20;RNASE10;CIRBP;NAV2;LTC4S;CLU;FUT1;TPST2;SNAPC4;AP1S2;PLIN4;TCTEX1D4;GLUL;ENPP5;CCNO",18
"13","iris","10/133",0.999508917846385,1,0,0,0.445426362113815,0.000218794664659628,"EYA1;PTCH2;SEMA3B;PAX3;HPSE;AXIN2;APCDD1;WNT16;RAPGEF3;C2",10
"14","intestine_large","41/374",0.999536326396226,1,0,0,0.649441163798565,0.000301198559166033,"AHCYL2;SLC44A1;ITGB4;GPR20;ATP12A;PLD1;FUT2;HOXA13;KRTCAP3;FAM102A;NLRP6;ERBB3;CLMN;HOXA3;FUK;HGFAC;ATOH1;PLA2G2F;CGREF1;EDN2;SLC37A1;TNK1;MBOAT1;SHROOM3;SDCBP2;MAPK13;DOPEY2;CLDN3;DNMBP;CLDN15;B3GNT7;MYO15B;ETHE1;MYO5B;SERHL;CDHR5;TRIM16;DEGS2;FOXA3;TJP3;LLGL2",41
"15","olfactory_bulb","46/414",0.99964898697119,1,0,0,0.658241179568194,0.000231091790615472,"RAB3B;GRIA2;HDAC5;CTTNBP2;CPNE7;AMIGO1;NXPH4;ICAM5;RFNG;ENO2;HDAC9;ELAVL3;C1QTNF4;TRIM9;STOX2;SEC14L1;SIPA1L1;PDZD2;SNRNP70;INPP5J;PDE4A;SLC25A23;ATXN7L2;PPARGC1A;GRASP;RAB11FIP4;LRRC4B;SEMA6B;EPHA5;KCNH3;SRRM3;GAD1;NAV2;DUSP8;LEMD1;GRIP2;STX1B;GPRC5B;NOVA2;STAC2;S100A5;MAP3K10;SPIRE1;FAM181B;SERPINI1;CDK5R1",46
"16","hypothalamus","30/296",0.999650288473204,1,0,0,0.600422697579096,0.000210011462148853,"ACHE;PNCK;FRMPD3;HDAC11;MAST1;OPRL1;FAIM2;SALL2;FAM120B;KIF5A;AP1S2;HCRT;FEZF1;RHBDL1;APC2;RHBDD2;GAA;VPS13C;FBXO10;SYNGR3;FRS3;TMEM130;BAIAP3;PPM1A;SLC4A8;PITPNM1;IGDCC3;FLYWCH1;HAP1;ASTN1",30
"17","common_myeloid_progenitor","4/80",0.999687540045586,1,0,0,0.296208530805687,9.25677666457944e-05,"EYA1;TMPRSS3;PLA2G6;ASB16",4
"18","dendritic_cells_myeloid_CD8a-","16/188",0.999700453553336,1,0,0,0.504184733286276,0.00015104936959854,"BTG2;BATF3;GPR35;ROGDI;TRAPPC5;CIB2;TBC1D9;SLCO5A1;AP4B1;ZGLP1;AP1S2;FBRSL1;BMF;PPFIA4;AMZ1;SKAP2",16
"19","mast_cells_IgE+antigen_6hr","11/146",0.999704154239603,1,0,0,0.446341621761994,0.000132067813301933,"PRKCB;ANKRD44;TMEM51;AHRR;FRMD4A;CSNK1E;TUBG2;ARHGAP6;IKZF5;CDK5RAP2;TTC39B",11
"20","adrenal_gland","22/245",0.999871931077273,1,0,0,0.531966341038785,6.81327191590159e-05,"SRRM2;RIC3;SCARB1;NFAT5;TLE2;RALGAPA1;DHDH;LTBP3;CACNA1H;HERC4;PPM1A;LBX2;FDXR;ST3GAL5;EFHD1;MALAT1;DHCR7;MAN2C1;STEAP2;ISCU;MAP2K5;CHGB",22
"21","bone","11/157",0.999918521754334,1,0,0,0.415069278835995,3.38204945055196e-05,"MARCH2;ALAS2;TFRC;FAM46C;COL11A2;LEPR;RANBP10;SLC40A1;TMCC2;IFITM5;MAP2K5",11
"22","osteoblast_day5","13/175",0.999921622724319,1,0,0,0.44008124576845,3.44937209011516e-05,"MYOG;LRRC56;BTBD19;RGS16;PCGF2;ZBTB1;IER5L;SULF1;TDRD3;CYB5R1;CCND2;AUH;GLIPR2",13
"23","nucleus_accumbens","39/383",0.999927843515911,1,0,0,0.603244527489389,4.35295746392381e-05,"NLGN3;CAMK2B;GRIA2;CPNE5;THRA;CRTC1;CHRM4;AKAP8L;ICAM5;DDN;JPH4;C1QTNF4;PDZD4;SIPA1L1;EFNB3;PDZD2;FAM184B;GNG7;PAK6;DIP2C;SH2D5;REM2;PSD;APC2;NANOS1;CDADC1;KCNIP2;FBXL16;DUSP8;BAIAP2;HEXDC;GPRIN3;CACNB1;ARHGAP32;DLG4;NOVA2;PITPNM2;SGSM2;LHX6",39
"24","lymph_nodes","4/90",0.999928803974173,1,0,0,0.263296471827278,1.87463297482786e-05,"SLC4A8;LEPR;PELI1;JAK3",4
"25","uterus","9/141",0.999937772325642,1,0,0,0.378138549964707,2.35314147097505e-05,"LAMA5;MAF;TNXB;LTBP4;MICAL3;REV3L;RGL3;HOXA11;THBS3",9
"26","mammary_gland__lact","5/104",0.999954767343408,1,0,0,0.284815895005468,1.28832709452258e-05,"PLEKHH2;RGS16;CITED4;TXNIP;MALAT1",5
"27","cerebral_cortex","33/349",0.999971365001685,1,0,0,0.560165129890411,1.60405572122085e-05,"CYFIP2;RTN4R;ROBO3;MAST3;CAMKK1;TRIM9;SYNGR1;CAMK2N1;KIF5A;PAK6;BSN;RAB11FIP4;PARP6;MEF2C;CDADC1;HOMER1;FBXW7;KCNJ9;PLEKHG5;TTC7B;TTC9B;SRCIN1;PGM2L1;LEMD1;POU6F1;TOM1L2;ARHGAP32;PPM1A;DAAM1;SPIRE1;SERPINI1;APBA2;R3HDM2",33
"28","3T3-L1","12/181",0.99998344357313,1,0,0,0.392762692781022,6.50280063194195e-06,"ABCD4;NFAT5;PLAG1;RASL11A;ABHD1;HOXA3;MICALL2;PAX3;STEAP2;HIF1A;FAM149A;NKX3-2",12
"29","T-cells_foxP3+","5/112",0.999983596644343,1,0,0,0.264471902505078,4.33826225920142e-06,"CAB39L;PELI1;TNFRSF25;ZBTB4;IKZF4",5
"30","T-cells_CD4+","13/191",0.999984666797368,1,0,0,0.403215801096747,6.18263698245179e-06,"DENND2D;FAAH;DGKA;VPS13C;LAMC2;FOXK1;KRBA1;PHF7;FOXO1;DDB2;ALKBH4;FAM184B;TNFRSF25",13
"31","microglia","3/90",0.999985722359178,1,0,0,0.197472353870458,2.81945946851362e-06,"CD72;DIP2A;DHRS1",3
"32","C3H_10T1_2","9/155",0.99998659104239,1,0,0,0.343984100290475,4.61249914379437e-06,"SETD5;RARG;TCF7L1;IDUA;PTGER1;HOXA3;HOXA2;FBLN5;GLI3",9
"33","bladder","13/195",0.999988809812937,1,0,0,0.394944707740916,4.41952988692411e-06,"GSTM4;KANK2;TNXB;DMPK;PRDM6;WFDC1;NRARP;UPK3B;ANK1;ACER2;PDLIM3;GSTA4;PLCD1",13
"34","amygdala","26/308",0.999989243156468,1,0,0,0.500092324736874,5.37944382167412e-06,"HRK;CAMK2D;PNCK;FRMPD3;THRA;CPNE7;GPR61;FBLL1;LIN7B;PDZD4;SLC17A7;TMEM8B;B4GALNT4;EPHA5;RHBDD2;LSAMP;RUNDC3A;PGM2L1;SYT17;LHX6;HAP1;CNIH3;GAS8;ASTN1;CDK5R1;VSTM2B",26
"35","stomach","19/249",0.999989279780282,1,0,0,0.452045147414302,4.84604927805817e-06,"TMEM184A;AHCYL2;SLC37A2;TMEM63A;GAL3ST1;ARHGAP27;FUT2;SDCBP2;TOB1;KRTCAP3;SULT1C2;TSPAN15;GSTA4;CLMN;ETHE1;RNF39;GAST;DEGS2;VSTM2B",19
"36","dendritic_plasmacytoid_B220+","15/214",0.999989430384814,1,0,0,0.415245603933206,4.38900943639853e-06,"SLC44A1;TMEM167B;GPR35;DENND4A;ANKS3;TRAPPC5;TBC1D8;DTX2;IFFO1;XKRX;EEPD1;P2RX4;FBRSL1;PPFIA4;N4BP1",15
"37","testis","176/3059",0.999990669098319,1,0,0,0.34084799883492,3.18043400350742e-06,"CRTC1;MUM1;AQP7;RNF19B;MSI1;GPR62;ZFYVE1;ACRBP;NUDT4;BEST1;GOLGA3;SLC25A41;MAEL;HABP4;DPF3;ATXN7L1;SOX6;CCDC93;CDK5RAP2;GTF2I;FBXW5;SLC30A3;ACSL1;SLC6A16;ANGEL1;TTC21A;SYPL2;COX6B2;FRS3;LEMD1;FNDC8;ENKUR;CACNB1;CLIP1;CDC34;ZSCAN21;TSSK6;TSSK3;ENTHD1;HRASLS;ANKRA2;CDKL1;OSBP2;LRRC56;GIPR;DHH;NPRL3;TEX22;HSPA4L;PLA2G6;KRBA1;SPATA6;SPATA7;CACNA1H;CAMSAP1;TTBK2;SYCE2;SEC14L1;GRK4;DDRGK1;WBP2NL;INPP5E;TBC1D14;GAS2L1;SRGAP1;MAP2K5;MFAP3L;TMEM184A;MYPOP;CCDC136;PTCH2;KLHL24;HSPA2;IFFO1;OCEL1;LRP2BP;GGN;POU6F1;GRIN2D;GRIN3B;HOOK2;STAG3;WDR60;MKRN1;JMY;ATG2A;REEP6;GLIPR1L2;GSTM5;DCP1B;HERPUD2;LMBR1L;KCNK7;DYRK3;PHF1;POMT1;ICA1;CBWD1;PHF7;DUSP15;KIF17;PCSK4;SERPINA5;C1QTNF4;ANKRD9;FAM166A;ING5;GATAD1;EFHD1;PDE4A;TPRN;RALGPS2;TSC22D4;SUN1;CNTD1;LRRC46;GSTO2;IZUMO1;IQCE;PRPF40B;SHROOM3;TBC1D9;RAB3IL1;NSUN6;GAB2;ZDHHC11;IQCD;RNF144A;PPM1A;PPM1B;PACS2;SPATC1;PITPNM2;B3GNT4;GNB1L;AKNAD1;MRRF;GAS8;RNF32;PLEKHH2;CEBPG;PELI2;GDPD1;PROCA1;FOXK1;PPM1J;DCST1;LMF1;DLL3;BTAF1;CLMN;UBN2;CHRNE;DNAJC5G;TRIM45;UBL4B;LRRC23;FAM46B;HSPA1L;TXNRD3;USP20;KCNJ9;FAM46C;PRSS37;PKDREJ;NMNAT3;REC8;DBNDD1;SLC4A8;TTLL4;TTLL3;FAM131C;FAM98C;CPSF4L;QRICH2;CCDC62",176
"38","adipose_brown","43/456",0.999992448321124,1,0,0,0.558638895817743,4.21867747780669e-06,"CFD;COX19;YJEFN3;CLSTN3;ETFDH;AQP7;CIB2;PYGL;SLC2A4;LIAS;LTC4S;AGPAT2;FGFRL1;TMEM143;PDPR;AUH;TMEM88;MKNK2;PDK4;HOXC4;ACADS;PPARGC1B;SH2B2;AOC3;CHKB;CDADC1;ACBD4;FZD4;ACSL1;TMEM120A;ADHFE1;ECH1;DHDH;MTUS1;LMTK3;NR1D1;TMEM134;GPD1;CYP1A1;PLIN4;PIGL;LETMD1;PPARA",43
"39","lens","53/947",0.999992733667586,1,0,0,0.331553371334771,2.40918576197031e-06,"HERPUD2;UCN;FAM89A;GPR62;KLHL35;FGFRL1;TRIM9;BCL7A;GJA3;GATAD1;HCFC1R1;HABP4;PRKAB2;ABCC5;PAQR3;LMTK3;MAPK8IP3;GPRC5B;MAF;DNLZ;BIRC7;CRYAB;RBM24;CASZ1;MTMR3;SFSWAP;NXPH4;ADAM22;WNT8B;HOXD12;NDRG1;ARVCF;FLRT2;HSF4;BMF;HES2;IVNS1ABP;FARP2;PLK5;ANKRD24;KCNJ9;FAM46C;MBOAT1;SNHG8;LSAMP;TDRD3;GRIN2D;DNMBP;MYO5B;CAPRIN2;GTF2IRD1;APBA3;YPEL2",53
"40","liver","81/928",0.999992768970858,1,0,0,0.517088168001307,3.7390931303428e-06,"FAAH;LEAP2;GPT;PYGL;TM7SF3;ZFYVE1;FTCD;TM7SF2;C4B;C8G;PHYHD1;LONP2;SLC25A47;AASS;HGFAC;PCYT2;CDADC1;ACSL1;MST1;DIO1;DHDH;ZFP92;MTUS1;PIPOX;MAT1A;PEX1;NAV2;KLF15;GCHFR;ALDH3A2;AZGP1;OAF;ACOX1;GPD1;SERPING1;ULK1;IGFALS;ALDOB;HAGH;LETMD1;PPARA;HPD;CLEC4F;SGK2;SLC27A5;TMPRSS6;GLS2;ABCB4;NR1I3;LCAT;PPM1K;HSD17B6;C2;DCST2;HPX;SNN;GALR3;NLRP6;THPO;CBS;AFMID;RDH16;APOF;ASPDH;DVL3;SLC38A3;GSTM4;FARP2;MYPOP;PNPLA7;F12;NR1H3;GCK;GNMT;MLXIPL;PROC;GJB1;REEP6;HAMP;FOXA3;BET1",81
"41","embryonic_stem_line_Bruce4_p13","36/876",0.999992868940967,1,0,0,0.243459066415633,1.73612716504217e-06,"RARG;HSD17B14;U2AF1;CBWD1;GPR62;FOXO1;EDA2R;ING5;TAF1D;GBX2;DPH1;FBRSL1;TBC1D14;LUC7L;PIM3;BMF;HOXA1;UPP1;N4BP1;TLE4;MANBA;JUND;MREG;NSUN5;LMTK3;SHROOM3;WTIP;ATG14;CCNB1IP1;PATL2;IRGQ;MKRN1;ZSCAN21;IGDCC3;PIGL;PNPLA6",36
"42","eyecup","35/828",0.999992966296142,1,0,0,0.250417840053117,1.76137112210319e-06,"RNF32;ROBO3;SERPINE2;YJEFN3;PTGER1;DIRAS1;DQX1;AMIGO1;SEMA3B;LTBP3;ARHGAP5;C2;DCST2;TMEM143;STOX2;MTA1;PDPR;BOC;RBM5;KCNH3;TCF7L1;SRMS;PCGF2;RSAD1;PAX3;SRRM1;TTLL4;SERHL;ZSCAN21;KLF9;SSPO;SPIRE1;RAPGEF3;ERGIC1;ATG2B",35
"43","lacrimal_gland","42/749",0.999993138546604,1,0,0,0.332196483146565,2.27935850744182e-06,"DOCK6;MTMR10;CALCOCO1;CASZ1;RAB3D;CAMK2A;ICA1;SIX1;PPM1K;LYST;FBLN5;ARHGAP21;STK11;SLC25A29;SIX2;SLC17A5;LUC7L;ANKRD10;PIM3;TBC1D15;MFAP3L;EPHA5;CCDC17;ANKRD24;WHRN;KCNIP2;LMO4;BHLHA15;SYPL2;SULF1;THAP2;DUSP7;TPCN1;SRRM1;NOVA2;PAX9;RHOU;ERGIC1;MAP3K12;BET1;DCP1B;SIDT2",42
"44","macrophage_bone_marrow_6hr_LPS","36/730",0.999993182364049,1,0,0,0.29215087969876,1.99178513006333e-06,"LRRC56;CEBPD;LY96;CIB2;DTX2;DUSP16;HDAC9;NTN3;GOLGA3;SNN;RPS16;DHX58;AP1S2;ANKRD10;BMF;LGALS9;SCARF1;N4BP1;PPP1R16B;BATF2;JUND;TMEM86B;SLC31A2;RHBDF2;ZFP92;MTHFR;PILRA;ARHGAP27;DUSP7;MARCH2;SLC4A8;PELI1;SERPINI1;SIGLEC1;EZH1;STK40",36
"45","embryonic_stem_line_V26_2_p16","28/728",0.999993187076229,1,0,0,0.227852716004375,1.55234847318114e-06,"BEX4;DIRAS1;GTPBP10;HSD17B14;AAAS;SLC4A4;BBC3;ING5;TAF1D;SNAPC4;AP1S2;RBPMS2;LUC7L;DVL3;TLE4;BTBD19;MANBA;TCF7L1;WSCD1;PCGF2;RPL13A;ATG14;ACVR2B;ZGLP1;KLF9;MKRN1;IGDCC3;CPSF4L",28
"46","skeletal_muscle","69/710",0.999993218294645,1,0,0,0.575729257058941,3.9044394249293e-06,"HERPUD2;LRRC39;DNHD1;WFDC1;CIB2;TMEM52;ATP2A1;SLC2A4;JPH1;HOXC10;PITPNC1;ANKRD9;GOLGA4;AP1S2;MYO18A;TMEM38A;SOX6;MAP3K4;SCN1B;PRKAB2;MEF2C;KSR1;COBL;RAD23A;SYPL2;ANK1;CACNB1;PPM1A;CLIP1;PTP4A3;OBSCN;MAF;CDC34;NDUFS7;EEF1A2;SCN4A;HRASLS;TRIM54;SLC25A4;RBM24;STK40;AMIGO1;FITM1;KCNA7;NDRG2;TOB1;CLCN1;TCEAL7;PDLIM3;PDPR;PHKG1;KLHDC2;STAT5B;SMAD3;HOMER1;KLHDC1;FZD9;MYBPH;STAC3;CHCHD10;NR1D1;LRP2BP;MAPK12;EEPD1;BCL6;JMY;TRIP10;TCAP;APBA3",69
"47","macrophage_peri_LPS_thio_7hrs","43/707",0.999993236838939,1,0,0,0.360310235492066,2.43684439482123e-06,"NRP2;ZCCHC6;SLC44A1;MAX;NOD1;ATP1A1;STX11;SAV1;MLLT6;ADAMTSL5;RPS6KA2;DHX58;PDPN;FAM53C;ANKRD10;CEPT1;LGALS9;DRAM2;RALGDS;SCARF1;N4BP1;PPFIA3;CYTH1;VAT1;BATF2;IL15RA;SLC12A4;SLC31A2;ABCC5;SETDB2;RHBDF2;PRSS37;ARID5A;MTHFR;MERTK;TTC39B;P2RX4;PACS2;SERHL;IL3RA;MAFK;IRF5;TLR2",43
"48","NK_cells","34/669",0.999993330414382,1,0,0,0.301078925183658,2.00807836569084e-06,"CYFIP2;NOTCH2;ZCCHC6;WNT2B;ZBTB25;BAZ2A;NRARP;CTSW;HSD17B6;ZFP36L2;PITPNC1;HERC4;ALKBH4;RINL;LTA4H;RBM5;CYTH1;MEF2A;PPP1R16B;SEMA4A;TIGD5;MAP3K1;SMAD3;WSCD1;VPS13D;KCNK15;RAB3IL1;SULF2;SSH1;RRM2B;PRKD2;ERGIC1;VSTM2B;DCP1B",34
"49","pancreas","42/667",0.99999333555909,1,0,0,0.373036230699816,2.48608620111635e-06,"RAB3D;CITED4;ARHGDIG;FRY;HSD17B7;FUT1;GGA1;SNN;ZFP14;MNT;MTA1;BCL7A;RAB26;CBS;AFMID;SLC39A5;ANKRD10;CHAC1;TAS1R3;WASF3;HES7;APC2;TMEM184A;KCNH3;PDIA2;TIGD5;USP20;EDEM1;TNK1;HAGHL;EIF2AK3;CEL;BHLHA15;TLE6;LEMD1;TPCN1;FNDC8;GAK;PRKD2;RHOU;LRCH4;FOXA3",42
"50","retina","48/664",0.999993343137729,1,0,0,0.428253297550391,2.85083270788301e-06,"CAMK2D;RAB3A;PPM1N;RGS16;HSPA4L;GUCA1B;PTPN21;MSI1;RORB;ARHGAP5;HIF1A;CAMSAP1;CACNA1H;SLC25A27;TRIM9;FGF9;UBN2;LRIG2;CEP290;PPARGC1B;DRD4;GPR179;EPHA5;RIC3;SRRM3;PLK5;TMEM86B;WHRN;KCNJ14;VAX2;LRP2BP;PPM1A;PPM1B;NFASC;IQCK;LRCH1;PITPNM1;POLG2;IMPDH1;RGS9BP;DLG4;SNHG10;SP6;GTF2IRD1;FSCN2;ATG2B;YPEL2;OSBP2",48
"51","dorsal_root_ganglia","51/541",0.999993503696196,1,0,0,0.558470797452497,3.6280077503111e-06,"LRSAM1;DIRAS1;MAST1;DUSP15;PITPNC1;HEY2;PRX;FLOT1;APC2;SH3GLB2;ACOT7;KCND1;RALGAPA1;ADAM11;PPP2R5B;MAPK8IP2;SYNGR3;TOM1L2;ISL2;BCAM;ATG4B;SHC2;NRN1;DHH;CCDC25;AMIGO1;KCNA2;PRUNE2;SEMA3B;PPM1J;AKAP6;KLC1;TTBK2;ZFP14;FAM184B;APOD;FAM43B;KIF3C;APBB3;USP20;LGI4;AHNAK2;LIMK1;ABCA7;MAPK11;IRGQ;EEPD1;RGS10;FXYD7;NACAD;FBXL2",51
"52","follicular_B-cells","50/603",0.999993505028956,1,0,0,0.491224760871786,3.19050095923415e-06,"BTG2;CALCOCO1;HDAC10;ARHGAP4;VPREB3;TRIM7;SNRNP70;RBM5;RALGPS2;FNBP4;MEF2C;ST6GAL1;COG5;ANKRD44;TUBG2;MIF4GD;TLR1;PTP4A3;ACAP1;LTA;PRKD2;LTB;GAS5;AKNA;PRKRIP1;AGAP2;LPAR2;BAZ2A;ADRB2;SNX30;FOXO1;LMF1;XKRX;SNN;ABLIM1;RNF216;SAFB2;TAS1R3;CYTH1;CBX7;CD72;WHRN;BCL11A;PLEKHA2;TBX6;XAB2;MAPK11;CCDC88C;TUBGCP6;CD22",50
"53","macrophage_peri_LPS_thio_1hrs","46/598",0.99999351917217,1,0,0,0.45570543200875,2.95335801628469e-06,"DOCK6;NRP2;STEAP3;TTYH2;IDUA;MAST1;BHLHE41;MRI1;LIPA;LITAF;LYST;PLD3;LMF1;PLD2;ZFP36;SYNGR1;AUH;BCL7A;DHX58;PDPN;DPF3;LONRF3;CIC;AMZ1;SH2B2;ATP6V0A1;VAT1;KDM6B;TMEM86B;GDF15;NCKAP5L;ABCC5;DENND2A;IFRD1;RENBP;GPR137B;GRIN2D;SLC6A8;NPC1;IL23A;SESTD1;SERHL;IL3RA;STAC2;PLEKHM1;DNASE1L1",46
"54","mast_cells_IgE","35/598",0.999993519180719,1,0,0,0.346732393919701,2.24711726541443e-06,"NOTCH2;ZCCHC6;PLAG1;ARHGAP6;IKZF4;FBLN5;INPP5B;MNT;ARHGAP20;ATP7B;CCND2;HRH2;RPS6KA2;AFMID;INPP5E;GATAD1;SLC26A11;PRKCB;ACSL1;RSAD1;DENND4C;MBOAT1;COBL;MITF;FRMD4A;GAB2;SULF2;TTC39B;IL4;P2RX4;MC1R;BMP2K;AHRR;GEMIN8;ERGIC1",35
"55","heart","49/568",0.999993602194621,1,0,0,0.511064014418263,3.26969855993381e-06,"HERPUD2;DOCK6;YJEFN3;LRRC39;TMEM143;STK11;GRB14;AUH;TMEM88;RGS6;MEF2A;PPTC7;ACTN2;TNNC1;ECH1;RSAD1;NAV2;ANK1;OBSCN;NDUFS7;RBM20;CRYAB;SLC25A4;RBM24;KANK2;NOTCH2;CASZ1;PRUNE2;ETFDH;AKAP6;CACNA1C;COX7A1;RHOBTB1;MRPL55;TNNI3;CILP2;GAS2L1;PPARGC1A;MEF2D;IVNS1ABP;MYH7B;DMPK;KCNJ11;NEBL;CHCHD10;KLHL24;MAPK12;NOVA2;SLC25A34",49
"56","mega_erythrocyte_progenitor","24/562",0.999993622733064,1,0,0,0.252989492503078,1.61338667016513e-06,"KLHDC2;POM121;STEAP3;ZCCHC6;CDADC1;TMEM86B;RSAD1;PLA2G4C;RAB3IL1;NMNAT3;TM7SF3;LIAS;ZBTB4;AP4B1;BTAF1;ATP7B;BCL7A;TAF1C;SPIRE1;IFT27;ATG4B;RP9;GEMIN8;MRRF",24
"57","granulocytes_mac1+gr1+","30/557",0.999993637618589,1,0,0,0.319075616666808,2.03008723016044e-06,"WFIKKN1;PLAG1;CAB39L;PRKRIP1;CCDC125;ZBTB42;ATP1A1;FRY;FBLL1;PRAM1;STX11;FBLN5;AP1S2;LTA4H;NKX3-2;WASF3;KCNH3;TMEM86B;WSCD1;PTCH2;LMTK3;NAV2;RNF144A;TTLL4;TTLL3;NINJ1;CCDC88C;TBKBP1;CCNO;ATG2B",30
"58","kidney","43/554",0.999993646518875,1,0,0,0.459818296918576,2.92145615126739e-06,"PECR;WNK4;ATP1A1;TM7SF3;ABCA13;SLC4A4;NDRG1;TRIM7;PDZD2;BCL7A;CLMN;MYO6;RDH16;RBPMS2;ASPDH;PGPEP1;ATXN7L2;RAB11FIP3;ZKSCAN1;AASS;SLC34A3;MIOX;EMX1;CGREF1;AMN;ACBD4;EGF;ABCA3;ADHFE1;PIPOX;DNAJC12;ATP11A;DEF8;RABGGTA;SIGIRR;ACOX1;DGKQ;CRYL1;RNF183;ALDOB;SGK2;TNFRSF21;CDKL1",43
"59","intestine_small","42/466",0.999993652390756,1,0,0,0.533938124199093,3.38924132945757e-06,"DQX1;PDCD6;GDPD1;GPT;NADSYN1;ESPN;PLD1;KRTCAP3;KLC4;NLRP6;ERBB3;MYO6;STAP2;UPP1;BCO2;BEND7;FARP2;SEMA4A;CGREF1;ARG2;AMN;UNC5CL;SLC37A1;EDN2;KSR1;PLA2G2A;SHROOM3;PTK6;AXIN2;MAPK13;TSPAN15;CLDN3;SLC6A8;DNMBP;CLDN15;MYO15B;MYO5B;CRYL1;CDHR5;DEGS2;TJP3;LPIN3",42
"60","macrophage_bone_marrow_24h_LPS","46/551",0.99999365424876,1,0,0,0.494576857243616,3.13847166308131e-06,"SLC22A4;SETD5;GHDC;LAMA5;CASZ1;MTMR3;ELL;IDUA;LST1;BHLHE41;LY96;DNHD1;N4BP2L1;HIF1A;GGA1;DHX58;AP1S2;PTK2B;MARK4;CCDC93;TBC1D15;SASH1;CYTH1;FCER1G;SLC31A2;ACSL1;RHBDD2;ABCC5;AXIN1;IRF2BP2;SNX24;PILRA;GAB2;LEMD2;OCEL1;SSH1;BST2;GRIN3B;BCL6;NINJ1;PLEKHM1;HBP1;CPSF4L;TBKBP1;SIGLEC1;BET1",46
"61","mast_cells","39/515",0.999993767211057,1,0,0,0.448626512676575,2.79620308161154e-06,"ITGA2B;CITED4;PIGZ;GATA2;LTC4S;HIF1A;IKZF4;ZFP36L2;LMF1;SYNGR1;RPS6KA2;INPP5D;IER2;IVNS1ABP;STAT5B;KDM4B;MYPOP;CISH;KHNYN;RALGAPA1;COG5;STARD9;TBC1D8;COBL;NBEAL2;GP1BA;GAB2;AXIN2;UNC13D;TDRD3;PATL2;P2RX7;IL4;P2RX4;MC1R;PIK3IP1;PRKD2;FXYD5;EZH1",39
"62","salivary_gland","27/480",0.999993882974182,1,0,0,0.333234597156398,2.03841086880135e-06,"DOCK6;RNF32;CALCOCO1;TMEM63A;SLC44A1;RAB3D;FRY;SLC25A29;DBP;SLC17A5;INPP5J;GPR155;PLEKHH1;PARP6;PAQR6;ANKRD24;RSAD1;TPCN1;MEIS1;MGAT4A;NOVA2;PAX9;SP6;LRCH4;RAPGEF3;RHOQ;MAP3K12",27
"63","dorsal_striatum","32/477",0.999993893175366,1,0,0,0.397428636720419,2.42703439967267e-06,"HRK;GRIA2;CPNE5;CTTNBP2;CHRM4;ADAM22;FBLL1;TAZ;LIN7B;C1QTNF4;RASD2;ARHGAP20;FAM184B;CAMK2N1;CNR1;GNG7;RNF150;SH2D5;GRASP;REM2;TLE4;PPP1R16B;HOMER1;FBXW8;IQSEC1;FBXL16;BAIAP2;SLCO1C1;GPRIN3;LPCAT4;YPEL2;CDK5R1",32
"64","retinal_pigment_epithelium","38/473",0.999993902136871,1,0,0,0.47593759706622,2.9022111736107e-06,"MTMR10;CAMK2D;HSPA4L;SEMA3B;GUCA1B;CHRD;WNK4;WDR86;PIGZ;PLA2G5;RORB;RDH10;CASKIN1;SLC16A8;RNF150;SLC38A3;PPARGC1A;CEP290;MFAP3L;DUSP4;RIC3;FZD4;RHBDD2;KCNJ14;SULF1;SLCO1C1;PPM1B;GZMM;PITPNM1;POLG2;IMPDH1;RGS9BP;DLG4;KCNQ4;MALAT1;FSCN2;RAPGEF3;OSBP2",38
"65","prostate","26/329",0.99999392487251,1,0,0,0.468171538051542,2.84421042041568e-06,"CASZ1;TMEM167B;CAB39L;RAB3D;GDPD1;C2CD4B;LAMC2;HOXB13;ACRBP;HDAC9;ABO;SLC25A29;TSPAN7;FUK;PARP6;ARG2;FOXF2;CHKA;BHLHA15;ALDH3A2;AZGP1;RRM2B;GPD1;ELMO3;DNASE1L2;ERGIC1",26
"66","Baf3","29/440",0.999994024744616,1,0,0,0.390456699698406,2.33308546741785e-06,"SHMT2;NPRL3;CEBPG;MRI1;PKD1L2;PITPNC1;BBC3;TAF1D;SIPA1L1;AUH;DPF3;SLC16A8;RPL37;BSN;HEMK1;EGFL7;KSR1;FOXF2;RALGAPA1;COG5;RPL13A;OCEL1;CCNB1IP1;TTC39B;GAK;MC1R;PSAT1;GEMIN8;GALK1",29
"67","pituitary","22/294",0.999994035461543,1,0,0,0.443305284198988,2.64411930129124e-06,"BBS2;RNF32;TMEM86B;TMEM167B;ANKRD24;WHRN;HSPA4L;CHRD;SEZ6L2;USE1;MAPK8IP1;TOM1L2;GPR153;CLDN9;FAM120B;IGDCC3;KCNMB4;GNB3;GTF2IRD1;RAPGEF3;TRIM66;CHGB",22
"68","cerebellum","34/428",0.999994052296243,1,0,0,0.470611684457634,2.7990672079407e-06,"CLSTN3;FAM69B;KCNA2;MAST1;ITPR1;ARHGAP5;UNC80;SLC25A27;ARHGAP21;AUH;CNR1;FBRSL1;NPTX1;HES3;PPFIA4;GARNL3;PRRT1;SRRM3;SKOR1;METRN;KCNJ9;LGI4;EN2;ADAM11;ATP1B2;GRIN2C;MAPK8IP2;MAPK8IP1;STX1B;PITPNM1;TUBGCP6;MAP3K10;SPIRE1;MAP3K12",34
"69","cornea","34/427",0.999994054101374,1,0,0,0.471713819550041,2.80477089003679e-06,"NOTCH3;PLEKHH3;CCDC120;HLF;LYPD2;GDPD3;RAPGEFL1;DUOX1;ABLIM1;FAM184B;RDH16;RNF39;CHAC1;PCDH1;FUK;TEAD3;MFAP3L;KCNH3;TCF7L1;MREG;NSUN6;SYPL2;SULF1;ASPRV1;SLURP1;EPN3;PPM1A;GSTA4;CNKSR3;MKRN1;PLEKHM1;SP6;FAM84A;BNIPL",34
"70","neuro2a","31/425",0.999994079520751,1,0,0,0.432115974351826,2.55834123260746e-06,"SETD5;MPG;PRUNE2;IRS2;HSD17B7;NPAS1;PHF21B;STOX2;ARVCF;TMEM129;MICALL2;REV3L;PSPH;DUSP4;CBX7;ANO8;CSNK1E;VAX2;PGF;TNRC6C;SLC4A8;VANGL2;VGF;DDAH2;MARS;SP6;FAM181B;MKRN3;GEMIN8;RNF187;GALK1",31
"71","bone_marrow","33/413",0.999994091584695,1,0,0,0.473359879737902,2.79681502081252e-06,"ALAS2;ANKLE1;MTMR3;TFRC;CCDC125;SLC40A1;EPX;PRAM1;HERC4;BCL7A;ST3GAL5;LTA4H;SOX6;GAS2L1;COG5;FAM46C;DENND4A;LMO2;ABCA7;RAB3IL1;RAD23A;TMC6;TBX6;ANK1;EPOR;KLF1;MARCH2;RNF144A;MKRN1;RANBP10;SPIRE1;TMCC2;ENGASE",33
"72","epidermis","30/373",0.999994110761676,1,0,0,0.476474848480998,2.80608220095189e-06,"SLC22A4;CASZ1;KCNK7;CCDC120;ELL;ITGB4;PTPN21;GDPD3;HOXC13;APCDD1;HSD17B7;RAPGEFL1;PDZD2;UBN2;RNF39;ANXA9;PLA2G2F;USP20;TNK1;NEAT1;ASPRV1;CHIT1;ACER2;CYP2W1;EFNA3;MAF;DAAM1;GAN;SP6;BNIPL",30
"73","placenta","31/411",0.999994128005302,1,0,0,0.446835253283518,2.62382194171855e-06,"LAMA5;TFRC;SCT;SLC40A1;SLCO5A1;ABHD6;PCDH12;HAPLN3;DUSP16;TGM1;NPPC;LEPR;A2M;PLEKHH1;AFAP1L2;FBXW8;MICAL3;ZFYVE21;MITF;INHBB;ARID3A;CSNK1E;ACVR2B;PGF;PATL2;EFNA1;PPP1R3F;MGAT4A;ATG4B;RHOU;PAPPA2",31
"74","thymocyte_DP_CD4+CD8+","23/410",0.999994138772657,1,0,0,0.332331522367356,1.94787631436549e-06,"CYFIP2;MEF2A;UNC5CL;USPL1;NEBL;EDEM1;ABCC5;VPS13D;CHRNA9;WNT8B;WDR83;RAB3IL1;PLA2G6;LIAS;HDAC7;ASB16;VANGL2;AUH;SERPINI1;GLCCI1;LETMD1;RAPGEF3;MAP2K5",23
"75","B-cells_marginal_zone","19/380",0.999994260317061,1,0,0,0.296208530805687,1.70014792969263e-06,"ROBO3;CCDC17;CAMK2D;YJEFN3;WHRN;CRTC1;CEBPG;DTX1;RAB3IL1;ZBTB5;DUSP16;PPM1A;TRIM7;FAM184B;DPH5;CPSF4L;LETMD1;DRAM2;RBM5",19
"76","B-cells_GL7negative_Alum","21/379",0.999994264488221,1,0,0,0.328252197726619,1.88269974558584e-06,"DENND2D;BTG1;KHNYN;DDX24;BCL11A;PLEKHA2;ACTR5;IQCE;DNHD1;LPAR2;CTPS2;KLHL24;CHD2;ZFP36L2;TMEM143;FCHSD1;MAPK11;ABLIM1;TRIM7;CDK5RAP2;RALGPS2",21
"77","macrophage_bone_marrow_2hr_LPS","16/365",0.99999432419895,1,0,0,0.259689670843342,1.4739510893595e-06,"CDKN1A;CEBPD;COG5;PRKRIP1;C5AR1;PDGFB;WNT8B;RNF19B;TAZ;TPCN1;SYNGR1;NINJ1;GPD1;PELI1;CCDC93;TAS1R3",16
"78","min6","21/361",0.999994341642661,1,0,0,0.344619343319636,1.94998490714575e-06,"RAP1GAP2;PLK3;SETD5;SHC2;CDKN1B;LRRC24;RAB3A;PLEKHH3;KCNJ11;GIPR;ABCC8;AMIGO1;C2CD4B;VWA5B2;PHF21B;MLXIPL;NPY;HSF4;RIMBP2;SLC29A4;ATP6V0A1",21
"79","mIMCD-3","21/300",0.999994519547465,1,0,0,0.414691943127962,2.2727057386061e-06,"NFAT5;LAMA5;PLEKHH2;SMAD3;SFSWAP;PRKRIP1;GTPBP10;LPAR2;SHROOM3;LAMC2;NPNT;FOXO1;CLDN4;BCL7A;CLMN;ZSCAN21;HOXA1;SPRY1;PLCD3;STEAP2;ZKSCAN1",21
"80","ciliary_bodies","20/317",0.999994541020183,1,0,0,0.373764707641246,2.04037956446584e-06,"PLEKHH2;TCF7L1;CAB39L;WHRN;NXPH3;RAB3D;ANKRD44;PTCH2;LTBP3;APCDD1;SLC4A4;DLL1;GLI3;TRIM9;ZIC2;KCNQ4;FAM181B;RBM20;RAB11FIP4;RGS6",20
"81","osteoblast_day14","13/301",0.999994625823198,1,0,0,0.255861189400261,1.37504696351657e-06,"HDAC10;ZBTB25;EYA1;RALGAPA1;ZBTB1;EIF2AK3;ASAP3;FAM149A;TDRD3;C1QTNF6;RHOJ;BOC;GTF2I",13
"82","MEF","14/300",0.999994630938977,1,0,0,0.276461295418641,1.48434155036331e-06,"BTBD19;SHC2;PLA2G4C;HOXD12;EDA2R;FBLN5;STX1B;STOX2;CCND2;EFNA2;GLIPR2;ZMAT3;TRIM16;TNPO2",14
"83","B-cells_GL7_positive_KLH","12/207",0.999994782943753,1,0,0,0.343430180644275,1.79169924300539e-06,"SLC4A8;ABLIM1;PLEKHA2;WHRN;ANKRD44;CARNS1;EIF2AK3;DNHD1;KLHL24;NEIL1;PHF7;ARNTL",12
"84","osteoblast_day21","11/264",0.99999482664667,1,0,0,0.246840442338073,1.27699612759612e-06,"GOLGA3;MYPOP;FLRT2;C1QTNF6;COL11A2;BOC;HOXA3;NDUFA4L2;ASAP3;IFITM5;GTF2I",11
"85","nih_3T3","15/252",0.999994850210379,1,0,0,0.352629203340104,1.81597088722947e-06,"NOTCH2;NFAT5;FOXF2;SHMT2;RALGAPA1;IER5L;LPAR2;EN1;NAV2;DPH1;SNHG10;HOXA3;LUC7L;LHX6;E2F7",15
"86","thymocyte_SP_CD8+","3/103",0.999994934061317,1,0,0,0.17254865872176,8.74123139103224e-07,"MAMDC4;VPS13D;RAPGEF3",3
"87","B-cells_GL7_negative_KLH","12/212",0.999994946863431,1,0,0,0.335330412232853,1.69447464998348e-06,"FCHSD1;MAPK11;SLC4A8;CAMK2D;SRMS;KHNYN;PLEKHA2;HDAC11;LTA4H;ZFP36L2;ZKSCAN1;RALGPS2",12
"88","T-cells_CD8+","8/166",0.999995036704784,1,0,0,0.285502198366927,1.41703521197261e-06,"DENND2D;MAMDC4;ALKBH4;DGKA;KCNK15;FOXK1;KRBA1;PITPNC1",8
"89","RAW_264_7","7/222",0.999995086700417,1,0,0,0.186798172580163,9.17797638083713e-07,"CSF1R;SYCE2;NFAT5;FAM167B;NRP2;SHMT2;STARD9",7
"90","umbilical_cord","11/208",0.999995089498592,1,0,0,0.313297484506015,1.53845151612761e-06,"PLA2G2F;TCEAL7;CYP2W1;EFNA2;NDUFA4L2;LAMC2;MSLN;UPK3B;ASPRV1;SULF2;THBS3",11
"91","thymocyte_SP_CD4+","8/203",0.999995216628321,1,0,0,0.233464851866551,1.11675183147957e-06,"ITPKB;SLC4A8;TTLL3;MPG;SP6;DIP2B;KRBA1;SPATA6",8
"92","macrophage_bone_marrow_0hr","8/180",0.999995332189134,1,0,0,0.263296471827278,1.22902100063949e-06,"NANOS1;CSF1R;KAT2A;WNK1;C5AR1;HDAC9;SKAP2;DUSP7",8
"93","stem_cells__HSC","4/186",0.999995345644106,1,0,0,0.127401518626102,5.9297338909549e-07,"MEIS1;EYA1;TMPRSS3;ANKRD10",4
"94","C2C12","7/167",0.999995416516162,1,0,0,0.248318528819139,1.13816657199407e-06,"FOXS1;DAAM1;HOXC13;NPNT;GLI3;E2F7;MAP3K12",7
"95","granulo_mono_progenitor","4/124",0.999995606852991,1,0,0,0.191102277939153,8.39542244913554e-07,"CDADC1;FAM185A;VPS13C;TRIM45",4
"96","dendritic_cells_lymphoid_CD8a+","5/142",0.999995609662164,0.999995609662164,0,0,0.208597556905414,9.15815756985949e-07,"BATF3;SH3BP1;WDR86;TBC1D9;SLCO5A1",5
