"","Term","Overlap","P.value","Adjusted.P.value","Old.P.value","Old.Adjusted.P.value","Odds.Ratio","Combined.Score","Genes","Overlap_Number"
"1","Notch signaling pathway_Homo sapiens_hsa04330","14/48",0.0240148716884585,1,0,0,1.72788309636651,6.44341773005071,"NOTCH2;NOTCH3;NUMBL;CTBP1;DTX1;DTX2;DTX3;RFNG;DLL1;DLL3;DLL4;KAT2A;MFNG;DVL3",14
"2","Glycerophospholipid metabolism_Homo sapiens_hsa00564","24/95",0.02430957653076,1,0,0,1.49663257670242,5.56281104069092,"PLA2G2F;ACHE;PCYT2;CHKB;CHKA;PNPLA7;DGKA;PLA2G4C;PLA2G2A;MBOAT1;LCAT;PLA2G5;TAZ;PLD1;PLA2G6;AGPAT2;PLD3;PLD2;LPCAT4;DGKQ;GPD1;CEPT1;PNPLA6;LPIN3",24
"3","Ether lipid metabolism_Homo sapiens_hsa00565","12/45",0.0657205012023172,1,0,0,1.57977883096367,4.30070198975281,"PLA2G2F;GAL3ST1;TMEM86B;LPCAT4;PLA2G2A;PLA2G4C;PLA2G5;CEPT1;PLA2G6;PLD1;PLD3;PLD2",12
"4","Steroid biosynthesis_Homo sapiens_hsa00100","6/20",0.106771750748292,1,0,0,1.77725118483412,3.97582090085204,"FAXDC2;CEL;DHCR7;HSD17B7;LIPA;TM7SF2",6
"5","Proximal tubule bicarbonate reclamation_Homo sapiens_hsa04964","6/23",0.17988967363121,1,0,0,1.54543581289924,2.65105842820604,"GLS2;CA4;ATP1A1;ATP1B2;SLC38A3;SLC4A4",6
"6","Basal cell carcinoma_Homo sapiens_hsa05217","12/55",0.207891999444167,1,0,0,1.292546316243,2.03024976420167,"APC2;TCF7L1;WNT2B;FZD4;PTCH2;AXIN1;FZD9;WNT8B;DVL3;AXIN2;WNT16;GLI3",12
"7","Glycine, serine and threonine metabolism_Homo sapiens_hsa00260","9/40",0.223579414852899,1,0,0,1.33293838862559,1.99672651641436,"AOC3;ALAS2;AOC2;SHMT2;CBS;PSAT1;PIPOX;PSPH;GNMT",9
"8","alpha-Linolenic acid metabolism_Homo sapiens_hsa00592","6/25",0.237134806805932,1,0,0,1.4218009478673,2.0461514139341,"PLA2G2F;ACOX1;PLA2G2A;PLA2G4C;PLA2G5;PLA2G6",6
"9","Glycosphingolipid biosynthesis - lacto and neolacto series_Homo sapiens_hsa00601","6/26",0.267603112406504,1,0,0,1.36711629602625,1.80220149468534,"FUT5;B3GNT4;FUT2;FUT1;ABO;FUT3",6
"10","ABC transporters_Homo sapiens_hsa02010","9/44",0.319945673576119,1,0,0,1.21176217147781,1.38092909967149,"ABCD4;ABCA2;ABCC8;ABCB4;ABCC5;ABCA3;ABCA7;ABCA13;ABCG1",9
"11","Nitrogen metabolism_Homo sapiens_hsa00910","4/17",0.320058566217872,1,0,0,1.39392249790912,1.58802799066564,"CA12;CA4;GLUL;CA14",4
"12","Other glycan degradation_Homo sapiens_hsa00511","4/18",0.361558627129662,1,0,0,1.31648235913639,1.33929841118202,"MANBA;MAN2C1;HEXDC;ENGASE",4
"13","Linoleic acid metabolism_Homo sapiens_hsa00591","6/29",0.363327256766978,1,0,0,1.2256904722994,1.24095193298922,"PLA2G2F;PLA2G2A;PLA2G4C;PLA2G5;PLA2G6;CYP3A4",6
"14","Circadian rhythm_Homo sapiens_hsa04710","6/30",0.395845322920596,1,0,0,1.18483412322275,1.09802339184426,"PRKAB2;BHLHE41;RORB;NR1D1;CSNK1E;ARNTL",6
"15","Arginine biosynthesis_Homo sapiens_hsa00220","4/20",0.443816932472782,1,0,0,1.18483412322275,0.962491843394901,"ARG2;GLS2;GPT;GLUL",4
"16","GnRH signaling pathway_Homo sapiens_hsa04912","16/91",0.472141853790624,1,0,0,1.04161241602,0.781704912095191,"CAMK2B;CAMK2D;MAP3K1;PRKCB;PLA2G4C;CAMK2A;ITPR1;CACNA1C;PLD1;MAPK12;PLD2;MAPK13;MAPK11;PTK2B;GNRH1;MAP3K4",16
"17","SNARE interactions in vesicular transport_Homo sapiens_hsa04130","6/34",0.523126650800387,1,0,0,1.04544187343184,0.67737491158158,"VAMP8;STX1B;VAMP1;USE1;STX11;BET1",6
"18","Choline metabolism in cancer_Homo sapiens_hsa05231","17/101",0.546642205057288,1,0,0,0.997137628454789,0.602232034486483,"SLC22A4;CHKB;CHKA;SLC44A1;PRKCB;EGF;DGKA;PLA2G4C;PDGFB;WAS;TSC2;PLD1;HIF1A;PLD2;DGKQ;RALGDS;WASF3",17
"19","Phenylalanine metabolism_Homo sapiens_hsa00360","3/17",0.565921654482669,1,0,0,1.04544187343184,0.595169671733096,"AOC3;AOC2;HPD",3
"20","Long-term potentiation_Homo sapiens_hsa04720","11/66",0.569631492435473,1,0,0,0.987361769352291,0.555653269872494,"CAMK2B;GRIA2;CAMK2D;PRKCB;RPS6KA2;CAMK2A;ITPR1;CACNA1C;GRIN2C;RAPGEF3;GRIN2D",11
"21","Butirosin and neomycin biosynthesis_Homo sapiens_hsa00524","1/5",0.603279827128758,1,0,0,1.18483412322275,0.598784516161181,"GCK",1
"22","Other types of O-glycan biosynthesis_Homo sapiens_hsa00514","5/31",0.618717382949902,1,0,0,0.955511389695765,0.458747401881489,"COLGALT2;ST6GAL1;MFNG;POMT1;RFNG",5
"23","beta-Alanine metabolism_Homo sapiens_hsa00410","5/31",0.618717382949902,1,0,0,0.955511389695765,0.458747401881489,"AOC3;ALDH3A2;AOC2;GAD1;CARNS1",5
"24","Hedgehog signaling pathway_Homo sapiens_hsa04340","8/50",0.624489477442322,1,0,0,0.947867298578199,0.446275638986164,"WNT2B;ZIC2;DHH;PTCH2;WNT8B;CSNK1E;WNT16;GLI3",8
"25","Glycosaminoglycan degradation_Homo sapiens_hsa00531","3/19",0.645014083402849,1,0,0,0.935395360439012,0.410155083273547,"IDUA;HYAL1;HPSE",3
"26","Adipocytokine signaling pathway_Homo sapiens_hsa04920","11/70",0.651955393678625,1,0,0,0.930941096817874,0.398237176201021,"STK11;PRKAB2;ACSL1;NPY;LEPR;IRS2;PRKCQ;SLC2A4;PPARA;PPARGC1A;CAMKK1",11
"27","Glutamatergic synapse_Homo sapiens_hsa04724","18/114",0.660674023153632,1,0,0,0.935395360439012,0.387716436028954,"GRIA2;HOMER1;PRKCB;GLS2;PLA2G4C;ITPR1;CACNA1C;PLD1;GRIN2C;PLD2;GRIN2D;GRIN3B;DLG4;GNG7;GNB3;SLC17A7;SLC38A3;GLUL",18
"28","Maturity onset diabetes of the young_Homo sapiens_hsa04950","4/26",0.661331000700567,1,0,0,0.911410864017499,0.376869127759871,"BHLHA15;MAFA;GCK;FOXA3",4
"29","FoxO signaling pathway_Homo sapiens_hsa04068","21/133",0.667252329233075,1,0,0,0.935395360439012,0.378448802608284,"PLK3;PRKAB2;GABARAPL1;CDKN1A;SMAD3;CDKN1B;HOMER1;EGF;AGAP2;IRS2;CSNK1E;SLC2A4;FOXO1;MAPK12;MAPK13;MAPK11;STK11;CCND2;BCL6;S1PR1;SGK2",21
"30","Vitamin B6 metabolism_Homo sapiens_hsa00750","1/6",0.670262746660469,1,0,0,0.987361769352291,0.395029111647625,"PSAT1",1
"31","One carbon pool by folate_Homo sapiens_hsa00670","3/20",0.680519429599496,1,0,0,0.888625592417062,0.342031017788974,"SHMT2;MTHFR;FTCD",3
"32","Lysosome_Homo sapiens_hsa04142","19/123",0.700983410156498,1,0,0,0.915115786228952,0.325114153744963,"ABCA2;MANBA;ASAH1;IDUA;GAA;CTSW;LIPA;AP4B1;LITAF;GGA1;AP1G2;NPC1;HYAL1;AP1S2;SLC17A5;DNASE2;CTSF;ATP6V0A1;LGMN",19
"33","Complement and coagulation cascades_Homo sapiens_hsa04610","12/79",0.701397330685013,1,0,0,0.899874017637531,0.319167988762703,"C4B;CFD;C4A;C8G;PROC;F12;C5AR1;SERPING1;A2M;CLU;SERPINA5;C2",12
"34","Glycosphingolipid biosynthesis - globo series_Homo sapiens_hsa00603","2/14",0.711322570297852,1,0,0,0.846310088016249,0.288277984676112,"FUT2;FUT1",2
"35","Fat digestion and absorption_Homo sapiens_hsa04975","6/41",0.712617703925111,1,0,0,0.86695179748006,0.293732096282264,"PLA2G2F;SCARB1;PLA2G2A;PLA2G5;CEL;AGPAT2",6
"36","Type II diabetes mellitus_Homo sapiens_hsa04930","7/48",0.722515551232949,1,0,0,0.863941548183254,0.280795115670094,"KCNJ11;ABCC8;IRS2;CACNA1C;SLC2A4;MAFA;GCK",7
"37","Cyanoamino acid metabolism_Homo sapiens_hsa00460","1/7",0.725938893324252,1,0,0,0.846310088016249,0.271064181342762,"SHMT2",1
"38","Glycosaminoglycan biosynthesis - keratan sulfate_Homo sapiens_hsa00533","2/15",0.747393534408115,1,0,0,0.789889415481833,0.2299868979042,"CHST6;B3GNT7",2
"39","p53 signaling pathway_Homo sapiens_hsa04115","10/69",0.749227388315655,1,0,0,0.858575451610688,0.247881681719481,"PIDD1;STEAP3;CDKN1A;CCND2;RRM2B;ZMAT3;TSC2;BAX;BBC3;DDB2",10
"40","Circadian entrainment_Homo sapiens_hsa04713","14/95",0.751845730372214,1,0,0,0.873035669743078,0.249010832254229,"CAMK2B;GRIA2;CAMK2D;PRKCB;KCNJ9;CAMK2A;ITPR1;CACNA1C;GRIN2C;CACNA1H;GRIN2D;MTNR1B;GNG7;GNB3",14
"41","Biosynthesis of unsaturated fatty acids_Homo sapiens_hsa01040","3/23",0.770974452474315,1,0,0,0.772717906449619,0.200983959565767,"PECR;ACOT7;ACOX1",3
"42","Amyotrophic lateral sclerosis (ALS)_Homo sapiens_hsa05014","7/51",0.780331032142063,1,0,0,0.813121457113651,0.201684246821922,"GRIA2;MAPK11;BAX;GRIN2C;MAPK12;GRIN2D;MAPK13",7
"43","Glioma_Homo sapiens_hsa05214","9/65",0.790416146112921,1,0,0,0.820269777615749,0.192923928622321,"CAMK2B;CDKN1A;SHC2;CAMK2D;PRKCB;SHC1;EGF;CAMK2A;PDGFB",9
"44","Asthma_Homo sapiens_hsa05310","4/31",0.792306333140011,1,0,0,0.764409111756612,0.177959927902288,"IL4;HLA-DMA;FCER1G;EPX",4
"45","Insulin secretion_Homo sapiens_hsa04911","12/85",0.792862805971927,1,0,0,0.83635349874547,0.194121894609856,"CAMK2B;CAMK2D;RAB3A;KCNJ11;ABCC8;PRKCB;CAMK2A;KCNMB4;ATP1B2;ATP1A1;CACNA1C;GCK",12
"46","Histidine metabolism_Homo sapiens_hsa00340","3/24",0.796045596351036,1,0,0,0.740521327014218,0.168912035641485,"ALDH3A2;CARNS1;FTCD",3
"47","Glutathione metabolism_Homo sapiens_hsa00480","7/52",0.797473933185481,1,0,0,0.797484506015312,0.180475632704514,"GSTM4;G6PD;GSTO2;RRM2B;GSTA4;GSTT2B;GSTM5",7
"48","Selenocompound metabolism_Homo sapiens_hsa00450","2/17",0.807995502202745,1,0,0,0.696961248954558,0.14859129290305,"TXNRD3;MARS",2
"49","Melanogenesis_Homo sapiens_hsa04916","14/100",0.815882750186509,1,0,0,0.829383886255924,0.168766867283644,"CAMK2B;CAMK2D;TCF7L1;WNT2B;PRKCB;FZD4;CAMK2A;ASIP;FZD9;WNT8B;MITF;WNT16;MC1R;DVL3",14
"50","mTOR signaling pathway_Homo sapiens_hsa04150","8/60",0.816235678001362,1,0,0,0.789889415481833,0.160388739841002,"STK11;CAB39L;PRKCB;RPS6KA2;RPS6;TSC2;ULK1;HIF1A",8
"51","ErbB signaling pathway_Homo sapiens_hsa04012","12/87",0.818377025557755,1,0,0,0.81712698153293,0.163778507212487,"CAMK2B;STAT5B;CDKN1A;SHC2;CAMK2D;CDKN1B;ERBB3;PRKCB;SHC1;EGF;CAMK2A;PAK6",12
"52","Amphetamine addiction_Homo sapiens_hsa05031","9/67",0.819387292252719,1,0,0,0.795784112612294,0.158518939954683,"CAMK2B;GRIA2;CAMK2D;GRIN3B;PRKCB;CAMK2A;CACNA1C;GRIN2C;GRIN2D",9
"53","Biosynthesis of amino acids_Homo sapiens_hsa01230","10/74",0.822844131278323,1,0,0,0.800563596772128,0.156100684606066,"ARG2;SHMT2;CBS;PSAT1;GPT;MAT1A;ALDOB;ENO2;GLUL;PSPH",10
"54","Retrograde endocannabinoid signaling_Homo sapiens_hsa04723","14/101",0.827095605625909,1,0,0,0.821172164609826,0.155887205788003,"GRIA2;FAAH;PRKCB;KCNJ9;ITPR1;ABHD6;CACNA1C;MAPK12;MAPK13;MAPK11;CNR1;GNG7;GNB3;SLC17A7",14
"55","Nicotine addiction_Homo sapiens_hsa05033","5/40",0.828643030043566,1,0,0,0.740521327014218,0.139192698212921,"GRIA2;GRIN3B;SLC17A7;GRIN2C;GRIN2D",5
"56","Pertussis_Homo sapiens_hsa05133","10/75",0.835380425226705,1,0,0,0.789889415481833,0.142075875838175,"C4B;C4A;MAPK11;IL23A;SERPING1;LY96;NOD1;MAPK12;C2;MAPK13",10
"57","Insulin resistance_Homo sapiens_hsa04931","15/109",0.841555909913732,1,0,0,0.815252837079873,0.140633418937918,"MLXIP;PRKAB2;PRKCB;NR1H3;IRS2;SLC2A4;PYGL;FOXO1;MLXIPL;RPS6KA2;PRKCQ;PPARA;PPARGC1A;SLC27A5;PPARGC1B",15
"58","Sulfur metabolism_Homo sapiens_hsa00920","1/10",0.842652533173511,1,0,0,0.592417061611374,0.101422147432297,"ETHE1",1
"59","Wnt signaling pathway_Homo sapiens_hsa04310","20/142",0.842800640861541,1,0,0,0.834390227621654,0.142701452386889,"APC2;CAMK2B;CAMK2D;TCF7L1;SMAD3;WNT2B;PRKCB;CTBP1;FZD4;CAMK2A;FZD9;AXIN1;WNT8B;CSNK1E;AXIN2;WNT16;CCND2;VANGL2;DAAM1;DVL3",20
"60","Amino sugar and nucleotide sugar metabolism_Homo sapiens_hsa00520","6/48",0.842973434042141,1,0,0,0.740521327014218,0.126495730945358,"CHIT1;CYB5R1;FUK;RENBP;GCK;GALK1",6
"61","Cocaine addiction_Homo sapiens_hsa05030","6/49",0.856942512061558,1,0,0,0.725408646871071,0.111991809949661,"GRIA2;GRIN3B;DLG4;GRIN2C;GRIN2D;CDK5R1",6
"62","Dorso-ventral axis formation_Homo sapiens_hsa04320","3/27",0.857805122945899,1,0,0,0.658241179568194,0.10095993597002,"NOTCH2;NOTCH3;SPIRE1",3
"63","Inflammatory mediator regulation of TRP channels_Homo sapiens_hsa04750","13/98",0.864486101017327,1,0,0,0.78585936744366,0.114436881534886,"CAMK2B;CAMK2D;PRKCB;PLA2G4C;CAMK2A;ITPR1;PLA2G6;MAPK12;MAPK13;MAPK11;ASIC4;PRKCQ;ASIC3",13
"64","Alanine, aspartate and glutamate metabolism_Homo sapiens_hsa00250","4/35",0.864853435537506,1,0,0,0.677048070412999,0.0983041469814337,"GLS2;GAD1;GPT;GLUL",4
"65","Inositol phosphate metabolism_Homo sapiens_hsa00562","9/71",0.868002604301681,1,0,0,0.750951204859489,0.106305076080416,"ITPKB;INPP5B;MIOX;MTMR3;INPP5D;INPP5E;INPP5J;PLCD3;PLCD1",9
"66","Taurine and hypotaurine metabolism_Homo sapiens_hsa00430","1/11",0.869225813091255,1,0,0,0.53856096510125,0.0754805759979104,"GAD1",1
"67","Ubiquinone and other terpenoid-quinone biosynthesis_Homo sapiens_hsa00130","1/11",0.869225813091255,1,0,0,0.53856096510125,0.0754805759979104,"HPD",1
"68","Insulin signaling pathway_Homo sapiens_hsa04910","19/139",0.872079105033764,1,0,0,0.809778717310512,0.110838577249092,"PRKAB2;SHC2;SHC1;RPS6;TSC2;IRS2;SLC2A4;PYGL;FOXO1;GCK;PPP1R3F;PHKG1;MKNK2;FLOT1;RAPGEF1;TRIP10;PPARGC1A;RHOQ;SH2B2",19
"69","Glyoxylate and dicarboxylate metabolism_Homo sapiens_hsa00630","3/28",0.874402744944385,1,0,0,0.634732566012187,0.0851901253974414,"SHMT2;AFMID;GLUL",3
"70","Prolactin signaling pathway_Homo sapiens_hsa04917","9/72",0.87834338598809,1,0,0,0.740521327014218,0.0960586948996954,"STAT5B;MAPK11;SHC2;CCND2;CISH;SHC1;GCK;MAPK12;MAPK13",9
"71","Fatty acid degradation_Homo sapiens_hsa00071","5/44",0.885722590135992,1,0,0,0.673201206376562,0.0816939634641792,"ALDH3A2;ACSL1;ACOX1;ECI2;ACADS",5
"72","Glycerolipid metabolism_Homo sapiens_hsa00561","7/59",0.890141114033087,1,0,0,0.702867700216885,0.0817964210095071,"ALDH3A2;DGKA;DGKQ;MBOAT1;CEL;AGPAT2;LPIN3",7
"73","Lysine degradation_Homo sapiens_hsa00310","6/52",0.892810276134011,1,0,0,0.683558148013124,0.0775026276530699,"ALDH3A2;KMT2E;COLGALT2;SETDB2;PIPOX;AASS",6
"74","Dopaminergic synapse_Homo sapiens_hsa04728","17/129",0.896363694283624,1,0,0,0.780704654836695,0.0854161464713324,"CAMK2B;GRIA2;CAMK2D;PRKCB;KCNJ9;CAMK2A;ITPR1;PPP2R5B;CACNA1C;MAPK12;ARNTL;MAPK13;MAPK11;GNG7;KIF5A;GNB3;DRD4",17
"75","Aldosterone synthesis and secretion_Homo sapiens_hsa04925","10/81",0.896668221854638,1,0,0,0.731379088409104,0.0797710495622614,"CAMK2B;SCARB1;CAMK2D;PRKCB;CYP21A2;CAMK2A;ITPR1;PRKD2;CACNA1C;CACNA1H",10
"76","Hematopoietic cell lineage_Homo sapiens_hsa04640","11/88",0.896788043225442,1,0,0,0.740521327014218,0.0806692387613483,"IL4;CSF1R;TFRC;THPO;IL11RA;ITGA2B;IL3RA;GP1BA;CD24;EPOR;CD22",11
"77","Gastric acid secretion_Homo sapiens_hsa04971","9/74",0.897034321058885,1,0,0,0.720507237094915,0.0782911490046979,"CAMK2B;CAMK2D;PRKCB;HRH2;CAMK2A;ITPR1;GAST;ATP1B2;ATP1A1",9
"78","Carbohydrate digestion and absorption_Homo sapiens_hsa04973","5/45",0.897142372341729,1,0,0,0.658241179568194,0.0714459642961918,"AMY2B;PRKCB;ATP1A1;ATP1B2;TAS1R3",5
"79","Galactose metabolism_Homo sapiens_hsa00052","3/30",0.90251950035944,1,0,0,0.592417061611374,0.0607612452381867,"GAA;GCK;GALK1",3
"80","Pancreatic secretion_Homo sapiens_hsa04972","12/96",0.904792041480701,1,0,0,0.740521327014218,0.0740892699250075,"PLA2G2F;AMY2B;PRKCB;RAB3D;PLA2G2A;ITPR1;ATP2A1;ATP1B2;CEL;ATP1A1;PLA2G5;SLC4A4",12
"81","HIF-1 signaling pathway_Homo sapiens_hsa04066","13/103",0.905293816315228,1,0,0,0.747710854460958,0.0743940365911604,"CAMK2B;CDKN1A;CAMK2D;CDKN1B;TFRC;PRKCB;EGF;RPS6;CAMK2A;ENO2;HIF1A;MKNK2;TEK",13
"82","Fc epsilon RI signaling pathway_Homo sapiens_hsa04664","8/68",0.906755904908144,1,0,0,0.696961248954558,0.0682199530753686,"IL4;MAPK11;FCER1G;INPP5D;PLA2G4C;GAB2;MAPK12;MAPK13",8
"83","Fatty acid biosynthesis_Homo sapiens_hsa00061","1/13",0.909669572655524,1,0,0,0.45570543200875,0.0431433887998963,"ACSL1",1
"84","Regulation of autophagy_Homo sapiens_hsa04140","4/39",0.914492089270559,1,0,0,0.607607242678333,0.0543118614178729,"GABARAPL1;ATG4B;ULK1;ATG14",4
"85","Sphingolipid metabolism_Homo sapiens_hsa00600","5/47",0.917040166832543,1,0,0,0.630230916607845,0.0545805216108414,"ACER2;CERS4;ASAH1;GAL3ST1;DEGS2",5
"86","Colorectal cancer_Homo sapiens_hsa05210","7/62",0.91722276234961,1,0,0,0.668857972787036,0.0577926136713824,"APC2;TCF7L1;SMAD3;AXIN1;BAX;AXIN2;RALGDS",7
"87","Arachidonic acid metabolism_Homo sapiens_hsa00590","7/62",0.91722276234961,1,0,0,0.668857972787036,0.0577926136713824,"PLA2G2F;PLA2G4C;PLA2G2A;PLA2G5;LTA4H;PLA2G6;LTC4S",7
"88","Phosphatidylinositol signaling system_Homo sapiens_hsa04070","12/98",0.918449900051746,1,0,0,0.725408646871071,0.0617090056191258,"INPP5B;ITPKB;MTMR3;PRKCB;DGKA;DGKQ;INPP5D;INPP5E;ITPR1;INPP5J;PLCD3;PLCD1",12
"89","Hippo signaling pathway_Homo sapiens_hsa04390","20/153",0.918534200409416,1,0,0,0.774401387727287,0.0658056407031214,"APC2;TCF7L1;SMAD3;WNT2B;FZD4;FZD9;AXIN1;WNT8B;CSNK1E;AXIN2;WNT16;WTIP;SAV1;BBC3;CCND2;DLG4;DVL3;AMH;LLGL2;TEAD3",20
"90","Legionellosis_Homo sapiens_hsa05134","6/55",0.920706181371703,1,0,0,0.646273158121499,0.0533914142203109,"HSPA1L;EEF1A2;NLRC4;HSPA2;NAIP;TLR2",6
"91","Sphingolipid signaling pathway_Homo sapiens_hsa04071","15/120",0.924895071500127,1,0,0,0.740521327014218,0.0578161908472785,"CERS4;ASAH1;FCER1G;PRKCB;PPP2R5B;GAB2;PLD1;MAPK12;PLD2;MAPK13;ACER2;MAPK11;S1PR1;BAX;DEGS2",15
"92","Neurotrophin signaling pathway_Homo sapiens_hsa04722","15/120",0.924895071500127,1,0,0,0.740521327014218,0.0578161908472785,"CAMK2B;SHC2;CAMK2D;MAP3K1;SHC1;CAMK2A;ARHGDIG;MAPK12;MAPK13;MAPK11;RPS6KA2;RAPGEF1;BAX;MAP2K5;SH2B2",15
"93","Axon guidance_Homo sapiens_hsa04360","16/127",0.925368603846686,1,0,0,0.746352203604881,0.0578894131439766,"EPHA5;SEMA6B;ROBO3;SEMA4A;SEMA3B;LIMK1;SEMA3G;NTN3;EFNA1;EFNA3;ABLIM1;EFNB3;EFNA2;PLXNB2;PAK6;SRGAP1",16
"94","Cardiac muscle contraction_Homo sapiens_hsa04260","9/78",0.927262352233995,1,0,0,0.683558148013124,0.0516214509692855,"CACNB1;TNNC1;TNNI3;ATP1B2;ATP1A1;CACNA1C;COX6B2;COX7A1;UQCRHL",9
"95","Staphylococcus aureus infection_Homo sapiens_hsa05150","6/56",0.928476518594412,1,0,0,0.634732566012187,0.0471036231309722,"C4B;CFD;C4A;HLA-DMA;C5AR1;C2",6
"96","Signaling pathways regulating pluripotency of stem cells_Homo sapiens_hsa04550","18/142",0.931530172097586,1,0,0,0.750951204859489,0.0532624897649131,"APC2;SMAD3;WNT2B;FZD4;PCGF2;FZD9;AXIN1;WNT8B;INHBB;AXIN2;WNT16;ACVR2B;MAPK12;MAPK13;MAPK11;MEIS1;DVL3;JAK3",18
"97","NOD-like receptor signaling pathway_Homo sapiens_hsa04621","6/57",0.935566948840455,1,0,0,0.623596906959341,0.0415331573089538,"MAPK11;NOD1;NLRC4;NAIP;MAPK12;MAPK13",6
"98","AGE-RAGE signaling pathway in diabetic complications_Homo sapiens_hsa04933","12/101",0.935815595048782,1,0,0,0.703861855379851,0.0466919682917916,"STAT5B;MAPK11;SMAD3;CDKN1B;PRKCB;BAX;PLCD3;AGER;FOXO1;MAPK12;PLCD1;MAPK13",12
"99","Glycosphingolipid biosynthesis - ganglio series_Homo sapiens_hsa00604","1/15",0.93760786544358,1,0,0,0.394944707740916,0.0254437090374834,"ST3GAL5",1
"100","Shigellosis_Homo sapiens_hsa05131","7/65",0.93832392542139,1,0,0,0.637987604812249,0.0406143249402417,"MAPK11;WAS;ELMO3;NOD1;U2AF1;MAPK12;MAPK13",7
"101","Glycosylphosphatidylinositol(GPI)-anchor biosynthesis_Homo sapiens_hsa00563","2/25",0.940359516274649,1,0,0,0.4739336492891,0.0291436079226916,"PIGZ;PIGL",2
"102","Phospholipase D signaling pathway_Homo sapiens_hsa04072","18/144",0.940390369988612,1,0,0,0.740521327014218,0.0455125908649521,"SHC2;FCER1G;SHC1;EGF;DGKA;PLA2G4C;PDGFB;TSC2;LPAR2;GAB2;PLD1;AGPAT2;PLD2;DGKQ;PTK2B;RALGDS;RAPGEF3;CYTH1",18
"103","Ovarian steroidogenesis_Homo sapiens_hsa04913","5/50",0.94052591819071,1,0,0,0.592417061611374,0.0363246876397541,"SCARB1;GDF9;PLA2G4C;CYP1A1;HSD17B7",5
"104","Chronic myeloid leukemia_Homo sapiens_hsa05220","8/73",0.941397127721979,1,0,0,0.649224177108355,0.0392067786083997,"STAT5B;CDKN1A;SHC2;CDKN1B;SMAD3;SHC1;CTBP1;GAB2",8
"105","Metabolism of xenobiotics by cytochrome P450_Homo sapiens_hsa00980","8/73",0.941397127721979,1,0,0,0.649224177108355,0.0392067786083997,"GSTM4;GSTO2;GSTA4;DHDH;CYP1A1;CYP3A4;GSTT2B;GSTM5",8
"106","Steroid hormone biosynthesis_Homo sapiens_hsa00140","6/58",0.942025788910232,1,0,0,0.612845236149698,0.0366007280712063,"CYP21A2;CYP1A1;HSD17B6;HSD17B7;CYP3A4;HSD17B8",6
"107","GABAergic synapse_Homo sapiens_hsa04727","10/88",0.942936871364138,1,0,0,0.673201206376562,0.0395545717499544,"GABARAPL1;PRKCB;GLS2;GNG7;GAD1;GNB3;HAP1;CACNA1C;SLC38A3;GLUL",10
"108","Calcium signaling pathway_Homo sapiens_hsa04020","23/180",0.946709617244382,1,0,0,0.756977356503423,0.0414542504442918,"CAMK2B;CAMK2D;PRKCB;PTGER1;TNNC1;CAMK2A;ITPR1;ATP2A1;CACNA1C;ADRB2;GRIN2C;CACNA1H;GRIN2D;ITPKB;P2RX7;P2RX4;ERBB3;PHKG1;HRH2;PTK2B;PLCD3;SLC25A4;PLCD1",23
"109","Adherens junction_Homo sapiens_hsa04520","8/74",0.946774416623741,1,0,0,0.640450877417702,0.035029090940727,"FARP2;TCF7L1;PTPRB;SMAD3;ACTN2;WAS;BAIAP2;WASF3",8
"110","Mineral absorption_Homo sapiens_hsa04978","5/51",0.946908060655629,1,0,0,0.580801040795465,0.0316845991021033,"SLC40A1;ATP1B2;ATP1A1;STEAP2;FTL",5
"111","Type I diabetes mellitus_Homo sapiens_hsa04940","4/43",0.94716267616608,1,0,0,0.551085638708255,0.0299153642754557,"HLA-DMA;GAD1;ICA1;LTA",4
"112","Thyroid hormone signaling pathway_Homo sapiens_hsa04919","14/118",0.948633472927869,1,0,0,0.702867700216885,0.0370641674524385,"NOTCH2;NOTCH3;THRA;PRKCB;DIO1;TSC2;ATP1B2;ATP1A1;HIF1A;FOXO1;SLCO1C1;KAT2A;PLCD3;PLCD1",14
"113","Leukocyte transendothelial migration_Homo sapiens_hsa04670","14/118",0.948633472927869,1,0,0,0.702867700216885,0.0370641674524385,"ACTN2;PRKCB;ARHGAP5;MAPK12;MAPK13;MYL5;MAPK11;CLDN4;CLDN3;CLDN15;CLDN9;PECAM1;PTK2B;RAPGEF3",14
"114","Tyrosine metabolism_Homo sapiens_hsa00350","3/35",0.949611011990254,1,0,0,0.50778605280975,0.0262539806884794,"AOC3;AOC2;HPD",3
"115","Endometrial cancer_Homo sapiens_hsa05213","5/52",0.952663116607443,1,0,0,0.569631790010937,0.0276236873471271,"APC2;TCF7L1;EGF;AXIN1;AXIN2",5
"116","Pentose and glucuronate interconversions_Homo sapiens_hsa00040","3/36",0.956014445805691,1,0,0,0.493680884676145,0.022206879625539,"ALDH3A2;DHDH;CRYL1",3
"117","Ascorbate and aldarate metabolism_Homo sapiens_hsa00053","2/27",0.956057848923262,1,0,0,0.438827453045463,0.0197195262135651,"ALDH3A2;MIOX",2
"118","2-Oxocarboxylic acid metabolism_Homo sapiens_hsa01210","1/17",0.956906666684276,1,0,0,0.348480624477279,0.0153503691319087,"GPT",1
"119","Primary bile acid biosynthesis_Homo sapiens_hsa00120","1/17",0.956906666684276,1,0,0,0.348480624477279,0.0153503691319087,"SLC27A5",1
"120","VEGF signaling pathway_Homo sapiens_hsa04370","6/61",0.958067083581263,1,0,0,0.582705306502991,0.024961626241816,"MAPK11;SHC2;PRKCB;PLA2G4C;MAPK12;MAPK13",6
"121","Cysteine and methionine metabolism_Homo sapiens_hsa00270","4/45",0.958786065059163,1,0,0,0.526592943654555,0.0221628805992933,"AHCYL2;CBS;MRI1;MAT1A",4
"122","PPAR signaling pathway_Homo sapiens_hsa03320","7/69",0.959003189563307,1,0,0,0.601002816127481,0.0251585056705142,"ACSL1;ACOX1;AQP7;NR1H3;PLIN1;PPARA;SLC27A5",7
"123","Butanoate metabolism_Homo sapiens_hsa00650","2/28",0.962338967456076,1,0,0,0.423155044008125,0.0162443015219363,"GAD1;ACADS",2
"124","RIG-I-like receptor signaling pathway_Homo sapiens_hsa04622","7/70",0.963081708931413,1,0,0,0.592417061611374,0.0222849659148119,"MAPK11;MAP3K1;DHX58;ISG15;TBKBP1;MAPK12;MAPK13",7
"125","Fc gamma R-mediated phagocytosis_Homo sapiens_hsa04666","10/93",0.963760191571532,1,0,0,0.63700759313051,0.0235137206647916,"PRKCB;INPP5D;LIMK1;ASAP3;WAS;GAB2;PLD1;PLA2G6;WASF3;PLD2",10
"126","Glucagon signaling pathway_Homo sapiens_hsa04922","11/101",0.965584969414257,1,0,0,0.645206700764863,0.0225958970226184,"CAMK2B;PRKAB2;CAMK2D;PHKG1;CAMK2A;ITPR1;PYGL;PPARA;PPARGC1A;FOXO1;GCK",11
"127","Bile secretion_Homo sapiens_hsa04976","7/71",0.966788512319743,1,0,0,0.584073159335158,0.0197273702307519,"SCARB1;ABCB4;ATP1B2;ATP1A1;CYP3A4;SLC4A4;SLC27A5",7
"128","Nicotinate and nicotinamide metabolism_Homo sapiens_hsa00760","2/29",0.967752303176706,1,0,0,0.408563490766465,0.0133923474414863,"NMNAT3;NADSYN1",2
"129","Pentose phosphate pathway_Homo sapiens_hsa00030","2/29",0.967752303176706,1,0,0,0.408563490766465,0.0133923474414863,"G6PD;ALDOB",2
"130","Longevity regulating pathway - multiple species_Homo sapiens_hsa04213","6/64",0.969968912191833,1,0,0,0.555390995260663,0.0169345697303029,"PRKAB2;HSPA1L;IRS2;HSPA2;CRYAB;FOXO1",6
"131","Regulation of lipolysis in adipocytes_Homo sapiens_hsa04923","5/56",0.970426031050226,1,0,0,0.528943805010156,0.0158789441433831,"NPY;AQP7;IRS2;PLIN1;ADRB2",5
"132","Starch and sucrose metabolism_Homo sapiens_hsa00500","5/56",0.970426031050226,1,0,0,0.528943805010156,0.0158789441433831,"AMY2B;GAA;PYGL;PGM2L1;GCK",5
"133","Aldosterone-regulated sodium reabsorption_Homo sapiens_hsa04960","3/39",0.970941351294832,1,0,0,0.45570543200875,0.0134383944719588,"PRKCB;ATP1A1;ATP1B2",3
"134","Fatty acid metabolism_Homo sapiens_hsa01212","4/48",0.971851874026434,1,0,0,0.493680884676145,0.0140955169389847,"PECR;ACSL1;ACOX1;ACADS",4
"135","Cholinergic synapse_Homo sapiens_hsa04725","12/111",0.972730707648602,1,0,0,0.640450877417702,0.017707185928788,"CAMK2B;ACHE;CAMK2D;PRKCB;CHRM4;GNG7;CAMK2A;KCNJ14;ITPR1;KCNQ4;GNB3;CACNA1C",12
"136","Inflammatory bowel disease (IBD)_Homo sapiens_hsa05321","6/65",0.973187023369312,1,0,0,0.546846518410499,0.0148627426958022,"IL4;HLA-DMA;MAF;SMAD3;IL23A;TLR2",6
"137","Retinol metabolism_Homo sapiens_hsa00830","6/65",0.973187023369312,1,0,0,0.546846518410499,0.0148627426958022,"RDH10;RDH16;CYP1A1;HSD17B6;CYP3A4;BCO1",6
"138","Leishmaniasis_Homo sapiens_hsa05140","7/73",0.973202845079836,1,0,0,0.568071154969811,0.0154303717251032,"IL4;MAPK11;HLA-DMA;PRKCB;MAPK12;TLR2;MAPK13",7
"139","Pyruvate metabolism_Homo sapiens_hsa00620","3/40",0.974744872823027,1,0,0,0.444312796208531,0.0113653041136091,"ALDH3A2;HAGHL;HAGH",3
"140","Tryptophan metabolism_Homo sapiens_hsa00380","3/40",0.974744872823027,1,0,0,0.444312796208531,0.0113653041136091,"ALDH3A2;AFMID;CYP1A1",3
"141","cAMP signaling pathway_Homo sapiens_hsa04024","24/199",0.976433860250927,1,0,0,0.714472838124271,0.0170389357192196,"CAMK2B;GRIA2;CAMK2D;GIPR;CAMK2A;ATP1B2;ADRB2;CACNA1C;ATP1A1;GRIN2C;PLD1;GLI3;GRIN2D;PLD2;GRIN3B;HCAR1;ACOX1;NPY;PDE4A;TNNI3;PPARA;AMH;RAPGEF3;HCN2",24
"142","MAPK signaling pathway_Homo sapiens_hsa04010","32/255",0.977297741375901,1,0,0,0.743425332218195,0.0170719618814331,"MAX;PDGFB;CACNA1C;DUSP16;CACNA1H;FGF9;RPS6KA2;MKNK2;MAP3K4;MAP2K5;DUSP4;MEF2C;JUND;MAP3K1;HSPA1L;PRKCB;EGF;PLA2G4C;HSPA2;MAPK8IP2;DUSP8;MAPK8IP3;MAPK12;MAPK8IP1;DUSP7;MAPK13;CACNB1;PPM1A;MAPK11;PPM1B;MAPT;MAP3K12",32
"143","Bladder cancer_Homo sapiens_hsa05219","3/41",0.978071996987839,1,0,0,0.43347589874003,0.00961102550495711,"CDKN1A;EGF;DAPK1",3
"144","Arginine and proline metabolism_Homo sapiens_hsa00330","4/50",0.97828512444297,1,0,0,0.4739336492891,0.0104047929626077,"ALDH3A2;ARG2;CARNS1;AZIN2",4
"145","Peroxisome_Homo sapiens_hsa04146","8/83",0.978605949720867,1,0,0,0.571004396733855,0.0123486668853902,"ABCD4;PECR;ACSL1;ACOX1;ECI2;ECH1;PIPOX;PEX1",8
"146","Fructose and mannose metabolism_Homo sapiens_hsa00051","2/32",0.979857358432216,1,0,0,0.370260663507109,0.0075341641482219,"ALDOB;FUK",2
"147","Base excision repair_Homo sapiens_hsa03410","2/33",0.982808206394892,1,0,0,0.359040643400833,0.00622622732831456,"MPG;NEIL1",2
"148","Drug metabolism - cytochrome P450_Homo sapiens_hsa00982","6/69",0.98312461998698,1,0,0,0.515145270966412,0.00876745915180376,"GSTM4;GSTO2;GSTA4;CYP3A4;GSTT2B;GSTM5",6
"149","AMPK signaling pathway_Homo sapiens_hsa04152","13/124",0.98347228021675,1,0,0,0.621082403302247,0.0103508515031067,"PRKAB2;CAB39L;PPP2R5B;TSC2;IRS2;SLC2A4;EEF2;FOXO1;CAMKK1;STK11;LEPR;ULK1;PPARGC1A",13
"150","Tight junction_Homo sapiens_hsa04530","15/139",0.983592377112004,1,0,0,0.639298987350404,0.0105763825850223,"RAB3B;MYH7B;ACTN2;PRKCB;SHROOM3;YBX3;MYL5;CLDN4;CLDN3;CLDN15;CLDN9;EXOC3;PRKCQ;TJP3;LLGL2",15
"151","Longevity regulating pathway - mammal_Homo sapiens_hsa04211","9/94",0.98458177730693,1,0,0,0.567207824947061,0.00881345643026193,"STK11;PRKAB2;TSC2;BAX;IRS2;ULK1;PPARGC1A;FOXO1;CAMKK1",9
"152","Adrenergic signaling in cardiomyocytes_Homo sapiens_hsa04261","16/148",0.985711666450589,1,0,0,0.640450877417702,0.00921698134985911,"CAMK2B;CAMK2D;TNNC1;CAMK2A;PPP2R5B;ATP1B2;CACNA1C;ADRB2;ATP1A1;MAPK12;MAPK13;CACNB1;MAPK11;TNNI3;SCN1B;RAPGEF3",16
"153","Prion diseases_Homo sapiens_hsa05020","2/35",0.987502228492937,1,0,0,0.3385240352065,0.00425745616374347,"C8G;BAX",2
"154","Basal transcription factors_Homo sapiens_hsa03022","3/45",0.98764930717691,1,0,0,0.394944707740916,0.004908213465569,"TAF11;GTF2IRD1;GTF2I",3
"155","Vitamin digestion and absorption_Homo sapiens_hsa04977","1/24",0.988202511112451,1,0,0,0.246840442338073,0.00292941140311887,"SCARB1",1
"156","Transcriptional misregulation in cancer_Homo sapiens_hsa05202","20/180",0.988547042343833,1,0,0,0.658241179568194,0.00758231166357363,"CSF1R;MEF2C;CDKN1A;CDKN1B;EYA1;MAX;LMO2;SIX1;PAX3;WNT16;FOXO1;HOXA11;BAIAP3;MEIS1;CCND2;MAF;BCL6;TSPAN7;HIST3H3;BMP2K",20
"157","Drug metabolism - other enzymes_Homo sapiens_hsa00983","3/46",0.989322614979471,1,0,0,0.386358953224809,0.00414748506231677,"IMPDH1;UPP1;CYP3A4",3
"158","Fatty acid elongation_Homo sapiens_hsa00062","1/25",0.990195922974664,1,0,0,0.23696682464455,0.00233470460637627,"ACOT7",1
"159","ECM-receptor interaction_Homo sapiens_hsa04512","7/82",0.990245457389871,1,0,0,0.505721881863368,0.00495730325909284,"LAMA5;TNXB;ITGB4;ITGA2B;LAMC2;GP1BA;THBS3",7
"160","Chemical carcinogenesis_Homo sapiens_hsa05204","7/82",0.990245457389871,1,0,0,0.505721881863368,0.00495730325909284,"GSTM4;GSTO2;GSTA4;CYP1A1;CYP3A4;GSTT2B;GSTM5",7
"161","Arrhythmogenic right ventricular cardiomyopathy (ARVC)_Homo sapiens_hsa05412","6/74",0.990726769004005,1,0,0,0.480338158063277,0.00447506808415523,"CACNB1;TCF7L1;ITGB4;ACTN2;ITGA2B;CACNA1C",6
"162","Endocrine and other factor-regulated calcium reabsorption_Homo sapiens_hsa04961","3/47",0.990776267628366,1,0,0,0.378138549964707,0.00350403387766602,"PRKCB;ATP1A1;ATP1B2",3
"163","Hypertrophic cardiomyopathy (HCM)_Homo sapiens_hsa05410","7/83",0.991317499015082,1,0,0,0.499628847142123,0.00435697014683132,"CACNB1;PRKAB2;ITGB4;TNNC1;ITGA2B;TNNI3;CACNA1C",7
"164","Ras signaling pathway_Homo sapiens_hsa04014","26/227",0.99139208644965,1,0,0,0.678539365722279,0.00586609198498774,"CSF1R;SHC2;SHC1;PDGFB;PLA2G5;PLA2G6;PLD1;PLD2;FGF9;GNG7;PAK6;RALGDS;PLA2G2F;KSR1;PRKCB;EGF;PLA2G4C;PLA2G2A;GAB2;PGF;EFNA1;EFNA3;EFNA2;GNB3;TEK;RGL2",26
"165","Intestinal immune network for IgA production_Homo sapiens_hsa04672","3/48",0.992037865984033,1,0,0,0.370260663507109,0.00295986414058795,"IL4;IL15RA;HLA-DMA",3
"166","Valine, leucine and isoleucine degradation_Homo sapiens_hsa00280","3/48",0.992037865984033,1,0,0,0.370260663507109,0.00295986414058795,"ALDH3A2;AUH;ACADS",3
"167","Allograft rejection_Homo sapiens_hsa05330","2/38",0.992289647675298,1,0,0,0.311798453479671,0.00241339198444628,"IL4;HLA-DMA",2
"168","Hepatitis C_Homo sapiens_hsa05160","13/133",0.992932327449742,1,0,0,0.57905427074796,0.00410709693978815,"SCARB1;CDKN1A;EGF;EIF2AK3;NR1H3;MAPK12;MAPK13;MAPK11;CLDN4;CLDN3;CLDN15;CLDN9;PPARA",13
"169","Malaria_Homo sapiens_hsa05144","3/49",0.993131759429096,1,0,0,0.362704323435535,0.00249973479994954,"PECAM1;TLR2;THBS3",3
"170","Collecting duct acid secretion_Homo sapiens_hsa04966","1/27",0.993229193789497,1,0,0,0.219413726522731,0.0014906600214328,"ATP6V0A1",1
"171","Phototransduction_Homo sapiens_hsa04744","1/27",0.993229193789497,1,0,0,0.219413726522731,0.0014906600214328,"GUCA1B",1
"172","Toxoplasmosis_Homo sapiens_hsa05145","11/118",0.993397588192189,1,0,0,0.552253193027552,0.00365829311474102,"LAMA5;MAPK11;HLA-DMA;HSPA1L;LY96;LAMC2;HSPA2;BIRC7;MAPK12;TLR2;MAPK13",11
"173","Epithelial cell signaling in Helicobacter pylori infection_Homo sapiens_hsa05120","5/68",0.993429252643291,1,0,0,0.435600780596599,0.00287166754468967,"MAPK11;NOD1;MAPK12;ATP6V0A1;MAPK13",5
"174","Salmonella infection_Homo sapiens_hsa05132","7/86",0.993904595057919,1,0,0,0.482199933869723,0.00294819824709467,"KLC4;MAPK11;WAS;NLRC4;KLC1;MAPK12;MAPK13",7
"175","Oxytocin signaling pathway_Homo sapiens_hsa04921","16/158",0.994131039458122,1,0,0,0.599916011758354,0.00353125596836338,"CAMK2B;PRKAB2;MEF2C;CDKN1A;CAMK2D;PRKCB;KCNJ9;PLA2G4C;CAMK2A;KCNJ14;ITPR1;CACNA1C;EEF2;CAMKK1;CACNB1;MAP2K5",16
"176","Long-term depression_Homo sapiens_hsa04730","4/60",0.994376138751164,1,0,0,0.394944707740916,0.00222738337198563,"GRIA2;PRKCB;PLA2G4C;ITPR1",4
"177","Vascular smooth muscle contraction_Homo sapiens_hsa04270","11/120",0.99463590141558,1,0,0,0.54304897314376,0.00292080900418575,"PLA2G2F;RAMP2;PRKCB;PLA2G4C;PLA2G2A;ITPR1;KCNMB4;PRKCQ;CACNA1C;PLA2G5;PLA2G6",11
"178","Carbon metabolism_Homo sapiens_hsa01200","10/113",0.995207594996333,1,0,0,0.524262886381747,0.00251851979522022,"G6PD;SHMT2;PSAT1;MTHFR;GPT;ALDOB;ENO2;ACADS;PSPH;GCK",10
"179","Thyroid cancer_Homo sapiens_hsa05216","1/29",0.995323941760988,1,0,0,0.204281745383233,0.000957473688673908,"TCF7L1",1
"180","Homologous recombination_Homo sapiens_hsa03440","1/29",0.995323941760988,1,0,0,0.204281745383233,0.000957473688673908,"RAD52",1
"181","Melanoma_Homo sapiens_hsa05218","5/71",0.995569997434234,1,0,0,0.417195113810827,0.00185228126595582,"CDKN1A;FGF9;EGF;PDGFB;MITF",5
"182","Porphyrin and chlorophyll metabolism_Homo sapiens_hsa00860","2/42",0.995980768907915,1,0,0,0.282103362672083,0.00113612331001271,"ALAS2;BLVRA",2
"183","Oocyte meiosis_Homo sapiens_hsa04114","11/123",0.996090327465914,1,0,0,0.529803876237815,0.00207541941736544,"CAMK2B;CAMK2D;STAG3;RPS6KA2;CAMK2A;ITPR1;PPP2R5B;SPDYE5;MAPK12;REC8;ANAPC2",11
"184","Synaptic vesicle cycle_Homo sapiens_hsa04721","4/63",0.996305066700948,1,0,0,0.376137816896111,0.00139237810384981,"STX1B;RAB3A;SLC17A7;ATP6V0A1",4
"185","Mucin type O-Glycan biosynthesis_Homo sapiens_hsa00512","1/31",0.996770490343421,1,0,0,0.191102277939153,0.000618165375668151,"GALNT15",1
"186","Proteoglycans in cancer_Homo sapiens_hsa05205","21/203",0.99691741224572,1,0,0,0.612845236149698,0.00189206695200232,"CAMK2B;CDKN1A;CAMK2D;WNT2B;PRKCB;FZD4;RPS6;CAMK2A;FZD9;ITPR1;WNT8B;WNT16;ANK1;HIF1A;MAPK12;MAPK13;MAPK11;TFAP4;ERBB3;HPSE;TLR2",21
"187","Rap1 signaling pathway_Homo sapiens_hsa04015","22/211",0.997047970720901,1,0,0,0.617686035803329,0.00182612397680956,"FARP2;CSF1R;PRKCB;EGF;ITGA2B;PDGFB;LPAR2;PGF;MAPK12;MAPK13;EFNA1;MAPK11;EFNA3;SIPA1L1;EFNA2;FGF9;CNR1;RAPGEF1;PRKD2;TEK;RALGDS;RAPGEF3",22
"188","Non-alcoholic fatty liver disease (NAFLD)_Homo sapiens_hsa04932","14/151",0.997417892561042,1,0,0,0.549260851825115,0.00142008472712347,"MLXIP;PRKAB2;EIF2AK3;NDUFA4L2;NR1H3;IRS2;COX6B2;COX7A1;UQCRHL;MLXIPL;NDUFS7;LEPR;BAX;PPARA",14
"189","Renal cell carcinoma_Homo sapiens_hsa05211","4/66",0.997586185916037,1,0,0,0.359040643400833,0.00086770502287471,"RAPGEF1;PDGFB;PAK6;HIF1A",4
"190","Pancreatic cancer_Homo sapiens_hsa05212","4/66",0.997586185916037,1,0,0,0.359040643400833,0.00086770502287471,"SMAD3;EGF;PLD1;RALGDS",4
"191","Central carbon metabolism in cancer_Homo sapiens_hsa05230","4/67",0.997907996306345,1,0,0,0.353681827827686,0.000740678711908224,"G6PD;GLS2;HIF1A;GCK",4
"192","Glycolysis / Gluconeogenesis_Homo sapiens_hsa00010","4/67",0.997907996306345,1,0,0,0.353681827827686,0.000740678711908224,"ALDH3A2;ALDOB;ENO2;GCK",4
"193","Ribosome_Homo sapiens_hsa03010","12/137",0.997913367347501,1,0,0,0.518905455426021,0.00108389630725302,"RPS15;RPL7A;RPS16;RPS19;RPL12;RPS6;RPL36;RPL13A;RPL13;MRPL36;RPL37;RPL18",12
"194","Small cell lung cancer_Homo sapiens_hsa05222","6/86",0.997957596550616,1,0,0,0.413314229031191,0.000845017634562103,"LAMA5;CDKN1B;MAX;ITGA2B;LAMC2;BIRC7",6
"195","RNA degradation_Homo sapiens_hsa03018","5/77",0.998021897408162,1,0,0,0.38468640364375,0.000761702783835573,"BTG2;BTG1;ENO2;TOB1;DCP1B",5
"196","Nucleotide excision repair_Homo sapiens_hsa03420","2/47",0.998237171139561,1,0,0,0.252092366643138,0.000444787857136093,"RAD23A;DDB2",2
"197","African trypanosomiasis_Homo sapiens_hsa05143","1/35",0.998459096062485,1,0,0,0.16926201760325,0.000261017662654935,"PRKCB",1
"198","Prostate cancer_Homo sapiens_hsa05215","6/89",0.998620443138302,1,0,0,0.399382288726769,0.000551350974367105,"CDKN1A;TCF7L1;CDKN1B;EGF;PDGFB;FOXO1",6
"199","N-Glycan biosynthesis_Homo sapiens_hsa00510","2/49",0.998735374333752,1,0,0,0.241802882290357,0.000305983649310524,"ST6GAL1;MGAT4A",2
"200","Jak-STAT signaling pathway_Homo sapiens_hsa04630","14/158",0.998740228932671,1,0,0,0.52492651028856,0.000661704115552269,"IL15RA;STAT5B;CDKN1A;CISH;IL11RA;EPOR;GFAP;IL4;CCND2;THPO;IL23A;IL3RA;LEPR;JAK3",14
"201","Cell adhesion molecules (CAMs)_Homo sapiens_hsa04514","12/142",0.99878460352422,1,0,0,0.500634136572992,0.000608839030645233,"NLGN3;CLDN4;CNTNAP1;HLA-DMA;NFASC;CLDN3;CLDN15;CLDN9;PECAM1;SIGLEC1;CD22;LRRC4B",12
"202","Rheumatoid arthritis_Homo sapiens_hsa05323","6/90",0.998790865337073,1,0,0,0.394944707740916,0.000477830274894286,"HLA-DMA;IL23A;LTB;TEK;TLR2;ATP6V0A1",6
"203","Dilated cardiomyopathy_Homo sapiens_hsa05414","6/90",0.998790865337073,1,0,0,0.394944707740916,0.000477830274894286,"CACNB1;ITGB4;TNNC1;ITGA2B;TNNI3;CACNA1C",6
"204","Thyroid hormone synthesis_Homo sapiens_hsa04918","4/71",0.998825896106947,1,0,0,0.333756091048662,0.000392094550768631,"PRKCB;ITPR1;ATP1B2;ATP1A1",4
"205","Amoebiasis_Homo sapiens_hsa05146","7/100",0.99891828855662,1,0,0,0.414691943127962,0.000448819810909219,"LAMA5;ARG2;C8G;ACTN2;PRKCB;LAMC2;TLR2",7
"206","Primary immunodeficiency_Homo sapiens_hsa05340","1/37",0.998935322204447,1,0,0,0.160112719354426,0.000170559268535193,"JAK3",1
"207","Morphine addiction_Homo sapiens_hsa05032","6/91",0.998940767946269,1,0,0,0.3906046560075,0.000413960250687742,"PRKCB;GRK4;KCNJ9;GNG7;PDE4A;GNB3",6
"208","Measles_Homo sapiens_hsa05162","11/136",0.999063764548268,1,0,0,0.479160858656259,0.000448817515189904,"IL4;STAT5B;CCND2;CDKN1B;HSPA1L;EIF2AK3;PRKCQ;HSPA2;JAK3;BBC3;TLR2",11
"209","B cell receptor signaling pathway_Homo sapiens_hsa04662","4/73",0.999122918954231,1,0,0,0.324612088554178,0.0002848360405123,"CD72;PRKCB;INPP5D;CD22",4
"210","Tuberculosis_Homo sapiens_hsa05152","16/178",0.999157309450813,1,0,0,0.532509718302359,0.000448930088112396,"CAMK2B;PLK3;CAMK2D;FCER1G;KSR1;CEBPG;CAMK2A;MAPK12;MAPK13;TLR1;MAPK11;HLA-DMA;IL23A;BAX;ATP6V0A1;TLR2",16
"211","NF-kappa B signaling pathway_Homo sapiens_hsa04064","6/93",0.999188285601993,1,0,0,0.382204555878306,0.00031036692268833,"PIDD1;PRKCB;LTA;LY96;PRKCQ;LTB",6
"212","TGF-beta signaling pathway_Homo sapiens_hsa04350","5/84",0.999247104136688,1,0,0,0.352629203340104,0.000265593062987743,"SMAD3;CHRD;INHBB;AMH;ACVR2B",5
"213","Serotonergic synapse_Homo sapiens_hsa04726","8/112",0.999260263508961,1,0,0,0.423155044008125,0.000313139061900131,"PRKCB;KCNJ9;GNG7;PLA2G4C;ITPR1;GNB3;CACNA1C;RAPGEF3",8
"214","Renin secretion_Homo sapiens_hsa04924","3/64",0.999300874317688,1,0,0,0.277695497630332,0.000194211951450511,"ITPR1;ADRB2;CACNA1C",3
"215","Autoimmune thyroid disease_Homo sapiens_hsa05320","2/53",0.999351236825717,1,0,0,0.223553608155236,0.000145080414954665,"IL4;HLA-DMA",2
"216","Fanconi anemia pathway_Homo sapiens_hsa03460","2/53",0.999351236825717,1,0,0,0.223553608155236,0.000145080414954665,"REV3L;FAN1",2
"217","Platelet activation_Homo sapiens_hsa04611","9/122",0.999356809526731,1,0,0,0.437028979877243,0.00028118331331027,"VAMP8;MAPK11;FCER1G;ITGA2B;PLA2G4C;ITPR1;GP1BA;MAPK12;MAPK13",9
"218","Endocytosis_Homo sapiens_hsa04144","26/259",0.999375281839527,1,0,0,0.59470438617358,0.00037163872697677,"CSF1R;TFRC;AGAP2;WAS;ASAP3;AGAP3;ADRB2;PLD1;PLD2;ERBB3;GRK4;KIF5A;RAB11FIP3;RAB11FIP4;CYTH1;PSD;SH3GLB2;SMAD3;HSPA1L;IQSEC1;EGF;VPS37D;EPS15L1;HSPA2;EPN3;ACAP1",26
"219","Graft-versus-host disease_Homo sapiens_hsa05332","1/41",0.999491114212545,1,0,0,0.144491966246677,7.35486235365125e-05,"HLA-DMA",1
"220","Toll-like receptor signaling pathway_Homo sapiens_hsa04620","7/106",0.999500608215927,1,0,0,0.391218814271662,0.000195420261320975,"TLR1;MAPK11;LY96;IRF5;MAPK12;TLR2;MAPK13",7
"221","Antigen processing and presentation_Homo sapiens_hsa04612","4/77",0.999512843955149,1,0,0,0.307749122915,0.000149958375056644,"HLA-DMA;HSPA1L;HSPA2;LGMN",4
"222","cGMP-PKG signaling pathway_Homo sapiens_hsa04022","14/167",0.999515265539957,1,0,0,0.496637057638278,0.000240795461616926,"MEF2A;MEF2C;ITPR1;IRS2;ATP2A1;ATP1B2;CACNA1C;ADRB2;ATP1A1;KCNMB4;GTF2IRD1;SLC25A4;MEF2D;GTF2I",14
"223","Pathogenic Escherichia coli infection_Homo sapiens_hsa05130","2/55",0.999535843120869,1,0,0,0.2154243860405,0.00010001392358466,"WAS;LY96",2
"224","Gap junction_Homo sapiens_hsa04540","5/88",0.999570592483703,1,0,0,0.336600603188281,0.000144569870915731,"PRKCB;EGF;ITPR1;PDGFB;MAP2K5",5
"225","Bacterial invasion of epithelial cells_Homo sapiens_hsa05100","4/78",0.999579778918993,1,0,0,0.303803621339166,0.000127691517386101,"SHC2;SHC1;WAS;ELMO3",4
"226","Progesterone-mediated oocyte maturation_Homo sapiens_hsa04914","6/98",0.999585730612136,1,0,0,0.362704323435535,0.000150288430143029,"MAPK11;RPS6KA2;SPDYE5;MAPK12;ANAPC2;MAPK13",6
"227","Non-small cell lung cancer_Homo sapiens_hsa05223","2/56",0.999607455134798,1,0,0,0.211577522004062,8.30699752678199e-05,"PRKCB;EGF",2
"228","Focal adhesion_Homo sapiens_hsa04510","18/202",0.999623130657831,1,0,0,0.527896391534888,0.000198985463927003,"LAMA5;SHC2;TNXB;ACTN2;PRKCB;SHC1;ITGB4;EGF;ITGA2B;PDGFB;LAMC2;ARHGAP5;PGF;THBS3;MYL5;CCND2;RAPGEF1;PAK6",18
"229","Salivary secretion_Homo sapiens_hsa04970","5/89",0.999627133367047,1,0,0,0.332818573938974,0.000124120082605819,"PRKCB;ITPR1;ATP1B2;ADRB2;ATP1A1",5
"230","Estrogen signaling pathway_Homo sapiens_hsa04915","6/99",0.99963824509748,1,0,0,0.359040643400833,0.000129908211837496,"SHC2;HSPA1L;SHC1;KCNJ9;ITPR1;HSPA2",6
"231","Acute myeloid leukemia_Homo sapiens_hsa05221","2/57",0.999668030991603,1,0,0,0.207865635653114,6.90164052354088e-05,"STAT5B;TCF7L1",2
"232","Alcoholism_Homo sapiens_hsa05034","15/179",0.999675196967425,1,0,0,0.496438878445286,0.000161271045287251,"HDAC5;SHC2;HDAC10;SHC1;HDAC11;GRIN2C;HDAC9;CAMKK1;GRIN2D;HDAC7;GRIN3B;GNG7;NPY;HIST3H3;GNB3",15
"233","Vasopressin-regulated water reabsorption_Homo sapiens_hsa04962","1/44",0.999706898451111,1,0,0,0.134640241275312,3.94690477626646e-05,"ARHGDIG",1
"234","Neuroactive ligand-receptor interaction_Homo sapiens_hsa04080","27/277",0.999750808778287,1,0,0,0.577446233339607,0.000143912463965855,"GRIA2;THRA;GIPR;PTGER1;CHRM4;C5AR1;CHRNA9;OPRL1;LPAR2;ADRB2;LTB4R;GALR3;HRH2;CNR1;CHRNE;LEPR;S1PR1;DRD4;P2RY11;GPR35;GRIN2C;GRIN2D;P2RX7;GRIN3B;MC1R;P2RX4;MTNR1B",27
"235","Taste transduction_Homo sapiens_hsa04742","4/83",0.999799861182191,1,0,0,0.285502198366927,5.71457911993765e-05,"GNB3;CACNA1C;TAS1R3;TAS2R5",4
"236","T cell receptor signaling pathway_Homo sapiens_hsa04660","6/104",0.999816874532074,1,0,0,0.341779074006562,6.25941843243857e-05,"IL4;MAPK11;PAK6;PRKCQ;MAPK12;MAPK13",6
"237","Alzheimer's disease_Homo sapiens_hsa05010","13/168",0.999828374612171,1,0,0,0.458417964342135,7.86829131038901e-05,"ITPR1;EIF2AK3;NDUFA4L2;ATP2A1;CACNA1C;COX6B2;GRIN2C;COX7A1;UQCRHL;GRIN2D;NDUFS7;MAPT;CDK5R1",13
"238","Hepatitis B_Homo sapiens_hsa05161","10/146",0.999896776344144,1,0,0,0.405765110692722,4.1886720031817e-05,"STAT5B;CDKN1A;SMAD3;CDKN1B;MAP3K1;PRKCB;PTK2B;BAX;DDB2;TLR2",10
"239","Ubiquitin mediated proteolysis_Homo sapiens_hsa04120","9/137",0.999898445948094,1,0,0,0.389179091569516,3.95247206475596e-05,"HERC4;CDC34;MAP3K1;FBXW8;FBXW7;BIRC7;RHOBTB1;ANAPC2;DDB2",9
"240","Vibrio cholerae infection_Homo sapiens_hsa05110","1/51",0.9999177213964,1,0,0,0.116160208159093,9.55789293163613e-06,"ATP6V0A1",1
"241","HTLV-I infection_Homo sapiens_hsa05166","23/258",0.999920340428274,1,0,0,0.528123737095411,4.20717864480591e-05,"APC2;IL15RA;STAT5B;CDKN1A;MAP3K1;SMAD3;WNT2B;FZD4;CRTC1;PDGFB;FZD9;WNT8B;WNT16;KAT2A;HLA-DMA;ZFP36;CCND2;LTA;DVL3;BAX;JAK3;SLC25A4;ANAPC2",23
"242","Protein digestion and absorption_Homo sapiens_hsa04974","4/90",0.999928803974173,1,0,0,0.263296471827278,1.87463297482786e-05,"COL13A1;COL11A2;ATP1B2;ATP1A1",4
"243","Apoptosis_Homo sapiens_hsa04210","9/140",0.999929724015727,1,0,0,0.380839539607312,2.67648139686512e-05,"HRK;PIDD1;IL3RA;ITPR1;EIF2AK3;BAX;CTSW;CTSF;BBC3",9
"244","Chagas disease (American trypanosomiasis)_Homo sapiens_hsa05142","5/104",0.999954767343408,1,0,0,0.284815895005468,1.28832709452258e-05,"MAPK11;SMAD3;MAPK12;TLR2;MAPK13",5
"245","Pathways in cancer_Homo sapiens_hsa05200","40/397",0.999956012787007,1,0,0,0.596893764847732,2.62562706427576e-05,"CSF1R;LAMA5;CDKN1A;CDKN1B;WNT2B;CTBP1;MAX;PTGER1;ITGA2B;PDGFB;WNT8B;LPAR2;LAMC2;PLD1;HIF1A;GLI3;FOXO1;FGF9;GNG7;DVL3;RALGDS;APC2;STAT5B;TCF7L1;SMAD3;PRKCB;DAPK1;FZD4;EGF;PLEKHG5;PTCH2;FZD9;AXIN1;MITF;AXIN2;WNT16;PGF;GNB3;BAX;BIRC7",40
"246","Pyrimidine metabolism_Homo sapiens_hsa00240","5/105",0.999960481183205,1,0,0,0.282103362672083,1.11486113980402e-05,"NME1-NME2;RRM2B;TXNRD3;CTPS2;UPP1",5
"247","Viral myocarditis_Homo sapiens_hsa05416","1/59",0.999978869881767,1,0,0,0.100409671459555,2.12169064551116e-06,"HLA-DMA",1
"248","Regulation of actin cytoskeleton_Homo sapiens_hsa04810","16/214",0.999978959092792,1,0,0,0.44292864419542,9.31971855039126e-06,"CYFIP2;APC2;ACTN2;ITGB4;EGF;CHRM4;ITGA2B;LIMK1;PDGFB;WAS;BAIAP2;SSH1;MYL5;FGF9;ARHGEF4;PAK6",16
"249","Osteoclast differentiation_Homo sapiens_hsa04380","7/132",0.999981659278305,1,0,0,0.314160562975729,5.76198429266268e-06,"CSF1R;MAPK11;JUND;MITF;GAB2;MAPK12;MAPK13",7
"250","PI3K-Akt signaling pathway_Homo sapiens_hsa04151","31/341",0.999983363213205,1,0,0,0.53856096510125,8.95999848554514e-06,"CSF1R;LAMA5;CDKN1A;CDKN1B;TNXB;ITGB4;ITGA2B;PDGFB;LPAR2;LAMC2;THBS3;STK11;CCND2;FGF9;GNG7;JAK3;EGF;RPS6;PPP2R5B;TSC2;PGF;EPOR;EFNA1;IL4;EFNA3;EFNA2;IL3RA;GNB3;TEK;SGK2;TLR2",31
"251","Oxidative phosphorylation_Homo sapiens_hsa00190","7/133",0.999983522310671,1,0,0,0.311798453479671,5.13776037912968e-06,"NDUFS7;NDUFA4L2;ATP12A;COX6B2;COX7A1;UQCRHL;ATP6V0A1",7
"252","Spliceosome_Homo sapiens_hsa03040","7/134",0.999985141145021,1,0,0,0.309471599349225,4.59842777858006e-06,"XAB2;HSPA1L;SNRNP70;PRPF40B;RP9;U2AF1;HSPA2",7
"253","Systemic lupus erythematosus_Homo sapiens_hsa05322","7/135",0.999986547247657,1,0,0,0.307179217131824,4.13243372928604e-06,"C4B;C4A;HLA-DMA;C8G;ACTN2;HIST3H3;C2",7
"254","Huntington's disease_Homo sapiens_hsa05016","13/193",0.9999869912506,1,0,0,0.399037399012843,5.19101128939509e-06,"DNAH1;NDUFA4L2;ITPR1;COX6B2;COX7A1;UQCRHL;BBC3;NDUFS7;DLG4;BAX;HAP1;PPARGC1A;SLC25A4",13
"255","mRNA surveillance pathway_Homo sapiens_hsa03015","3/91",0.999987319813644,1,0,0,0.19530232800375,2.4764856159932e-06,"PPP2R5B;MSI1;SRRM1",3
"256","Protein processing in endoplasmic reticulum_Homo sapiens_hsa04141","10/169",0.999990475003716,1,0,0,0.35054264000673,3.33893324503293e-06,"HSPA1L;EDEM1;HSPA4L;EIF2AK3;BAX;RAD23A;DNAJC5G;HSPA2;CRYAB;SEC31B",10
"257","Aminoacyl-tRNA biosynthesis_Homo sapiens_hsa00970","1/66",0.999991815365642,1,0,0,0.0897601608502082,7.3465710296104e-07,"MARS",1
"258","Metabolic pathways_Homo sapiens_hsa01100","115/1239",0.999992262186928,1,0,0,0.54986248656423,4.25474959774494e-06,"AHCYL2;GALNT15;AMY2B;DGKA;ENO2;NADSYN1;TM7SF2;GLUL;PSPH;ST6GAL1;G6PD;PCYT2;ACSL1;PIPOX;MAT1A;CEL;COX6B2;CHIT1;ALDH3A2;POLG2;DGKQ;HPD;SLC27A5;MTMR3;SHMT2;FAXDC2;MRI1;PLA2G5;NTPCR;PLA2G6;PLD1;FUT2;LIAS;FUT1;PLD3;ABO;PLD2;FUT3;NME1-NME2;INPP5B;FUT5;RDH10;AFMID;INPP5E;RDH16;INPP5J;ST3GAL5;LTA4H;FUK;ATP6V0A1;CHKB;CHKA;MTHFR;AZIN2;ACER2;CYP1A1;CRYL1;HPSE;DEGS2;DHCR7;GALK1;ALAS2;GAL3ST1;GPT;PYGL;FTCD;AUH;HYAL1;REV3L;UPP1;ACADS;AASS;CERS4;ARG2;GAA;PLA2G4C;CTPS2;ITPKB;RRM2B;NDUFS7;CYP21A2;ACOX1;B3GNT4;PIGL;ALDOB;LAMA5;ASAH1;IDUA;GLS2;NDUFA4L2;HSD17B6;HSD17B7;CYP3A4;LTC4S;HSD17B8;AGPAT2;CBS;CEPT1;BCO1;PLA2G2F;AOC3;AOC2;GAD1;PLA2G2A;MBOAT1;NMNAT3;GCK;UQCRHL;LPCAT4;PSAT1;IMPDH1;MGAT4A;PLCD3;PLCD1;LPIN3",115
"259","TNF signaling pathway_Homo sapiens_hsa04668","4/110",0.999993147094166,1,0,0,0.2154243860405,1.47628809030073e-06,"MAPK11;LTA;MAPK12;MAPK13",4
"260","Viral carcinogenesis_Homo sapiens_hsa05203","13/205",0.999993381480257,1,0,0,0.375679112241359,2.4864478496867e-06,"STAT5B;HDAC5;CDKN1A;CDKN1B;HDAC10;ACTN2;HDAC11;HDAC9;HDAC7;KAT2A;CCND2;BAX;JAK3",13
"261","Cell cycle_Homo sapiens_hsa04110","5/124",0.999993929723899,1,0,0,0.238877847423941,1.45005888930317e-06,"CDKN1A;CCND2;SMAD3;CDKN1B;ANAPC2",5
"262","Cytokine-cytokine receptor interaction_Homo sapiens_hsa04060","19/265",0.999993942368995,1,0,0,0.424751855494948,2.57299780229214e-06,"IL15RA;CSF1R;IL11RA;EGF;PDGFB;INHBB;ACVR2B;EDA2R;EPOR;IL4;THPO;IL23A;IL3RA;LEPR;LTA;TNFRSF25;LTB;AMH;TNFRSF21",19
"263","Olfactory transduction_Homo sapiens_hsa04740","10/415",0.999994119264777,1,0,0,0.142751099183464,8.3948388551654e-07,"CAMK2B;OR4F17;CAMK2D;OR13J1;GNG7;CAMK2A;OR2L2;OR52A1;OR10AD1;OR4A16",10
"264","MicroRNAs in cancer_Homo sapiens_hsa05206","20/297",0.999994592099012,1,0,0,0.398934048223148,2.15740166705304e-06,"MIR30B;APC2;NOTCH2;NOTCH3;CDKN1A;CDKN1B;TNXB;PRKCB;SHC1;MIR23A;GLS2;PDGFB;MIR27A;IRS2;MIR345;EFNA3;CCND2;MIR331;ERBB3;BMF",20
"265","Influenza A_Homo sapiens_hsa05164","9/175",0.999994867104813,1,0,0,0.30467163168585,1.56385156550957e-06,"IVNS1ABP;MAPK11;HLA-DMA;HSPA1L;PRKCB;EIF2AK3;HSPA2;MAPK12;MAPK13",9
"266","Chemokine signaling pathway_Homo sapiens_hsa04062","10/187",0.999994906892099,1,0,0,0.316800567706617,1.61350358315745e-06,"STAT5B;SHC2;PRKCB;SHC1;GRK4;GNG7;WAS;GNB3;PTK2B;JAK3",10
"267","Epstein-Barr virus infection_Homo sapiens_hsa05169","11/202",0.999995011874355,1,0,0,0.322603350382432,1.60919005873031e-06,"HDAC5;MAPK11;CDKN1A;CDKN1B;HSPA1L;AKAP8L;EIF2AK3;HSPA2;JAK3;MAPK12;MAPK13",11
"268","Parkinson's disease_Homo sapiens_hsa05012","6/142",0.999995033699572,1,0,0,0.250317068286496,1.24315285041865e-06,"NDUFS7;NDUFA4L2;COX6B2;COX7A1;SLC25A4;UQCRHL",6
"269","Herpes simplex infection_Homo sapiens_hsa05168","9/185",0.999995217185863,1,0,0,0.288202894837966,1.37842417615206e-06,"HLA-DMA;CDC34;EIF2AK3;LTA;GTF2IRD1;PILRA;GTF2I;TLR2;ARNTL",9
"270","RNA transport_Homo sapiens_hsa03013","8/172",0.999995260915929,1,0,0,0.275542819354128,1.30582368024127e-06,"CYFIP2;EIF4A2;POM121;POM121C;EEF1A2;GEMIN8;AAAS;SRRM1",8
"271","Purine metabolism_Homo sapiens_hsa00230","5/176",0.99999542469102,1,0,0,0.16830030159414,7.70027642706684e-07,"NME1-NME2;RRM2B;IMPDH1;PDE4A;NTPCR",5
"272","Natural killer cell mediated cytotoxicity_Homo sapiens_hsa04650","5/135",0.999995440835375,1,0,0,0.219413726522731,1.00034558051177e-06,"SHC2;FCER1G;PRKCB;SHC1;PTK2B",5
"273","Phagosome_Homo sapiens_hsa04145","6/154",0.999995503971969,1,0,0,0.23081184218625,1.03773884520632e-06,"SCARB1;HLA-DMA;TFRC;ATP6V0A1;TLR2;THBS3",6
