"","c1_HuAgeGBsplitRnaseq_83....SWIM_StemLike_inGB_Differentiated_State_Hu__"
"1","ARHGAP24"
"2","CABP4"
"3","CLUL1"
"4","COBL"
"5","FAM178B"
"6","FHIT"
"7","ISYNA1"
"8","NRARP"
"9","PPP2R2B"
"10","TMPRSS5"
"11","TPD52"
