"","c1_HuAgeGBsplitRnaseq_73....TAPbyQNP__"
"1","AGAP2"
"2","BICD1"
"3","CDK4"
"4","CREBL2"
"5","DERA"
"6","DRAM1"
"7","DUSP16"
"8","EPS8"
"9","FRMD4B"
"10","MAGOHB"
"11","NEDD1"
"12","NFYB"
"13","NUP37"
"14","PARPBP"
"15","PLD1"
"16","RPS26"
"17","SMOC2"
"18","STRAP"
"19","UTP20"
