"","c1_HuAgeGBsplitRnaseq_446....QGBObyPGBO__"
"1","AC073346.2"
"2","AC093278.2"
"3","AL034346.1"
"4","AL360270.3"
"5","COBLL1"
"6","FOXL1"
"7","FTH1P2"
"8","GPR85"
"9","HLX"
"10","MFSD2A"
"11","MT1F"
"12","MT1G"
"13","NKD2"
"14","SELENBP1"
"15","SLC16A14"
"16","STC1"
"17","TBX3"
"18","ZC3H12A"
