"","c1_HuAgeGBsplitRnaseq_408....NSCbyNPC__"
"1","APLF"
"2","ARID3A"
"3","ASXL1"
"4","C19orf38"
"5","CNTD1"
"6","DLX2"
"7","EOGT"
"8","GP9"
"9","GPD1"
"10","HCK"
"11","IGFALS"
"12","IGSF9"
"13","PLAGL2"
"14","SLC10A7"
"15","SPATA5"
"16","TTLL9"
