"","c1_HuAgeGBsplitRnaseq_349....PGBObyQGBO__"
"1","ABCA4"
"2","AC092681.3"
"3","AC245884.10"
"4","AL022334.2"
"5","EMP1"
"6","HAPLN3"
"7","LINC00648"
"8","SSTR5"
"9","SSTR5-AS1"
"10","TANC1"
"11","TOP3BP1"
