"","c1_HuAgeGBsplitRnaseq_704....PSVZbyQSVZ__"
"1","APIP"
"2","CASP6"
"3","COMMD3"
"4","DUSP8"
"5","HRAS"
"6","LRCH2"
"7","MRPL23"
"8","PAM"
"9","PDE3B"
"10","PROX1"
"11","PSMA1"
"12","RRM1"
"13","SBF2"
"14","TSSC4"
