"","c1_HuAgeGBsplitRnaseq_75....QNPbyTAP__"
"1","ARRDC4"
"2","CCND1"
"3","DRC3"
"4","HECTD2"
"5","IGF1R"
"6","KLRD1"
"7","LSP1"
"8","MYCN"
"9","MYH3"
"10","PPP1R3C"
"11","PXMP4"
"12","PXN"
"13","RAD51C"
"14","RPS3"
"15","SPHK1"
"16","TNNT1"
