"","c1_HuAgeGBsplitRnaseq_14....NSCbyNPC__"
"1","ADCY1"
"2","ANKLE1"
"3","C15orf41"
"4","EXOC2"
"5","FAM81A"
"6","FGD3"
"7","FLNB"
"8","FZD9"
"9","INPP5D"
"10","LITAF"
"11","NUAK2"
"12","ODC1"
"13","PDLIM1"
"14","RNASE10"
"15","WWP2"
"16","ZDHHC15"
