"","c1_HuAgeGBsplitRnaseq_367....PGBCbyQGBC__"
"1","AC018730.2"
"2","AL591806.3"
"3","C1GALT1P1"
"4","CBX1P1"
"5","CCSAP"
"6","CPSF6"
"7","DDR2"
"8","DYNLT3P2"
"9","F11R"
"10","LIN7A"
"11","LINC01114"
"12","LINC01465"
"13","LOXL4"
"14","METAP2"
"15","MRPS35"
"16","MXRA8"
"17","NEMP1"
"18","PLA2G3"
"19","PLAC8L1"
"20","PRIM1"
"21","PRMT6"
"22","RASSF8"
"23","SMARCAD1"
"24","SPON2"
"25","TPT1P6"
