"","c1_HuAgeGBsplitRnaseq_67....QSVZbyPSVZ__"
"1","CAMK2B"
"2","CHI3L1"
"3","NUPR2"
"4","POR"
"5","RHBDD2"
"6","SLC38A3"
"7","SLC39A8"
"8","SOD2"
"9","TAGLN3"
"10","TMEM120A"
"11","TRIM29"
"12","TYW1"
