"","c1_HuAgeGBsplitRnaseq_58....PGBObyQGBO__"
"1","AC099791.2"
"2","AC239804.1"
"3","CEP83-AS1"
"4","GAS5-AS1"
"5","LMNA"
"6","MSTO2P"
"7","MTMR11"
"8","OTUD7B"
"9","PRRX1"
"10","SEMA6C"
"11","SYT11"
"12","THBS3"
"13","TOR1AIP1"
