"","c1_HuAgeGBsplitRnaseq_518....PSVZbyQSVZ__"
"1","ARID5B"
"2","BICC1"
"3","CACNG5"
"4","COMMD2"
"5","FAM126A"
"6","MAP4K2"
"7","NFKBIZ"
"8","PDK3"
"9","RAI14"
"10","SERINC2"
"11","SERTAD4"
"12","SOX21"
