"","c1_HuAgeGBsplitRnaseq_501....QSVZbyPSVZ__"
"1","ANPEP"
"2","CACHD1"
"3","CDA"
"4","CR1"
"5","ETS2"
"6","FNDC3B"
"7","GSTM4"
"8","HSD11B1"
"9","IFNGR1"
"10","IQSEC1"
"11","LUZP2"
"12","MEI1"
"13","MXD1"
"14","PGF"
"15","PLEK"
"16","PLOD2"
"17","RARRES1"
"18","TNFAIP2"
"19","TNFAIP8"
