"","c1_HuAgeGBsplitRnaseq_73....PSVZbyQSVZ__"
"1","CDK4"
"2","CDKN1B"
"3","CTDSP2"
"4","DUSP16"
"5","FANCL"
"6","FRMD4B"
"7","MAGOHB"
"8","MB21D2"
"9","METTL1"
"10","MGAT4C"
"11","NEDD1"
"12","NFYB"
"13","NUP37"
"14","PARPBP"
"15","PTPRO"
"16","RPS26"
"17","STRAP"
"18","UTP20"
