"","c1_HuAgeGBsplitRnaseq_73....NSCbyNPC__"
"1","ATPAF1"
"2","CDK4"
"3","DERA"
"4","DRAM1"
"5","EPS8"
"6","ETV6"
"7","FANCL"
"8","GDF3"
"9","NEDD1"
"10","NUP37"
"11","PARPBP"
"12","PTPRO"
"13","SMIM22"
"14","STRAP"
"15","TMEM69"
"16","VRK2"
