"","c1_HuAgeGBsplitRnaseq_405....PGBCbyQGBC__"
"1","AC098828.2"
"2","AC104843.1"
"3","AC131235.1"
"4","CAP2"
"5","CCND1"
"6","HECTD2"
"7","POLR3GL"
"8","PPP1R3C"
"9","PXN"
"10","RAD51C"
"11","RDH14"
"12","TRAF1"
