"","c1_HuAgeGBsplitRnaseq_776....QSVZbyPSVZ__"
"1","ATP6V0B"
"2","CAMLG"
"3","DECR2"
"4","EDF1"
"5","EIF1"
"6","FOXRED2"
"7","GDE1"
"8","LETMD1"
"9","NIM1K"
"10","QARS"
"11","RAB34"
"12","RPS9"
"13","SPR"
"14","TXNDC15"
"15","UQCRQ"
"16","ZDHHC12"
"17","ZMYND10"
