"","c1_HuAgeGBsplitRnaseq_1398....TAPbyQNP__"
"1","C6orf118"
"2","CACHD1"
"3","CD300E"
"4","CR1"
"5","FAM135B"
"6","HIF1A"
"7","IFNGR1"
"8","MSH2"
"9","NLRP12"
"10","PPIF"
"11","PPP1R14C"
"12","SYTL3"
"13","TNFAIP8"
