"","c1_HuAgeGBsplitRnaseq_338....PGBObyQGBO__"
"1","AC092375.2"
"2","AL132821.1"
"3","AL355297.3"
"4","AP003355.3"
"5","CRIP1"
"6","CYP27C1"
"7","DOCK5"
"8","GPRC5A"
"9","MIR4514"
"10","NPIPA8"
"11","PPP1R26-AS1"
"12","RGS9BP"
