"","c1_HuAgeGBsplitRnaseq_1211....QGBCbyPGBC__"
"1","AHRR"
"2","AL807752.1"
"3","ARID3A"
"4","CCDC154"
"5","CNTD1"
"6","CYP2W1"
"7","DUSP15"
"8","FAM213A"
"9","HOTTIP"
"10","IGFALS"
"11","ITGA2B"
"12","MSI1"
"13","PTGER1"
"14","RPS27P25"
"15","RUNDC3A-AS1"
"16","SHC2"
