"","c1_HuAgeGBsplitRnaseq_446....QGBCbyPGBC__"
"1","AC093278.2"
"2","C2CD4B"
"3","CA4"
"4","DEGS2"
"5","DLL4"
"6","EGFL7"
"7","FOXF2"
"8","FUT1"
"9","IZUMO1"
"10","KCNJ2-AS1"
"11","MMP25"
"12","PECAM1"
"13","PTPRB"
"14","RASIP1"
"15","SEMA3G"
"16","TFRC"
"17","TIE1"
