"","c1_HuAgeGBsplitRnaseq_681....PGBObyQGBO__"
"1","AL138762.1"
"2","AL365181.2"
"3","AL445248.1"
"4","ATOH7"
"5","CSGALNACT2"
"6","IL13RA2"
"7","KCNMB3"
"8","KIRREL1"
"9","PXDN"
"10","RN7SKP160"
"11","S100A10"
"12","SLC1A3"
"13","SVIL"
