"","c1_HuAgeGBsplitRnaseq_26....QNPbyTAP__"
"1","ALDH1A3"
"2","AXIN2"
"3","C17orf98"
"4","FAT4"
"5","KLF5"
"6","LHPP"
"7","OR2AG2"
"8","OR52B4"
"9","OR5A1"
"10","OR5B3"
"11","PDZD9"
"12","PNLIP"
"13","RNF225"
"14","SBSN"
"15","SLC39A5"
"16","SMTN"
"17","TPBG"
"18","VGLL3"
