"","c1_HuAgeGBsplitRnaseq_71....QNPbyTAP__"
"1","APP"
"2","ARHGEF19"
"3","FAT1"
"4","GDPD5"
"5","IGFLR1"
"6","IRS2"
"7","KRT15"
"8","LAMP1"
"9","LBX1"
"10","LIG4"
"11","LRRN4CL"
"12","ROBO1"
"13","SVIP"
"14","TEX14"
