"","c1_HuAgeGBsplitRnaseq_86....PGBObyQGBO__"
"1","AC005180.2"
"2","AC026471.6"
"3","AC069224.1"
"4","AC080080.1"
"5","AHNAK2"
"6","AOC3"
"7","CAVIN3"
"8","FAM46B"
"9","MCAM"
"10","NOTCH3"
"11","OLFML2B"
"12","TAGLN"
"13","TGFB1I1"
"14","THBS1"
"15","TPM1"
"16","TPM2"
