"","c1_HuAgeGBsplitRnaseq_1129....QGBCbyPGBC__"
"1","AC004839.1"
"2","AP001264.1"
"3","BANCR"
"4","BHLHE41"
"5","FAM86FP"
"6","FAM90A1"
"7","FAR2P2"
"8","MIR450A1"
"9","MIR450B"
"10","TBC1D3L"
"11","TMEM246"
"12","TMEM246-AS1"
