"","c1_HuAgeGBsplitRnaseq_2024....NPCbyNSC__"
"1","ACHE"
"2","ASXL3"
"3","BACH2"
"4","CCDC88C"
"5","DERL3"
"6","DMC1"
"7","ELAVL2"
"8","EMX1"
"9","GDPD5"
"10","SEMA3C"
"11","SH3RF3"
"12","SNAP91"
"13","SPINK2"
"14","SVIP"
"15","TMEM215"
"16","TMEM74"
"17","WNT7A"
