"","c1_HuAgeGBsplitRnaseq_96....QGBObyPGBO__"
"1","AC002451.2"
"2","AC005899.7"
"3","AC009967.1"
"4","AC010424.1"
"5","AC114491.1"
"6","AL035420.2"
"7","CNOT4P1"
"8","HSP90AB3P"
"9","MAGEH1"
"10","OTX1"
"11","PABPC3"
"12","PCMTD1P1"
"13","PPIAP22"
"14","RN7SKP181"
"15","RN7SL70P"
"16","RPL12P30"
