"","c1_HuAgeGBsplitRnaseq_515....NPCbyNSC__"
"1","CYGB"
"2","KRT79"
"3","MPIG6B"
"4","NINJ2"
"5","PDGFRL"
"6","SHBG"
"7","SLC7A2"
"8","SMIM1"
"9","TDO2"
"10","TMEM200B"
"11","TTC12"
"12","TWIST1"
"13","VNN1"
