"","c1_HuAgeGBsplitRnaseq_1032....QGBCbyPGBC__"
"1","AC022868.1"
"2","ADAM22"
"3","AL121782.1"
"4","AL590004.3"
"5","AP003355.3"
"6","C17orf97"
"7","HLA-W"
"8","KIAA1024"
"9","NPAS1"
"10","RNU6-947P"
"11","SH3BP1"
"12","UPK3B"
"13","WNT8B"
