"","c1_HuAgeGBsplitRnaseq_704....QSVZbyPSVZ__"
"1","ARNTL"
"2","BET1L"
"3","CD81"
"4","CHL1"
"5","COPB1"
"6","CYP2R1"
"7","GABBR1"
"8","HFE"
"9","MAP3K5"
"10","OLFM1"
"11","PDHX"
"12","PLA2G12A"
"13","PTDSS2"
"14","RNH1"
"15","RRAS2"
"16","STIM1"
"17","SWAP70"
"18","TMEM9B"
