"","c1_HuAgeGBsplitRnaseq_1293....QGBCbyPGBC__"
"1","AL121580.1"
"2","AL139393.1"
"3","AL645568.3"
"4","APOBEC3H"
"5","DDX39BP1"
"6","EML2"
"7","FRMD4A"
"8","HSD3BP1"
"9","MCF2L2"
"10","METTL25"
"11","MIR4689"
"12","MKRN3"
"13","NDUFA5P6"
"14","SESTD1"
"15","SNHG14"
"16","THAP2"
"17","VN1R12P"
