"","c1_HuAgeGBsplitRnaseq_362....QGBCbyPGBC__"
"1","AC009108.1"
"2","AC010422.3"
"3","AC068279.1"
"4","AC092337.1"
"5","AL096803.3"
"6","AL158042.1"
"7","FP325317.1"
"8","RNU6-45P"
"9","RPL35AP26"
"10","TRAJ21"
"11","Z84480.1"
"12","Z92846.1"
