"","c1_HuAgeGBsplitRnaseq_451....QGBCbyPGBC__"
"1","AC004817.4"
"2","AC005592.1"
"3","AC009127.2"
"4","AC015660.2"
"5","AC015660.3"
"6","AC015660.4"
"7","AL353622.2"
"8","AL713866.1"
"9","AP003108.1"
"10","FAM96AP2"
"11","GAPDHP23"
"12","HSD3BP2"
"13","HSD3BP5"
"14","LINC00898"
"15","LINC00957"
"16","LINC01844"
"17","MAST3"
"18","MEF2C"
"19","RAP1GAP2"
"20","ROGDI"
"21","TRABD2A"
