"","c1_HuAgeGBsplitRnaseq_475....QGBObyPGBO__"
"1","ABRACL"
"2","AC025262.2"
"3","AC113145.1"
"4","DHRSX"
"5","GRIP2"
"6","HCAR1"
"7","PCOLCE2"
"8","PHKA2-AS1"
"9","PPIAP48"
"10","RTN4RL1"
"11","SLC25A6"
"12","TMPRSS9"
"13","WFDC2"
