"","c1_HuAgeGBsplitRnaseq_576....NPCbyNSC__"
"1","BMPER"
"2","CGN"
"3","DCUN1D4"
"4","DIXDC1"
"5","EMP2"
"6","EPHA7"
"7","HEY2"
"8","MGAT5B"
"9","NIPAL3"
"10","NLGN2"
"11","PDGFRA"
"12","PROM1"
"13","RLBP1"
"14","SGCB"
"15","TTLL7"
"16","UCHL1"
"17","VSTM2A"
"18","WFIKKN2"
