"","c1_HuAgeGBsplitRnaseq_360....PGBObyQGBO__"
"1","AC004854.1"
"2","AC008736.2"
"3","AC026150.1"
"4","AL357140.3"
"5","AL365361.1"
"6","ATP8B3"
"7","C8G"
"8","FP236383.3"
"9","KIAA1522"
"10","RPS3AP24"
"11","SSH1"
"12","SYNC"
"13","TMEM185B"
