"","c1_HuAgeGBsplitRnaseq_66....PGBObyQGBO__"
"1","ABCA4"
"2","ABHD2"
"3","AC092681.3"
"4","AC093458.2"
"5","AC245884.10"
"6","AL022334.2"
"7","CYBRD1"
"8","EMP1"
"9","ENDOD1"
"10","HAPLN3"
"11","LINC00648"
"12","RPL12P42"
"13","SASH1"
"14","SSTR5"
"15","SSTR5-AS1"
"16","TANC1"
"17","TOP3BP1"
