"","c1_HuAgeGBsplitRnaseq_384....TAPbyQNP__"
"1","ATP10D"
"2","CAV1"
"3","CDH19"
"4","COMMD8"
"5","DLL1"
"6","FAM120B"
"7","LIMD1"
"8","MAGI1"
"9","MAP3K4"
"10","NEDD4L"
"11","RBM43"
"12","SEMA3E"
"13","SIX4"
"14","TMEM131"
"15","WWP1"
