"","c1_HuAgeGBsplitRnaseq_408....QSVZbyPSVZ__"
"1","ACSS2"
"2","C16orf74"
"3","C2CD4C"
"4","ELMOD3"
"5","EOGT"
"6","EXOC6B"
"7","GGT7"
"8","GLRB"
"9","GRIA2"
"10","GSS"
"11","HID1"
"12","MSX1"
"13","NTN3"
"14","PDGFC"
"15","PLAGL2"
"16","SLC10A7"
"17","TM9SF4"
"18","ZDHHC1"
