"","c1_HuAgeGBsplitRnaseq_59....QGBObyPGBO__"
"1","AL049838.1"
"2","AL138995.1"
"3","AL442663.4"
"4","ARID4A"
"5","C14orf37"
"6","CA14"
"7","RPL36AL"
"8","RPS3AP2"
"9","RTRAF"
"10","SLC35F2"
"11","SLC8A3"
"12","SLIRP"
"13","SMOC1"
