"","c1_HuAgeGBsplitRnaseq_70....QGBCbyPGBC__"
"1","AKNAD1"
"2","AL365205.3"
"3","BX005266.3"
"4","DLL1"
"5","EPHA5"
"6","EPHA5-AS1"
"7","EVX2"
"8","FAM120B"
"9","HDAC9"
"10","KANK2"
"11","KCNK7"
"12","MAP3K4"
"13","RALGPS2"
"14","RNU6-1150P"
"15","SALRNA1"
"16","SIX1"
"17","ZNF703"
