"","c1_HuAgeGBsplitRnaseq_515....PGBCbyQGBC__"
"1","AC005102.1"
"2","AC005840.1"
"3","AC093426.1"
"4","AC108865.1"
"5","AC117402.1"
"6","ANTXR1"
"7","AP001471.1"
"8","FO393409.1"
"9","ITGA11"
"10","KRT79"
"11","LINC01705"
"12","LINC01973"
"13","NT5DC1"
"14","ODF2L"
"15","RPL29P19"
"16","TDO2"
"17","TMEM200B"
"18","TTC12"
"19","TWIST1"
