"","c1_HuAgeGBsplitRnaseq_553....NSCbyNPC__"
"1","ANKRD52"
"2","ATP5F1B"
"3","CHAC1"
"4","HRK"
"5","MARS"
"6","P2RY6"
"7","PAN2"
"8","PIP4K2C"
"9","RBMS2"
"10","SHMT2"
"11","SLC25A5"
"12","STAT6"
"13","TIMELESS"
"14","TMEM106C"
"15","TMEM229A"
"16","TRIB3"
"17","XPOT"
