"","c1_HuAgeGBsplitRnaseq_553....NPCbyNSC__"
"1","ARHGEF25"
"2","COQ10A"
"3","DCTN2"
"4","DDIT3"
"5","DTX3"
"6","GLI1"
"7","IL23A"
"8","IL33"
"9","KIF5A"
"10","MAP3K12"
"11","MBD6"
"12","NDUFA4L2"
"13","NUPR1"
"14","NXPH4"
"15","PFKM"
"16","PHKA1"
"17","RARG"
"18","SLC13A3"
"19","TMEM38A"
