"","c1_HuAgeGBsplitRnaseq_287....QGBCbyPGBC__"
"1","AC005753.1"
"2","AC006378.2"
"3","AC007386.1"
"4","AC008443.1"
"5","AC008443.5"
"6","AC008610.1"
"7","AC091825.1"
"8","AC139795.2"
"9","AL021368.3"
"10","AL391807.1"
"11","ARHGEF37"
"12","BET1"
"13","CNNM3-DT"
"14","CYTH1"
"15","ERGIC1"
"16","F12"
"17","FAM193B"
"18","FAXDC2"
"19","FBLL1"
"20","LINC00847"
"21","LTA"
"22","MIR331"
"23","MRNIP"
"24","PCDH1"
"25","RNF44"
"26","SPTBN2"
"27","TMEM269"
"28","VAT1"
