"","c1_HuAgeGBsplitRnaseq_60....QNPbyTAP__"
"1","ADCK2"
"2","BPGM"
"3","BRI3"
"4","CDK5"
"5","CHPF2"
"6","CREB3L2"
"7","DNAJC30"
"8","GNB2"
"9","HS1BP3"
"10","IFT22"
"11","LRCH4"
"12","PLOD3"
"13","PRKRIP1"
"14","SLC4A2"
"15","SSH3"
"16","STK40"
"17","ZYX"
