"","c1_HuAgeGBsplitRnaseq_159....QGBCbyPGBC__"
"1","AC009163.5"
"2","AC068620.1"
"3","C12orf77"
"4","CHST6"
"5","CISH"
"6","GAB2"
"7","IQCD"
"8","KRTCAP3"
"9","LINC01268"
"10","LINC01770"
"11","MKRN9P"
"12","NOA1"
"13","OR4A16"
"14","TNK2"
"15","ZP3"
