"","c1_HuAgeGBsplitRnaseq_19....QSVZbyPSVZ__"
"1","ACTR3C"
"2","ARRB1"
"3","C2orf88"
"4","CABLES1"
"5","CACNA1E"
"6","DDX3Y"
"7","EIF1AY"
"8","FABP5"
"9","KDM5D"
"10","KLB"
"11","LRRC61"
"12","PCDH11Y"
"13","RARRES2"
"14","TPD52L1"
"15","UTY"
