"","c1_HuAgeGBsplitRnaseq_477....QSVZbyPSVZ__"
"1","CMTM5"
"2","COL23A1"
"3","DGKB"
"4","GALNT6"
"5","GPR19"
"6","KCNK2"
"7","MAGEH1"
"8","NOS1AP"
"9","PAMR1"
"10","PCDH20"
"11","PLA2G5"
"12","SDK2"
"13","SLC8B1"
"14","SORCS2"
"15","TGFA"
"16","TPCN1"
