"","c1_HuAgeGBsplitRnaseq_27....QGBCbyPGBC__"
"1","AC022417.1"
"2","AC141586.1"
"3","ATXN7L2"
"4","C5orf22"
"5","CEPT1"
"6","DPH5"
"7","DRAM2"
"8","GPR61"
"9","NNT-AS1"
"10","RSBN1"
"11","SRRM1"
"12","TMEM167B"
"13","TOB1"
