"","c1_HuAgeGBsplitRnaseq_294....NPCbyNSC__"
"1","A2M"
"2","BAALC"
"3","CCL17"
"4","CNP"
"5","CNR1"
"6","GIMAP4"
"7","HELZ2"
"8","IFI44"
"9","IL12RB1"
"10","ODF3B"
"11","PLSCR1"
"12","PRSS36"
"13","RHCG"
"14","SLC12A4"
"15","SLC19A3"
"16","TLR3"
"17","TM4SF1"
"18","VAMP5"
