"","c1_HuAgeGBsplitRnaseq_405....QGBCbyPGBC__"
"1","AC004080.1"
"2","AC024940.3"
"3","AC118658.1"
"4","ATP2A1"
"5","CCND2-AS1"
"6","FITM1"
"7","GPR35"
"8","NDUFB4P8"
"9","PLIN4"
"10","RBM24"
"11","ROBO3"
"12","RPS19P1"
