"","c1_HuAgeGBsplitRnaseq_70....QGBObyPGBO__"
"1","AC096720.2"
"2","AC138356.3"
"3","BIK"
"4","BX005266.3"
"5","DARS-AS1"
"6","DLL1"
"7","DOC2B"
"8","EVX2"
"9","FAM110B"
"10","HBQ1"
"11","RGS8"
"12","RNA5SP69"
"13","RNU6-1150P"
"14","SIX1"
"15","TRBVB"
