"","c1_HuAgeGBsplitRnaseq_31....TAPbyQNP__"
"1","BMP7"
"2","CAMKV"
"3","DDN"
"4","DNM1"
"5","ENC1"
"6","FSD1L"
"7","MAN1A2"
"8","MAP7D2"
"9","MITF"
"10","NCDN"
"11","NEFM"
"12","NRGN"
"13","PDZK1"
"14","PRAF2"
"15","SH2D5"
"16","SLC20A1"
"17","SSR4"
"18","STXBP5"
"19","SYT5"
