"","c1_HuAgeGBsplitRnaseq_305....PGBObyQGBO__"
"1","AC096733.2"
"2","AC107214.2"
"3","AC115522.1"
"4","AL133325.3"
"5","AL157700.1"
"6","CAMK2D"
"7","CYP4V2"
"8","FAM114A1"
"9","LINC02560"
"10","LYPD5"
"11","MR1"
"12","PDLIM5"
"13","PKD2"
"14","PLEKHH2"
"15","SEC24D"
"16","THAP9"
