"","c1_HuAgeGBsplitRnaseq_191....TAPbyQNP__"
"1","CAMKV"
"2","DDN"
"3","DNM1"
"4","ENC1"
"5","FSD1L"
"6","MAN1A2"
"7","MAP7D2"
"8","NCDN"
"9","NEFM"
"10","NRGN"
"11","PRAF2"
"12","SH2D5"
"13","SSR4"
"14","STXBP5"
"15","SYT5"
