"","c1_HuAgeGBsplitRnaseq_446....TAPbyQNP__"
"1","APOLD1"
"2","ARHGAP18"
"3","COBLL1"
"4","ELOVL7"
"5","GLCE"
"6","GPCPD1"
"7","JCAD"
"8","MFSD2A"
"9","NET1"
"10","NKD2"
"11","QPCT"
"12","SLC16A1"
"13","SLC16A14"
"14","SLC30A1"
"15","SLC39A10"
"16","TNFRSF4"
