"","c1_HuAgeGBsplitRnaseq_160....PGBObyQGBO__"
"1","AC016168.2"
"2","AC024243.1"
"3","AC080078.2"
"4","AC093844.1"
"5","AL353608.2"
"6","AP001330.5"
"7","LRRC15"
"8","OSCAR"
"9","SNX9"
"10","TTLL7"
"11","USP46-AS1"
