ADAM33
MIR3928
IGDCC4
RNA5SP162
TRAJ7
MIR4457
RF00150
AC008121.1
MIR548H5
MIR4460
AC105245.1
RNU6-1119P
AC091564.1
Z82188.1
AC108039.2
IGKV6-21
CD180
RNU6-11P
RN7SL278P
SNORA10B
FUCA1
MIR4465
ALG1L12P
RNU7-26P
AP001005.2
RNA5SP463
SNORA3C
RNA5SP443
RNU6-21P
RNU6-273P
SUMO2P13
RNA5SP459
ODF3L1
AC079587.1
TRAV6
GAPDHP45
RPS8P4
NBPF8
RNU6-739P
AC234779.1
PLEKHA2
AL353193.1
RNU4-41P
YWHAEP3
NENFP3
RNU6-1273P
CCND3P1
SMIM12P1
MIR7154
CFL1P8
AC011506.1
AL022237.1
MARK2P5
AP000265.1
AC005262.1
RNA5SP56
RPL31P40
RPS15P9
RN7SL396P
RNA5SP130
SIMC1
MIR3135B
RN7SKP153
RN7SL795P
DEFB136
RNU6-1124P
AL691482.1
RPS7P6
RUBCN
RNA5SP531
TDGF1P4
AL078621.1
AL603882.1
RNU2-64P
AL021153.1
NHP2P2
LYPLA2P2
RPS26P54
YPEL5P3
RNU1-62P
AL645568.3
AC012498.2
AC004522.1
RPS29P8
UBL5P1
RNU7-92P
RNA5SP329
AL137792.1
AL645568.2
RNU6-1060P
SNORD28B
ADAP1
IGHV7-81
RNU1-21P
AC015914.2
AL354692.1
WDR53
RNY4P28
RF01182
SENP5
AC022878.1
SPRR2C
AL109618.2
MIR4267
AC006499.8
AL135901.1
ATP5PDP3
AC009779.6
RNU6ATAC41P
CYP4F44P
AL050321.1
SRMP1
AL627095.1
UBE2HP1
AC026477.1
RNA5SP396
RN7SL586P
RNU6-283P
RNU6ATAC2P
MTATP6P17
KRTAP1-3
RNU6-440P
RNU6-1007P
RNA5SP287
PPIAP89
KRTAP4-7
RNU6-362P
AC136932.1
LINC01067
IFNL3P1
RNU6-1097P
AC012629.3
SMYD5
NBPF14
AKR1B1P7
AC010677.1
RNU1-58P
MKRN9P
LARP1BP2
GATAD2A
FTH1P18
RNA5SP427
RN7SL88P
AMD1P4
MTCYBP22
AL356010.1
IGKV2-26
AL589994.2
RN7SKP15
PRKACG
NDUFS5P2
RNU6-563P
AC025174.1
PHBP14
IGKV3D-7
PPY2P
AL031864.2
RNU4-83P
AL445646.1
AL356361.2
RN7SL785P
PRR13P7
RNU2-56P
RN7SL480P
AC006445.1
RNU6-500P
AC245054.2
PSMA6P4
KRTAP4-9
OR6B3
AC127391.1
CDC27P1
OR7A8P
AL731768.1
B3GNTL1P2
AL355989.2
KRTAP4-5
IGHVII-28-1
OR7E108P
UBL5P3
AC010928.3
AL357094.1
IGHV3-6
RN7SL104P
AL357080.1
AC064853.4
RNA5SP486
SNRPCP18
POLR3GP2
AL138976.1
AC091912.2
RPSAP73
AC243312.1
HMGB3P23
AL121916.1
MTND6P22
IMP3P1
TAF7L
MTCO1P55
AC009500.1
RNA5SP24
AL356102.1
AC006363.1
AL161651.1
RN7SL135P
RAD54L2
LINC01728
AL512274.1
SPANXB1
FAM8A3P
RNA5SP178
AC244197.1
AC105105.3
RPPH1-2P
OR2AQ1P
FBXO3-AS1
OR7E116P
RNU1-89P
PSMA6P2
SLC25A51P2
KDM4E
AL139415.2
NPM1P42
AP000487.1
RNU6-309P
NDUFA12P1
Z98751.1
AC110768.1
FKBP1AP3
Z98043.1
RNA5SP472
KPNA6
AL357055.2
RPL7P41
NMBR-AS1
SLC25A1P4
RPS3AP4
RPL19P16
HMGB3P12
AL034397.1
AL451086.1
RN7SL60P
AC009902.1
RNU6-996P
AP001124.1
AC079112.1
RNA5SP279
AC009269.1
C1QBPP1
AC078974.1
RPS29P9
RPL7P40
AC092862.1
RN7SL366P
FAM90A17P
Z94722.1
RN7SKP133
RN7SL342P
AC105031.1
NMNAT1P2
AC226150.1
RN7SKP148
HNRNPA3P3
MTND6P15
AC116353.2
AC006133.1
AC025574.1
AP001877.1
RNU6-1296P
RN7SKP81
AC091903.1
HNRNPCL2
RPL10P10
RN7SL210P
MTND3P19
TRBV22OR9-2
AC006160.2
AC021146.6
OR10U1P
AP000648.1
TUFMP1
HMGB1P40
MTCO1P49
DENND6A-DT
RF00591
AC098850.2
RNU6-591P
RN7SL290P
RPL30P6
AL133457.1
AC022254.1
RN7SL714P
AL590552.1
AL606530.1
OR7E43P
RAB28P2
AC124916.1
LINC00895
AC098614.2
AC007115.1
AL589823.1
PIGPP2
HNRNPCP9
RPS6P14
MTND5P41
AC025752.1
AL450313.1
AC006499.1
PCNPP4
Z98742.1
MTND4LP1
AL353637.1
AP003400.4
AC034244.2
AL645937.2
ARL2BPP4
PSMC1P11
EEF1GP2
AC132825.5
RPL9P31
AC004009.2
SEPT14P17
OR8B6P
AC027506.1
SRRM1P2
AC011712.1
VN1R69P
AC117522.3
AC090525.1
AC022616.5
C17orf98
EEF1A1P38
SPCS2P2
AL445687.1
MTCO2P21
RBM34
AL589986.1
SRP54-AS1
AL591704.1
AC098799.1
AL592464.2
AL606490.1
AC063923.1
AC092639.1
KRTAP9-6
C3orf84
AL590440.2
AL590240.3
ATP8B1
LINC02394
MTCYBP8
NF1P5
AC092326.1
BCAR4
AP000949.1
B4GALNT2P1
FAM86MP
AC026434.1
OASL2P
CNBD2
LINC02358
AC021146.1
AC034238.1
AC002378.1
LINC01702
