AL035587.1
GPX1
RNU6-1145P
RNU4-75P
RPS12P18
AC092423.1
RN7SL478P
UBXN7
AC009518.2
ARRB2
RNU6-633P
RNU4-7P
PAK2
AC074085.2
AC073465.2
RN7SL33P
RNU6-114P
RNA5SP199
PSMA6P3
RNU7-69P
AP000567.1
RNU6-788P
FCHO2
RN7SL483P
RNU6-332P
GM2AP2
AC073648.2
RNA5SP102
HNRNPA1P3
RNU1-141P
AP001120.4
AC114755.3
RNU6-592P
AC099654.15
AP002795.1
AC236972.1
RNU1-84P
RNA5SP286
RPL7P48
ACTP1
RNU6-698P
RNU6-1133P
GTF3AP5
AC116553.1
RNU1-114P
AC012044.1
AL096700.1
AC021146.4
RNA5SP117
RPL7AP61
RPL26P3
RPL34P29
SIAH1P1
RN7SL553P
FABP5P13
AP001485.1
AC073901.1
AC025281.1
NIFKP4
AL023280.1
HIST1H2APS1
AC019254.2
RPS27AP19
RNU1-130P
RNU6-741P
RNU2-40P
RN7SKP135
RPS3AP9
AC005741.1
AC010338.1
AC010401.2
CRYGB
RNA5SP271
AC005002.2
RNU6-841P
AL031737.1
AC009468.2
RN7SL332P
AC092447.7
AL713923.1
RFPL4AP6
RN7SL140P
RNU2-55P
AC092701.1
EFCAB9
AC005771.1
RF00279
SEPT14
GTF2IP5
AC009452.1
OR9K1P
AL352984.1
AC005482.1
HNRNPH3P1
HPRT1P1
C21orf91-OT1
AC095038.2
AC245047.5
LINC01774
AC073539.1
AC092723.2
AC008543.2
AC069285.2
AC097173.2
NARSP2
RPL7AP69
SUN3
CXorf58
AC090103.1
CIB3
AC104073.4
TDRD5
AC090680.1
PLS3-AS1
PRAMEF17
AC006960.2
AL161669.1
NBPF7
AC009336.3
SLC5A8
AC136628.4
NPIPB1P
AP003064.2
LINC01562
TMEM114
GTF2IP11
AC095038.1
LINC01672
BRDT
SULT2A1
AL035415.1
AC108099.1
AC013480.1
NYX
NCOR1P3
AC119677.1
C2orf88
AL157838.1
TNRC18P3
AC011362.1
BSPH1
LINC02579
AC008572.1
AP002986.1
AC087190.2
AL031584.2
AC104170.1
SEPT7P4
AC011483.1
AL590764.2
AC098820.2
AC109635.2
AC023669.1
AC024559.2
SSX3
AC010643.1
AC092637.1
AL021877.2
IL21
LINC01620
AL033527.4
AL136115.2
AL033529.1
AL358975.1
AC011294.1
TCP11X3P
AL357143.1
UNC93B8
TMPRSS12
AC008687.1
AC091806.1
AC010148.1
AC093655.1
AL391832.1
AL606468.1
AC092100.1
CYP2AB1P
LINC00608
AL360175.1
AC007277.1
AC099066.2
CR769775.2
AC092364.1
DDX4
SEL1L2
AC243967.2
SEPT14P1
AC023906.5
AC009779.5
CYP2AC1P
AXDND1
AC104304.1
AC011523.1
AP005482.1
AC246680.1
TRMT2B-AS1
ADORA2A-AS1
AL445488.1
PGAM1P5
AL354714.1
C10orf55
AC005358.2
CCL15-CCL14
AC034114.2
