PABPC1P4
AC114341.1
AP001065.1
AC103808.3
REM1
VAX1
PRSS30P
FOXE1
LRRC3
FCRLA
ADM2
FZD9
AC090044.1
FAM225A
KCNJ9
HCG11
GLUD2
TKTL1
AC103564.3
AC097504.2
OR1H1P
FAM225B
AF186192.3
PRDX1P1
RNA5SP536
DEFB124
AC073578.4
AC237221.1
FOXL2
AC126175.1
AL161931.1
TRIM48
C20orf204
AC087783.2
NGB
SOX17
BCL6B
AC073578.2
CHRNE
EFHD1
AP005242.4
SAPCD2P1
LINC02432
AC073488.7
AC109635.5
CDIPT-AS1
MTND5P1
MIR3180-5
LINC01977
AC126915.2
GAL3ST4
LCE1F
AC245140.1
FOXL2NB
TGIF2LX
AC104581.1
PPM1J
PTGIR
AC073488.9
ZNF595
RNASE10
AC073488.1
AC073488.3
AL590762.2
AC103808.6
AC106900.2
PLIN3
ADA2
IGSF8
VN1R38P
AC073488.8
REELD1
RASIP1
ADGRG6
ODF3L2
FXYD6P1
AC073488.4
MYO7B
AC106785.2
ZNF300
AC073488.5
SNAPC2
MIR3678
AC092447.5
TPT1P13
SLC6A10P
NLRC3
MTND6P21
VN2R19P
LINC01109
KCNG2
AC087499.6
LINC00028
HMGN2P41
AC010095.1
MEIG1
THRA
AC008443.3
MIR3663HG
AC073488.11
AC092447.8
AC069439.1
ASB5
CHP1
AC073488.10
FGD3
LINC02575
SNX18P25
AL392003.1
PCMTD1P2
RNU7-157P
SPPL2A
AC007106.1
AC237221.2
LINC02100
DNM1P35
H3.Y
MTCYBP21
TP53TG3HP
OR6D1P
AC103808.2
RF00189
AC136616.1
AC013442.1
OR7E5P
ZNF728
AC117500.1
VN1R21P
DUX4L46
LINC01687
AC023141.2
AC021594.2
AC103808.4
CDC27P3
AC245369.1
AC005150.1
AL356585.4
FAM122C
AL935212.3
LINC01497
DEFB115
RPS23P3
AC106872.1
PPIAP13
AP000253.1
CPDP1
LINC00858
ADGRL3
OR52A1
AC018558.1
IGHV2OR16-5
DUX4L52
PCMTD1P1
UBE2V1P9
AC074135.2
LINC01606
AC012485.1
AC122710.2
AC106774.2
RN7SL255P
RNU6-66P
AP003900.1
AC025254.1
LINC02404
AC091076.1
RELL1
AL137190.1
AC103808.1
RN7SL58P
FAM230C
RNU1-29P
IGKV2D-36
AL390961.1
AC068152.1
LRRC3-AS1
RNY1P1
AL121949.1
AL139352.1
AC097499.1
AC005178.1
AL513318.2
SDR42E1
AC023141.12
AC233724.10
RPL34P1
LINC01893
AC132825.4
LINC01598
AL391256.1
AC011095.1
MIR3166
ADAMTS5
AC112493.1
AC007848.1
AL450322.2
WDR72
RNU4ATAC14P
AC112203.1
AHCYP4
LINC01391
LINC01662
AC087272.1
LINC01257
OR1AB1P
AL513348.1
AC023824.5
IRGM
AC064862.2
VN1R54P
AC023141.10
LINC01419
NR5A2
AC087855.2
TSKS
YIPF7
AC133561.5
TCL6
LINC00308
AL356272.1
CSNK1A1P1
KCNK15-AS1
AC093326.1
SLC45A2
LINC01518
GUSBP6
AL031674.1
C4orf19
OR9G1
ADGRL3-AS1
FAM217A
C15orf41
PDE6A
SOX30
AC006206.2
LINC00624
AC069285.1
AC109588.1
AC010099.4
AC008565.1
AC005537.1
AC008050.1
CEP128
ESRRB
SELENOOLP
AC022140.1
LINC01967
