AL512356.3
AL451064.1
AL021368.1
AP000322.2
MIR548AG2
AC079150.2
RPL31P35
AC018761.1
RNU6-450P
AC009997.1
AC011458.1
AL357078.1
RNU7-97P
TRBV6-2
AC134312.4
MRPS21P1
RNU6-650P
RF00399
AC091144.1
RNU6-1338P
RNU7-174P
RNU6-61P
RNU6-1256P
AC244098.3
PM20D2
AP000974.1
AL360157.1
CCL1
AC068050.1
AC126177.2
FES
RNA5SP384
AC025459.1
RNU6-716P
BX842568.3
RNU1-112P
RN7SL711P
AC091042.1
CLDN4
AC008946.1
RNU6-86P
FBXO48
AP000867.1
AC044836.1
AC215522.1
RNA5SP200
MIR1273E
AC093813.1
AC013701.1
HIST1H2APS4
RPSAP74
RNU6-120P
RNU6-973P
HMGN2P31
AC005972.3
AC079228.1
RNU6-189P
AL672212.1
RN7SL300P
RNA5SP208
AC112191.1
RF00478
RNU6-521P
RNU2-32P
LINC01803
KNOP1P5
AC136944.1
RN7SL697P
RNY4P18
LCE5A
RNU1-42P
AL008987.1
RN7SKP89
CISD1P1
EXOSC3P2
RNU2-36P
AC112198.4
RNA5SP367
OLA1P2
RNU6-1066P
AC064862.3
RNA5SP30
RNU6-210P
AC021072.1
VCPIP1
AL590133.1
AL731556.2
AC021205.2
RNA5SP239
AL353151.1
RNU6-649P
ASGR2
RPS10P21
COX6A1P3
ARL2BPP6
SNORD3G
RNA5SP358
AC079598.4
AL627230.3
MIR6085
ATP5F1AP2
RNU4-45P
AF238378.1
AC026798.1
RPS12P24
RNU4-57P
RNA5SP220
AC083899.2
AP003102.1
AL157401.1
AL359815.1
RF02252
CYCSP35
FATE1
AP005121.2
AC087477.1
AC016888.1
RF00285
RNU6-775P
BX323014.1
AC093849.1
AC136619.2
AP000648.2
RPL21P129
RN7SL193P
PFN1P9
RN7SL607P
RPL35P4
AC073316.2
AC118469.1
AC009171.1
PPIAP27
RN7SL371P
AC079809.1
MIR8084
ATP6V0E1P4
OR7G15P
OTX2P1
AC023245.1
AC025627.3
AC005176.2
RN7SL178P
VN1R7P
AL389915.1
AC083795.1
AL732618.1
RNU6-168P
RPL7AP8
AC018710.1
RPL21P12
AC138649.3
RNU6-961P
RPL21P67
RPL6P21
AC016727.2
RN7SL107P
RPL29P32
AL158825.1
RPL12P8
MTND5P21
IGHVIII-44
RF00271
RNU6-222P
AC137549.1
AC009963.1
RNU6-1180P
AL160275.2
RNU6-827P
CHCHD2P4
RPS8P3
AL392088.1
AL603758.1
IGHVII-43-1
SDAD1P2
AP003400.5
AC097504.1
AC099518.1
AC108706.1
AP003122.2
RNU1-150P
RN7SL543P
RN7SKP144
AL512646.1
RNU5E-5P
AL359238.1
AL591473.1
RN7SL447P
BX510359.4
AL109924.3
AC011233.1
HMGN1P35
CD83P1
RBM22P6
RN7SL679P
Z99916.3
AC010460.2
AC092447.6
AL713866.1
LINC02280
AP001330.2
AL731684.1
AC091152.3
AC083801.2
LINC01985
AC127029.1
SALL4P5
DUXAP3
AC104333.4
LINC01729
AL606845.1
AL050349.1
LRRC8E
AC010468.3
AL355375.1
MAPK6PS2
AL807761.3
AL590410.1
AC026410.1
ELL2P2
AL590609.1
AC115283.1
RFPL4AL1
RPL7P61
LINC00851
LINC02314
ACTBP13
CSE1L-AS1
AC008694.2
RNF19BPY
AC006158.1
HMGN2P26
AC100827.2
RNF6P1
AC010503.3
AP000477.1
AL008638.5
OR11G2
RPL19P21
AP006437.2
AC006326.1
AC022274.1
LINC02455
RFC5P1
AC007834.1
AC020658.1
AC068533.2
ZFP42
AP000997.1
OCM2
AC018653.2
AC044798.1
AL356859.1
FRG2IP
AC024028.1
AC007923.2
AC098583.2
RNFT1P3
OR1I1
AL356133.2
AC091078.1
AC113352.1
AC111000.3
SPIC
EIF3EP2
AL354796.1
ST13P12
AC026765.1
AL590640.1
LINC02460
AC110023.1
SMIM28
MTND2P9
AC087430.1
AC011473.1
AC090079.2
LINC01381
AC022146.1
AC005090.1
ALG1L3P
MBD3L5
AL353132.1
FP325330.1
AC002386.1
RAB19
LINC00974
AC113192.5
AC012462.2
LINC01975
AP000233.2
AC022145.1
AC098976.1
SLC4A1APP2
LINC00668
AL513478.3
AP001464.1
LINC00229
AC073320.1
LINC02190
AC074254.1
AC090888.3
GTF2IP2
ANAPC1P1
AC027612.2
