"","Glioblastoma_cancer_stem_cell"
"A2M",5.1267703428791
"AAAS",5.00180859365588
"AASS",3.87280783908015
"AATK",0.8905589182634
"ABCA13",1.14034122563218
"ABCA2",6.32345502513196
"ABCA3",3.39279547031116
"ABCA5",2.58067754934591
"ABCA7",3.27715829249356
"ABCB4",0.632458547860913
"ABCC5",3.494652183003
"ABCC8",1.54802734340744
"ABCD4",4.51813011429189
"ABCG1",1.50116400740972
"ABHD1",1.72843732888911
"ABI3BP",0.752259145409799
"ABLIM1",2.30208537035592
"ABR",3.50705250061753
"AC002064.1",0.849345703348539
"AC002310.4",1.56552252380463
"AC002310.5",0.96424457381833
"AC002519.2",1.874928557267
"AC003002.2",1.30219709562051
"AC003102.1",3.87287889590287
"AC004080.1",0.404086358763461
"AC004080.2",1.14050293578474
"AC004221.1",1.77819523828625
"AC004241.1",0.857288041027396
"AC004264.1",0.836681534685993
"AC004264.2",1.81561400831849
"AC004453.2",1.23688293111943
"AC004471.1",0.398897409323177
"AC004477.1",2.78954251308769
"AC004485.1",0.576405184159796
"AC004528.1",1.09350932604949
"AC004540.2",1.21619590389511
"AC004656.1",5.52206538381471
"AC004828.1",0.51565507933627
"AC004832.2",0.506986876991428
"AC004832.3",0.337182876235287
"AC004832.6",1.62441392338734
"AC004836.1",0.968478569851036
"AC004839.1",2.24491618206463
"AC004840.2",0.396133513590063
"AC004865.2",2.35872015849966
"AC004910.1",1.62817750252035
"AC004918.1",3.15427497575742
"AC004923.4",0.547313802254247
"AC004982.1",2.42149085363117
"AC005020.1",1.7912748709886
"AC005020.2",1.38724160436249
"AC005154.1",3.88724129864562
"AC005154.6",1.29326809030725
"AC005261.5",2.8246987741844
"AC005288.1",1.27173177509205
"AC005329.1",2.28458845297569
"AC005332.2",0.711543337779146
"AC005332.3",1.48954803086227
"AC005332.5",4.42590684049047
"AC005332.8",1.82349651242864
"AC005355.2",1.75413375610407
"AC005363.2",1.6395343600734
"AC005377.1",0.440459686172065
"AC005393.1",2.927233276125
"AC005476.2",1.16106198685899
"AC005498.3",1.75482825762974
"AC005520.2",0.796488608382571
"AC005592.1",1.3275824868738
"AC005618.1",2.57528474902149
"AC005696.4",1.43705088392553
"AC005753.1",1.60440691562775
"AC005920.1",0.918799832004668
"AC005920.4",0.742810278792418
"AC006064.3",2.71123963521106
"AC006213.2",1.33236928796668
"AC006238.1",1.77118308591241
"AC006252.1",1.8835494222036
"AC006277.1",3.17563860432112
"AC006333.2",4.84452572203857
"AC006378.2",2.31490594145357
"AC006445.1",0.390401157180049
"AC006449.5",2.32461679089523
"AC006449.6",3.46655509746146
"AC006538.2",1.19293852426705
"AC006547.1",2.52099109321627
"AC006557.6",4.40430835781597
"AC006960.1",0.844190397265134
"AC006960.3",1.93335722555936
"AC006978.2",2.74159981415055
"AC007114.1",1.45429972056831
"AC007325.4",1.12718480054151
"AC007383.2",3.42106860002902
"AC007386.1",1.1911983548932
"AC007391.1",1.1570695381661
"AC007405.3",2.88860959216029
"AC007422.1",0.665325230132452
"AC007566.1",1.43892699401876
"AC007637.1",1.09782145630628
"AC007663.3",2.18735173311505
"AC007688.1",0.674273464810622
"AC007786.2",0.463258152398218
"AC007842.1",4.306614004791
"AC007969.1",4.62168415427069
"AC008115.1",0.804764164145717
"AC008115.4",2.96259787608044
"AC008124.1",4.46745583718122
"AC008147.4",0.668928447933436
"AC008264.2",1.72877837775258
"AC008267.1",1.05542614898541
"AC008267.3",1.42487056429181
"AC008267.5",3.4769070497519
"AC008403.3",1.45226904852168
"AC008438.2",0.964470439381169
"AC008443.1",2.96372815016112
"AC008443.3",1.00040968834715
"AC008443.4",2.08852078713997
"AC008443.5",2.62219294844416
"AC008494.2",1.39895523959536
"AC008537.1",1.51372352194893
"AC008610.1",3.50387313861036
"AC008663.2",1.14010168290429
"AC008737.2",0.401951718227416
"AC008752.2",1.35497061592623
"AC008785.1",1.30493647260887
"AC008806.1",0.557371354609245
"AC008875.1",3.14023754103678
"AC008969.1",3.48521862085479
"AC009041.2",1.39269670090354
"AC009052.1",1.89364951706241
"AC009075.1",0.317675463295498
"AC009084.1",0.609192410314844
"AC009108.1",1.03272161609692
"AC009127.2",0.569630339344649
"AC009133.3",1.18067607893097
"AC009159.1",1.07550525461962
"AC009159.2",1.40885217132974
"AC009159.3",3.22011372411542
"AC009163.5",1.4344381692179
"AC009163.6",1.16790481071103
"AC009283.1",5.04562100801837
"AC009404.1",2.4433284163788
"AC009407.1",1.951167336957
"AC009414.2",5.0503520960667
"AC009518.2",0.954969817891773
"AC009518.3",0.741675960252758
"AC009720.1",2.78979702656043
"AC009779.1",1.52997140848259
"AC009812.1",3.04025412860287
"AC009831.4",0.698606938315592
"AC009955.2",3.3085223728001
"AC009963.2",2.34574433783128
"AC010198.1",1.0591289234596
"AC010201.1",2.86251654780251
"AC010201.2",3.7640106617176
"AC010205.1",0.470996837440387
"AC010327.1",0.422159166016946
"AC010327.4",1.25004812900681
"AC010327.5",2.2570424786287
"AC010335.1",2.24052528686939
"AC010359.1",2.1639711916952
"AC010422.2",1.58180486346959
"AC010425.1",0.590986081685693
"AC010531.1",1.64536134244816
"AC010551.3",0.811289630704364
"AC010595.1",1.55623110296874
"AC010615.1",2.28783076818352
"AC010618.3",1.62600539367857
"AC010654.1",1.63909978732302
"AC010719.1",3.93652402359011
"AC010883.1",1.38208915588583
"AC010894.2",3.15626940746809
"AC010904.2",1.61437137897846
"AC010931.3",0.973230927866726
"AC010997.4",1.96810176009772
"AC011374.2",3.78190930452482
"AC011450.1",2.90311280137819
"AC011458.1",1.08244881188603
"AC011458.2",1.08113195334361
"AC011474.2",0.822703955564254
"AC011475.1",1.61201658314488
"AC011481.1",3.00350765904009
"AC011487.2",0.586006876518271
"AC011530.1",2.50054089767688
"AC011816.2",1.3118037321415
"AC012313.4",3.29707273586084
"AC012313.6",1.58251190146769
"AC012313.8",2.10717131262323
"AC012414.2",0.166920917418406
"AC012462.3",1.25619609484552
"AC012512.1",5.74339609808662
"AC012615.1",2.14736319772245
"AC013244.1",0.949511697550796
"AC013268.5",0.42668443797569
"AC015660.2",2.41720701524353
"AC015660.3",2.32516142135302
"AC015660.4",1.66480011881082
"AC015802.4",1.22503440958933
"AC015813.4",2.1905685010435
"AC015909.5",1.99099539385469
"AC015983.2",0.779566304791261
"AC016027.1",1.36467914626685
"AC016168.2",1.69315633002476
"AC016575.1",1.3985056177512
"AC016588.2",5.67726726384579
"AC016590.1",1.64428350514621
"AC016705.2",1.33655031980081
"AC016717.3",0.804349963810792
"AC016722.3",1.38188902137735
"AC016739.1",4.04970382569278
"AC016831.6",0.403452475790953
"AC016876.1",4.77047022767869
"AC017104.4",2.90484944150209
"AC018521.4",1.03790587616429
"AC018635.2",0.947652786712401
"AC018638.1",5.20324683901387
"AC018638.2",6.39341368369876
"AC018638.4",5.94757066176169
"AC018638.5",6.68692711065135
"AC018638.7",3.41938990068662
"AC018638.8",2.15551478634797
"AC018845.3",1.69347878508054
"AC019322.4",2.6932683460377
"AC020604.1",1.54871664601209
"AC020661.1",1.59895838820871
"AC020904.2",1.45240694161299
"AC020916.1",6.60665621148966
"AC020917.3",2.5180112854174
"AC020928.1",1.71396384526881
"AC021218.1",2.99951397983989
"AC021739.3",1.96206427873537
"AC021739.5",1.766920864294
"AC021755.2",0.575276188289636
"AC021755.3",1.03539328299252
"AC022167.2",1.849010095805
"AC022182.2",1.4309802404883
"AC022400.4",2.06309700223142
"AC022417.1",2.35351606604709
"AC022762.2",3.03474116178302
"AC022868.1",1.56140889337414
"AC023157.3",3.10693796625905
"AC023424.2",0.678711150721826
"AC023509.1",0.86970739228143
"AC023509.4",3.27729765784334
"AC023669.1",0.553198154946751
"AC023983.2",1.80153614890555
"AC024257.3",0.924795932307553
"AC024361.3",1.63447807455548
"AC024560.1",1.96019464113275
"AC024560.3",5.15934186723279
"AC024575.1",0.845869734702167
"AC024587.1",0.649901044718035
"AC024592.2",0.873734662502636
"AC024940.3",1.7982035825285
"AC024941.1",1.34376514999755
"AC025048.2",2.45303700891999
"AC025809.1",1.09363360452517
"AC025884.2",2.49734023784366
"AC026150.1",1.28455937546134
"AC026254.2",2.41501539020031
"AC026367.2",1.11274528918586
"AC026412.1",2.38208849236585
"AC026471.1",3.63334475760607
"AC026471.4",4.5155845134146
"AC026585.1",0.88889672944879
"AC026741.1",0.795741638345305
"AC026803.1",2.4535325514872
"AC026954.1",1.19316482165552
"AC027176.3",2.70421755198014
"AC027601.3",2.99420646305024
"AC032011.1",1.34095089960046
"AC034105.2",0.207888107757255
"AC034236.2",3.67502510923834
"AC034236.3",1.30220721743503
"AC044860.2",0.818172825621544
"AC055713.1",2.69524108019503
"AC061975.3",0.44943212737327
"AC061975.5",0.615321273155541
"AC061992.1",1.07021499036648
"AC061999.1",2.09209363524146
"AC063962.1",0.523019496157142
"AC067852.1",1.55625987920851
"AC067930.3",1.97271012883444
"AC067930.5",3.2607962685286
"AC068057.1",1.15551365914196
"AC068213.1",2.76784270422897
"AC068279.1",1.45681905494674
"AC068338.3",2.25590627037732
"AC068620.1",2.80189328746169
"AC068888.1",1.51509848943476
"AC068944.1",2.5504586740836
"AC069154.1",1.05561723426538
"AC069209.1",2.44021484499736
"AC069213.1",1.77393562460862
"AC069213.2",2.76131377988665
"AC069213.3",2.96302372045492
"AC069218.2",0.547238304083454
"AC069222.1",1.63840415426039
"AC069503.3",0.769976578361388
"AC072052.1",0.514674342742401
"AC073073.1",2.53180523087189
"AC073111.5",1.27803820418722
"AC073150.1",0.615196101899602
"AC073195.1",2.5599180443495
"AC073210.1",2.01070746147886
"AC073316.2",1.8100435064288
"AC073335.1",1.14430043268349
"AC073349.2",4.10947767513736
"AC073389.3",2.29375528622601
"AC073429.2",0.669480692830345
"AC073476.3",1.7945723043907
"AC073517.1",1.0128264190072
"AC073578.4",2.74154791747207
"AC073610.1",1.54893990911312
"AC073834.1",0.936701521964677
"AC073878.2",0.367474719586563
"AC074117.1",2.94857609069391
"AC074131.1",0.457692007864731
"AC074138.1",3.0719171011921
"AC078909.2",2.55931520860307
"AC079089.1",1.49104406415132
"AC079089.2",0.468948984817703
"AC079140.3",0.869526778975963
"AC079305.3",0.857143307512226
"AC079781.5",1.50485689551526
"AC079922.2",3.55358354762501
"AC080080.1",2.98711875494921
"AC080129.2",1.71047143481362
"AC083843.2",0.965171100961527
"AC083902.2",1.89687946962026
"AC084125.2",0.676976692838429
"AC084211.1",0.482856655088866
"AC084337.2",3.06316095935413
"AC084864.1",0.712592033030283
"AC087239.1",2.08234780973025
"AC087491.1",0.638222297429682
"AC087627.1",2.14990216764212
"AC087672.2",0.520142684130516
"AC090192.1",0.832211755819823
"AC090241.2",2.38883509986603
"AC090618.1",1.25138789591692
"AC090692.1",2.00584043527486
"AC090844.2",0.997219549551363
"AC091185.1",3.66856401114183
"AC091812.2",1.89126638269967
"AC091812.3",0.897713187876709
"AC091825.1",2.6401840853636
"AC091849.2",0.663488883220443
"AC091917.2",0.719188043235508
"AC091932.1",1.14682559952026
"AC092013.1",2.19017927746855
"AC092117.1",2.28734800671345
"AC092119.2",3.25994572145894
"AC092162.3",0.977325700196202
"AC092171.4",3.62699695484798
"AC092295.1",1.29613526915993
"AC092295.2",3.32017460213996
"AC092437.1",0.59511791280397
"AC092611.2",3.05757541102422
"AC092653.1",1.35146188349252
"AC092670.1",0.427493255593393
"AC092681.3",2.12972824304746
"AC092757.2",1.86777039603574
"AC092803.2",1.58615506381251
"AC092809.3",0.691263019703764
"AC092954.1",2.70115916539153
"AC092954.2",1.57340298291524
"AC093106.1",1.38093906876959
"AC093162.2",2.47678626723404
"AC093278.1",1.58789708298893
"AC093278.2",0.419641239927233
"AC093297.2",5.95362436533886
"AC093382.1",1.54027414875816
"AC093392.2",1.70538530107088
"AC093458.1",2.08851311936928
"AC093458.2",2.65868222871307
"AC093510.2",1.23107337432315
"AC093591.2",0.701027514379874
"AC093627.3",3.54855217368465
"AC093734.1",1.28705488594564
"AC096733.2",3.13802355844793
"AC096887.1",0.575379924309408
"AC096920.1",0.42076782196067
"AC097359.1",1.25047739728062
"AC097359.3",0.762317995410925
"AC097532.2",2.92484930735653
"AC098479.1",1.28634201770811
"AC098591.1",0.929645556006127
"AC098614.2",0.550947490173545
"AC099066.3",0.74211349305898
"AC099398.1",1.59381312816209
"AC099518.6",2.71436151756781
"AC099522.2",3.42469983565301
"AC099552.4",0.472400383043165
"AC100793.4",0.475327794174903
"AC100803.1",0.618985617890414
"AC100803.2",1.26122750963733
"AC102953.1",1.67869212112912
"AC102953.2",5.196294358256
"AC103564.1",1.3078247083471
"AC103798.2",1.05134193516571
"AC104057.1",1.7033142231174
"AC104058.1",1.33719980483604
"AC104066.1",1.87173718845079
"AC104137.1",3.05982339141823
"AC104521.1",0.669586970155351
"AC104590.1",1.92619038177877
"AC104653.2",1.10690222832516
"AC104825.1",1.82824557828388
"AC105118.1",1.97377659652783
"AC105206.2",2.77327245858286
"AC105285.1",1.3009168528185
"AC105339.1",0.785721579291776
"AC105345.1",0.464028732891988
"AC105383.1",1.41049208100504
"AC106052.1",1.76078579097479
"AC106786.1",3.06387377513932
"AC106820.2",1.91007518275147
"AC106881.1",1.87248476955523
"AC106897.1",1.36091897825778
"AC107294.1",3.58942698610723
"AC107294.2",3.46145512718808
"AC107294.3",4.703906399077
"AC107871.2",1.03843785364938
"AC108134.1",0.425200627524074
"AC108134.4",1.34915471158233
"AC108156.1",0.806642101141345
"AC108673.3",2.93251469353162
"AC109454.4",1.9900867211688
"AC110079.1",1.67257107352922
"AC110079.2",1.03731350080814
"AC110285.1",0.936160118168518
"AC110285.2",3.32230135306047
"AC110285.5",0.963730699403004
"AC112191.1",0.705930821293093
"AC112229.4",0.524057161020774
"AC113208.2",0.920184390097325
"AC114490.3",2.52665323547374
"AC114501.1",2.29455682896778
"AC114928.1",2.45803893574484
"AC114956.1",1.14655259950354
"AC115284.2",2.45907581014384
"AC115522.1",1.94707238134259
"AC115618.1",0.753832088196628
"AC116407.2",3.52258030791268
"AC117498.3",1.811661112728
"AC117532.1",0.585637439961894
"AC118282.4",3.08787471386678
"AC118658.1",5.10863054628385
"AC119751.2",0.504763949767978
"AC119751.3",1.28245154721506
"AC119751.4",2.51838020859504
"AC119751.5",2.29792609758462
"AC122683.1",0.436408376372201
"AC122713.2",1.58136530695843
"AC124944.3",3.37974347089685
"AC125232.1",0.937508422294613
"AC125494.2",3.45243974528497
"AC126175.1",1.13877790671401
"AC126178.1",0.518866378931818
"AC126335.2",1.61957840285061
"AC126564.1",0.914895530529164
"AC126755.1",1.72394078082643
"AC126915.2",1.26247236958532
"AC127496.2",1.02442148113503
"AC127496.5",1.18829488160218
"AC127537.1",1.76181816612303
"AC128677.1",1.05288043719114
"AC128709.3",0.342476554412896
"AC129492.4",0.768809294911546
"AC131157.1",0.348189594470252
"AC132008.2",3.90804322438042
"AC132872.1",5.69693550883112
"AC132872.2",1.76853203611166
"AC132938.1",2.56047085082419
"AC133552.4",1.12157207703623
"AC134879.2",1.23505605593596
"AC135050.3",1.11738321993503
"AC135178.3",2.50348006581066
"AC135506.1",1.92009326400353
"AC135776.4",4.9516507949051
"AC136475.1",0.739987482981897
"AC136475.3",1.66405132877517
"AC136475.5",1.84481183685493
"AC136475.6",0.458722085347966
"AC136475.9",2.78122494899128
"AC136944.1",1.96742346642866
"AC136944.2",4.70460827224088
"AC137695.2",1.35212140034543
"AC138035.1",1.29943930985159
"AC138150.1",3.43082462657547
"AC138207.5",0.862374822891652
"AC138696.1",1.07368227274438
"AC138894.3",0.392291908134224
"AC138907.10",3.54513672658967
"AC138907.8",3.54078984038884
"AC138907.9",5.3945457287258
"AC138932.1",1.41546016412643
"AC139149.1",0.782341620069052
"AC139495.3",1.10612364931049
"AC139530.2",2.07253374687557
"AC139795.2",3.06206660431031
"AC141002.1",2.99544369427586
"AC141586.1",2.04541348261695
"AC141586.2",0.60250911090252
"AC142472.1",3.41670327258439
"AC144831.1",1.16655455379297
"AC145207.9",3.32750590715785
"AC145343.1",1.18543848578396
"AC145350.2",0.599288367405518
"AC145422.1",1.14114350653969
"AC147651.1",1.30317498916262
"AC156455.1",1.3439115768482
"AC231981.1",1.14073927153842
"AC233263.1",1.00101480403312
"AC233263.6",2.85879129074952
"AC233280.1",3.22434483400924
"AC233723.2",3.47122569093447
"AC234582.1",0.766640558412658
"AC234775.1",0.719618360824596
"AC234778.2",1.85065631745657
"AC234917.1",1.34680530231223
"AC239600.1",0.891625795808271
"AC239803.1",0.921829520433608
"AC239803.4",0.866787911757547
"AC241377.3",0.459383104584085
"AC242988.1",1.60961449439638
"AC243830.2",1.6424591120016
"AC244033.2",1.59309040143338
"AC244452.1",0.370233049345004
"AC244452.3",3.85799128208073
"AC244502.1",2.80413303031662
"AC244517.11",1.0963132647548
"AC245060.2",2.00658199564871
"AC245060.5",3.92870963286153
"AC245884.8",2.53088895151684
"AC246787.1",2.91638552465384
"AC254562.2",0.632701791640932
"AC254633.1",2.81415958125796
"ACADS",3.96420269554794
"ACAP1",2.07500331892305
"ACBD4",4.71996506790441
"ACER2",2.04709375698785
"ACHE",3.30787483646172
"ACRBP",1.01764343011375
"ACSL1",2.50110878026233
"ACSS3",2.46982710310044
"ACTN2",1.1761997547326
"ACVR2B",2.47979606222994
"ADAM11",1.46549817898109
"ADAM22",1.8040478207192
"ADAM8",1.42996961871237
"ADAMTS13",2.36246246553274
"ADAMTS4",5.1844888728521
"ADAMTS7",1.49821504745796
"ADAMTSL5",3.24633228477099
"ADGRB2",4.55473380008533
"ADGRE5",4.36527931633822
"ADGRG1",5.22898813873092
"ADGRL1",0.942926843592166
"ADHFE1",2.39301726905254
"ADRB2",1.23828097859264
"AF038458.3",0.989052701726354
"AF131216.2",1.8328866818698
"AF186192.3",0.490610118501839
"AFAP1L2",1.19023528577017
"AFMID",3.52287938007337
"AGAP2",3.03743328256134
"AGAP3",4.38663154963454
"AGBL2",0.932320804389543
"AGER",5.19790912024092
"AGGF1P2",0.720477595341999
"AGPAT2",3.65338168653789
"AGT",7.17050685284347
"AHCYL2",2.06982812898403
"AHNAK2",4.05620769196667
"AHRR",1.59148768101267
"AHSA2P",6.27766591779287
"AJM1",5.30443718082985
"AK4P3",0.465448596415058
"AKAP6",1.35329398313297
"AKAP8L",4.13481518083231
"AL008582.1",2.02000667842763
"AL008635.1",1.2712719408642
"AL008638.5",0.944031235646763
"AL008707.1",4.28062339290526
"AL008718.2",0.654863797516197
"AL008723.3",0.43129449710108
"AL021368.2",3.39702734167318
"AL021368.3",1.11408635596226
"AL021707.2",1.38689916503191
"AL021918.1",0.315375840341415
"AL022069.1",2.62737109602805
"AL022069.2",1.71013469135922
"AL022328.4",3.06628609780141
"AL022334.2",0.267621150089889
"AL022341.1",2.73749718657097
"AL023284.4",2.64219499075755
"AL023583.1",1.2487462920152
"AL024474.1",0.950158616728781
"AL031118.1",2.69059419010337
"AL031123.2",1.56507845063637
"AL031432.5",2.37587343593247
"AL031602.1",1.78717566253814
"AL035252.3",3.19753260475591
"AL035252.4",0.332332493510594
"AL049597.1",1.68526718331124
"AL049796.1",1.62554477906938
"AL049836.1",3.28435998499868
"AL049871.1",3.1306630794475
"AL078595.1",5.41905389290265
"AL078601.2",0.917259796217422
"AL078621.3",5.53537709233667
"AL109741.1",0.405447214818444
"AL109804.1",0.656271485599654
"AL109936.2",1.57611344066886
"AL109976.1",1.24967284227706
"AL110118.2",1.03642978549278
"AL117328.1",1.76881285925367
"AL117344.1",2.26257819069991
"AL117348.2",1.10171627578409
"AL118516.1",4.97848017592406
"AL118558.3",3.28386493632565
"AL118558.4",2.56237359159263
"AL121580.1",0.71602659567331
"AL121612.2",2.56825155808237
"AL121761.2",1.31332413641017
"AL121768.1",1.44884423483677
"AL121782.1",1.43448032396918
"AL121809.2",0.432405531944167
"AL121890.3",0.356449773128871
"AL121950.1",1.66912634269912
"AL132640.1",0.884020387301721
"AL133215.3",1.74600265042326
"AL133268.3",0.524054065002601
"AL133325.3",1.7488287844526
"AL133355.1",3.70305672083629
"AL133367.1",4.49852539059904
"AL133410.1",2.26422627011352
"AL135791.1",1.63277334524081
"AL135818.2",0.537430687158041
"AL135924.2",1.03653432677079
"AL136038.3",1.1822541118186
"AL136295.1",2.46878850545991
"AL136295.3",0.979227743418383
"AL136295.5",0.901894377388452
"AL136317.2",1.6848743184672
"AL136380.1",1.98194773715849
"AL137003.1",3.24378145335383
"AL137003.2",4.19977341602614
"AL137026.1",0.632128914728278
"AL137145.1",1.43449049386709
"AL137145.2",0.497540956977222
"AL137918.1",0.752075891435043
"AL138690.1",1.71308694400067
"AL138781.2",1.72905583598969
"AL138831.3",2.57974317649207
"AL139246.3",0.646736821249514
"AL139352.1",0.366546416355994
"AL139393.1",0.618534565563038
"AL139424.2",2.49901212362595
"AL157770.1",2.07900569286337
"AL157871.6",0.812250647536477
"AL157935.1",1.96554378949031
"AL158042.1",0.590544861801952
"AL158151.1",0.635503387718881
"AL158151.4",2.01465910732824
"AL158206.1",5.45063563681797
"AL158211.3",1.02608600681259
"AL158801.2",0.665293596671862
"AL160314.2",0.607600770985834
"AL161640.1",0.601013693629738
"AL161670.2",1.57908195205207
"AL161785.3",0.546065983027024
"AL161912.4",1.61311620318714
"AL161935.3",1.47467519623023
"AL162231.2",1.46161844812542
"AL162386.1",2.02163643963879
"AL162497.1",2.13256046451003
"AL162574.2",2.32641761311071
"AL162595.1",3.57648390081998
"AL162725.2",0.588071095708708
"AL162741.1",2.64709249060516
"AL353151.1",0.389891304087589
"AL353622.2",1.16602671360354
"AL353708.3",2.15211613901735
"AL353764.1",0.594416984505655
"AL353796.1",3.29093943296881
"AL353807.4",3.52389420978616
"AL354822.1",5.26656162081547
"AL354872.2",3.00054450438647
"AL355075.5",3.54153037904938
"AL355297.3",2.44226833028894
"AL355309.1",4.14560314317396
"AL355432.1",2.20971462646172
"AL355472.1",4.03268853394129
"AL355596.1",0.581127011092128
"AL355974.1",1.83520586365763
"AL355974.2",2.48666706334651
"AL355987.3",2.60416605279949
"AL355987.5",2.38091911842221
"AL356488.1",1.15000557366396
"AL356512.1",2.16924598384259
"AL356859.1",0.731649069346177
"AL358072.1",2.93603912057117
"AL358334.1",0.784671935698521
"AL358933.1",0.96060729238102
"AL359091.2",0.850942059605624
"AL359504.2",4.1137575687164
"AL359510.2",1.96483928662437
"AL359641.1",0.745085677600091
"AL359715.2",3.01482326137764
"AL359762.2",0.59245751707624
"AL359771.1",0.494630716238256
"AL359852.1",0.555715020621289
"AL359955.1",1.45871577422425
"AL365181.2",5.83793293205209
"AL365181.4",2.71303944466446
"AL365205.3",0.770137539676651
"AL365226.2",0.317064200611787
"AL390067.1",1.57099772624947
"AL390115.1",2.60299839983358
"AL390195.1",2.98902965192919
"AL390195.2",4.1447703206088
"AL390755.1",4.28349445234604
"AL390955.1",0.636077017373314
"AL391095.3",1.70161515457704
"AL391244.2",0.946718339666451
"AL391262.1",0.641758867115286
"AL391422.1",1.31194260920418
"AL391422.3",4.16839800506055
"AL391684.1",2.00552742033699
"AL391807.1",3.48669605183253
"AL391811.1",4.51056321182954
"AL442663.4",2.62817530616761
"AL445228.2",1.81649894073752
"AL445483.1",0.979632796872198
"AL445665.1",1.72820495942211
"AL449212.1",0.53325081320505
"AL450306.1",1.49695612784759
"AL450998.1",4.69315058651254
"AL451123.1",1.78224673379523
"AL512274.1",1.12442070811077
"AL512343.2",1.77142275559596
"AL512353.2",0.374713096197605
"AL512356.1",0.684343002236503
"AL512604.2",0.540883620478983
"AL512625.2",2.20682152439436
"AL513165.1",7.30456220754048
"AL513217.1",1.35979143971971
"AL513283.1",1.73373455249414
"AL513303.1",0.523925303437357
"AL513320.1",1.99119413583478
"AL513497.1",3.08611425087279
"AL583810.2",0.959509970492426
"AL583839.1",3.14623071620755
"AL583856.2",1.88011560638349
"AL589743.1",1.93255256297177
"AL589743.6",1.56102602019049
"AL589765.6",1.88684711728049
"AL589880.1",1.92024652593925
"AL590004.3",0.497941595371281
"AL590004.4",2.81006547853987
"AL590617.2",5.38083864898588
"AL590623.1",0.306868792768127
"AL590666.1",2.11057939604956
"AL591242.1",0.700773686558894
"AL591379.1",2.33125809400798
"AL591438.2",4.36831476764244
"AL591441.1",1.26107111102935
"AL591479.1",1.02462076079884
"AL592071.1",0.782684984028045
"AL592424.1",1.96425073259705
"AL603750.1",2.62187096294083
"AL603832.2",0.597703830406343
"AL606491.1",0.641192773372342
"AL606534.5",2.13200357480308
"AL606763.1",2.71693036404932
"AL627230.4",3.75045301803532
"AL627230.7",3.63054986923056
"AL627309.5",2.0902384209152
"AL645568.3",0.6485233565975
"AL645608.1",1.0393140439032
"AL645608.8",3.21059392622989
"AL645929.1",0.41592464883451
"AL645939.1",1.31411450353307
"AL645939.2",2.83430193526972
"AL645940.1",2.60614867092212
"AL662907.1",4.13494856594602
"AL670729.3",0.706119873308926
"AL683813.2",0.166632007049091
"AL713866.1",1.18928291485193
"AL731533.2",1.31223156367687
"AL731566.2",1.98733120485363
"AL731569.1",2.81572838614238
"AL731577.2",1.29176452523238
"AL807752.1",2.7941482908025
"AL845321.1",1.6612473099291
"ALAS2",0.419629795968968
"ALDH3A2",6.0208081578952
"ALDOB",0.506559693686469
"ALKBH4",4.6094447709565
"AMH",5.73796011222385
"AMIGO1",4.87776189112795
"AMN",1.85804463264663
"AMPD2",5.94425520902199
"AMY2B",2.44668836344717
"AMZ1",1.58705602006782
"ANAPC2",5.54143458216967
"ANGEL1",3.24746817370369
"ANKH",3.0518368179103
"ANKK1",0.958065333278542
"ANKLE1",2.13542503390722
"ANKRA2",4.96016632821294
"ANKRD10",6.12128411079334
"ANKRD16",2.31166996494108
"ANKRD20A17P",2.03729272535005
"ANKRD20A6P",0.386402926099935
"ANKRD24",1.27460472288806
"ANKRD9",6.30858292355952
"ANO7L1",1.46202972249305
"ANO8",5.23895640500694
"AOC2",2.59356433989448
"AOC3",1.79164243388815
"AP000253.1",1.48857860074952
"AP000322.1",1.73758537612947
"AP000787.2",2.60899016004091
"AP000811.1",2.52733062880779
"AP000845.1",1.44961021466414
"AP000866.1",1.16757572746052
"AP000974.1",2.72926083534787
"AP001029.1",1.48485257131818
"AP001029.2",2.14713928228801
"AP001264.1",1.05357548207007
"AP001266.2",0.761543113531837
"AP001324.1",3.91146676328229
"AP001330.2",1.01206899903891
"AP001453.4",2.10111942632387
"AP001476.1",0.964613332265884
"AP001486.2",3.13921630280195
"AP001628.1",1.44126792822277
"AP001767.2",1.22736419750313
"AP002364.1",1.43305041741327
"AP002373.2",1.1338592805914
"AP002748.3",2.280735693925
"AP002840.1",1.39881074653606
"AP002992.1",0.90338251848628
"AP003068.4",2.25998333629556
"AP003108.1",0.317673921212796
"AP003119.1",1.01551768357235
"AP003119.3",3.86698077083805
"AP003354.2",0.772623763679403
"AP003392.5",2.32543520645859
"AP003392.6",2.87792330770779
"AP003469.4",3.9453960575798
"AP003717.2",0.592089870923947
"AP003717.3",0.445510096157449
"AP004371.1",0.510349561821032
"AP005436.2",0.453967906363372
"AP005901.2",0.998381579105341
"AP006545.1",2.3075925427888
"AP006547.1",0.999030080210706
"AP1G2",0.869321608276159
"AP1S2",5.73187560582862
"AP4B1",4.36263745650425
"APBA2",1.99580085628913
"APBA3",4.13260590263607
"APBB3",5.02357259703389
"APC2",3.77460278169454
"APCDD1",3.09976744879756
"APH1B",3.12075851416695
"APOBEC3C",2.16997967529435
"APOBEC3G",4.14562699988078
"APOBEC3H",0.769963590364592
"APOD",1.95872383945034
"APOL2",5.37607015445787
"APTR",2.69855095206507
"AQP7",3.82843361919938
"AQP7P1",3.03405260725829
"AQP7P2",0.709447758808523
"ARAP3",6.19366630399123
"ARC",6.00011051200923
"ARF4P2",0.88419856462852
"ARG2",2.0507335986665
"ARHGAP20",1.58091187371103
"ARHGAP21",3.89812513744267
"ARHGAP25",1.23676780685001
"ARHGAP26",2.36977477306347
"ARHGAP27",1.99484778650787
"ARHGAP27P1-BPTFP1-KPNA2P3",2.191075077254
"ARHGAP27P2",0.546789053357237
"ARHGAP32",1.63143129465635
"ARHGAP4",1.28599761099255
"ARHGAP5",4.48143005207714
"ARHGAP5-AS1",3.27776738606999
"ARHGDIG",0.497760611622458
"ARHGEF10L",1.69171987199801
"ARHGEF25",1.72398515805094
"ARHGEF37",1.2007398950019
"ARHGEF4",2.54796477137286
"ARID3A",1.76607739388584
"ARID3C",1.52753089968891
"ARID5A",3.98368362774969
"ARIH2OS",3.1085682820894
"ARNTL",2.2524027356294
"ARRDC2",4.17158933103872
"ARVCF",3.00341829760282
"ASAH1",5.8022133907307
"ASAP3",3.78364990741966
"ASB16",1.08998591940668
"ASCL5",0.819646195010018
"ASIC3",4.33083634567577
"ASIC4",0.951818000867668
"ASIP",0.506387156425466
"ASPDH",1.78803439074676
"ASPRV1",2.81449218049716
"ASS1P12",3.50408470821311
"ASTN1",2.03713879492566
"ATAD3C",1.02409317806899
"ATG14",3.77702116543158
"ATG2A",3.79388683920689
"ATG2B",3.19826414053875
"ATG4B",4.86616542623144
"ATN1",7.16283451545451
"ATP11A",2.32944354371532
"ATP1A1",7.49159262980362
"ATP1B2",7.0743368766196
"ATP2A1",1.5634091049341
"ATP5F1AP3",0.777641364091597
"ATP5MC1P1",0.4351628612051
"ATP5MC3",5.62618623751737
"ATP6V0A1",4.74187845217714
"ATP6V0E2-AS1",3.40576581623929
"ATP6V1E1P1",0.388678257767503
"ATXN7L2",4.94564474471006
"AUH",1.85282508962015
"AZGP1",3.1203515231647
"AZIN2",2.08034320458404
"B3GNT4",1.39322905359973
"B3GNT7",0.772410118559808
"B4GALNT4",3.89730981270471
"BAALC-AS2",1.22134732791876
"BAIAP2",3.42148218694707
"BAIAP2L2",0.926848364286834
"BAIAP3",3.02120528518524
"BAMBI",6.60505686929282
"BATF2",1.68272590550233
"BATF3",4.0460244733215
"BAX",6.62944480932506
"BAZ2A",5.71214649471185
"BBC3",3.60440976987552
"BBS2",4.36414763849126
"BCAM",5.72008166091018
"BCDIN3D",2.07441004384297
"BCHE",4.12572568098184
"BCL11A",0.930319027384512
"BCL2L2-PABPN1",3.63832681965325
"BCL6",5.10666280997402
"BCL7A",2.72970277119134
"BCO2",1.30677680127052
"BEST1",1.37536418250295
"BET1",1.42190451541966
"BEX1",5.85665020265999
"BEX2",6.12060288765163
"BEX4",7.10003561071652
"BHLHE41",7.23380864429366
"BIRC7",0.443040355994997
"BLVRA",3.3039772622075
"BMF",1.29510905479233
"BMP2K",1.32129801050431
"BMP5",2.68541070372969
"BMS1P10",2.73006995479305
"BNIP3P4",2.23665912689196
"BNIPL",1.34183103395249
"BOC",3.17350902016383
"BOLA2P3",0.830781268847109
"BORCS5",1.73967624536691
"BRICD5",4.90594131405543
"BRINP2",1.2083498943124
"BRSK1",3.40391109886863
"BSN-AS2",1.62968247789987
"BST2",6.40600628272442
"BTAF1",4.21584675151184
"BTBD19",4.58994133147885
"BTG1",7.42671375704991
"BTG2",7.99715823649251
"BTN3A1",4.9750574794542
"BUD13P1",2.54389935221329
"BX004987.1",4.37021459805083
"BX284632.1",5.67611647039363
"BX322639.1",1.66293180332629
"BX323043.1",0.96029007418112
"BX324167.1",1.11790077730672
"BX470102.1",1.94096849905584
"BX649632.1",1.14694697647087
"BX664727.3",0.652711653872154
"C10orf142",1.64356884410587
"C10orf90",1.58214428451384
"C11orf42",2.50996976845808
"C11orf71",3.11617680573904
"C12orf66",2.66194718141436
"C12orf76",2.50990281748775
"C14orf178",1.52489216766292
"C16orf86",3.08016031466851
"C17orf97",1.5859068812109
"C19orf18",0.947300449825628
"C19orf54",4.82350392296854
"C19orf67",0.828323920261093
"C19orf73",2.13088955054686
"C1QL4",2.60428679324126
"C1QTNF12",1.97794059536958
"C1QTNF4",0.577270991785312
"C1QTNF6",2.96712508283773
"C1orf115",2.01501867107176
"C1orf162",2.77399474371302
"C1orf21",2.92607927209381
"C1orf226",2.86213046931143
"C1orf228",1.28627764083002
"C1orf52",5.92724714698633
"C2",0.795844189453825
"C20orf204",3.24737225769239
"C21orf2",2.97960509417899
"C22orf15",1.96557501977751
"C2CD4A",0.776835652597591
"C2CD4B",0.573041450694676
"C2orf16",0.799762375797322
"C2orf72",2.30156534629231
"C3orf35",0.594614750970013
"C4A",1.60917037808972
"C4B",1.30634296020999
"C4orf47",1.77529043931325
"C5AR1",2.29157611612928
"C5orf22",4.79923326217797
"C6orf15",4.81274774628109
"C6orf48",7.36095947223917
"C7orf26",4.57330668001003
"C7orf57",2.51935255746314
"C7orf61",0.78827385787222
"C8G",1.82379378782664
"C9orf106",0.778421128569638
"C9orf66",1.74968195703909
"C9orf72",3.79155921753995
"CA12",5.52323516102181
"CA14",3.72090529016388
"CACNA1G-AS1",0.951219461949641
"CACNA1H",0.475898348642666
"CACNB1",2.73534477519808
"CACTIN-AS1",0.695405834260831
"CALCOCO1",5.37886933297316
"CAMK2A",3.14776167045565
"CAMK2B",1.92180409395604
"CAMK2D",3.32289625124228
"CAMLG",5.28692618927773
"CAPN10-AS1",3.69661744722335
"CAPN7",3.6164846764795
"CAPRIN2",5.50977825394104
"CARD9",2.46129797913861
"CARMIL3",1.2378459863721
"CARNS1",0.978756435590009
"CASKIN1",1.48102856893315
"CATSPERG",1.17997439145622
"CBARP",4.44772546966066
"CBS",2.05533514296282
"CBWD1",1.85520226223298
"CBWD5",1.29548553474957
"CBX3P2",3.3742217326268
"CBX7",3.06616490470016
"CCDC120",2.25230159516189
"CCDC125",2.34163282164993
"CCDC136",4.97397203210149
"CCDC140",1.0780661251711
"CCDC154",0.993532398696854
"CCDC17",2.32783835706824
"CCDC18-AS1",2.44620321614402
"CCDC184",3.19714333859037
"CCDC194",0.854300378604821
"CCDC197",0.325830635272334
"CCDC27",0.639636479189131
"CCDC62",0.617462874322469
"CCDC78",4.74248613019565
"CCDC88B",2.38662411057281
"CCDC93",1.79134617133831
"CCDC9B",6.29895542768474
"CCER2",1.24649232416331
"CCNB1IP1",4.39148771226951
"CCND2",5.11995023015545
"CCND2-AS1",1.38407133133489
"CCNO",4.70448166595928
"CCT6P3",2.97162937633214
"CD22",0.752677950968846
"CD24",4.0437576222033
"CD27-AS1",3.2773625105408
"CD58",4.36139816742284
"CD72",1.00390703414175
"CDH12P2",0.557857514153303
"CDHR3",1.19015926418625
"CDHR5",1.98331958039774
"CDIP1",3.64059546004478
"CDIPT-AS1",1.12993363306678
"CDK18",3.26611450174232
"CDK5RAP2",3.72537085964451
"CDKN1A",8.73812400751576
"CDKN1B",6.67978985148817
"CDNF",0.903352622330745
"CEBPD",7.05382203325888
"CEL",1.47477490165069
"CELF2",1.3940378839225
"CELSR2",6.40408496922955
"CEND1",6.29425404547534
"CEP290",3.0820422042864
"CEP95",4.115403482169
"CEPT1",3.99004130823635
"CERS4",2.17365703211259
"CES3",1.9101605560288
"CETN4P",1.83100215019104
"CFAP45",0.825747864193338
"CFAP69",1.86597948873024
"CFD",2.43713606062208
"CGREF1",1.95721029640319
"CHAC1",4.56778426435576
"CHCHD10",6.80508105662243
"CHD2",3.5970839261638
"CHGB",3.4566619046772
"CHI3L1",8.72355928043245
"CHIT1",0.430845758770547
"CHKA",2.57240430442722
"CHKB",1.37999885632792
"CHKB-CPT1B",0.757478294952969
"CHRD",3.97220117003216
"CHRM4",2.9522523332964
"CHRNA9",4.89992276315017
"CHRNE",1.00535667372926
"CHST6",1.91244088446362
"CIB2",2.63172875017774
"CICP14",4.96253661875569
"CICP16",1.13147039885048
"CICP27",4.40850748000985
"CILP2",2.26321317576262
"CIRBP",7.80330776757102
"CISH",1.29699743966182
"CITED4",3.31853409598348
"CKB",10.4717944294329
"CLBA1",3.63873789905007
"CLCN1",0.987859462539504
"CLCN2",4.1709481484172
"CLDN15",5.6821316971568
"CLDN3",1.11094742710618
"CLDN4",1.96031859455602
"CLDN9",0.613264834395762
"CLEC4F",0.674302272803516
"CLIP1",3.68041682730957
"CLIP2",4.46115717560486
"CLMN",2.73125663853212
"CLSTN3",4.44909298191982
"CLU",10.3947960964128
"CLUL1",0.794371730783793
"CNIH3",3.40974002790437
"CNKSR3",2.48855056971294
"CNN2P2",0.4322443854932
"CNN2P3",0.802545440718148
"CNN2P8",0.610907058390567
"CNN2P9",1.43198442624173
"CNNM3-DT",1.42647414724588
"CNR1",5.11538249849859
"CNTD1",0.49002130129348
"CNTD2",2.06746841516659
"CNTFR",0.943470738595562
"CNTNAP1",2.47731848342834
"CNTNAP3B",1.97057993638902
"COBL",1.69467016873979
"COL11A2",1.3156058965128
"COL18A1",2.16334141307026
"COL22A1",1.56559493380105
"COL26A1",0.340717135555241
"COL7A1",3.54249413858349
"COLGALT2",3.45963518738808
"COQ8A",2.13113946032701
"COQ8B",4.80743590045266
"COX19",2.59161954530854
"COX6B2",2.04196483343806
"CPNE5",2.59421045908809
"CPNE7",4.3039260185753
"CPSF1P1",1.20831824468956
"CR381653.1",1.03267409227661
"CR381653.2",1.45084925890261
"CR382287.2",0.858885126625489
"CR769775.1",0.698689160009499
"CR769776.2",2.24798920952974
"CR848007.1",0.620791844968101
"CREB5",1.74391836886473
"CREBRF",2.31941774729701
"CREG2",1.04765561174207
"CRTC1",2.23247820530499
"CRYAB",4.63683674671437
"CRYL1",1.52161686954585
"CSF1R",1.01648297463447
"CSNK1E",4.23439805429239
"CSPG4P11",0.848173109535012
"CTBP1",4.50331753882885
"CTC1",4.16853137189845
"CTSC",5.67778240084517
"CTSF",6.31062354738719
"CTSW",1.05581816357218
"CTTNBP2",1.24419953689371
"CXCL12",5.5273103226925
"CXCR4",6.72990036259685
"CYB5R1",8.00290258501876
"CYB5R2",2.69292373770078
"CYFIP2",1.43303583760022
"CYP1A1",1.34454985134856
"CYP21A1P",1.3373150626337
"CYP21A2",0.831342322852789
"CYP27B1",2.96709095413364
"CYP2D7",2.12670424568535
"CYP2D8P",1.44179057760031
"CYP2J2",1.9610694662101
"CYP2W1",2.34698311396988
"CYP3A4",0.484288050874933
"CYP4F60P",1.27731460006005
"CYP4V2",4.38153087645165
"CYSRT1",4.56386509165569
"CYSTM1",2.48692190768215
"CYTH1",2.5126474462093
"DAAM1",1.87553574397089
"DAPK1",1.36523628838921
"DBNDD1",4.52882856550355
"DBP",4.40129316141102
"DCST1",1.29385617173618
"DCST2",1.84993699469326
"DDAH2",7.37783863133868
"DDB2",5.23003634287379
"DDN",1.93402429307877
"DDR1",7.83943839467423
"DDRGK1",5.13706822879616
"DDX11L2",1.64089427718284
"DDX17",8.67616562071281
"DDX24",6.30770320714094
"DDX39BP1",1.25797240306635
"DDX60L",1.72883865234656
"DEF8",4.94740756525266
"DEGS2",0.761429785632077
"DENND2A",3.62782940381262
"DENND2D",2.38991584264892
"DENND4B",4.63749171730767
"DENND4C",3.03224754166768
"DENND6B",3.13871774700265
"DGKA",3.86678692408463
"DGLUCY",2.49665524838449
"DHCR7",7.92510873084687
"DHDH",0.682153153865342
"DHH",0.583217424134084
"DHRS1",4.70602109786385
"DHX58",4.22516934083067
"DICER1-AS1",2.5455146995779
"DIO1",0.697084401090284
"DIP2A",3.2417084400874
"DIP2B",3.36411777362295
"DIP2C",1.35087598836278
"DIRAS1",5.91907898503853
"DLG4",4.53020160267403
"DLL1",2.48082765941166
"DLL3",0.657653812881163
"DLL4",0.88696057079111
"DMPK",4.27998540113541
"DMTN",2.32296481373906
"DNAAF1",0.611569775590029
"DNAH1",1.72545822045378
"DNAJC12",1.82581011315342
"DNAJC5G",0.542019981772287
"DNASE1L1",1.66145546745264
"DNASE1L2",3.20938726665475
"DNASE2",7.13349385839784
"DNHD1",2.87551466080114
"DNLZ",1.32783166801397
"DNM1",4.47538831774101
"DNM1P41",2.36422402362418
"DNMBP",3.449834453883
"DOC2GP",0.956452107430465
"DOCK6",2.82403213489495
"DOPEY2",2.06911258667886
"DPF3",1.84390808515799
"DPH1",4.32636853889512
"DPH5",4.15562759129765
"DPH7",4.16228244446978
"DQX1",1.25997140181897
"DRAM2",5.09808093579565
"DRAXIN",3.5537683069712
"DRD4",3.29628609272849
"DTX1",0.817738670214018
"DTX2",1.80350975538164
"DTX3",7.05930500290374
"DUBR",2.25878354877877
"DUOX1",0.728095444789011
"DUSP15",1.52082756029394
"DUSP16",3.33103887984844
"DUSP4",6.16380984185715
"DUSP5P1",2.30583916904092
"DUSP7",5.02077356493413
"DUSP8",2.97476470410944
"DUX4L37",1.69872792805432
"DVL3",7.01817083248095
"E2F7",4.7552199801706
"EBF4",2.06255852200363
"EBLN3P",7.10393983628554
"ECH1",4.91812186678327
"ECI2",2.42904601800723
"EDA2R",3.37323613993397
"EDN2",0.926492389343096
"EEF1A2",2.97030319138008
"EEF2",11.2377059542616
"EFHD1",1.95868514988332
"EFNA1",5.49661198857489
"EFNA3",2.08448945940406
"EFNB3",5.01699854641064
"EGF",2.0036708198571
"EGFL7",2.45683190902923
"EID2B",4.64503599809667
"EIF2AK3",2.28854999957597
"EIF4A2",9.6531949440898
"EIF4A2P3",2.32000152880884
"EIF4BP7",3.91836986940909
"ELAVL3",0.913843027061668
"ELL",1.63884345779009
"ELL2",2.144111564251
"ELMSAN1",3.28861514463925
"ELOA-AS1",1.72871165037102
"EML2",4.13799779889357
"EMP1",7.88406786885709
"EMX1",0.658908280832281
"EN1",2.83439596141307
"EN2",3.05146554298919
"ENDOV",3.74795850825121
"ENGASE",4.47281139367851
"ENHO",2.57930536643003
"ENO2",7.49776114047415
"ENPP5",4.71882295054511
"ENTHD1",0.437113508336489
"ENTPD2",2.59139188022779
"EPHA5",2.07026259886944
"EPHA5-AS1",2.47421920399327
"EPN3",0.789081531938556
"EPOR",4.14152466036569
"EPS15L1",3.23200282559568
"EPX",0.926256638561005
"ERBB3",0.996568988217468
"ERICH2",1.354294321118
"ERMAP",2.64726992273709
"ERVH48-1",0.817143834383626
"ERVK13-1",4.92399953939828
"ESPN",1.30402191983615
"ETFDH",3.39201633641271
"ETHE1",2.85625942031005
"EVA1C",1.63254752058596
"EVX2",0.523758241006371
"EXD3",1.91714631750439
"EXOC3",4.23219093446658
"EYA1",1.19237779439905
"EZH1",3.84154298209089
"F12",1.56502102442226
"F2R",6.52210210117507
"FABP5",5.88802634197155
"FABP7",8.06796010137439
"FAHD2B",2.70192606640649
"FAHD2CP",2.77527847822835
"FAIM2",3.51109200528069
"FALEC",2.00694982003832
"FAM102A",4.73783041536615
"FAM131A",5.77776624745028
"FAM131B",6.42066809557842
"FAM13A-AS1",1.38641017184524
"FAM149A",1.04413399072651
"FAM166A",1.30051524206416
"FAM167B",3.0429176647057
"FAM173A",5.93130031265474
"FAM181B",3.17129316214972
"FAM184B",0.46987195245958
"FAM185A",1.55256366873516
"FAM187B2P",0.496063496333648
"FAM193B",4.61473936636489
"FAM20C",5.40016383447825
"FAM213A",4.85216170016831
"FAM221A",3.38908929611162
"FAM238C",1.58607380043489
"FAM43B",3.3929470352974
"FAM46B",0.99866389112841
"FAM46C",1.72556792600564
"FAM53C",4.3137268282793
"FAM69B",3.04442565954526
"FAM69C",0.573387288874935
"FAM78B",2.1730591642561
"FAM84A",4.34489233423772
"FAM86FP",1.24122615972612
"FAM89A",1.68008512182388
"FAM90A1",1.10298702199979
"FAM96AP2",2.04818813154917
"FAM98C",5.19479547993899
"FAN1",3.34518767227984
"FAR2P1",0.938556676776501
"FAR2P2",1.09702507624008
"FARP2",3.31145481609504
"FAXC",2.49173093461296
"FAXDC2",3.31058417905145
"FBLIM1",4.67549844734058
"FBLL1",2.25692140585858
"FBRSL1",2.72096033949362
"FBXL16",3.07934750830135
"FBXO10",2.7899444352185
"FBXO32",2.69458547451084
"FBXO36P1",0.734047863575267
"FBXW8",2.24447510185168
"FCER1G",1.20171030930244
"FCHSD1",4.96595896395977
"FDXR",5.51627128015146
"FEZF1",1.83022728142347
"FGF9",1.21792525962178
"FGFBP2",0.91988241227312
"FGFR3",2.61695124523218
"FGFR4",2.25634188861123
"FGFRL1",5.01390076541399
"FITM1",1.06264534099155
"FLOT1",7.60795528355688
"FLRT2",3.52053452911207
"FLYWCH1",3.37458742972027
"FNBP1L",3.07890869063783
"FNBP4",4.74642727486121
"FNDC10",4.43633205474559
"FNDC11",1.24593435226888
"FNDC8",1.01035832553081
"FOXA3",0.636777197857037
"FOXD2-AS1",4.50321229892831
"FOXD3-AS1",2.38855288057432
"FOXD4L5",2.15313447523503
"FOXF2",2.39112082726599
"FOXI3",1.07743342506223
"FOXK1",3.5929856032438
"FOXL2",0.628947458291117
"FOXO1",1.19274609613397
"FOXS1",1.94179683800103
"FP236315.1",2.01832701354413
"FP325317.1",1.05786164033464
"FREM2",4.0561129485446
"FRMD5",1.89992420849078
"FRMPD3",1.03050934841078
"FRS3",2.41245661072266
"FRY",1.13701484037767
"FSCN2",1.5593135237625
"FST",6.33788979957684
"FTCD",1.5092542408078
"FTL",11.3208485049455
"FUK",3.25052227766582
"FUT1",1.40333758203889
"FUT2",2.15993538594709
"FUT3",0.936508563639636
"FUT5",0.28327421013368
"FXYD5",6.39597756697253
"FXYD7",1.01243689340117
"FZD4",1.43019547009768
"FZD9",2.4077006348328
"GAA",6.82074922157632
"GAB2",1.20157817648455
"GABARAPL1",6.61534001648083
"GABBR1",3.13092730759575
"GABPB1-AS1",5.66538012387674
"GAD1",3.05865076412468
"GAK",3.54194577514856
"GAL3ST1",1.05894456644523
"GAL3ST4",2.97949674121424
"GALNT15",1.15357624090028
"GALR3",0.787278797573915
"GAN",1.99060019223452
"GAPDHP22",1.44329476580607
"GAPDHP23",2.73982364051909
"GAPDHP58",1.64883832966702
"GAPDHP74",4.50902527401957
"GAREM2",1.97637102989399
"GARNL3",1.25862408699773
"GAS1",7.24321761665369
"GAS2L1",5.81750060488372
"GAS2L1P2",0.498366733211952
"GAS5",8.63403823212814
"GAS6",1.60776965923274
"GAS8",3.25766376792298
"GAST",1.2636805439004
"GATA2",1.18055586748549
"GATAD1",5.88061182658778
"GATM",3.34363894846961
"GBX2",2.95506313804425
"GCHFR",2.06576780513179
"GCK",0.613895475119947
"GDF15",7.41047930525398
"GDF9",1.75203283304926
"GDPD1",1.34954865572477
"GDPD3",2.06314939103561
"GEMIN7-AS1",0.914667438114781
"GEMIN8",3.55803088468398
"GFAP",1.78042654931751
"GGA1",4.76116910679283
"GGN",2.83109561716168
"GGT8P",2.75050400475297
"GHDC",6.29075380457285
"GIPR",2.4098472738663
"GJA3",2.90000209745442
"GJB1",1.55006995608692
"GJC3",1.15261583989056
"GK5",3.08171031687878
"GLCCI1",2.42598812518672
"GLI1",3.08682926624512
"GLIPR1L2",0.698066382445875
"GLIPR2",4.05609408661368
"GLS2",1.02770560913451
"GLUD1P3",3.30099389710372
"GLUL",9.77613192096535
"GMIP",3.61911763368924
"GMPR",2.19642884479542
"GNB1L",1.08112143254212
"GNB3",2.27487001970771
"GNG7",2.18238088827874
"GNMT",2.1965832110348
"GNRH1",2.84881372661786
"GOLGA2P5",3.44173117167603
"GOLGA3",4.67623502926965
"GOLGA4",3.59095856911073
"GOLGA8B",2.43796765974234
"GP1BA",3.77976424095122
"GPAT2P2",0.611779343457376
"GPAT3",2.22069060212252
"GPD1",2.90699538758767
"GPI",5.30067199690679
"GPR137B",2.39598181725132
"GPR153",5.25158027061726
"GPR155",2.3412585840323
"GPR179",0.576923639057554
"GPR20",0.670959256340247
"GPR35",1.02109930768494
"GPR37",3.47630884740999
"GPR62",1.39337842724436
"GPRC5B",5.22243426429993
"GPSM3",2.65555068870778
"GPT",2.38901108142952
"GRASP",2.09771443051157
"GRB14",1.35201595037785
"GRHL1",1.39597611391564
"GRIA2",1.39593652020131
"GRIN2C",2.38381386383565
"GRIN2D",2.0957685566684
"GRIN3B",2.63548499286457
"GRK3",0.588247169218355
"GSC",3.61964568781423
"GSDMB",2.84291562254762
"GSDME",4.5090913498393
"GSTM4",5.0863625484666
"GSTM5",0.369982960348849
"GSTO2",1.1223759583471
"GSTT2B",3.25797915550977
"GTF2H2B",0.983670832478121
"GTF2I",2.39120094563563
"GTF2IRD1",2.36166459753566
"GTF2IRD1P1",0.518312971184018
"GTPBP10",2.92820247257621
"GUCA1B",1.99004182163479
"GUCY1B1",3.08417840482312
"GXYLT1P4",1.07128672600935
"GXYLT1P6",1.00123704648982
"GZMM",0.746203385745986
"H19",5.25726593038354
"H2AFJ",3.12827895462636
"HABP4",3.37323921322065
"HAGH",3.58388618922203
"HAGHL",4.53390576762382
"HAP1",4.64528129423608
"HAPLN2",2.16072216345023
"HAPLN3",2.1509637856486
"HAVCR2",1.55393507689031
"HBP1",4.78366950327062
"HCFC1R1",7.40248538776327
"HCG15",1.03259326946879
"HCG4B",1.1181182048245
"HCN2",2.95469119264158
"HCRT",0.381855099433475
"HDAC10",0.849093559569244
"HDAC11",2.26957924285162
"HDAC5",3.79887873501225
"HDAC7",3.88778106121293
"HDAC9",0.948709358836718
"HDGFP1",5.26949044188264
"HECTD4",2.57570974505139
"HEMK1",3.44053335138443
"HEPH",2.40828098900504
"HERC4",3.28839872744735
"HERC5",2.75543916068223
"HES2",2.96265899820524
"HES4",5.71783566027407
"HES7",2.67883678314349
"HEXDC",3.25014168065171
"HEY1",8.61204447417969
"HIF1A",1.58733776673646
"HIGD1AP18",1.23935049124435
"HIPK1",5.80045175501089
"HIPK1-AS1",1.15119425546832
"HIST1H4PS1",1.24649243831337
"HIST3H3",1.33442390437816
"HKR1",3.06184435125243
"HLA-DMA",1.90463945266018
"HLA-F-AS1",1.52420776676731
"HLA-K",2.5386509160073
"HLA-T",0.893636049060729
"HLF",1.02942257330075
"HMGB3P17",1.08121339241056
"HMGN1P17",0.747218525991996
"HMGN1P26",0.446470502721824
"HMGN2P15",1.4601372517977
"HMGN3",4.31974082418705
"HMGXB3",5.54605790778638
"HNRNPA1P1",3.57214179414836
"HNRNPCP7",3.51117951139163
"HNRNPKP5",1.19920166227328
"HNRNPLP2",1.73883837034402
"HOMER1",2.77241100345081
"HOMER2P1",0.647760253948067
"HOTAIRM1",5.53746309293662
"HOTTIP",0.616979596623791
"HOXA1",3.34088500025693
"HOXA11",0.815906625414458
"HOXA11-AS",0.597028452316734
"HOXA13",2.57979262357242
"HOXA2",3.19518064367023
"HOXA3",1.03775623091416
"HOXA7",2.56141746432801
"HOXB13",0.479122433125003
"HOXC-AS3",0.611519498685495
"HOXC10",1.27433760194104
"HOXC13",0.828440127559237
"HOXC4",1.5024719273315
"HOXD12",1.02074263484048
"HPSE",2.37072131205289
"HPX",0.92473474654643
"HRH2",1.952483819662
"HRK",1.59489610030647
"HSD17B7",3.4647978562041
"HSD17B8",4.49410402244319
"HSD3B7",3.85479021623614
"HSD3BP1",1.01170829706249
"HSD3BP2",1.34795070339718
"HSD3BP5",1.10522256048791
"HSF4",4.08882744114612
"HSPA1A",6.37712520091651
"HSPA1L",2.86444033931713
"HSPA2",4.3931513183987
"HSPA4L",3.70211228952817
"HSPA7",3.11477326160717
"HYAL1",1.69296770242656
"HYI-AS1",2.19684761332713
"ICA1",1.44081958268821
"ICAM5",4.8827844678531
"ICE1",5.07211396901649
"ID4",5.87832090154564
"IDUA",3.42734278955351
"IER2",6.04141744638924
"IER5L",3.65700821625761
"IFFO1",5.61109449372091
"IFI27",3.39925781395161
"IFITM2",6.58808003846193
"IFITM3",0.647099637634924
"IFITM4P",3.18059627912529
"IFITM5",0.738918477904902
"IFRD1",4.48635940286377
"IFT27",4.73069541679364
"IGDCC3",0.55184947859072
"IGFALS",0.667028889528895
"IGFBP3",11.1097057361761
"IGIP",5.63289891600552
"IGKV1OR-2",0.814780074378701
"IGLL3P",0.554218113844424
"IGLV1-50",0.336118912777942
"IGSF22",0.840202737933688
"IGSF9B",1.2301393016865
"IKZF4",1.56263170502858
"IKZF5",1.87161806302789
"IL11RA",3.15078275679655
"IL15RA",1.76980846948926
"IL18BP",3.81789574855037
"IL23A",1.70119274421752
"IL3RA",2.94278325571757
"IL4",0.510927559853381
"IL9RP3",0.608067194950372
"ILDR2",3.59741039058226
"IMPDH1",5.33033232216185
"IMPDH1P5",2.59716813195911
"IMPDH1P8",1.96859105380871
"INAFM1",7.35352520604726
"INAFM2",7.07228808195608
"INCA1",3.21725202965246
"ING5",4.01242893941142
"INHA",2.46503499264954
"INHBB",0.823793120420588
"INO80B-WBP1",3.03419654423952
"INPP5B",2.02443957786324
"INPP5D",1.46475585765242
"INPP5E",5.32081666081516
"INPP5F",4.25209741981412
"INPP5J",2.18063728698116
"INTS3",4.9526896165555
"IQCD",1.77334567020907
"IQCE",3.35799670918186
"IQCN",2.4463246899282
"IQSEC1",2.59183080849648
"IRF2BP2",6.62167469022195
"IRF5",3.09775809614718
"IRGQ",1.63985709029338
"IRS2",6.09378500703304
"ISCA1P4",1.95028242434214
"ISCU",6.80120630372074
"ISG15",3.6370573222787
"ISL2",2.04402291794494
"ITGA2B",1.02782880082164
"ITGA7",7.49403231762802
"ITGB4",1.13633437177812
"ITPKB",4.30242784777352
"ITPKC",3.58067593050996
"ITPR1-AS1",2.14316355232169
"IVNS1ABP",6.76387535445104
"IZUMO1",0.720018016905684
"JADE2",4.0663073418814
"JAG1",6.44469171766544
"JAG2",3.02099857491799
"JAK3",0.933430643645881
"JMY",2.66175359771734
"JPH1",2.53584657610588
"JPH4",0.440105151977442
"JUND",8.95089909805126
"KANK2",6.20357593562956
"KAT2A",6.43723071041667
"KATNAL1",3.16277109667987
"KAZALD1",4.36682432607414
"KAZN",0.793746554143456
"KCNA2",2.497119721102
"KCND1",2.60993506400554
"KCNH3",2.58881227269588
"KCNIP2-AS1",1.35792942771747
"KCNJ10",1.28769667340255
"KCNJ11",3.55924324559703
"KCNJ14",2.83975880755417
"KCNJ2-AS1",2.71884096769141
"KCNJ9",0.626180966996707
"KCNK15",1.47229487574467
"KCNK7",1.28640642873671
"KCNMB4",2.33580948902439
"KCNQ4",0.359936094540733
"KCTD15",2.99151770802313
"KDM4B",2.49634143993201
"KDM6B",4.88614768156256
"KDM7A",1.60737934780717
"KHNYN",5.56625252203475
"KIAA0040",3.82701319627208
"KIAA0087",0.489908411140958
"KIAA0355",2.09808551932317
"KIAA0513",3.11086165798168
"KIAA1024",2.7847778856975
"KIAA1147",4.59677950497661
"KIAA1324L",1.30396457348723
"KIF17",1.23957894167108
"KIF21A",3.80736016998364
"KIF3C",3.53975483325499
"KIF5A",3.69233997468507
"KIZ",1.44389961683084
"KLC1",2.49099698907497
"KLC4",3.01101698583164
"KLF15",2.45862167110163
"KLF3-AS1",1.44151226808465
"KLF6",6.9124622762572
"KLF9",3.51878904971655
"KLHDC1",1.37170218351174
"KLHDC8A",6.52559352431827
"KLHL24",4.42503110556501
"KLHL33",2.54574820091041
"KLHL35",0.640942911372828
"KLHL7-AS1",2.2930924956079
"KLK14",0.996236166844711
"KLLN",2.63420776964945
"KMT2B",5.25348534312444
"KMT2E",3.63801358170932
"KMT2E-AS1",5.10149524350272
"KMT5C",4.4011860372217
"KRBA1",3.61695895071682
"KRT8",2.13709496033892
"KRT8P26",0.935838112926474
"KRT8P7",0.553746591669137
"KRTAP5-10",0.82480201410255
"KRTAP5-AS1",0.833391850257206
"KRTCAP3",2.58042735234473
"KSR1",1.23698651439122
"KTN1-AS1",1.7725889845592
"KYAT1",2.70684105338283
"LAMA5",6.36267591697921
"LAMC2",0.926341354522209
"LAMTOR5-AS1",1.74300354874489
"LARGE2",0.979004117309988
"LBX2",2.79086525048471
"LBX2-AS1",3.38622472638387
"LCAT",4.72773620182101
"LCMT1-AS1",0.878998856948202
"LDHBP1",1.16714038727371
"LEAP2",4.01402597414926
"LEF1",2.77824983794525
"LEMD1",1.00147252685594
"LEMD1-AS1",0.601900803988501
"LEMD2",5.80579893340433
"LENEP",1.64885872286485
"LENG8-AS1",3.63834518957594
"LETMD1",5.94785638042238
"LGALS3",8.32592784617146
"LGALS9",2.00048360268067
"LGALSL",5.26418020362782
"LGI4",1.98140068161696
"LGMN",4.74023500708993
"LGMNP1",3.56720699636429
"LHX6",1.0306336535612
"LIAS",2.87403914117605
"LIF-AS1",0.984177765426214
"LIMK1",5.99652921990229
"LIN7B",3.9231826038249
"LINC00328-2P",2.52984570919743
"LINC00441",1.07929661946412
"LINC00443",1.51012768279405
"LINC00461",3.29052948153003
"LINC00482",0.661045659564632
"LINC00520",1.05182119408544
"LINC00551",3.87794245623152
"LINC00556",0.603721158385872
"LINC00601",2.5159373055196
"LINC00622",1.58417152910699
"LINC00634",0.90544980266336
"LINC00638",2.85266630284456
"LINC00648",2.25043130459454
"LINC00663",1.70427337964629
"LINC00672",2.23576359826931
"LINC00677",0.812235844329289
"LINC00706",1.67825429465188
"LINC00846",0.747920077029838
"LINC00847",5.05164229762633
"LINC00893",1.72126515982114
"LINC00898",1.07419225721007
"LINC00899",2.23977302311709
"LINC00957",1.64924703585455
"LINC00963",4.69788415362491
"LINC00997",3.62643099127345
"LINC01004",2.87753229642876
"LINC01058",1.3995458327209
"LINC01126",2.61142387344843
"LINC01138",0.962217778417598
"LINC01198",1.08376968027949
"LINC01219",0.762674222955271
"LINC01220",1.69551286163346
"LINC01254",0.813683034005163
"LINC01268",3.29325874505651
"LINC01287",1.59902193765472
"LINC01300",0.406093869135809
"LINC01315",1.33485509610664
"LINC01366",2.35167769730114
"LINC01372",2.39115821251017
"LINC01397",0.493839679624908
"LINC01521",3.57495191287377
"LINC01534",3.00497173742337
"LINC01549",0.525354572054474
"LINC01569",2.11943452981782
"LINC01666",1.21047049008338
"LINC01703",1.10615014950707
"LINC01730",1.27470929943254
"LINC01732",0.630694538452421
"LINC01750",2.00788529107523
"LINC01770",2.04544933044268
"LINC01786",2.83330159562648
"LINC01812",0.667216164759058
"LINC01827",0.220109788121326
"LINC01844",0.822053758221477
"LINC02019",1.45276562802976
"LINC02062",1.53231014497451
"LINC02080",1.51385154143161
"LINC02102",0.660594018813449
"LINC02148",0.722903507615902
"LINC02175",1.23094855251345
"LINC02199",0.643851894607357
"LINC02265",0.903700600725128
"LINC02330",0.344162596828695
"LINC02340",0.908625734905056
"LINC02362",0.576114045943204
"LINC02363",0.747581402750305
"LINC02450",1.38722762785664
"LINC02461",0.86946093702913
"LINC02473",1.49975074059166
"LINC02560",2.18719101602947
"LINP1",1.58360457935001
"LIPA",3.9383867694246
"LITAF",3.48732573996192
"LMBR1L",4.76152836733017
"LMF1",1.86268922097451
"LMNTD2",2.98080889165753
"LMO2",1.63694446235697
"LMO4",6.06705049243776
"LMTK3",2.14697540269588
"LOH12CR2",3.86970737292053
"LONP2",3.39948415306206
"LONRF3",1.62712252952848
"LPAR2",3.83929406945246
"LPCAT4",5.79920809259753
"LPIN3",2.18761425937162
"LRCH1",1.81250729277799
"LRCH4",3.46393523671191
"LRCOL1",1.50542815043792
"LRIF1",1.47878906156962
"LRIG2",3.42265491337383
"LRP10",7.84432426569066
"LRP2BP",0.900402722253637
"LRP4-AS1",1.33929920564269
"LRRC23",2.71418905876296
"LRRC24",2.52872800396379
"LRRC37A7P",0.974131132965454
"LRRC37B",2.16454145495241
"LRRC39",2.26940260539446
"LRRC3C",0.563133843797297
"LRRC46",2.25501878100956
"LRRC4B",0.513858717380721
"LRRC56",1.70448433909079
"LRRC75A",0.727595270596725
"LRSAM1",3.77629071410254
"LSAMP",0.74150132908227
"LSMEM1",2.78611217748648
"LSMEM2",1.18951302234877
"LST1",1.89322931852042
"LTA",0.92912880814762
"LTA4H",3.60824549510346
"LTB",1.80545690221363
"LTB4R",5.06564725754327
"LTBP4",6.2113168000621
"LTC4S",1.88562131227521
"LUC7L",4.47502648130555
"LUM",5.44020441372636
"LURAP1",1.28850667344648
"LVRN",0.578956917606431
"LY96",2.8670167408189
"LYPD2",0.406324876357384
"LYST",3.35417087437373
"LZTS3",4.93332140999486
"MAEL",1.10342239513603
"MAF",5.11238732785085
"MAFA-AS1",1.84936943235511
"MAFK",5.55929340313589
"MALAT1",9.41704958018659
"MAMDC4",4.48307177631416
"MAN2C1",5.51026488811088
"MAP3K1",2.94590248924178
"MAP3K10",3.42848868452407
"MAP3K12",5.04690065561868
"MAP3K4",3.33835933808665
"MAPK11",5.34133258138362
"MAPK12",4.40732352741096
"MAPK13",1.92032693789741
"MAPK8IP1",3.89855753239053
"MAPK8IP2",1.68709680422264
"MAPK8IP3",4.24211092286956
"MAPKAPK5-AS1",5.49991034014599
"MAPT",1.09646341508427
"MARC2",2.50752161238212
"MARCH2",3.19995759851816
"MARF1",2.38774909324881
"MARK1",1.95602739029866
"MAST1",0.744099261879275
"MAST3",1.42967003027551
"MAT1A",0.940987843482073
"MATN1-AS1",1.29718898341452
"MAU2",4.64044232925488
"MAX",2.93201804880993
"MBD6",6.04047085385324
"MBOAT1",1.10931674679892
"MC1R",2.94474532321945
"MCCC1",3.46931632923187
"MCCD1P1",0.980531376745034
"MCFD2P1",1.71250170891242
"MCRIP2",4.0674157339221
"MED15P9",1.62535111065118
"MED28P3",1.29133247907689
"MED9",4.63193036054979
"MEF2A",3.09649605182772
"MEF2D",4.42632497753921
"MEIS1",1.83507935157109
"MEIS1-AS3",1.5761914520282
"MEIS3",4.5123190484409
"MERTK",1.77084289620803
"METRN",7.32796589116206
"METTL27",4.00506772508491
"METTL7B",8.8615760143635
"MFAP3L",2.06399987848637
"MFNG",2.00216093150766
"MFSD4A",1.07186136460277
"MGAT4A",1.64111814733225
"MGAT5B",3.01587009040457
"MIB2",4.77790306096664
"MICAL3",1.92570366097921
"MICALL2",5.38103606632623
"MICF",1.58401693482693
"MIDN",6.70179903391024
"MIF4GD",5.34987807695648
"MIOX",0.744551703613904
"MIR100HG",1.7489266295999
"MIR1273E",1.17341398241173
"MIR1299",0.357622871690414
"MIR1302-3",0.553647186066309
"MIR193A",0.245896380490875
"MIR193BHG",1.51184861281413
"MIR212",0.310954696374094
"MIR23A",3.42596354759866
"MIR24-2",4.00530902908727
"MIR27A",3.81784809653297
"MIR29B2CHG",1.25683349813524
"MIR30B",0.231234820373466
"MIR3149",1.37036652281011
"MIR3178",1.47497970117547
"MIR320D1",0.331841975663969
"MIR331",2.51335495225687
"MIR4458HG",3.85597519597935
"MIR450A1",0.43309239720868
"MIR450A2",0.641840049566033
"MIR4530",1.65612523515748
"MIR4678",1.66148207169753
"MIR4689",0.531219682926877
"MIR4697HG",3.48501304959962
"MIR563",1.16803193051001
"MIR5695",3.1706395539972
"MIR7-3HG",0.44790939642201
"MIRLET7BHG",2.78073604834291
"MISP3",3.40556499455296
"MITF",1.2468916151157
"MKNK2",6.69382742232505
"MKRN1",6.21964649062945
"MKRN3",2.39498397644739
"MLLT6",5.84729269620582
"MLN",1.14972751544789
"MLXIP",3.60920772461652
"MLXIPL",1.38078389005863
"MMP14",8.26401500745537
"MMP24OS",0.558392698846878
"MMP25",0.581756760704089
"MPIG6B",0.860815108193157
"MRI1",4.53114216165249
"MRNIP",3.69004004624256
"MROH6",4.18465540339274
"MRPL23-AS1",0.711969461705819
"MRPL36",6.34746219802015
"MRPL55",6.97608235086378
"MRPS36P5",1.55362281834441
"MSI1",3.48541867704594
"MSLN",0.48180874357223
"MST1",4.08759163046813
"MT-CYB",14.8377661861274
"MT-ND4",15.3630562129359
"MT-ND4L",14.8017135769801
"MT-ND5",13.8916063067727
"MT-ND6",13.7832726851733
"MT-TL1",11.3583866877451
"MT-TM",9.18104860349804
"MT-TQ",8.75607718399688
"MT-TV",7.8285136497894
"MT1XP1",1.68806926611663
"MT3",3.64306670851531
"MTA1",4.04801567838743
"MTCO1P1",2.0230733389565
"MTCO3P39",1.49189760067223
"MTDHP1",2.19920759722586
"MTERF2",3.74199880286962
"MTHFD2P1",1.35314832213325
"MTHFR",3.57726220950748
"MTMR10",2.94947991319896
"MTMR11",7.11894559046595
"MTMR3",0.613886587741052
"MTND3P22",0.679512311511916
"MTND4P35",3.77470855529597
"MTRNR2L9",0.268400251533221
"MTSS1L",3.84990724118756
"MTURN",3.8649545123605
"MTUS1",0.684969939836462
"MUC20-OT1",3.48311005922308
"MUC20P1",2.26136372901348
"MUM1",5.00998075664332
"MYBPH",2.53324706157231
"MYEF2",5.03496697649065
"MYH7B",1.42587707983774
"MYL5",3.67433645194174
"MYL6P1",0.283737351618273
"MYO15B",2.57312564322041
"MYO18A",3.37058385488019
"MYO5B",0.702525216131537
"MYO6",2.93551078139502
"MYOG",0.314379610048472
"MYPOP",2.88931336264675
"MZB1",1.10878102263224
"N4BP2L1",2.35945603588622
"NACAD",4.19988655192103
"NADSYN1",4.23788943822326
"NAIP",1.91240160661624
"NALT1",3.18429272119398
"NANOGNBP2",0.533314851282006
"NANOS1",2.23566264768356
"NARFL",2.63846410510706
"NAT16",3.26448764627139
"NAT8L",2.27496262488886
"NAV2",1.42067760523495
"NBEAL2",3.14382119300028
"NCKAP5L",4.06263789180753
"NCOA4P2",0.546132797590782
"NDRG1",5.24723453015276
"NDRG2",1.37865261895182
"NDRG4",3.39123187721883
"NDST1-AS1",0.625554549289946
"NDUFA3P4",0.89256930146946
"NDUFA4L2",2.44200317999882
"NDUFA5P4",0.660699968090286
"NDUFA6-AS1",1.04957547897743
"NDUFB4P8",1.57404366614198
"NDUFB9P2",1.32153430865991
"NDUFS7",3.77153838306693
"NEBL",1.10001370729798
"NECTIN3",4.52074143174389
"NEIL1",3.58061775313665
"NES",10.3286721272317
"NFASC",3.48451716246427
"NFAT5",3.34050185784552
"NFE2L3P1",2.3340068883732
"NFIL3",4.07072446223332
"NGEF",2.1952251902077
"NINJ1",4.70666827119763
"NIPSNAP2",4.73218095949593
"NKX3-2",2.17892056933807
"NLGN3",1.01381640627337
"NLRP6",1.44458009883965
"NMNAT3",0.851185929132893
"NNT",3.94351148060785
"NNT-AS1",3.86352535207462
"NOA1",3.30899699004425
"NOD1",2.45529171298418
"NOL3",5.91782568648658
"NOP53",6.00698997411499
"NOP53-AS1",1.10706451467318
"NOP9",4.55843675682247
"NOS2",4.27712485639758
"NOTCH1",4.46312698960757
"NOTCH2",4.9408090625369
"NOTCH3",6.08210648668342
"NOVA2",2.64929823333994
"NOXA1",3.22158925432679
"NPAS1",1.62227197387341
"NPC1",4.60901954841377
"NPDC1",7.31641411152635
"NPIPA1",1.5915747781352
"NPM1P47",0.950174521697792
"NPNT",1.45714052079504
"NPRL2",5.51591869212178
"NPRL3",2.75388988168651
"NPTX1",0.853154574753039
"NPTXR",5.0518036560804
"NPY",1.60463160346133
"NR1D1",5.94738728245909
"NR1H3",3.42169669594121
"NR1I3",1.66590991414197
"NR2F2",4.94612908660625
"NRARP",3.64409485535939
"NRBP2",6.8817876411859
"NRN1",6.06532631090644
"NRP2",5.7582216242161
"NRTN",1.65904348840989
"NSMF",5.92213182493503
"NSUN5",4.67752805614652
"NSUN5P1",6.44831488000533
"NSUN5P2",0.8163129526903
"NSUN6",1.49968373135735
"NT5M",2.04784152552222
"NTN3",1.40900680909294
"NTPCR",4.63411088106245
"NUDT4",6.24666203236294
"NUMBL",5.26085098638321
"NUP50-AS1",3.35220932441709
"NXPH3",1.04138610789689
"NXPH4",3.68490047123937
"NYAP1",2.2352319243323
"OAF",3.74785577683285
"OBSCN",1.01305910132474
"OBSCN-AS1",0.750568582137964
"OCEL1",5.49075895008754
"ODAPH",1.05484194997941
"ODF3L2",0.551064718836518
"OLIG1",5.18816973577146
"OR13J1",1.70048137624691
"OR4F17",1.80842167064411
"OR52A1",1.00994745777185
"OR7E28P",0.424015919415196
"OR9A3P",0.503002088949625
"ORAOV1",3.48164278552853
"OSBP2",2.72112789200601
"OSBPL3",3.83051399529775
"OSBPL7",3.96500112294288
"OSR2",2.11196720572483
"OTUD1",2.66091978409902
"OVGP1",2.43267202209352
"OXCT1-AS1",2.35842899575029
"P2RX7",2.4029720034626
"P2RY11",2.54174680238072
"P3H2",1.15422059145935
"PACS2",3.64789174297272
"PACSIN2",3.42142833508512
"PALD1",1.23322492650956
"PAPPA2",0.443428647913565
"PAQR3",4.06595384427885
"PAQR6",6.51035807492662
"PARP3",5.43223439070867
"PARP6",3.68293181612549
"PARP8",1.28324149220624
"PATL2",0.716230257375776
"PAX3",1.27371222791233
"PAXIP1-AS1",5.37893751092183
"PAXIP1-AS2",1.71270736960491
"PBX1",1.95687803145211
"PCDH1",4.51889601482748
"PCDH10",4.76177480454777
"PCDH12",1.99751118617579
"PCED1A",6.37134164485835
"PCGF2",5.43934365377618
"PCNX1",3.3877131966708
"PCSK4",2.90563201296906
"PDCD6",1.84359379630887
"PDCL3P4",2.68673364602538
"PDE4A",1.12885414088213
"PDGFB",2.7072253346375
"PDIA2",1.10912771160869
"PDK4",1.7710633280269
"PDLIM3",4.41922449161954
"PDLIM7",5.69198419336607
"PDPK2P",2.19724023235161
"PDPN",4.39077914553737
"PDPR",1.91614676046538
"PDZD4",3.65415110453675
"PDZD7",1.02550369438471
"PECAM1",0.82493074921568
"PELI1",2.9289198050484
"PELI2",1.44754409297546
"PER3",3.1637331251065
"PEX1",3.57175546722397
"PFKFB3",4.1260661082718
"PFN1P2",6.20154990627946
"PFN1P9",1.59696464080741
"PGBD4",4.32288760583191
"PGF",1.69792833779516
"PGGHG",5.43181879724286
"PGM2L1",4.01818343480968
"PGPEP1",4.80050906524653
"PHF1",7.06222767980123
"PHF21B",1.53180884892148
"PHF7",3.51234913767663
"PHKG1",2.03041926977584
"PHLDA1",9.73302273711765
"PHLDA3",6.53821159701047
"PHYHD1",0.596318915821246
"PIANP",4.71954575129378
"PIDD1",5.41726718088666
"PIGL",1.36582697447724
"PIGZ",2.841663762135
"PIK3IP1",2.92408055787572
"PILRA",1.42296924942667
"PIM3",6.84450463821906
"PIPOX",3.52856585039078
"PITPNM1",5.69109880119673
"PITPNM2",1.683163238752
"PKD1",4.99501824570626
"PKD1L2",1.09776365303884
"PKDREJ",1.86364114289518
"PKMP3",2.35340845235537
"PLA2G2A",0.760757535891543
"PLA2G2F",2.56632670318323
"PLA2G4C",1.12132428541657
"PLA2G5",0.792884345619158
"PLA2G6",2.04497703263548
"PLAC9",1.42893654714979
"PLAG1",3.04280342491892
"PLCD1",2.47763743316758
"PLCD3",4.61360325293956
"PLD1",2.3729945179721
"PLD2",4.41836458266553
"PLD3",6.80609051712171
"PLEKHA2",3.60375866121428
"PLEKHB1",5.21123623232796
"PLEKHG5",3.90938842151381
"PLEKHH1",1.36931894817016
"PLEKHH2",3.15375149132958
"PLEKHH3",5.80521835125309
"PLEKHM1",2.59983647501957
"PLIN1",0.482920185143446
"PLIN4",1.30529799221592
"PLK3",5.39190406692346
"PLK5",0.948629149148169
"PLPP2",4.5873296098902
"PLPPR5",2.97085507739808
"PLXNA4",2.00245324448977
"PLXNB2",7.20726354328897
"PMEL",1.04304954539795
"PNCK",1.35974991129823
"PNMA2",5.68118882292513
"PNPLA6",4.99920992216897
"POC1B-AS1",1.76626739469337
"PODXL",6.54544271695547
"POLG2",4.12449786933855
"POLR2LP1",1.61941515899813
"POLRMT",5.29248786583045
"POLRMTP1",2.37923623961301
"POM121",3.32024888509863
"POM121C",3.33870109537189
"POMT1",4.53244661256949
"POSTN",6.29660523941371
"POU6F1",3.6889885415897
"PPARA",2.57183713219094
"PPARGC1A",1.35746443841815
"PPARGC1B",2.02278368893439
"PPFIA3",2.62832571691287
"PPFIA4",2.46097384746585
"PPFIBP2",1.56004151164507
"PPIAP32",0.670570137080706
"PPIAP74",2.29012188763113
"PPIAP89",1.12610859947002
"PPIEL",2.51995381969993
"PPL",3.89174830429718
"PPM1B",3.44815838111819
"PPM1J",2.60478825619842
"PPM1K",4.63419623001129
"PPM1N",1.37741722719227
"PPP1R16B",1.4010052706497
"PPP1R26",5.72892823742036
"PPP1R27",0.972447273285199
"PPP1R2P1",0.805666253339071
"PPP1R32",1.93404448761473
"PPP1R3F",2.62870466768025
"PPP2R5B",4.27341191317868
"PRADC1P1",1.57186461164107
"PRAM1",1.1367592038313
"PRDM15",1.95872083006027
"PRDM6",1.23446506911791
"PRELID3A",2.44422751109068
"PRKAB2",5.27663859214598
"PRKCB",1.40069593648959
"PRKCQ",1.23285067085729
"PRKD2",2.95296697442526
"PRKRIP1",3.66303002788502
"PROB1",3.56708120816395
"PROCA1",4.9073228460385
"PROX1",4.37562548148152
"PROX1-AS1",1.18893839401725
"PRPF40B",1.85462407795309
"PRR25",1.91409259337359
"PRR29-AS1",0.868355028436935
"PRR36",2.91356470928127
"PRR7-AS1",2.65739862069737
"PRRC2B",5.05608670355812
"PRRT1",2.94019824804756
"PRSS27",2.364145985498
"PRSS37",0.630543532622528
"PRUNE2",2.5388182768595
"PRX",3.46257618375484
"PSD",1.77143428037157
"PSMG3-AS1",3.56129619916543
"PSORS1C1",4.19569554272366
"PSPHP1",2.96076748452589
"PSPN",4.28226445528077
"PTCH2",2.20039485020348
"PTCHD1",1.07026554434733
"PTCHD4",1.20294066034966
"PTGER1",0.657495087187249
"PTGER4P2",0.516246471580756
"PTGES2-AS1",2.99244305243777
"PTK2B",3.97267121879232
"PTK6",2.02589401437155
"PTP4A3",2.58905754007959
"PTPA",6.99074322637629
"PTPN21",1.63530005288491
"PTPRB",0.99779098516549
"PTPRF",4.36870259690857
"PTPRH",2.86030649544473
"PTPRS",3.81032873485976
"PTPRZ1",6.30214618123552
"PURG",2.8581611822737
"PURPL",3.9828732296714
"PXDC1",3.66838082605824
"QRICH2",1.84246858800256
"R3HDM2",1.23944464222607
"RAB11FIP3",3.21103741789561
"RAB11FIP4",1.43221915227583
"RAB12",5.12942975850866
"RAB24",1.4149852656649
"RAB26",2.27404039174281
"RAB30-AS1",0.501326220763964
"RAB39A",1.39041896568781
"RAB3A",2.7559754634116
"RAB3B",3.16212460007474
"RAB3IL1",1.74655185478697
"RAB40A",2.68707749042642
"RABL2A",2.9330166163608
"RACK1",9.74626131776477
"RAD23A",7.50137538708634
"RAD51-AS1",4.50109086642791
"RALGAPA1",1.68320028508993
"RALGPS2",1.5095658152339
"RAMP2",1.25194951086169
"RANBP10",2.4517612192447
"RANP4",3.59011616646094
"RAP1GAP2",2.07111805934712
"RAPGEF1",3.2068812705207
"RAPGEF3",1.86356689499806
"RAPGEFL1",2.90201024688027
"RARG",4.16441574793091
"RASA4CP",0.884166526475925
"RASD2",2.56101159862798
"RASEF",3.26105456639461
"RASIP1",0.85989200022845
"RASL11A",2.98338506031856
"RBM20",0.940059882703321
"RBM24",1.66853519994407
"RBM5",5.56715658434629
"RBSN",4.30656029351472
"RDH10",1.07202468990876
"RDH16",1.10422526760003
"REC8",2.99357192022999
"REEP6",3.77137390381458
"REG1A",0.893207760784756
"RELL2",4.24334213191955
"REM2",2.44448010040136
"RENBP",2.67255269881621
"RETREG1",2.47106174607605
"REV3L",2.90349707869058
"RF00561",0.801065892335674
"RF00593",1.34318400652033
"RF02110",0.270898101468747
"RFLNB",5.33179158343401
"RFNG",6.29608219434293
"RGCC",1.19964256991458
"RGL2",2.16843538375375
"RGL3",1.77981740053046
"RGMA",3.0673760571012
"RGS10",1.77938196457087
"RGS16",6.52788285203427
"RGS6",1.39990002821844
"RGS9BP",1.1021451207314
"RHBDD2",5.02133137537587
"RHBDF1",4.70370437382763
"RHBDF2",3.08480629961859
"RHBDL1",4.4386130223108
"RHOBTB1",2.14503184976023
"RHOJ",3.85097412743035
"RHOQ",1.43949660392967
"RHOU",4.16130497098811
"RHPN1",3.89052437430543
"RIMBP2",0.51615265565466
"RINL",1.65281129458049
"RN7SKP106",1.09717347914477
"RN7SKP145",0.204621004644895
"RN7SKP272",1.33923682596712
"RN7SKP55",0.760900920108994
"RN7SL155P",0.732624226145482
"RN7SL18P",1.10226327394564
"RN7SL190P",1.41515762197363
"RN7SL262P",2.0435908654354
"RN7SL278P",0.668370912046086
"RN7SL317P",1.88314133468499
"RN7SL339P",2.83819635451766
"RN7SL342P",0.482164860127445
"RN7SL353P",3.30677574282115
"RN7SL356P",3.02945537659565
"RN7SL363P",0.547893905417382
"RN7SL403P",3.0925636632184
"RN7SL477P",2.63914827345585
"RN7SL523P",0.241053693984447
"RN7SL567P",0.268738873021921
"RN7SL569P",1.34039505752126
"RN7SL592P",1.22544922282323
"RN7SL605P",2.43245081049641
"RN7SL664P",0.546924701996075
"RN7SL667P",2.76639507848358
"RN7SL714P",0.858326264241314
"RN7SL73P",2.58734932283295
"RN7SL767P",1.04091734979378
"RN7SL790P",1.25936918455016
"RN7SL799P",0.6575277675488
"RN7SL845P",0.407485935064006
"RNA5SP137",0.18246680548302
"RNA5SP18",3.07104665416529
"RNA5SP228",1.25150579689968
"RNA5SP240",0.275742141879411
"RNA5SP379",0.262189857177703
"RNA5SP41",0.293712189701178
"RNA5SP433",0.615770973502055
"RNA5SP441",0.231234820373466
"RNA5SP52",0.723144237181207
"RNA5SP64",0.253792086125249
"RNASE10",1.53355747266977
"RNASEH2B-AS1",0.817405254291744
"RND2",6.77227328213798
"RNF112",2.27510234062338
"RNF144A",2.08405240226453
"RNF149",3.86715810817797
"RNF157",2.57659771696595
"RNF175",1.3319922885808
"RNF183",0.80890663445693
"RNF187",7.68270275325801
"RNF208",4.38521911994689
"RNF213",3.80086544288514
"RNF216",3.08022917394688
"RNF224",3.72643771954205
"RNF32",2.65868494928528
"RNF39",3.94709898081625
"RNF44",5.67773948551445
"RNPC3",4.13763148077923
"RNU12-2P",1.90174032095259
"RNU2-17P",1.16319198853851
"RNU2-19P",0.901214836319697
"RNU4-39P",1.57678143456425
"RNU6-1004P",0.703549774719579
"RNU6-1051P",0.637025257911036
"RNU6-1096P",0.283584275829968
"RNU6-1150P",0.24005946284299
"RNU6-1273P",0.238587186674507
"RNU6-1313P",0.227333209843891
"RNU6-147P",0.543093772420762
"RNU6-293P",0.206933844576467
"RNU6-29P",0.781489428486313
"RNU6-304P",0.710707174235011
"RNU6-450P",0.304861344922577
"RNU6-45P",2.12283130048604
"RNU6-483P",1.26180708587985
"RNU6-696P",0.594634443689229
"RNU6-705P",1.20576258782098
"RNU6-716P",0.224545569573207
"RNU6-880P",0.890221237584483
"RNU6-907P",0.217183549428096
"RNU6-912P",0.617682383229034
"RNU6-921P",0.380242033561703
"RNU6-947P",0.359374576935257
"RNU6-968P",0.646186594137253
"RNU6ATAC17P",0.279742083223327
"RNU6ATAC4P",0.783105369918902
"RNU7-160P",1.86668209390143
"RNU7-54P",0.286741652643067
"RNY1",1.10493930111699
"ROBO3",3.12060883415256
"ROGDI",4.89377085598541
"RORB",1.95820991734878
"RORB-AS1",1.67117897605688
"RP9",3.48986575233896
"RP9P",2.58134214396398
"RPARP-AS1",2.91487906107845
"RPL12",9.8230240803313
"RPL12P32",0.574167368078732
"RPL12P50",1.33003462033133
"RPL13",8.92209537676671
"RPL13A",9.94024796827883
"RPL13AP20",2.30282772864082
"RPL13AP23",0.642664220545442
"RPL13AP5",2.12537865378447
"RPL18",9.40654336845717
"RPL18A",8.74189299123903
"RPL21P11",0.935706923574823
"RPL22P19",1.46909996730736
"RPL23AP53",1.21044089037545
"RPL23AP82",2.51110884977398
"RPL23AP97",3.43007487590265
"RPL26P19",0.891270518903025
"RPL26P6",4.19389029053442
"RPL28",6.65397641161077
"RPL35AP26",0.405559370827946
"RPL36",7.21512244491019
"RPL37",8.60133318178479
"RPL37AP1",0.877905866300814
"RPL37AP8",0.898883692262557
"RPL39P40",1.64773976684738
"RPL5P11",0.446993581140945
"RPL7A",10.7390634416243
"RPL7P41",0.886099852132967
"RPL7P8",1.40606595252316
"RPL9P29",2.65503551744312
"RPS12",10.1574526636549
"RPS15",9.69727161277116
"RPS16",10.5463682130977
"RPS19",8.72723956366626
"RPS19P1",1.01444144880248
"RPS26P49",1.17755640662778
"RPS26P8",0.433873955555817
"RPS27",10.9301386055114
"RPS27AP16",3.80632984192323
"RPS27P25",1.22848235340925
"RPS2P4",0.91391687848118
"RPS4XP22",5.27259007507908
"RPS6",10.8839825394402
"RPS6KA2",2.40697654656333
"RPSAP53",6.27388841953101
"RRAGD",3.32633101088984
"RRM2B",5.42556637707331
"RRNAD1",5.50883686380854
"RRP7BP",2.09399652322854
"RSAD1",5.88991079806153
"RSBN1",3.16235958942671
"RSL24D1P6",2.16794413404887
"RTCA-AS1",3.83490455254913
"RTN4R",1.33418609258397
"RUBCNL",2.40567127138153
"RUNDC3A",0.853446813537772
"RUNDC3A-AS1",0.990803183915117
"S100A4",7.46034119073844
"S100A5",1.82720530523948
"S100A7",0.431450927464727
"S1PR1",2.06291446712215
"SAFB2",4.80930756956337
"SALL2",3.80197859198449
"SALRNA1",0.848228044174454
"SAMD4A",2.01409807813965
"SAV1",3.16480982994593
"SBF1",5.53389152870296
"SCAMP1-AS1",3.33391102102828
"SCARB1",3.89622999589243
"SCARF1",1.86817780724951
"SCART1",1.75020939505456
"SCML2P2",1.25345690856308
"SCN1B",2.68525826113498
"SCN4A",1.14644687962117
"SCNN1D",3.80945630347413
"SCRN1",5.94203189658277
"SCT",2.14381560282164
"SDCBP2",1.36916141403773
"SDHA",5.28604441897808
"SDHAP1",3.32461105016645
"SEC14L1",4.78086264604018
"SEC14L3",0.692942397602454
"SEC1P",0.846617368240393
"SEC31B",2.76483147513682
"SELENOM",3.5242149535317
"SELENON",5.42045658166927
"SEMA3B",5.97653340185527
"SEMA3B-AS1",3.50590053462321
"SEMA4A",1.17983809451505
"SEMA6A",2.28826219347168
"SEMA6B",3.32072151148162
"SEMA6C",2.78808026545409
"SEMA6D",1.76020484408122
"SEPT14P4",0.827893566926837
"SEPT3",2.75720297597602
"SEPT7P2",2.63895342389683
"SERHL",2.05374528912276
"SERHL2",0.713159180831467
"SERINC5",2.68450822079138
"SERPINA5",0.840589420516366
"SERPINE2",4.69478514462275
"SERPING1",2.40633215720757
"SERPINI1",1.72015819753609
"SESTD1",2.36042592066546
"SETD5",4.70853656405953
"SETDB2",2.45725799355517
"SEZ6L2",5.10461413488286
"SF3A2",5.87764933201888
"SFSWAP",3.42195729234134
"SFXN3",6.03707617338294
"SGK2",0.625308056403388
"SGSM2",4.60864693383156
"SH2B2",2.57731018774582
"SH2D5",2.06536848138212
"SH2D7",1.40286793063018
"SH3BP1",0.817499102340436
"SH3BP5-AS1",1.0306570584659
"SH3GLB2",5.68034289412773
"SHC1",8.39560862978733
"SHC2",2.38785224169012
"SHC4",1.94280700085767
"SHH",5.58600503018993
"SHROOM3",1.12700769613419
"SIDT2",4.53994850383224
"SIGIRR",3.08907998104016
"SIGLEC1",0.463321382471102
"SIPA1L1",2.53330806395908
"SIRT2",4.58161474709101
"SIX1",3.44800370614141
"SIX2",0.675951172679913
"SKAP2",1.92375711117531
"SKOR1",1.16492464238107
"SLAIN1",2.64417980032115
"SLC12A4",5.08039233197863
"SLC12A7",2.83420256097255
"SLC17A5",2.87122851683092
"SLC17A7",0.714039079712138
"SLC22A4",1.7325294149796
"SLC25A23",4.5663134823898
"SLC25A25-AS1",3.42971360314258
"SLC25A27",2.64625120771848
"SLC25A29",5.80961292131775
"SLC25A34",1.58484825788165
"SLC25A4",5.87235632646237
"SLC25A41",0.913781450110424
"SLC25A47",0.576426241224531
"SLC26A11",3.95182078502339
"SLC26A2",6.77423751359614
"SLC27A1",3.13872443757982
"SLC27A5",1.97061047376262
"SLC29A4",2.26966394257322
"SLC2A1-AS1",1.3498183125257
"SLC2A4",0.879033813672731
"SLC30A3",1.6657643303216
"SLC34A3",3.63129209423915
"SLC37A1",1.72282886900981
"SLC38A3",1.7646684203863
"SLC39A5",0.936718239551459
"SLC40A1",2.17882218822585
"SLC43A1",1.12251391794332
"SLC44A1",4.22007494520755
"SLC49A3",1.86289847105428
"SLC4A8",2.99172351042956
"SLC6A10P",1.09099021221283
"SLC6A16",1.5110411277665
"SLC6A8",7.086950241472
"SLC9A3R2",2.56660811153343
"SLCO5A1",0.908932128804335
"SLITRK2",6.06229239435664
"SLITRK5",2.75703819061564
"SLURP1",0.43444505391821
"SMAD3",2.61543576108785
"SMIM1",0.937348065067694
"SMIM10L2A",1.71238164481574
"SMIM15-AS1",1.00123622327785
"SMOX",3.04870133374948
"SMPD5",1.55901720564186
"SMTNL1",1.7060617092927
"SNAPC4",3.81487681825002
"SNHG10",3.12036547368641
"SNHG14",2.15104107756768
"SNHG26",2.50171926669648
"SNHG8",7.78203866211378
"SNN",5.17555515426822
"SNORA3C",0.258214132398138
"SNORC",1.85179712828808
"SNRNP70",6.8540783327937
"SNX18P13",1.18057063350359
"SNX18P4",0.418390792974259
"SNX18P5",0.649300595313781
"SNX18P7",1.53801765286369
"SNX18P9",1.53963544422934
"SNX24",2.14087805946888
"SNX25",1.80156960084134
"SOBP",1.35946424531939
"SOWAHB",0.805324657263947
"SOX21",7.455524334154
"SOX21-AS1",5.67858237359096
"SOX4",7.25418786885192
"SOX8",5.06753477120602
"SP6",0.756932939910574
"SPATA20",5.92068034059791
"SPATA25",3.66409102174968
"SPATA6",2.06722171500464
"SPATC1",1.41682156973719
"SPDYE5",1.2120606458443
"SPIRE1",2.22569652699252
"SPIRE2",2.42708235037961
"SPOCD1",4.28940861789111
"SPP1",10.2104348658683
"SPRED3",5.63807517451284
"SPRY1",6.66257468288001
"SPRY2",8.95244279922293
"SPSB1",1.51098911261173
"SPSB2",2.87918118467867
"SPTBN2",2.03128035175244
"SPTSSB",1.37678772060398
"SRCIN1",1.54646656899897
"SRI",6.65910951240869
"SRMS",0.782304319541563
"SRP14-AS1",3.39257433187299
"SRP54-AS1",0.807222301780325
"SRRM1",4.79107014736768
"SRRM2",8.44858252022015
"SRRM2-AS1",1.50458721655131
"SRRM3",1.03611369558139
"SSFA2",6.33064183828426
"SSH1",4.29483074656002
"SSPO",2.54968443443911
"SSSCA1-AS1",3.57565987556235
"ST3GAL5",2.9271533719954
"ST6GALNAC4P1",1.48489663697417
"ST7-AS1",2.66857414830436
"ST8SIA5",5.48058062252024
"STAC2",3.43652344958251
"STAC3",2.80367944800027
"STAG3",0.752467151133456
"STAG3L1",1.75090332984206
"STAG3L2",3.69865786482816
"STAG3L3",2.48601568702656
"STAP2",1.96192730945558
"STAT5B",3.8020981740083
"STEAP2",2.28932067306353
"STEAP3",5.02958855957117
"STK11",4.00819469619701
"STK19B",1.22539049934006
"STK40",4.07948541809477
"STKLD1",1.2516305556506
"STOM",5.77244158711791
"STON1-GTF2A1L",0.590583912486042
"STPG3-AS1",1.48523709533732
"STRIP1",4.777037485612
"STX1B",1.52110846567708
"SULF1",0.841799270060578
"SULF2",3.41737804084974
"SULT1C2",1.56931849541466
"SUMO2P15",1.8307349453285
"SUN1",5.23402865060989
"SYCE2",0.935733598922314
"SYNGR1",3.86603088853204
"SYNGR3",4.36117637469082
"SYNJ2",5.1245930869247
"SYPL2",2.9345179445433
"SYT11",7.20609954431185
"SYT17",2.85657599781685
"SYTL2",2.21772738795197
"TAAR3P",2.47148696063458
"TAF11",3.47226826206449
"TAF1C",6.09430349291228
"TAGLN",5.03528264538103
"TANGO2",1.42193266441747
"TARBP1",3.36145843841907
"TAS1R3",1.80210171840501
"TAS2R5",3.46866723812784
"TAS2R6P",2.51541730284179
"TAZ",4.69645289475938
"TBC1D15",3.30930593223213
"TBC1D3L",1.42833766954692
"TBC1D8",1.40484396309165
"TBKBP1",3.67507534539419
"TBX6",1.62803574957963
"TCAP",4.43381734173055
"TCEA3",1.46879375995911
"TCEAL7",6.76321738780565
"TCF7L2",2.35729539257178
"TCP11L2",1.97235593312434
"TCTEX1D4",3.19934254622522
"TDRD3",1.55404400681636
"TDRD6",0.895838700646541
"TDRKH-AS1",2.1804587503431
"TEAD3",3.38702909485931
"TEK",1.84086127118338
"TENM1",0.813120983101107
"TEP1",3.88178880630675
"TEX21P",1.11908021960628
"TEX44",0.289145262694377
"TFAMP1",0.758823389240184
"TFAP2A",3.01830415152736
"TFAP2E",1.87572916283542
"TGFA",2.5893156317456
"TGM1",1.97096202753835
"TH2LCRR",0.902181288049929
"THA1P",0.993590321858715
"THAP2",0.831917862633289
"THBS3",2.90871795836255
"THEMIS2",2.65241298453088
"THRA",4.22304351969463
"TIE1",0.758086299967009
"TIGD4",2.68983765729979
"TIGD5",4.50063010219042
"TJP3",0.588203471331915
"TLCD2",4.09535996458572
"TLE2",2.26620639032802
"TLE4",1.90965586164934
"TLE6",2.29784896998321
"TLR1",1.20595699215027
"TLR2",0.479722242384401
"TLX2",1.37411971861714
"TM7SF2",5.36309929191997
"TM7SF3",4.58457682581056
"TMC6",1.32118917066603
"TMCC2",2.36130708617717
"TMEM129",6.65900020453302
"TMEM130",1.34075673531092
"TMEM131L",1.28650382971317
"TMEM132A",6.21676126514459
"TMEM134",5.01405547151818
"TMEM143",1.72684214352114
"TMEM147-AS1",0.756497794799112
"TMEM150A",4.46023132197785
"TMEM161B-AS1",3.0198844590879
"TMEM167B",7.25106160991845
"TMEM169",3.81709498712168
"TMEM171",2.55135141000016
"TMEM178A",1.70540792456136
"TMEM184A",0.853286412124004
"TMEM198",4.54366892787099
"TMEM198B",5.29649123797357
"TMEM221",1.28710934969014
"TMEM225B",1.49975830409783
"TMEM246",0.789049839690321
"TMEM246-AS1",1.54284440428205
"TMEM256-PLSCR3",1.35300884943702
"TMEM269",0.665041784970802
"TMEM270",1.28702457953321
"TMEM38A",2.37066720596582
"TMEM44-AS1",3.84122239688748
"TMEM52",1.58278342231938
"TMEM59L",3.99695539424145
"TMEM63A",4.22139127279929
"TMEM86A",2.55488909248991
"TMEM86B",2.9033747699515
"TMEM8B",3.94376696811437
"TMEM9B-AS1",3.05043242411841
"TMPRSS3",2.164463642733
"TMPRSS5",2.88546872680641
"TMPRSS6",1.0803636228713
"TNFRSF14-AS1",0.878324733713251
"TNFRSF21",4.10651843552944
"TNFRSF25",5.54690083031987
"TNK1",1.89121116022993
"TNK2",4.86718017571194
"TNNC1",0.952269479604957
"TNPO2",6.27808173466612
"TNRC6C",2.53669478897491
"TNRC6C-AS1",0.855039009215118
"TNS2",5.72792273534116
"TNXB",1.40477666125514
"TOB1",7.09625266686229
"TOM1L2",3.42699273752173
"TP53TG1",3.1702820391138
"TPCN1",3.64352207013007
"TPRN",4.46482679496026
"TPST2",3.40565187474569
"TRABD2A",1.72465415225659
"TRAJ13",0.41441701683052
"TRAJ14",0.457425351966512
"TRAJ18",1.28169120485552
"TRAJ3",1.36610197712388
"TRAJ31",0.641822431432154
"TRAJ39",1.76660811080872
"TRAJ5",0.973823381886175
"TRAJ6",0.910118186671047
"TRAJ8",0.535826334953603
"TRAPPC12",2.99452598600201
"TRAPPC5",2.10670704274819
"TRBV26OR9-2",1.3523694510512
"TRIB2",6.97163383529932
"TRIM45",5.22635931716054
"TRIM54",1.72553936091393
"TRIM56",7.42895514978251
"TRIM66",2.94445807636486
"TRIM7",2.04226183412853
"TRIM73",2.94240759556145
"TRIM74",0.777256222974524
"TRIM9",3.45500030694713
"TRIP10",4.54482738973829
"TRMT9B",1.71677622227501
"TRPM8",4.04573051333101
"TSC2",4.09845735688524
"TSC22D4",5.57038085688479
"TSHZ3",1.81312643248768
"TSPAN15",0.850318066054137
"TSPAN7",1.4559825352638
"TSSK3",2.25682700865781
"TSSK6",4.1810850289457
"TTBK1",1.49404575250538
"TTBK2",1.48599022317806
"TTC17",3.2950786011225
"TTC21A",1.7209366470138
"TTC9B",1.18920780859869
"TTLL4",3.79294418705756
"TTYH1",3.08438984583485
"TTYH2",1.68999219525359
"TUBB8P7",1.02317321312388
"TUBG2",5.81741899200053
"TUBGCP6",4.68487686698709
"TXNIP",9.57890944829678
"U62317.2",0.863645964747265
"U73166.1",2.98037280627484
"U91328.3",1.23806299312239
"UAP1L1",6.09349912995857
"UBAP1L",1.61997172258502
"UBE2FP3",4.10121929198606
"UBL3",3.10395396685459
"UBL4B",1.10780327450114
"UBN2",3.37169244848081
"UBR5-AS1",2.35434791029795
"UCN",4.92973105637451
"ULK1",4.21283326451997
"UNC13A",1.98863213834845
"UNC13D",2.05421334385759
"UNC5CL",1.49807510612614
"UNC80",0.884872490553987
"UPK3B",0.749834270284414
"UPP1",6.58850608756781
"UQCC1",3.17495551957577
"UQCRBP3",1.06793612212816
"UQCRHL",2.34166981836537
"USE1",5.3866265745419
"USP20",3.18567228884511
"USP36",3.89028114743584
"USP54",2.50944209012313
"USPL1",3.555368630768
"UTRN",2.80137300627811
"UVSSA",3.60317266278307
"VAMP1",1.94715441360658
"VAMP8",0.693828010761266
"VANGL2",4.23616939853518
"VASH1-AS1",2.03193215771133
"VAT1",8.2200164934255
"VAX2",1.13034558714778
"VGF",5.0899116656419
"VHLL",0.322482008688739
"VMO1",2.63596944312757
"VN1R108P",1.95876274646266
"VN1R12P",0.423656768474819
"VN1R51P",1.0049861409814
"VN1R80P",1.01277408193096
"VN1R83P",4.34306130908738
"VN1R91P",0.151590766836445
"VPREB3",2.85334505075569
"VPS13C",3.29496977146334
"VPS13D",2.30859466775324
"VPS37D",4.22086311573125
"VSTM2B",2.98775538321166
"VTI1BP2",0.461952675580416
"VTRNA1-1",1.1363511533329
"VTRNA1-3",2.75403245905235
"VWA5B2",1.50803396734476
"VWA7",0.897696818109612
"WAS",2.29063665491159
"WASH2P",3.2713412500189
"WASH3P",2.35597718274069
"WASH5P",6.44968492047677
"WBP2",7.37897115222721
"WBP2NL",1.21322114998924
"WDR24",4.4169515277087
"WDR60",2.99338847182049
"WDR83",4.31959620103633
"WDR86",0.81306834144822
"WDR97",1.70764036483375
"WEE2-AS1",0.88009430403885
"WFDC1",0.772385856829878
"WFIKKN1",2.26340675027299
"WHRN",2.44591302191749
"WNK1",4.70508198104227
"WNK4",1.1966992241664
"WNT16",0.893766714778686
"WNT2B",1.5184152747733
"WNT8B",0.670575568470367
"WSB1",7.08592616431727
"WSCD1",2.35978800007536
"WTIP",2.13256288994237
"XAB2",5.66924464699931
"YBX3",6.72753593974094
"YJEFN3",2.28455204072814
"YPEL2",1.45642615247067
"YPEL3",4.70011667252032
"Z69733.1",2.38934556719476
"Z84480.1",0.672185651869034
"Z84492.2",1.24865772233588
"Z95114.3",1.12472314278383
"Z97653.1",1.96728545449018
"Z97653.2",1.15484420886181
"Z98257.1",1.02636852802717
"Z98752.3",0.556734947211138
"Z98885.2",0.572441374914759
"ZBTB1",2.72737791583418
"ZBTB25",2.60319996013134
"ZBTB4",6.0408692400195
"ZBTB45P2",0.594881349931601
"ZBTB47",4.23437236901408
"ZBTB5",4.55872389143835
"ZC3HAV1L",4.34481458608451
"ZCCHC6",4.04193989110976
"ZCWPW1",1.78159680144954
"ZDHHC11",0.732724275188721
"ZDHHC20P1",1.18860284112039
"ZDHHC23",4.51650654364517
"ZFC3H1",4.18198601873761
"ZFP14",1.84637029222496
"ZFP36",5.85702509596999
"ZFP36L2",7.38631442438755
"ZFP92",1.03232319521682
"ZFYVE21",4.78643882682391
"ZGLP1",1.33845687268352
"ZIC2",3.65999492504302
"ZKSCAN1",6.52262943783417
"ZKSCAN3",2.81284896335384
"ZMAT3",5.16801971671509
"ZMYM3",6.0151712639834
"ZMYND8",4.3310616435069
"ZNF137P",0.751677204481377
"ZNF155",3.24558310027198
"ZNF160",3.53565091998113
"ZNF192P1",3.0526579323933
"ZNF211",4.03924735199849
"ZNF219",4.72899505662724
"ZNF221",1.95571037411516
"ZNF224",3.07144722049026
"ZNF225",2.96624168093104
"ZNF226",4.78892524315908
"ZNF227",1.89626161031041
"ZNF234",3.37265841546645
"ZNF266",3.83084224277763
"ZNF283",3.03974835832742
"ZNF296",1.39617794355152
"ZNF30",2.12920095145558
"ZNF311",2.14159043675838
"ZNF316",5.26632020733091
"ZNF330",4.97752702374304
"ZNF333",3.2160218601211
"ZNF337",4.60009085233072
"ZNF337-AS1",1.04784429309751
"ZNF358",4.79325222442269
"ZNF37CP",0.710903697260982
"ZNF382",2.47788073364652
"ZNF383",2.27322425650441
"ZNF404",2.5114350668485
"ZNF425",2.65583123308512
"ZNF444",3.8506426771826
"ZNF460-AS1",2.00066373295998
"ZNF461",2.22700954813101
"ZNF467",2.29990104347766
"ZNF471",2.92399862294405
"ZNF483",1.33355669156473
"ZNF493",1.58250616729861
"ZNF496",4.85849215024217
"ZNF501",2.02246667716893
"ZNF511-PRAP1",0.650897532665862
"ZNF528-AS1",4.01412003018524
"ZNF529",2.33030048305747
"ZNF540",0.491834411251016
"ZNF546",2.50396408202774
"ZNF554",2.36791871105868
"ZNF555",1.09169886565892
"ZNF561",4.62711705427023
"ZNF561-AS1",1.86635999984934
"ZNF570",2.39854285797959
"ZNF580",1.14118214058889
"ZNF582-AS1",2.06767478688923
"ZNF603P",2.97566729997893
"ZNF608",3.25750228568817
"ZNF667",2.04234927309151
"ZNF680",3.15508003832412
"ZNF692",5.91167421373725
"ZNF703",7.02070440409013
"ZNF74",3.35061570184096
"ZNF746",4.06711379435408
"ZNF766",1.15533105216674
"ZNF767P",2.69303251266813
"ZNF774",2.22296331760644
"ZNF783",3.68868997192027
"ZNF790",1.25398682910197
"ZNF815P",1.29503683789239
"ZNF83",3.06265494019874
"ZNF839",3.46316823624684
"ZNF843",1.82670377855087
"ZNF862",5.21340970086844
"ZNF880",2.8544838071733
"ZNF891",2.2980673561986
"ZNF91",2.02352774111855
"ZNRF2P2",2.011802094599
"ZP3",1.55169324329294
"ZSCAN21",3.36456807526006
"ZSCAN25",4.50558947497899
