x
LINC00863
NUTM2D
AC114877.1
AC099754.1
CUEDC2
PHYHIPL
TNKS2
ACTR1A
TWNK
MMS19
SUFU
PPRC1
ZFYVE27
HIF1AN
DPCD
SLF2
MARCH5
ALDH18A1
RRP12
BTRC
ERLIN1
ZDHHC16
NOLC1
BLOC1S2
KCNIP2
WBP1L
RPP30
HPS6
ARL3
TCTN3
FAM86C1
R3HCC1L
CUTC
SLC25A28
MGEA5
PGAM1
PI4K2A
PDCD11
WASHC2A
LZTS2
SFXN3
GBF1
LDB1
TM9SF3
FRAT1
NOC3L
FBXL15
TRIM8
WAPL
EXOSC1
FRA10AC1
PLCE1
BTAF1
ATP5MD
LCOR
DNMBP
FAM35A
CCSER2
MINPP1
GSTO1
NT5C2
FBXW4
RPARP-AS1
DLG5
UBTD1
SLC35G1
AL731569.1
SORBS1
GOT1
NUTM2A-AS1
NPM3
MARCH8
NUDT9P1
POLR3A
ZNF518A
PCGF6
AL135925.1
WASHC2C
SEC31B
ZFAND4
FRAT2
ENTPD7
GLUD1
AL365181.2
AL138762.1
FAM13C
AC010864.1
PCGF5
S100A10
NCOA4
GHITM
AVPI1
COMTD1
CAMK2G
KIRREL1
PLEKHA4
PXDN
RCC2
CSGALNACT2
KCNMB3
AL353719.1
MARVELD1
KCNIP2-AS1
BCAN
KLLN
SPSB4
PDZD7
IL13RA2
SLC1A3
STBD1
B3GALT4
AC087623.3
ATOH7
RPL23AP20
LRRC3B
RN7SKP160
AC007622.1
CWF19L1
C10orf76
MRPL43
CHUK
ALG1L9P
IDE
CNNM2
EXOC6
HELLS
AL391684.1
NUTM2B-AS1
UBL5
TIMM23
PARG
RCC1
PDE6C
SVIL
AL032819.3
RPL12P27



































































































































































































































































































































































































































































































































































































































































































































































































































































































































































































































































































































































































































































































































































































