x
MARCOL
AC026785.3
ALPI
PSG1
FGFBP1
CGA
USP26
PSG4
KRT8
INSL4
KRT18
OR9Q2
RNU1-15P
OR10Z1
TRIML2
LINC00942
AL359263.1
RNU6-694P
OR11H4
TRHR
OR4K5
PRSS21
AL161431.1
CEACAMP7
MAGEB16
RPL24P7
OR6C74
DEFB116
AL355482.2
SCGB2A2
ZG16B
LINP1
MT1B
AL121723.1
SRD5A3P1
OR11G1P
TEX19
HYAL1
MAP2K1P1
AL031584.1
Z98259.1
MIR4752
RHOV
KRTAP20-2
AC112492.2
H2BFWT
AL121956.1
OR4D2
NECAP1P1
Z93929.1
LINC00659
ASNSP4
AC103702.2
AL109615.3
MIR522
CYCSP43
AC021072.1
OR5J1P
APOA4
KRT8P17
AL096861.1
TMEM92
LYPD3
OR5F1
HNRNPABP1
AC009729.1
KRTAP21-4P
RNU6-1117P
C4BPB
LY6K
OR5B15P
LCE6A
ANP32BP1
AL135924.2
CD55
AL079352.1
BIN2P2
AC016925.1
AC138749.5
DLX4
AC112715.1
OR51D1
AC023449.1
OR13C7
AL109615.2
LINC02138
AL121949.2
MISP
AC092059.1
AP001628.1
MIR519D
LINC00323
SLC25A38P1
PPIAP62
TMEM105
TPD52L3
AC108002.1
AC140479.2
SUMO2P6
KRT1
AC099552.4
RPL12P14
PSG5
AP001331.1
AC005014.1
DPRXP6
MIR4475
AL353803.3
PHBP17
RNU6-173P
AC241584.1
PRSS42
ASRGL1
RNU6-140P
AC010271.2
SMIM10
AL137793.1
PABPN1L
AC069213.3
AC000068.1
AC012640.5
AC022296.3
AL590635.1
AMD1P2
PRR13P5
IGFL1P2
OR2V1
AL356310.1
LINC02111
POM121L2
AL122034.1
AC124276.1
BACE2
AC099518.1
ZMIZ1-AS1
IGKV1D-27



































































































































































































































































































































































































































































































































































































































































































































































































































































































































































































































































































































































































































































































































































































