x
MOG
MAG
MOBP
NKX6-2
ERMN
GPR37
ZNF579
CARNS1
C4orf48
LINC01578
TMEM54
TMEM160
UBXN7
HAPLN2
MUC20P1
MBP
PLP1
CEBPA
RNF168
FTH1
AC006978.2
NCBP2
GFER
FBXO45
C8orf82
ATP13A3
ACAP2
PTP4A2
FYTTD1
CCDC85B
PPP1R2
PIGX
SENP5
CTU1
UBE2S
RUBCN
METRN
AC132008.2
TMEM125
LGI3
CNDP1
C15orf59
MUC20-OT1
TMEM235
STUB1
SH2B3
TSR3
AC093627.3
FAM173A
CEBPD
MIR4787
DUSP10
MAL
TUBB4A
S1PR5
HNRNPAB
AL049871.1
PGP
IRF2BP1
TMEM151A
KDM1A
TPGS1
AC110285.1
MRPS34
AC024560.1
PCSK1N
TMEM88B
NDUFB10
AC233280.2
NCBP2-AS2
BRICD5
LRCH3
SDHAP1
AC233280.1
TMEM144
AL359091.1
ZNF503-AS2
HES4
CDK18
CNNM3
AC009159.3
KLK6
YPEL3
ENDOG
LSG1
OPA1
RNASET2
AC010997.4
GJB1
AC004925.1
METTL26
AATK
AC024560.2
FADD
AL359091.2
ARAP3
AC233280.19
NAGLU
UGT8
AL590326.1
FFAR1
AC098679.2
CLDND1
MIR132
BDH1
INAFM1
FAM180B
PLXNB3
DAO
CEBPB
SRCIN1
AP000529.1
C12orf75
CREB5
ANLN
AC110285.2
LMLN
BCAS1
SLC5A11
TMEM44-AS1
MPG
GSPT1
DNAJB2
CENPV
PIGZ
NFATC2IP
ZNF503
ZNF785
F5
AC012615.1
AC079807.1
AC124944.3
AC004221.1
CITED4
FAM171A2
ENPP2
AL031602.1
PLPP2
TMEM63A
IQCG
ARL2BP
PITX1
BOK
GPR62
CHADL
AC046143.1
CHCHD10
AC072061.1
RGCC
AC024560.3
C1QTNF4
LINC01063
MMP14
FAHD1
CTSV
AC133528.1
AC110285.3
HYI-AS1
AP003392.4
NOXO1
FGFR2
NR2E1
HCN2
TLNRD1
AC002511.2
KLHDC8A
H2AFJ
AXL
DBI
RHBDF1
CPEB2
RHBDL1
AL645608.8
CPNE5
CERCAM
LINC00235
PRDX1
AC024937.2
DNASE1L2
AP000223.1
AC063977.2
HIC1
SRPK3
AP003392.6
AL023803.2
FTH1P8
SLC6A8
RMC1
ETV2
KIFC2
HES1
CNTNAP4
MAFB
AL645939.1
AL049873.1
AC136628.3
NDUFAF8
TGFBR3L
FAM20C
PAK2
ZNRF2
CLTB
C15orf59-AS1
CNTN2
RHOJ
ZNF771
WDR53
ZNRF2P2
MRPL28
H1FX
SLC45A3
XXYLT1
AC069281.2
MLYCD
TF
SAC3D1
ANKRD23
MAF
DLG1
HAGH
CCDC85C
ABCA2
FCHSD1
ATP13A2
FA2H
CD22
SLC31A2
CPOX
CBARP
TRPM3
LDB3
C19orf81
PAG1
MSH6
UBA52
IQGAP2
ATP5IF1
ZFPM1
CYLD
CNPPD1
QDPR
GJC2
ARL13A
ADARB2
TBKBP1
COL18A1
CPT2
PRAG1
HDAC10
CMYA5
USP33
EFCAB5
FUCA2
KCNMB4
AC002511.1
SEMA4C
STON1-GTF2A1L
AC010997.5
MRPL4
AL353708.3
ANKRD44
AL356356.1
VPREB3
TEX45
PRR25
SYCE3
SERPINB1
































































































































































































































































































































































































































































































































































































































































































































































































































































































































































































































































































































































































































































