x
AC112721.2
TMEM252
CLEC2A
AC099786.3
DPT
CAPN6
AC145625.1
P4HA2-AS1
SIM1
VEGFD
CLDN19
LINC00445
AL356417.2
COL21A1
ALDH1A2
SLC4A11
NCOR1P1
ARHGAP28
CACNA1G
RNU6-660P
RNU7-53P
AL354984.3
FGF10
ANKRD20A19P
DKK2
COL4A5
CXCL13
EGFL6
ALX1
ADAMTS7P4
MCRIP2P2
AP000785.2
SOSTDC1
ALX4
COL14A1
RAX2
GLT8D2
AL139161.1
SERTM1
WNT11
RSPO3
CACNA1G-AS1
AC112721.1
COL26A1
TWIST2
AC021146.2
AL022318.1
LINC01326
MTDHP4
MIR8088
HOOK1
PNLDC1
C1QTNF7
KRTAP8-2P
IGSF10
KLF14
AC016831.6
L3MBTL3
VWDE
SSTR3
WNT2
AC008496.1
SMTN
ENPP1
RNU6-1161P
WNT10A
RPL31P57
VGLL3
FAP
APELA
AC109309.1
PIR
AC116347.1
PGM5
INHBA
PLPP3
TNN
KANK4
ITGBL1
CRYM
CRABP2
FGD5P1
TGFBR3
CDC42EP5
RHOD
VN1R84P
FBN2
IFNL4
CFH
C1QTNF2
P4HA2
CYTL1
RIPOR3
RPS20P35
BCRP9
LINC00346
ASB9
LINC02527
CRABP1
MINOS1P2
EML4
LINC02470
LINC01589
FAT4
COL4A6
AXIN2
MMP2
AC087699.1
RPL39L
HSPB1
RN7SL73P
AL109976.1
AC105914.2
AL109838.1
FNDC1
FAM117A
AC012558.1
BEND3P2
C1QTNF9B
CDH1
DHRS3
TPBG
RERG
AC254633.1
LYST
ART5
AC004590.1
MIR645
TRAV8-1
BX322562.1
AL109659.3
ATP5MC1P4
CDH12P2
FHL2
FGF18
ALDH1A1
UGT3A2
RXFP2
CBX3P6
AACSP1
COL6A6
VSX2
FAR2P1
IGHVIII-67-3
LINC01387
LMX1A
RNA5-8SP6
ALDH1A3
SLC6A4
LINC02485
RSPO1
FRG1HP
TTC39A
AC083949.1
ZC3HAV1L
















































































































































































































































































































































































































































































































































































































































































































































































































































































































































































































































































































































































































































































































































































