x
LGALS16
WFDC5
KRTAP5-3
AC092818.1
REG3A
AC245884.5
TFF2
KRTDAP
BSND
ARL14
PRKAG3
OR4C16
AC120498.7
OR52L1
AC112492.5
OR13F1
SFTPB
AC125238.2
OR7D1P
ESRP2
AL589987.2
Z97206.1
WFDC12
AL135929.1
AC245036.1
OR51V1
EIF3IP1
PLA2G4F
TRAV9-1
TPM3P2
OR14C36
B3GNT2P1
AC110741.2
AC017081.1
KRT34
GLYCAM1
TSGA10IP
BTF3P9
RNMTL1P1
TRGJP
PROP1
VN1R5
CACNA1F
ATP5PDP1
MIR466
AC124067.3
OR1G1
IGHV3-42
MIR1302-7
HMGB3P32
IGLV3-13
CYP2T3P
AL139412.1
AL133247.2
NLRP3
MYL6P5
CDC42EP4
MIR516B2
AC103810.10
SLC22A12
OR7A11P
OR13A1
IGHD5OR15-5A
AC068134.4
MTHFD2P7
PGDP1
WFDC10B
KRTAP5-8
SFTPA3P
AC005906.1
AC244090.2
Z94721.1
AC117498.3
SMARCE1P6
OR4A13P
AC005899.5
AL163153.1
SLC2A13P1
RNU6-1251P
AC136628.2
MUC17
KRT74
ALOX15P2
AP002353.1
SAG
AC113367.3
RPS20P32
FKBP6
UGT1A11P
CPSF4L
IGKV1OR2-6
GPR132
PPIAP80
OR2B11
KIF4CP
AC025822.2
KRT85
MBD3L1
AL355497.1
SUMO2P20
LALBA






































































































































































































































































































































































































































































































































































































































































































































































































































































































































































































































































































































































































































































































































































































































