x
NECTIN3-AS1
AC002384.1
CST2
IYD
CPN2
PRDX2P4
LINC02461
TNMD
AP003555.3
LINC01655
AP003555.2
AL034417.2
LINC00578
ASTL
SIRPG
AC073130.3
LINC01929
AC021785.1
CYGB
AL080285.2
PPEF1
AC003986.3
KRT3
LINC00924
CCL11
AC041040.1
AC073592.4
IL19
AC117402.1
SUPT20HL2
TUBBP6
EBF2
AL365356.5
LINC01705
AP001476.1
GPR174
SARDH
KRT79
AL121796.1
HSPD1P6
AC006441.4
SUPT20HL1
AC012645.1
HAR1A
FASLG
IL2RB
RFX8
DCLK3
DEFB131E
XCL2
OR7E161P
CILP
AC007663.2
LINC01615
PDGFRL
TTC12
AC108865.1
LINC02407
LINC01139
MMP13
AP001471.1
VNN1
XPNPEP2
ZNF683
LRRC37A11P
AC084026.2
LINC02148
RN7SKP172
SLC22A11
AC073115.1
CTSW
NINJ2
LINC01973
SYCP2L
AL592429.1
APOA2
MYO1D
SH2D2A
AC020912.1
AC005102.1
FO393409.1
ADAMTS12
TRAV3
TRBV27
HAR1B
RPSAP76
RNA5SP365
LINC00944
AC119618.1
TDO2
FGL1
GNLY
ITGA11
AC021491.1
XCL1
POPDC2
AC007953.2
AC138512.1
NT5DC1
AC097504.2
ODF2L
TRBJ1-2
RN7SL292P
AC005840.1
HAS1
MTUS1
LINC00607
CLCA2
AL118508.1
MPIG6B
SHBG
LINC02432
RPL29P19
AC068473.4
CLECL1
TRBJ1-5
OR2S1P
TWIST1
SNAI1
TRBV8-2
TRBV9
ANKK1
PTPRH
LAIR2
AC107918.3
SLC7A2
RNA5SP158
RPLP0P2
ANTXR1
TMEM200B
RPSAP46
DBH
SHISA3
AC093901.1
RNU6-1266P
AC060764.1
CCR10
PXT1
FRK
L29074.1
AC010425.1
SMIM1
TRBJ1-3
Z82198.1
TRBJ1-6
TRAV12-2
COL6A4P2
AC087762.1
AC141930.1
AC093426.1
EDARADD
UBASH3A
CDX1
LINC02544
CCDC42
ADAMTS2
LINC01943
PTBP2
AP000920.1
RPL22P2











































































































































































































































































































































































































































































































































































































































































































































































































































































































































































































































































































































































































































































































































































