x
AL049836.2
TNNI1
TRIM51
LINC02152
A2MP1
MYMK
RPL7P3
CHRND
CHRNG
CELA3A
PRMT8
AC004080.1
RRM2
UNC45B
MYL10
AC104794.1
AC130710.1
NMRK2
SMYD1
SRL
IGF1R
EVX1-AS
RPS3
RAPSN
AC083902.2
AL590483.2
FAM60CP
LAD1
PYROXD1
OR9M1P
PLIN5
AC104843.1
RDH14
CCND2-AS1
IGF2BP1
LINC02251
AC024940.6
AL355300.1
TIGAR
HECTD2
RN7SL50P
SINHCAF
BX640514.1
RAD51AP2
RBM24
ATP2A1
MYCN
FITM1
AC138965.3
AL024507.1
ARRDC4
RNU1-17P
AC008750.6
AC024651.1
RAD51C
AC098828.2
B4GALNT3
TRAV21
KRT18P34
ROBO3
AL049874.2
PPP1R3C
MYCNOS
AC118658.1
RPS19P1
PXMP4
ADGRG5
TRAV20
POLR3GL
LMOD2
AC024940.3
PXN
OR11H13P
AC008687.4
MYOD1
AC015722.2
AC079148.1
IL17B
CCND1
LINC00494
GPR35
TRAF1
ROPN1B
FGFR4
AC131235.1
SPHK1
NDUFB4P8
RPL7AP28
GGTLC1
DWORF
KLRD1
EVX1
GACAT3
C10orf71
LINC01475
DRC3
COX6CP12
AC018953.1
PLIN4
AC114801.1
JSRP1
AC091979.2
LIN28B
CAP2
AC009531.1
AC104411.1
TMEM120B
AC010273.1































































































































































































































































































































































































































































































































































































































































































































































































































































































































































































































































































































































































































































































































































































































