x
SPON1-AS1
CSNK2A1
TBC1D20
NSFL1C
RBCK1
PTPRA
NCOA6
IDH3B
VAPB
GID8
CSE1L
ZCCHC3
TRMT6
RPRD1B
NOP56
GZF1
PIGT
ADNP
TRPC4AP
DDX27
SNX5
STAU1
PCED1A
RBBP9
AL117335.1
RPN2
IFT52
ZNF512B
PRPF6
CTNNBL1
TCEA2
NAA20
AL662907.1
RALGAPB
DDRGK1
RALY
OGFR
TMEM230
MANBAL
MKKS
RAB22A
NRSN2
VPS16
TTI1
TPD52L2
ITPA
YWHAB
SPATA2
SEC23B
SCYL3
CDS2
ARFRP1
SNRPB2
MAVS
CDK5RAP1
CSTF1
AL121760.1
KAT14
RNF114
MRPS26
EBF4
AP5S1
RNF24
PFDN4
FITM2
TTPAL
SNRPB
OSER1-AS1
CTSA
AAR2
SNX21
CRNKL1
UCKL1
ZSWIM1
BLCAP
RAE1
ARFGAP1
STK35
DYNLRB1
NDRG3
RTF2
ACOT8
SERINC3
ERGIC3
AL132655.2
DSN1
NELFCD
MRGBP
PSMF1
LINC00652
MTG2
APMAP
CABLES2
KIZ
YTHDF1
CBFA2T2
C20orf27
EIF6
ARFGEF2
PIGU
TP53RK
RBL1
ESF1
DHX35
DNTTIP1
HM13
C20orf96
MOCS3
OSBPL2
SLC9A8
SLC23A2
NXT1
POLR3F
DSTN
PCMTD2
AL109809.1
EDEM2
ZNF133
CHMP4B
NCOA5
C20orf194
OSER1
SLC35C2
NDUFAF5
NORAD
PLTP
ACTR5
ENTPD6
CPNE1
PRELID3B
PLCG1
NRSN2-AS1
LINC00237
DPM1
SOGA1
TMX4
SIRPA
PTPN1
SAMD10
B4GALT5
PCNA
CRLS1
AHCY
PRNP
PYGB
CDC25B
SRC
ZNF337
STMN3
DLGAP4
CEP250
MCM8-AS1
TCFL5
ZNF335
SULF2
ZFAS1
RIN2
XRN2
NECAB3
ZHX3
AL133465.1
C20orf204
C19orf57
SCAND1
LZTS3
PCIF1
ATP9A
SPARCL1
SNPH
GNRH2
PARD6B
NCOA3
MAPRE1
SLX4IP
NANP
PABPC1L
SNTA1
RBM38
SDCBP2
GLMP
SMOX
AL109809.2
ABHD12
AL109809.4
LINC01126
STK4
GMEB2
RASSF2
SPATA25
AL035563.1
L3MBTL1
BTBD3
SIRPB3P
TRIM62
DNAJC5
ATRN
AL031008.1
DNMT3B
EIF5B
ATP1A2
CENPB
RIMS4
BMP2
AL121906.2
NEURL2
COL9A3
UCN
TTLL4
KIAA0040
KBTBD3
MTMR9LP
SIX2
ADNP-AS1
PROM2
FAM210B
AL117332.1
BCL2L1
GAP43
TIGD3
TTF2
HSD17B6
ZC3H11B
MAP3K6
AL450998.1
RNVU1-6
UQCRHL
AL121890.4
NRN1
AL121845.2
NOG
AC010883.1
ZMYND8
AP000766.1
RETSAT
INTU
IRS3P
PRR32
FAM167B
VN1R108P
AL121895.2
AMH
AL353194.1
SASS6
ZNF300P1
MIR4482
PHF20
C7orf31
NINL
AL121890.2
AL121890.3
PLCG1-AS1
EPB41L1
AC011742.1
RRBP1
TBX6
EEF1A1P34
SPON1
MAN2B1
DIDO1
ITCH
PANK2
C1orf112
UQCC1
TAF4
ZGPAT
ZSWIM3
MCM8
ZFP64
GNAS-AS1
C20orf196
CHD6
DZANK1
NFS1
ELMO2
TOP1
TASP1
BMT2
DTD1
AL049650.1
AL121761.1
SLC24A3
ZNF337-AS1
LINC01433
AL121758.1
CWF19L2
TRPV3
KIF16B
LMF1
LINC02440
SMG1P5
DTNBP1
NADK2
AC087645.1






































































































































































































































































































































































































































































































































































































































































































































































































































































































































































































































































































































































































































