x
AC093772.1
AC027613.1
LINC00393
AC068599.1
AC004704.1
LINC02492
LINC02233
LINC02267
AC096577.1
LINC00301
AL353633.1
NALCN-AS1
AC022201.1
AC010745.2
AC107220.1
AC100781.1
IQCM
LINC01499
AC012038.1
LINC02436
LINC01205
AC096666.1
CPHL1P
AL929601.1
AL451137.1
AC079917.1
LINC02312
LINC00474
LINC02528
AC018680.1
SLC9B1P3
SULT1D1P
LINC02405
AL390866.1
LINC02496
AL132708.1
AC106892.1
AL137224.1
LINC00838
AL805961.1
AC106895.1
SLC7A15P
AADACL2-AS1
LINC00348
HNRNPKP3
LINC02173
AC009365.1
AC021006.2
RN7SL140P
AC092979.1
AC093909.2
AC068733.2
AC079340.1
AL355339.1
AC009567.1
THRB-AS1
RNA5SP531
AC097494.1
HNRNPA1P30
LINC02369
OR4A49P
LINC02174
ELMO2P1
LINC02064
AC079310.1
PQLC2L
LINC02441
AC083906.4
AC087516.2
LINC02299
AC118942.1
CENPIP1
AC087499.5
LINC01646
AL160237.3
LINC02357
LINC01768
AL592486.1
AL355390.2
SSXP4
LINC00113
AL157823.2
AC131956.1
AL161782.1
VN2R1P
AC122138.1
FAM240B
AC026765.2
LINC00210
DLEU1
AL445584.2
CCNT2P1
AC112518.1
AC011131.1
AL590068.2
LINC02428
VDAC1P9
AL355592.1
LINC01853
AC024475.4
CCR12P
AL590426.1
AC012322.1
LINC01516
ATP11AUN
SAMMSON
AL139824.1
AC137735.1
AC109927.1
LINC00307
AC114400.1
LINC01079
AC022816.1
AL121999.1
CPN1
LINC01895
AC096644.3
AC108517.1
AC105021.1
AP003774.2
AC009226.1
AC111152.1
RPL34P27
ATG3P1
AC122688.2
LINC00423
AC111152.2
AC006369.2
HAUS6P2
AC022441.2
RN7SL492P
HTATSF1P1
AC018892.2
AL451142.2
AC099785.1
GUCA1C
AC093484.2
LINC01714
LINC01766
BX571818.1
AC115283.1
AL157702.2
LINC01531
AL135902.1
AC079384.1
ATP8B5P
RNU6-200P
LINC02271
AL450487.2
AP001978.1
AC093072.1
AC087269.2
AC106707.1
AL451000.1
AC011897.1
MUC13
TM4SF4
LINC01501
GSG1L2
RF00322
KRT18P9
MDS2
AL049839.1
LINC02017
SMPD4P2
AC074344.2
AC003087.1
RNU6-31P
RNU6-709P
SUGCT
PRAMEF15
AL358976.1
CASC23
AL356432.1
AL445070.1
IGFBPL1
AC104819.3
AC048347.1
LINC01331
AL034428.1
LINC00635
HLTF-AS1
RNU6-15P
AC097460.1
LINC02374
LINC01656
UNC13B
HLA-DRB9
AC097478.1
PGCP1
AP002026.1
PROSER2
CCL16
RN7SL549P
LINC01850
HCG20
AL359265.2
AC013356.1
AL731544.1
AL136961.1
AC069061.2
AL355994.1
KRT18P35
ANKRD20A8P
LINC00547
AC145207.7
AC023491.2
AC002378.1
AC006458.1
DNMT3L
AL390726.6
MPP7
AC104042.1
HMGN2P21
LINC02349
AC055758.2
SOAT2
LINC01593
AC095050.1
LINC02030
AC044839.5
AL355075.5
AP002765.1
AC005244.2
AC091941.1
RNU6-410P
DSTNP5
Z92846.1
RPLP2P1
AL161670.1
AC118282.1
AC023157.2
AC012501.2
AC068580.2
ADGRL3-AS1
PKMP1
AL512631.2
AL358176.5
SALRNA2
ADGRL3
FP325317.1
TRAJ21
AC098820.1
IGLV3-12
AC009108.1
AC021242.1
RNU6-411P
AC234782.3
AL133264.2
LINC02572
SUMO1P4
LINC02252
AC068279.1
FSD2
CARMIL1
AC234775.2
AC091932.2
GVINP2
LINC02129
OR52I1
AC116562.4
MS4A14
AL021154.1
AC104655.1
AC006441.5
PCBP2P1
ARMC12
AC124068.2
SUMO1P1
AC011008.1
RPL35P5
AC020915.4
AC009108.3
CHCHD2P5
AC092337.1
ATF4P4
AP000354.1
AL096803.3
RPL35AP26
RF00287
AL133396.2
TRBV10-3
AC012508.2
LHB
FAM205C
AC010422.3
AL158042.1
AC112187.3
RNU6-45P
Z84480.1
LINC00376
AC105919.1
AC099520.1
AL137005.1
AC113355.1
AC006453.1
AC024405.2
LINC02558
VPREB1
AC011491.3
AL158070.1
AC104667.1
LINC02447
HNRNPA1P8



























































































































































































































































































































































































































































































































































































































































































































































































































































































































































































































































































































































































































