x
AL391095.2
LRRC74A
AC012081.1
AL035425.3
AL117382.1
CYP2A13
AL353597.1
R3HDML
IRS4
LINC01076
AL035425.1
AL359853.1
LHFPL5
OTOP2
OVOL2
PLA2G4D
AC092573.2
AC084211.1
CHRFAM7A
AL513318.1
SHE
EVPL
DUOXA1
TRPV4
DEFB123
C5orf58
CACNG3
PADI1
PHOX2A
PRDM12
CATSPERD
PRLR
LINC01632
ESPNP
OR7E90P
LARGE2
DCAF12L1
PPP2R3B
OR2W3
AC113145.1
LINC02520
AC239859.3
ANKRD55
BMP3
TRIM58
NMUR1
EPCAM
LINC02249
AC022145.2
ARHGEF28
DNAH2
ABCC12
AL035425.2
TMC5
JAKMIP1
AC010907.1
AL355149.1
TMPRSS9
TERT
NPFFR1
MELTF
AL512413.1
RBPJL
AC025048.1
ARHGEF16
PCDH8P1
NTSR1
FOXE3
AC116351.1
BMP8B
EXOC3L4
DMRTB1
TINCR
PHKA2-AS1
RIMBP2
LINC02495
SCN5A
LRRC38
PLA2R1
LINC01537
AC226101.1
DUOX1
FIBCD1
RSPO4
IZUMO2
MLNR
CUX2
OR2T8
AC016769.3
PRKCA
CYP2S1
AC005551.1
AP001330.3
KRT83
AMN
ORM2
GRIP2
KIF25
TDRD10
USH1G
PLS3
LBHD2
PCOLCE2
TJP3
AC074387.1
INPP5J
TCF15
CDCA7
BCL11B
TIMP2
SLC6A18
KIAA1217
PHKA2
PIEZO2
SSTR1
UNC5D
PCSK5
AC044839.1
BNIP3P9
AC138761.4
BMP8A
NR5A1
BX842568.2
AL033527.3
ACAN
FAM163A
CACNA1B
RPS6KA4
CHRM1
CCL25
PRX
AP000880.1
AL591368.1
AGO4
LINC01411
LINC01954
CHN1
PDIK1L
SYT17
RND3
HCAR1
AL353597.2
NECTIN1
AL021920.2
WNT7B
AC239859.2
TLE1
AARD
GNAT1
KRT19
AL136359.1
ST18
ZNF185
GDNF-AS1
AC126773.1
PCDH19
AZIN2
SEMA3D
HINT1P1
DOCK6
AL391094.1
AMPD2
FOXD2
LMO7DN
CORO2A
MMP15
HCG23
PAQR9
PSAT1P1
FABP1
KCNQ3
CCT8L2
AKNA
MYO5BP3
DCAF12L2
AC016769.1
PRKAG2-AS1
TUBB8P7
COPS8P3
MIR4462
BX842568.4
CHST1
AC126773.4
PDE2A
STOM
EFNB3
WFDC2
RYR1
RNF126P1
RPS4XP4
AC103982.1
TRAV41
GPR179
RGS9
ZNF826P
RNU6-247P
EIF2S2P3
CACNA2D1
CASC15
PRPH2
AC104472.2
RTN4RL1
TEX41
CRYBG2
CHRNA7
PIWIL1
C1QTNF1-AS1
AL009178.3
C4orf50
DUOX2
PTPN20
AL732314.6
AL353597.3
CRHR2
PRKCE
AL392023.1
ADGRG2
AC122719.2
FGD5
ASPG
RFLNA
PDZRN4
AC115989.1
AP003390.1
WNT2B
SH3KBP1
PMF1-BGLAP
RNF19B
GSN
AL049794.1
AC025262.2
B4GALT1-AS1
AC245014.1
ANKRD20A10P

































































































































































































































































































































































































































































































































































































































































































































































































































































































































































































































































































































































































































































































