x
SOX21
SHOX
MEOX1
ZFHX4
AC083967.1
FMO1
AGTR2
SERTAD4
PTGFR
LINC02434
COMP
CDX2
AC092175.1
SULT1E1
NRK
GABRR1
AC004656.1
AC121154.1
AC148476.1
AC010595.1
AC025279.3
AGTR1
CILP2
CCNYL2
LINC01091
IGHV3-62
ERG
BMP5
HORMAD1
ABCA10
CACNG5
LINC00377
CHODL
ATP5PBP2
ADCY4
COL11A2
MROH9
CRISPLD1
CYP26A1
AC093627.2
AP005264.6
MATN1
NR1H4
VN1R28P
SCARA5
MME
P3H2
PAX9
ERP27
C12orf60
LGR5
BICC1
PRRX2
CLEC1A
NPPC
GFRA1
PCAT19
CNKSR3
AP005264.5
RUNX1T1
RAI14
PLAGL1
SPTLC3
AC226118.1
FZD8
AP002414.2
CPQ
RAB17
CLDN1
AL590652.1
LINC01960
NFKBIZ
EIF4BP7
ARHGAP29
SOX21-AS1
DOCK10
SHISA2
COMMD2
C1QTNF12
AK4P3
AC107934.1
GAPDHP21
MKX
AC019084.1
ARID5B
AL591471.1
HHIPL1
KLHL31
ZFHX4-AS1
TSPAN7
FAM126A
AC245100.3
CLCN5
CNRIP1
SOX7
FAM110D
AL513211.1
GLUD2
FOXA3
DAGLA
AL358334.2
AC008622.2
RNU6-705P
POLR2LP1
MAP4K2
CCDC8
COX7A1
SERINC2
PREX2
HLA-Z
SERTAD4-AS1
AC021755.3
CYP26C1
TMEM26
WDR64
AC016710.1
PDK3
EMCN
STEAP1B
ROR2
CD200R1
HNF4G
HMCN1
KRT25
P3H2-AS1
LIMCH1
WLS
CCDC27
FOXI3
SEC14L3
THAP12P1
AC106745.1
OTUD3
DENND5B-AS1
MRPS17P1
LGALSL
FOXP2
AC002451.1
SRRM2-AS1
RAB43P1































































































































































































































































































































































































































































































































































































































































































































































































































































































































































































































































































































































































































































































































































































