x
IL31RA
TAC1
DNASE1L3
TMPRSS2
NEFL
PNOC
SLC17A7
AMER3
PACSIN1
VSTM2B
CKMT1A
GABRA1
CHGA
SST
SLC6A17
SLC32A1
AL391811.1
OSTN
LINC00551
CREG2
VSNL1
SNCB
DDN
TRHDE
AL049749.1
GABRB2
HS3ST2
AC134312.3
CELF3
GABRG2
AC061961.1
KCNJ3
NRGN
RNU6-778P
GRIN1
NEUROD2
SLC20A1
HPCA
AC005696.4
LINC01106
AP000842.3
NEFM
ACRV1
SV2B
INA
XKR7
CCK
AC079070.1
SYN1
AL049612.1
PCP4L1
PHF24
AC084809.2
ACTL6B
AC008443.4
PDZK1
PHYHIP
CPLX2
SCRT1
NEUROD6
TBR1
LINC02458
MARCH4
TMEM130
AC022616.6
RAB3A
TUBA4A
GAD2
NPS
GALNT16
AC134312.1
PDIA2
PENK
EEF1A2
CHRNB2
CAMK2A
AL359317.1
C1QL3
AL109914.1
TRBV1
WNT1
SVOP
RGS4
SYNGR3
ICAM5
MAP7D2
NPTX1
GRM2
LGI2
HNRNPA1P65
FBXL16
PXYLP1
FAM163B
SULT4A1
SH3PXD2A
UNC5CL
AL606763.1
SPTSSB
ESPN
HS6ST2
IGHV3-64
DNM1
NEFH
KCNK3
ARHGAP11B
NRIP3
CPLX1
CHGB
HRH3
AL022313.4
HSPB3
CRH
AL589765.1
BMP7
RNF128
FAM46A
SMPD3
TMEM178B
SLC12A5
AC130466.1
CAMKK1
SYP
TRPM8
CNIH3
C1orf115
RHOBTB2
PRAF2
HPS1
SYT13
AC136632.1
PYROXD2
SYT5
NCDN
RHO
CLEC2L
STXBP5
Z69733.1
KCNH3
FREM2
SH2D5
ENC1
CCL24
SYT4
ARSI
DOK5
L1CAM
LOR
AC092720.2
FFAR4
CAMKV
TRAJ6
SOX3
NSG2
STEAP3
RFPL1S
DIRAS2
MLH3
TRIM7
CYP1A1
GRIN2A
KCNA5
RASD2
AC116036.2
NPTX2
DOC2A
SCN3B
NGB
MITF
ADAM11
SRRM3
AL365203.2
SYT7
GREM2
STAC2
PAK1
RIMS3
SOD3
RNF175
WFIKKN1
LINC00574
ATP1A1
AC246785.3
RPS29P6
LINC00443
BTF3P4
PTPN5
PTPRN
AL672277.1
CDKL5
AC005828.5
TMEM132B
RN7SL471P
NPY
RNU7-160P
AL157996.1
AC005632.4
IGKV3OR2-268
PLK2
AC011474.2
CKMT1B
NRAP
CACNG2
ESR2
CCKBR
CRHBP
CCDC92B
AC073648.3
LINC01123
PATE2
GDAP1L1
SOWAHB
GALNTL5
NAPB
AC134312.4
ARHGDIG
KCNQ2
AC010202.1
MYT1L
MEPE
NEURL1
MAP3K15
FBXO41
GPR68
STX1B
AC104024.2
RAB40A
PSMC1P7
NSF
AC127459.2
AL096711.2
KCNAB2
CPNE6
AL122058.1
GOLGA8UP
DOCK4
WNT10B
SSR4
AL049781.1
CARMIL2
B3GNT4
LINC00242
ATCAY
LZTS1
DUSP22
FSD1L
RASGRP2
LLGL2
ATP2B3
JPH3
SPINT2
MAN1A2
ADD2
DBF4B
AC060814.3
GFOD1
ADRA1D
ESPNL
STMN2
LINC01137








































































































































































































































































































































































































































































































































































































































































































































































































































































































































































































































































































































































































































































