x
IL9
AC002428.2
IL17RB
SCAP
SLC25A48
USP19
TRAIP
UQCRC1
BAP1
GNL3
IP6K1
QRICH1
RRP9
TUSC2
IFRD2
SPCS1
PDHB
NISCH
DHX30
ITGA3
WDR6
ELP6
CCDC51
PTPN23
RBM15B
ARIH2
PBRM1
DCP1A
CCDC12
APEH
P4HTM
NPRL2
UBA3
ATRIP
PDE12
GMPPB
RBM5
SETD2
NDUFAF3
KLHL18
NEK4
GNAI2
KIAA1143
DCAF1
RHOA
RPP14
SMARCC1
NCKIPSD
WDR82
DAG1
ACTR8
DALRD3
PSMD6
C3orf62
CDC25A
LZTFL1
ANO6
PRKAR2A
ZNF445
SACM1L
ZNF589
CCDC71
TEX264
ALAS1
IP6K2
C3orf18
PARP3
SELENOK
ZDHHC3
ZNF852
HEMK1
PCBP4
PHF7
NT5DC2
SLC26A6
SHISA5
PPP4R2
AC002401.4
KIF9-AS1
NDUFS1
RYBP
TCAIM
AC135506.1
MST1
RNF123
RASSF1
PLXNB1
LARS2
USP4
SAMD14
RFT1
KCTD6
C3orf38
ABHD6
LAMB2
ABHD5
CELSR3-AS1
AC099778.1
APPL1
MAPKAPK3
AC137630.1
LINC00960
SCN4B
POC1A
FAM208A
TMEM158
CNOT9
PSMD6-AS2
IFT57
RBM6
AC104447.1
DNAH1
CSPG5
TWF2
PPM1M
AL450311.2
ARL6IP5
CD47
COL7A1
TKT
PRKAR2A-AS1
UNC93B3
FYCO1
GXYLT2
ARIH2OS
HSPD1
IL17RD
DENND6A
CHMP2B
CCDC66
RPL23AP49
AC137630.3
LINC02019
CHDH
FGF9
EXOSC7
XRCC5
SEMA3B
SCN2B
ZNF717
DUSP7
BARD1
BAG2
LRIG1
AC011603.2
AC141002.1
KBTBD8
WWC2-AS2
GDF9
FAM241B
ABHD8
NME6
RNVU1-7
AC099329.3
AC115284.2
USP37
LINC00316
KIF9
RAD54L2
PPP1R9B
RINL
AC012020.1
ENO3
ADRA1A
AC233992.3
ASB14
AC109583.2
RPSAP15
PJVK
AC112503.2
ZSCAN12P1
AC009720.1
AC011979.1
AC002428.1
GLT8D1
PLEKHA8P1
SFMBT1
AC099669.1
SHQ1
FASTKD2
MON1A
ATXN7
SMIM4
CGGBP1
SLMAP
DOCK3
NEUROG3
GLYCTK-AS1
AL132780.1
GMCL1
CEP68
CIAO1
F8
SLC25A26
SYDE1
AC110079.2
JARID2
COTL1
ZNRD1ASP
CEBPZOS
AC024361.2


































































































































































































































































































































































































































































































































































































































































































































































































































































































































































































































































































































































































































































































































