x
LYZL2
RNU2-36P
RNU6-1180P
MRPS21P1
AC010468.3
AL445584.3
AL109924.3
IGKV2D-19
AC026798.1
RNU6-222P
RNU1-14P
AC024681.2
AP006437.2
AC117522.2
AL137847.3
RNA5SP367
AC021205.2
REG1A
AL160413.1
RN7SL543P
AL031598.1
RNU6-827P
RNU6-716P
DUXAP3
AC018653.2
IGHVII-74-1
RNU6-1114P
VN1R74P
AC078776.2
AC009963.1
AC091152.3
LINC02460
CYCSP35
RNA5SP62
RNU6-961P
RNU7-174P
AC010460.2
RNU6-521P
CLDN4
AL359815.1
RNY4P18
AC012451.1
AC097504.1
RN7SL776P
RNU1-139P
RNU5F-6P
AC011233.1
AL136363.1
AL078581.2
SVILP1
RNU7-137P
AC107016.2
AL732618.1
RNU6-1134P
CHCHD2P4
AC138915.1
MIR5708
RPL7P61
MIR8084
RPL6P21
MIR1273E
MTND5P21
AC111000.3
AC112198.4
RNU4-45P
AC092170.1
AP003400.5
AC116353.3
RF00426
RN7SKP229
RNU6-648P
FAM60DP
RNU7-197P
AC025822.1
AC064859.1
IGHVII-43-1
AP000648.2
AC020658.1
AP003171.3
AC126323.5
AC079598.4
GUSBP12
AC008785.1
RNU6-289P
HMGN2P32
AC087430.1
MIR5011
RNU4-57P
RNU6-596P
UQCRFS1P2
AL356859.1
AC244098.3
AC022893.1
UBE2V1P5
AL389915.1
AC108067.1
AC138649.3
RN7SL607P
AC008799.1
AC136619.2
AL606845.1
RNU4-84P
RNA5SP239
RNA5SP30
AL360157.1
PDHA2
AL360007.1
RN7SL183P
RNU2-32P
AC025857.1
RNU4ATAC8P
RNA5SP503
RNU6-973P
RNU1-42P
RF00568
AC091133.2
BX510359.4
AC090049.2
VN1R7P
PPIAP27
LINC02314
IGHVIII-44
RNU6-256P
AC107208.1
RPL31P35
OLA1P2
RNU6-557P
RNU1-43P
RNU6-1328P
RNU6-61P
DNAJB5P1
RNU6-1122P
LINC00297
AP003499.2
RNU6-23P
RFC5P1
SERF1AP1
RPS15AP5
AC016727.2
AC022217.4
LINC02506
RPL29P32
RPL31P53
GTF2IP22
SETP8
RNU6-86P
RN7SL420P
MOCOS
RPL17P34
AL157401.1
AC019129.1
RNA5SP99
MIR8059
RN7SKP19
HTR3B
AC126177.3
RPS26P56
SPATA8
AC244098.2
HIST1H2AA
RNU5F-2P
RNU6-1064P
AC008745.1
RNU6-1310P
AP003122.2
AKAP8P1
RNU6-1243P
AC023968.1
CU634019.6
AP000676.1
COLCA1
AP000942.4
AF238378.1
RN7SL697P
AL731684.1
RNA5SP428
AC024028.1
LINC01737
AC083795.1
IGHV3-32
AC092066.1
MIR6085
AL008987.1
LINC01377
CCL1
FO393401.2
CYP4F23P
TM4SF5
RNU7-97P
RF02252
AL109933.1
MTND4P31
RN7SL318P
AC006967.3
AL672212.1
AC015911.9
LINC02455
AL513479.1
AC102953.1
AC079804.2
RNU1-55P
RNU6-75P
RN7SL300P
RPSAP48
MIR5680
AC244098.1
AC005520.4
ATP5F1AP2
AL008638.5
AC006326.1
AL050349.1
LINC00702
RN7SKP259
PMIS2
AC211433.3
RNU6-1066P
AC018629.1
AC005176.2
RPL5P16
RN7SL304P
SAPCD2P4
AC011498.5
IFNW1
RF00399
AL158825.1
AL024474.1
KRT16
LINC00588
UGT2B7
RNU6-1125P
RF00285
RF00478
AC131935.2
MMP16
AL357055.1
RPS8P3
KRTAP2-1
LINC02552
AC013701.1
ACER1
AC137549.1
AL713998.1
ELL2P2
OR7E55P
MIR5580
TOPAZ1
IFNWP15
AC024908.1
MIR6127
RN7SL197P
RN7SL33P
PRELID3BP7
RF00279
PPP1R2B
LINC01803
RPS15AP27
AC234778.1
RNU6-1126P
SETP7
RPL7P44
LINC02216
AC092747.3
AC023043.3
AL078603.1
AL590640.1
AC022274.1
FP325330.1
HNRNPCP8
OTX2P1
DCAF4L2
AL512646.1
HMGB1P28
AC087477.1
AC074281.1
RNU1-38P
AP003102.1
RN7SL7P
AL359238.1
BOLA3P2
RF00271
GCSHP2
RN7SKP36
IGKV1D-12
RANP5
RPL7AP8
AL731556.2
AC079809.1
AL691482.2
AC093813.1
AC009237.5
RNA5SP215
RNU105C
HMGN2P31
AC133555.2
SMCR2
OR4X7P
RNU6-919P
RNU6-189P
AC091042.1
RNU6-1183P
RNA5SP164
SEZ6L
AC064862.3
RN7SL402P
RN7SL51P
AC019176.2
OR8B3
AL627230.3
ANXA2P3
MIR548AE1
COX6A1P3
IGHV1-68
RN7SL499P
CETN1
GLRA2
AP005264.1
RPL23P11
RPL21P129
RN7SKP186
HSD17B13
MIR548M
AL139148.1
PSMD10P3
MIR378C
EEF1DP6
AC073316.2
NDUFS5P5
AC005703.5
COTL1P2
AIPL1
SOD1P1
RPL35P4
AC020549.2
RPS27AP1
MEIG1
EXOSC3P2
RNF10P1
VGLL2
AC215522.1
AL359757.1
PREX1
HIST1H2APS4
AL591473.1
RN7SL107P
AC087650.1
AC069218.2
GTF2F2P2
RNU6-1256P
RNA5SP285
MRPS33P3
LINC01716
AC044798.1
RNA5SP481
AC019109.1
AL021918.2
MEP1AP4
RN7SL193P
NOS1
AC044836.1
Z82244.1
VN1R9P
AC112187.1
AC140847.2
AC021820.1
MGAT4EP
RNU6-120P
MBD3L5
AP000477.1
AL049792.1
SNRPEP7
SRP72P1
RPF2P1
PGAM4P1
SNORD3G
ST8SIA2
AC136475.6
RNA5SP115
C6orf15
AP005121.2
AC009502.2
HMGN1P35
MIR203A
RNA5SP447
RN7SL352P
KRT8P31
MIR8067
AC138749.4
RNU6-684P
AC010149.2
RNU1-80P
MTND6P14
AL512274.1
AL449043.1
AC090820.1
PLEKHG4B
AL445687.2
RNU2-71P
AC104698.1
IGSF21
RNA5SP149
PLA2G1B
AC106822.1
NDUFA4P2
RPL30P4
RNU7-179P
IFNA10
AL445487.1
RNU4-28P
AL160275.1
AC233964.1
MIR4795
AC015871.1
RN7SL718P
AC122713.1
SDAD1P2
IGJP1
RNU6-782P
MAGEA11
AP003733.1
AC104010.1
EEF1B2P2
AC010280.1
SCRT2
MIR1303
AL132711.1
AL022401.1
AL359643.1
AL353151.1
AC009088.4
AC068512.1
NDST4
AC006380.1
RNU7-56P
RN7SL265P
RN7SL621P
AC018521.3
REG1B
AC073569.2
MRPS36P5
AC018521.7
RPS16P9
RNU4-42P
AC073284.1
AC108073.1
EIF1P2
Z99916.3
AC090616.3
HMGB3P18
LINC01985
MRPL49P1
LRRC8E
AC008567.1
CCDC58P2
RNA5SP128
AC093849.1
RNU6-318P
OR2B7P
AP001362.1
RN7SL790P
SNRPCP2
AP004371.1
TIMM8BP1
NPM1P52
RPGRIP1
RNU6-1315P
AC105053.1
AL122019.1
MIR183
KLF1
AC104653.2
AC009997.1
AC015983.1
AP000275.1
AC023043.2
RPL17P35
AL031713.1
AC007610.2
RNA5SP36
AC025062.1
RPSAP74
AC012183.1
RNU6-1338P
TMEFF2
RPL10L
AC098799.1
RNU6-650P
AC091144.1
RPL12P32
AL356583.2
HIGD1AP4
TRBV5-3
RPS24P13
RN7SL525P
AC018462.2
AP000753.1
AC026523.2
AC123912.5
AL807761.3
AC104115.1
AL035696.3
VENTXP7
RN7SKP129
TRAV26-2
TRDV1
AC083801.2
RGMB
AC015977.1
LINC02020
AC093852.1
U62317.5
AC011891.2
ELAVL4
OR7E145P
PPP1R11P1
RPL21P2
BX842568.3
TRIAP1P1
AP001630.1
DISC1
RNU6-168P
AC087343.1
AC009101.1
RN7SL808P
RPL21P11
ST13P19
AC243960.2
SNRPGP20
RN7SL305P
SBSPON
AC008694.2
AC135178.6
RN7SL824P
IGHVIII-67-2
AC023632.3
MIR548I2
LINC00364
AC091951.2
AC011043.1
MIR4443
ATAD3C
AL035045.1
CD83P1
DHFR
GPM6BP3
AC099066.3
CR382287.2
RNU6-1254P
AC011043.2
BOLA3P4
GPR101
AC073314.1
RNA5SP358
AP001527.1
AC016737.2
AP000593.2
AL033381.2
BET1P1
AL133387.1
AC144836.1
DNAJC8P1
TMEM210
AC010307.2
MIR1299
RBM22P6
RPL7P4
AC106872.2
TRAJ36
AC008750.3
IGLC4
AC108043.1
MIR3179-3
AC010422.2
PPIAL4E
AC007064.2
AC007685.1
MTATP6P17
RNU2-15P
AC125604.1
AL035420.3
FBXO48
SDCBPP2
MTCO1P54
AC215217.1
AC004477.3
HMGN2P7
RNU2-24P
AC010618.1
AC006058.2
PPIAP72
TBX15
AC025627.3
AC136469.2
DACH1
CYP2A7P2
AL590133.1
CU638689.5
MIR3188
AC005261.2
AC009060.2
RNU1-120P
TMSB15A
AL136301.1
TPRG1LP1
SLC25A39P2
RF00438
MESP2
RPL21P32
AC020934.2
MRPL40P1
RPS4XP1
IGHV4-31
AC118757.1
LINC00337
GPR79
AC012074.1
LDHBP1
AL355796.1
ENPP7P11
AC097493.4
AC004471.2
AC104653.1
MIR4521
AL583839.2
NGEF
RNU6-871P
VN1R67P
AC093734.1
AC079228.1
AC011199.1
TUBB8P8
AL590666.1
AC037450.1
AC138304.1
MCCD1P2
LINC01869
IGKV1OR22-1
AL139288.1
AL732314.4
PHKA1P1
AC061999.1
AL359073.1
AP000322.2
AL354714.2
AL355375.1
FAM181A
RPS4XP6
AC092184.1
AC005002.2
MT-TF
AC125494.3
AC109454.1
RNU6-1085P
AC023043.1
AL079342.1
AP001063.1
RN7SL569P
AC103564.2
AC073257.2
AC007992.2
AC018475.1
RPL26P6
COX6CP2
HSPB1P1
AC005999.1
CHCHD2P9
AC140725.1
TRBJ2-4
AC063923.2
AL021997.1
AL137798.1
AC087369.1
RPL7P8
LINC01670
AL157938.1
AC026461.3
LINC00887
AP000720.1
RNY3P4
ZNF585B
TAF9BP2
RPS20P2
AC006158.1
AP000345.1
AC008938.1
AC127029.1
RNF19BPY
AC026765.1
LINC01862
AC087477.4
RNF6P1
AP001324.2
AC096736.1
AC084880.2
AC074254.1
RPL21P12
RN7SL667P
RN7SKP247
AL590410.1
AC114755.5
AP001464.1
AC136443.2
TEX51
AL354796.1
AC005303.1
ST13P12
Z85994.2
C13orf42
AL121901.1
AL160275.2
OR2T2
RNU6-478P
AC098976.1
MTND2P9
ARL2BPP4
AC018880.1
SYPL1P1
CU638689.4
COLCA2
AC090079.2
AP003555.1
AL132796.2
LINC01897
AL513478.3
AL590609.1
AL392088.1
AC004674.2
AC103957.1
RPL12P8
AL050335.1
RNU1-98P
OR10G6
AC092724.1
AC027612.2
AC243972.1
AC091135.1
CSE1L-AS1
AP003385.1
AC090227.2
SLC20A1P3
RNFT1P3
SLCO4C1
AL590764.2
AL731533.1
RNU1-96P
AC007834.1
AC003982.1
AC073587.1
ZNF350
LINC01381
AC092660.1
RPL23AP91
LINC02088
LINC02559
AGXT
AP000695.1
SALL4P5
AC113352.1
AL031733.2
LINC01053
AL133342.1
SMIM28
HNF1A-AS1
LINC02031
LINC01835
DUSP12P1
SOD1P2
AC026410.1
AC110615.1
AC011193.1
IFITM5
MTATP6P2
AC009963.3
TRIM80P
AC129926.1
LINC01055
RPL34P1
CA5A
AC009126.1
LINC02234
NANOG
TBX4
PSMA8
AC092933.1
AC011460.1
ABCC11
AP001784.1
AL139420.1
AC011471.4
FAM181A-AS1
AL359742.1
C6orf58
FAM156B
BASP1
AL356056.1
LINC01529
LINC01504
AC009107.2
PAPSS2
AC018845.3












































































































































































































































































































































































































































































































































































































































































































