x
GTPBP4
LINC01484
NUDT5
CDC123
WDR37
ATP5F1C
FBXO18
GPR158
RBM17
GDI2
LARP4B
HSPA14
AL137145.1
SEPHS1
ANKRD16
UPF2
MINDY3
OTOR
ZMYND11
CASC10
BEND7
AC091614.1
DCLRE1C
SNHG26
DHTKD1
YME1L1
MCM10
ARL5B
PRPF18
SEC61A2
RAB18
RSU1
FAM208B
ANKRD26
SKIDA1
ZNF25
ARHGAP21
ASB13
CCNY
ZNF33B
USP6NL
ACBD5
AL353796.1
PLA2G12AP2
WAC-AS1
ZNF37BP
MASTL
AL359878.1
FAM171A1
ZNF239
KIF5B
MSRB2
OPTN
ABI1
CELF2
WAC
MTPAP
TRDMT1
FAM107B
EPC1
ANXA1
PFKFB3
ENKUR
ZNF33A
PRTFDC1
KIN
AC093635.1
CUL2
ZEB1
VIM
PHYH
CDNF
AL355355.2
LINC00839
ARHGAP12
ZNF248
AL355355.1
HNRNPF
STAM-AS1
CAMK1D
MLLT10
ITGB1
SUV39H2
HACD1
ITPRIPL1
AC069544.1
AC062017.1
AC009974.1
RNU6-234P
SERPINE1
S100A6
AC145098.2
AC073195.1
AC005682.1
BAMBI
ZDBF2
S100A4
PARD3-AS1
GPR158-AS1
ZNF485
AC008403.3
TMEM132C
AL391069.4
NHLRC1
AL161935.1
TRAV8-5
AC016575.1
CYP27A1
LINC00345
RNU6-6P
FARP2
FNDC8
CALHM2
BMS1
Z98752.4
LINC01942
TNFRSF12A
DIP2C
AL137145.2
TAF3
STAM
NSUN6
PDSS1
ZNF438
PITRM1
AL359878.2
RPP38
ZEB1-AS1
KMT2E-AS1
PARD3
CUBN
NMT2
KIAA1841
ZNF487
DNAJC1
P2RX5-TAX1BP3
AC021188.1
FRMD6
S100A2
ACADS
AC127024.1






























































































































































































































































































































































































































































































































































































































































































































































































































































































































































































































































































































































































































































































































































































