x
AC104083.1
ITGA1
AOC3
CNN1
AC100803.2
TAGLN
ACTG2
C3orf36
AC005180.2
OR51E1
UACA
MYH11
AP001107.3
ENPEP
DES
PTK6
GRPEL2
LINC02202
GJA5
AP001189.3
GUCY1A1
AC026471.6
MMP9
CARMN
FHL5
AL513217.1
KLHL30
FLNA
GPR20
MYO1B
FCN3
CASQ2
MMP11
NID2
AC005180.1
NAT8
GUCY1B1
ANO1
MAP3K7CL
FOXC2
TPM2
NEXN
HTR1F
NOX4
PDGFRB
TGFBI
ZCCHC12
ITIH3
MCAM
CCDC3
TINAGL1
NOTCH3
IBSP
MIR4435-2HG
LRRC32
TRNP1
GLP1R
JUP
SRMS
FAM46B
SYNPO2
STOX1
AHNAK2
TPM1
PLP2
OLFML2B
CDH6
JPH2
FOXS1
FYB2
THBS1
LINC00315
AC000067.1
LMOD1
AC080080.1
MYLK
CAVIN3
AC053503.6
LINC01918
NKX1-2
GPBAR1
SMIM32
PPIAP35
AC069224.1
AL162741.1
SHISA4
ADGRA2
TGFB1I1
AC091182.1
SLCO2A1
MYOCD
TRPC6
EBF1
HECW2
PPP1R12B
ADAM12
AC013565.1
ALMS1P1
LPP
GRIN3A
NEXN-AS1
ITIH1
MAP3K13
CALD1
UNC5B
LINC02521
CCDC102B
LGALS4
MYLK-AS1






























































































































































































































































































































































































































































































































































































































































































































































































































































































































































































































































































































































































































































































































































































































