x
AL137003.1
ADCY10P1
RNF8
CMTR1
AL137003.2
C6orf89
PRRC2A
MTCH1
PPIL1
SAYSD1
TBC1D22B
SMIM13
ZNF603P
ZFAND3
STK38
ABCF1
KCTD20
ABCC10
NFYA
GLO1
BRD2
PHF1
OARD1
MEA1
PHF3
BRPF3
TPMT
EHMT2
AF186192.1
CDC5L
BYSL
SLC39A7
KLHDC3
SLC35B2
KLC4
LSM2
WDR46
TMEM63B
TAF8
ABT1
AL035587.1
ATF6B
RNF5
MAD2L1BP
MDC1
RING1
PBX2
VARS
CUL9
MDGA1
SKIV2L
SNRPC
KDM1B
ZBTB22
MOCS1
NUP153
NELFE
ZKSCAN8
GNL1
PPP2R5D
WRNIP1
GPANK1
MRPL14
ZNF204P
ZNF184
MRPS18B
TRIM26
PRR3
CCDC167
C6orf62
RXRB
MED20
NFKBIL1
ZSCAN9
DNPH1
MRPS10
PFDN6
CUL7
BEND6
FRS3
LEMD2
PGBD1
HSP90AB1
DXO
ZNF322
CNPY3
PTK7
ZNRD1
TTBK1
ARRB2
STK19
GNMT
RNF39
DHX16
ZNF391
FBXO9
ATAT1
LRRC73
GTPBP2
LINC01569
AL021368.2
TNFAIP6
ZKSCAN4
DAXX
VPS52
ATG16L2
FKBPL
HMGN4
HSD17B8
PPARD
DGKA
AC098934.1
TMEM170B
HIVEP1
AF186192.2
DDAH2
SYNGAP1
ZSCAN31
PPP1R11
AC096667.1
SLC29A1
ZKSCAN3
PEX6
FLOT1
ZNF192P1
DNAJC12
AL024498.1
TUBB2BP1
FAM187B2P
OR2C1
AL136304.1
AL365205.1
KANSL3
ZNF318
SRPK1
MAPK14
ATXN1
RPL7L1
TMEM217
BTBD9
BAG6
C6orf136
RRP36
POLR1C
UBR2
ZNF76
C6orf106
BICRAL
ACOT13
PFDN2
TRIM27
MUT
STAG3
AC133552.1
AC098934.2
HTRA2
WDR54














































































































































































































































































































































































































































































































































































































































































































































































































































































































































































































































































































































































































































































































































































