x
DDX11L16
AC006946.2
PES1
PI4KAP1
RNF185
THAP7
HPS4
SNAP29
CRKL
TRMT2A
PISD
MIF-AS1
RANBP1
PPIL2
PRR14L
FO538757.2
MAPK1
DDX11L10
TMEM191B
SMARCB1
ESS2
RHBDD3
ZNF74
ZDHHC8
AP000350.6
DDX11L9
AC004982.1
MED15
PEX26
CA15P1
UBE2L3
ALG1L6P
SLC35E4
AL022324.1
ATP6V1E1
ASCC2
ZNF70
CCDC117
COMT
PITPNB
CABIN1
DGCR6L
GUCD1
PI4KA
DGCR2
PPM1F
SRRD
DLG1-AS1
UFD1
PATZ1
UQCR10
USP41
HSCB
SFI1
GSTT2
EMID1
LZTR1
SNRPD3
RTCB
CECR7
BID
NF2
Z95115.1
AL022324.2
TOM1
TXNRD2
RNF215
YPEL1
ARVCF
HIC2
CRYBB2P1
FBXO7
TUG1
TMEM121B
AC245060.4
KLHL22
SLC25A1
CCDC188
MICAL3
BCR
APOBEC3G
OSBP2
PI4KAP2
CDC45
GAS2L1
AP1B1
AC006547.1
AP000350.2
DDX11L1
DDT
GSTT2B
CCDC157
MORC2
ZNRF3
SF3A1
RAB36
GGT1
ZNF280B
TMEM191C
LIMK2
AC004264.2
IGLV5-52
DDTL
THAP7-AS1
LINC01311
KREMEN1
SEPT5
TCN2
TBC1D10A
APOBEC3F
HDHD5
DRG1
P2RX6
PIK3IP1
ZDHHC8P1
RASL10A
GAREM1
SCARF2
EFNA3
AC007326.3
TPST2
SLC12A7
AC004982.2
ANKRD24
AC112220.3
SMARCE1
IL17RA
CACNA1A
AC007663.3
RRAD
HCG27
AC004471.1
AP001000.1
AC006946.3
AL359541.1
FAM86DP
KIAA1671
DDX11L5
TFIP11
AC117569.1
AP000350.4
BCL2L13
LRP5L
ZMAT5
HIRA
DGCR8
THOC5
EWSR1
CHEK2
TTC28-AS1
GNB1L
LINC01664
RSPH14
CLTCL1
TANGO2
LARGE1
BCRP3
OR7E22P
CECR2
AC253536.2
AC007663.1
AL451050.2









































































































































































































































































































































































































































































































































































































































































































































































































































































































































































































































































































































































































































































































































































