x
CABP5
AC013565.3
AL451065.1
AP000439.1
AP000781.1
CNTNAP3B
AC087379.2
AC073934.1
AL731555.1
LINC02317
AL691403.1
AL121987.1
AC005808.1
KRT18P66
AL603756.1
AC010336.1
AL162399.1
AC021151.1
AC099342.1
AP003550.1
RNA5SP430
AL356275.1
AL121809.1
AL157902.1
CNGA3
MIR3681HG
AL445648.1
AL359182.2
AC008897.2
HIGD2B
AL139130.1
AC012377.1
AC098818.2
AC069431.1
AL353803.4
AL606760.3
TRIM63
MEMO1P4
AC117382.2
AP005018.1
ZFX-AS1
AC098591.1
MARCKSL1P2
AL591846.2
AL157373.2
AL354732.1
AP002449.1
AL596325.1
AC124784.1
PPP1R27
AL031727.2
TRAV37
AC008735.3
AP001476.3
AC009171.2
AC100803.1
AC090616.2
AL096677.1
AL139819.1
AL354855.1
AL662820.1
MRPL53
AL117328.2
BHLHE40-AS1
AC098934.4
CLDND2
AC129492.4
UTS2B
C19orf67
AC009908.1
AC019077.1
C11orf71
AC009108.5
AC022211.4
TMEM95
RNU6-488P
IGLVI-42
TNS2
RNY1P5
RN7SKP114
GABARAP
AP000320.1
DBX2
KRT18P36
AC022098.2
AC098583.1
LINC01730
AL121990.1
AC012629.2
AC245052.1
AC022098.3
MIR4442
AC012462.3
AC016888.1
ABHD11-AS1
AC009090.2
AP000769.3
LINC02300
AC104758.1
RF00086
ZACN
TRAV36DV7
AC048344.1
LINC01995
AP001437.1
AC012360.1
AC034102.5
NTRK3-AS1
RNU6-1067P
AC134772.1
FXYD5
AC106028.5
AC068888.1
RNA5SP146
AC092924.1
BX537318.2
AC009185.1
AC090625.2
AC103808.5
AL021408.2
RF00003
LINC02123
RNVU1-19
SPACA6P-AS
AC024257.3
LINC00612
AC093510.1
AL139246.3
NTRK3
RPS5P3
LINC00649
TRBV7-1
AC110771.1
A2M-AS1
AC008115.1
AL022313.2
AC087164.1
TRAV40
Z83847.1
AC008641.1
AL359258.3
RNU6-438P
HIST1H2APS5
FCRLB
AL034376.1
AL121761.2
DNAJB5-AS1
AL591167.1
VAMP2
AP003733.4
AC132154.1
AC092675.1
AL590096.1
AL449106.1
EEF1DP1
AL023806.1
TERC
AL133467.1
AL358472.5
SLITRK2
AP006216.1
AL121983.1
HCG4B
AC004923.4
FRZB
AC073263.2
VIM-AS1
ZNF114
AC120024.1
ATXN2-AS
AC040914.1
ARF4-AS1
AC005614.1
AC103724.3
AL445228.2
AC013400.1
AC026726.1
AC011773.4
APOM
AC010336.2
AL132639.3
FAM21FP
BMPR1B-AS1
AC010420.1
LINC00167
BX470102.1
LINC01220
TPRG1-AS1
APOF
AL138966.2
AP001062.2
AL451085.1
AC026803.2
AC023355.1
AC034111.1
OR10AD1
AL049712.1
FAM83C-AS1
AC009486.1
MIP
HDAC11-AS1
Z93241.1
AC009779.1
AL358933.1
AC245014.3
AC078882.1
AL136172.1
AC068389.2
STK4-AS1
RF00019
NRL
AC010240.3
AC092117.1
LINC01089
RNVU1-15
ATP6V0CP3
CASQ1
AL162412.1
AL354707.2
RNU6-535P
AL137246.2
AC005578.1
HCG14
AC132938.3
HEXA-AS1
LINC00324
RNU6-784P
AC017015.2
AC127455.1
AC069213.1
AC104187.1
AC096734.2
AC008127.1
AC005593.1
LENEP
AC016027.1
AL121894.1
AF129075.2
AC110769.2
AP003465.1
AL109811.2
AC027228.3
AC015813.7
AL078601.2
PPP4R1-AS1
MIR3197
AC006277.1
AC073352.1
PDCL2P2
HSPB1P2
RNU5D-1
AC008972.1
AC073911.2
AC108704.1
AL109797.1
AL137077.2
MIR5091
AP001496.2
AC090578.1
TUBA1C
AC087289.2
CNTNAP3
C4orf51
AL512380.2
AC005355.1
AL133417.1
AP001476.2
AC004148.1
AP000640.2
AL109804.1
AL592166.1
ACTN1-AS1
AC078929.1
AL354710.2
AL357314.1
AL672142.1
BCDIN3D-AS1
AC023509.1
SP7
AC093462.1
SLC25A24
AC104695.2
AC013402.1
AC008392.1
FAM21EP
ALK
AC130686.1
AP000845.1
URAHP
IER3-AS1
AC024575.1
AC013244.1
LINC01971






































































































































































































































































































































































































































































































































































































































































































































































































































































































































































































































































































































































































































