x
RNU2-36P
RNU6-1180P
MRPS21P1
AC010468.3
AL109924.3
AC026798.1
RNU6-222P
RNU1-14P
AC024681.2
AP006437.2
AC117522.2
RNA5SP367
AC021205.2
REG1A
RN7SL543P
AL031598.1
RNU6-827P
RNU6-716P
DUXAP3
AC018653.2
IGHVII-74-1
RNU6-1114P
VN1R74P
AC078776.2
AC009963.1
AC091152.3
LINC02460
CYCSP35
RNU6-961P
RNU7-174P
AC010460.2
RNU6-521P
CLDN4
RNY4P18
AC012451.1
AC097504.1
RNU1-139P
AC011233.1
AL136363.1
RNU7-137P
AC107016.2
AL732618.1
RNU6-1134P
CHCHD2P4
RPL7P61
MIR8084
RPL6P21
MIR1273E
MTND5P21
AC111000.3
AC112198.4
RNU4-45P
AC092170.1
AP003400.5
AC116353.3
RF00426
RN7SKP229
FAM60DP
RNU7-197P
IGHVII-43-1
AP000648.2
AC020658.1
AP003171.3
AC126323.5
AC079598.4
AC008785.1
RNU6-289P
HMGN2P32
AC087430.1
RNU4-57P
RNU6-596P
UQCRFS1P2
AL356859.1
AC244098.3
AC022893.1
UBE2V1P5
AL389915.1
AC108067.1
AC138649.3
RN7SL607P
AC136619.2
AL606845.1
RNA5SP239
RNA5SP30
AL360157.1
AL360007.1
RNU2-32P
AC025857.1
RNA5SP503
RNU6-973P
RNU1-42P
RF00568
BX510359.4
VN1R7P
PPIAP27
LINC02314
IGHVIII-44
AC107208.1
RPL31P35
OLA1P2
RNU6-61P
RNU6-1122P
LINC00297
RNU6-23P
RFC5P1
AC016727.2
RPL29P32
RPL31P53
SETP8
RNU6-86P
MOCOS
RPL17P34
AL157401.1
AC019129.1
MIR8059
AC126177.3
RPS26P56
AC244098.2
RNU6-1064P
RNU6-1310P
AP003122.2
CU634019.6
COLCA1
AP000942.4
AF238378.1
RN7SL697P
AL731684.1
AC024028.1
LINC01737
AC083795.1
MIR6085
AL008987.1
CCL1
FO393401.2
CYP4F23P
TM4SF5
RNU7-97P
RF02252
MTND4P31
AC006967.3
AL672212.1
LINC02455
RNU1-55P
RN7SL300P
RPSAP48
AC244098.1
AC005520.4
AL008638.5
AC006326.1
AL050349.1
RN7SKP259
PMIS2
AC211433.3
AC018629.1
AC005176.2
AC011498.5
RF00399
AL158825.1
LINC00588
RNU6-1125P
RF00285
RF00478
RPS8P3
LINC02552
AC013701.1
ACER1
AC137549.1
ELL2P2
OR7E55P
MIR5580
RF00279
LINC01803
RPS15AP27
SETP7
LINC02216
AC092747.3
AC023043.3
AL590640.1
AC022274.1
FP325330.1
HNRNPCP8
OTX2P1
AL512646.1
HMGB1P28
AC087477.1
AC074281.1
RNU1-38P
AP003102.1
RN7SL7P
AL359238.1
BOLA3P2
RF00271
GCSHP2
IGKV1D-12
RPL7AP8
AL731556.2
AC079809.1
AL691482.2
AC093813.1
AC009237.5
RNU105C
HMGN2P31
AC133555.2
RNU6-189P
AC091042.1
RNU6-1183P
RNA5SP164
AC064862.3
RN7SL51P
AC019176.2
OR8B3
AL627230.3
COX6A1P3
RN7SL499P
GLRA2
AP005264.1
RPL21P129
HSD17B13
AL139148.1
EEF1DP6
AC073316.2
AC005703.5
COTL1P2
AIPL1
RPL35P4
RPS27AP1
EXOSC3P2
VGLL2
AC215522.1
AL359757.1
PREX1
HIST1H2APS4
AL591473.1
RN7SL107P
AC069218.2
RNU6-1256P
RNA5SP285
LINC01716
AC044798.1
AC019109.1
MEP1AP4
RN7SL193P
NOS1
AC044836.1
Z82244.1
VN1R9P
MGAT4EP
RNU6-120P
MBD3L5
AP000477.1
SNRPEP7
SRP72P1
RPF2P1
PGAM4P1
SNORD3G
ST8SIA2
AC136475.6
C6orf15
AP005121.2
HMGN1P35
MIR203A
RNA5SP447
RN7SL352P
AC138749.4
AC010149.2
RNU1-80P
AL512274.1
AC090820.1
AL445687.2
RNU2-71P
AC104698.1
IGSF21
AC106822.1
NDUFA4P2
RPL30P4
RNU7-179P
AL445487.1
AC233964.1
AC015871.1
RN7SL718P
AC122713.1
SDAD1P2
MAGEA11
AP003733.1
AC104010.1
EEF1B2P2
AC010280.1
SCRT2
AL353151.1
AC009088.4
AC068512.1
AC006380.1
RNU7-56P
RN7SL621P
AC018521.3
REG1B
AC073569.2
AC018521.7
RPS16P9
EIF1P2
Z99916.3
LINC01985
MRPL49P1
LRRC8E
CCDC58P2
RNA5SP128
AC093849.1
RNU6-318P
AP001362.1
AP004371.1
TIMM8BP1
RPGRIP1
RNU6-1315P
AC105053.1
AL122019.1
MIR183
KLF1
AC104653.2
AC009997.1
AC023043.2
AL031713.1
AC007610.2
AC025062.1
RPSAP74
AC012183.1
RNU6-1338P
AC098799.1
RNU6-650P
AC091144.1
RPL12P32
AL356583.2
HIGD1AP4
TRBV5-3
RN7SL525P
AC018462.2
AP000753.1
AC026523.2
AC123912.5
AL807761.3
AC104115.1
VENTXP7
AC083801.2
RGMB
AC015977.1
LINC02020
AC093852.1
AC011891.2
PPP1R11P1
RPL21P2
BX842568.3
RNU6-168P
AC009101.1
RPL21P11
ST13P19
SNRPGP20
RN7SL305P
SBSPON
AC008694.2
AC023632.3
AC091951.2
AC011043.1
MIR4443
CD83P1
AC099066.3
CR382287.2
AC011043.2
BOLA3P4
RNA5SP358
AP000593.2
BET1P1
AC144836.1
RBM22P6
AC106872.2
TRAJ36
AC108043.1
MIR3179-3
PPIAL4E
AC007064.2
RNU2-15P
AC125604.1
AL035420.3
FBXO48
SDCBPP2
MTCO1P54
AC215217.1
AC004477.3
RNU2-24P
PPIAP72
AC025627.3
AL590133.1
CU638689.5
MIR3188
AC005261.2
RNU1-120P
TMSB15A
TPRG1LP1
SLC25A39P2
RF00438
MESP2
RPL21P32
AC020934.2
MRPL40P1
IGHV4-31
LINC00337
GPR79
LDHBP1
AL355796.1
AC004471.2
AC104653.1
NGEF
RNU6-871P
AC093734.1
AC079228.1
AC011199.1
TUBB8P8
AL590666.1
AC138304.1
MCCD1P2
LINC01869
AL139288.1
PHKA1P1
AC061999.1
AL359073.1
AP000322.2
AL354714.2
AL355375.1
RPS4XP6
AC092184.1
MT-TF
AC109454.1
AC023043.1
AL079342.1
AP001063.1
AC103564.2
AC073257.2
AC018475.1
RPL26P6
COX6CP2
HSPB1P1
AC005999.1
TRBJ2-4
AL137798.1
LINC01670
AL157938.1
AC026461.3
LINC00887
AP000720.1
RNY3P4
ZNF585B
TAF9BP2
RPS20P2
AC006158.1
AP000345.1
AC008938.1
AC127029.1
RNF19BPY
AC026765.1
LINC01862
RNF6P1
AP001324.2
AC096736.1
AC074254.1
RPL21P12
RN7SL667P
RN7SKP247
AL590410.1
AC114755.5
AP001464.1
TEX51
AL354796.1
AC005303.1
ST13P12
Z85994.2
C13orf42
AL121901.1
AL160275.2
OR2T2
RNU6-478P
AC098976.1
MTND2P9
CU638689.4
COLCA2
AC090079.2
AP003555.1
AL132796.2
AL513478.3
AL590609.1
AL392088.1
AC103957.1
RPL12P8
AL050335.1
OR10G6
AC027612.2
AC243972.1
CSE1L-AS1
AP003385.1
AC090227.2
SLC20A1P3
RNFT1P3
AL590764.2
AL731533.1
AC007834.1
AC003982.1
AC073587.1
ZNF350
LINC01381
AC092660.1
RPL23AP91
LINC02088
AGXT
AP000695.1
SALL4P5
AC113352.1
LINC01053
AL133342.1
SMIM28
LINC01835
DUSP12P1
AC026410.1
AC110615.1
AC011193.1
IFITM5
AC009963.3
LINC01055
CA5A
LINC02234
NANOG
TBX4
AC092933.1
AC011460.1
AC011471.4
C6orf58
LINC01529
LINC01504
PAPSS2




















































































































































































































































































































































































































































































































































































































































































































































































































































































































































































