x
TCEAL4
ZNF426
ZNF121
ZNF701
ZNF557
ZNF814
AC005261.1
TCEAL5
TCEAL9
GPRASP2
BEX1
AC005261.5
AL035071.1
FGD1
AC005261.3
UPRT
RAP2C
FAM122B
TRO
ZNF561
SMARCA1
FAM199X
VMA21
AC011451.1
ZNF264
BEX4
TAZ
KRI1
DKC1
RBMX2
TYK2
ZMYM3
FMR1
ZNF561-AS1
BEX2
MORF4L2
UPF3B
MMGT1
FAM50A
AC004076.1
TCEAL8
ZNF317
ZNF2
NONO
ZXDB
HNRNPH2
PJA1
AC010422.6
WNK3
RNF113A
FAM3A
CUL4B
LAS1L
BEX3
TCEAL1
YIPF6
TCEAL6
HTATSF1
MCTS1
ZNF562
DRG2
ZBTB33
UBQLN2
PRKCSH
TMEM185A
PHF6
MAGED2
C1GALT1C1
CSTF2
LRRC58
TRMT2B
ZXDA
TCEAL3
RAB39B
DNMT1
FAM120C
AC234783.1
AMER1
RLIM
TRIM45
AC092835.1
STX10
CXorf40B
TAF9B
PSMD10
MTMR1
ZNF460
THOC2
HSFX1
MAP7D3
OPHN1
ZNF75D
AL683813.1
BRWD3
TCEAL7
ZNF558
NAP1L3
COLGALT1
ZNF101
ST6GAL2
ATRX
UBE2A
CADM3
TMEM164
APEX2
AC108673.3
ARHGEF9
NKAP
OCRL
FAM46C
MOSPD1
IKBKG
XIAP
CETN2
SLC27A1
FAM122C
SLC10A3
FAM117B
PCGF1
UBL4A
TIMM8A
EIF3G
HMGN5
BHLHB9
ZNF142
RAB9B
FAM133A
AC145207.5
SNX12
TMEM187
RAB41
THRA
IRAK1
SLC4A4
MTM1
CERS4
AL035071.2
AC113191.1
MED18
RAB28P5
AC244090.1
SPRY3
FAM71E1
FUNDC2
PROS1
AC097461.1
ZNF266
OR7D2
AC135178.5
AC092653.1
MDFI
ARMCX2
TCEAL2
AC243830.2
NANOGNBP3
KIF19
AC012360.2
ZNF77
INTS6L-AS1
AL591848.3
SLC25A53
BEX5
ZNF808
PHF8
ABCB7
ZNF699
CXorf56
ZNF490
MECP2
ZNF586
HCFC1
ZNF846
YIPF1
ILF3
TMSB15B
ZNF451
SLC9A6
SLC25A14
RBM41
ZNF280C
PARD3B
AC010618.3
STK36
ALG13
MTCP1
FBXL12
PLEKHM3
MRPL33
C2orf42
USP24
MCF2
FEZF1
PIN4
HPRT1
CHM
LINC00519
AC007569.1
AC008567.2
NSG1
AC008264.2
FMR1-AS1
RAB1B

































































































































































































































































































































































































































































































































































































































































































































































































































































































































































































































































































































































































































































































































