x
RMND5B
FAF2
ZNF346
SLC25A36
AC006378.2
CLK1
RUFY1
AC139795.2
ZNF354A
SFXN1
B4GALT7
DDX41
RPL26L1
ERGIC1
KIAA1191
ZFP62
UBTD2
TMED9
MAML1
CCNL1
HEIH
ZNF879
FAM114A2
RNF145
ARL10
BOD1
FAM193B
CNOT6
CCDC14
MRNIP
NHP2
CLK4
U2SURP
BNIP1
HIPK2
RNF44
YIPF5
MAT2B
ATP6V0E1
HLTF
ZBED8
ZNF354B
XRN1
HNRNPH1
ZNF454
TSPAN17
SH3PXD2B
AC103923.1
ZNF354C
SAP30L
AC008443.1
TRIM41
ZNF148
ORMDL1
TNIP1
LINC00847
AL391650.1
UBE2B
TBC1D9B
ATR
MBD4
PHYKPL
KIF1C
PRR7
SEC22A
STAG1
KPNA1
ATP2C1
THOC3
PDLIM7
ANXA6
IFT122
ZEB2
AC008610.1
CD46
GNPDA1
MAP4K4
ATOX1
NUDT12
ARMC8
EEFSEC
TMCC1
TTC32
GPRIN1
LMNB1
FAXDC2
DBN1
STK10
SLC41A3
MGAT4B
GM2A
NR3C1
GK5
RND2
AC091825.1
RNF130
ASTE1
HNRNPA3
SRSF7
MGAT1
SF3B1
FAIM
HPS3
CNOT8
AC026691.1
ARL13B
AC008443.5
VAT1
PCDH1
PRR36
IFI16
ARHGEF37
PCF11
OCIAD2
HNRNPA3P6
MCC
NPC2
HACD2
CNKSR1
LINC01355
AC005753.1
CEP70
ACAD9
SPTBN2
ADA2
NEURL1B
NEAT1
AL391807.1
ZBTB38
LTA
UIMC1
CDHR2
AC008966.1
KCNIP1
FBLL1
PRR7-AS1
HEPH
ANKRD40
LINC00892
F12
CLINT1
CNNM3-DT
AC007386.1
AC103724.4
AL021368.3
BET1
AL121992.2
AC104117.5
RSRP1
DOCK7
MIR331
AC139795.1
LMAN2
MFAP3
SENP7
ZFP2
AC104117.3
COL4A3BP
NSD1
MAPK9
AC106795.1
TRPC1
GRK6
CYTH1
RBM39
ADSS
CHCHD6
RHOC
RNF181
C11orf95
ERCC3
TAS1R1
NRG2
MYL12A
AL078621.2
MARCH3
AKAP7
PELI3
TMEM269
PIK3CB
NSUN3
AC091057.1





















































































































































































































































































































































































































































































































































































































































































































































































































































































































































































































































































































































































































































































































































