x
LINC00452
BX072579.2
AL022313.1
AL589794.1
AC021683.1
SNX18P27
AC134698.4
OR4K6P
LINC00454
SLC22A5
GAS6-AS2
OR4K2
AC073111.2
AC134698.2
DPP3P2
GAS6
OR4K12P
FGF17
OR4N2
VN1R68P
ZNF746
SSTR5
AC092681.1
OR4K4P
LINC00676
AL391156.1
RNU6-712P
AC073263.1
LINC00399
RPS4XP11
AP000787.2
MFGE8
METTL7B
DMTN
FTLP19
KRBA1
AP000221.1
AC093458.2
ATP1A4
ZNF777
LRRC10
BMP1
SFTPC
ZNF862
BUD13P1
DHRS2
SRSF8
ENDOD1
MRS2
MIR503HG
FNBP1P1
SSTR5-AS1
AC073111.5
ABCA4
AC005034.4
ATP6V0E2-AS1
HDAC1
PBXIP1
CMKLR1
TOP3B
HAPLN3
FO393418.1
BX293535.1
AC126915.2
CDON
ITGA7
AC021683.2
TANC1
FIBIN
GCFC2
USP54
MN1
AC009302.1
ANKRD33B
PRKAA2
RPS26P24
RPL12P42
AC087499.6
ELN
AC021683.4
AC007224.2
UBB
LINC00648
AC009041.1
AP005901.3
RAB11B-AS1
RPL7P17
SLC25A41
AL022334.2
MIR3936HG
AC092681.3
HP1BP3
NPM2
LINC00158
TOP3BP1
AC117490.1
AC245884.10
AC009088.1
CYBRD1
AL670729.3
ABHD2
EMP1
AC007923.1
OR4K3
AC010145.1
MYO18B
SH2D4B
ECPAS
ZNF767P
GVQW2
KRT20
LINC00605
LINC00629
LINC02069
AC099670.2
SASH1
CCDC93
CPVL
ZFHX2-AS1
WDSUB1
B3GNTL1
RN7SKP227
AC004231.3
NEURL3
NSUN5
AC040162.3
AC126763.1
RPSAP54











































































































































































































































































































































































































































































































































































































































































































































































































































































































































































































































































































































































































































































































































































































