x
LINC02359
CDK4
METTL1
MARCH9
AC079598.1
TSPAN31
CR381653.2
CYP27B1
MARK2P10
ANKRD20A17P
AC079598.3
ATP23
MIR6134
MYBPC3
NR2E3
AC068305.2
AC046130.2
RNU7-102P
RNA5SP182
RNA5SP261
RNU6-499P
RNU6-551P
RNU6-632P
AC018521.4
AC025578.1
AC084033.3
BX004987.1
RNU6-1103P
AC083805.3
CR381670.1
AC083805.1
RPL13AP23
RNU6-261P
TSFM
RNU6-1006P
RPL21P103
OR11M1P
AVIL
AC092490.2
RPS29P30
IGHVIII-11-1
AC016751.2
RNA5SP326
MIR7641-1
RNU6-839P
RNU6-183P
RNA5SP86
STRAP
RNU6-627P
BX276092.3
RNU4-17P
AC026421.1
RNU6-995P
RNU6-456P
RNU6-1075P
AL355298.1
INSM2
RNU7-173P
RNA5SP102
RNA5SP142
AC084033.1
IGHVII-1-1
AC018710.1
AC245047.3
AC245748.3
RNU6-38P
AC087888.1
AC092647.1
RNA5SP214
MTCO3P46
RNU6-793P
RNU6-622P
NUP37
LINC02403
AL158206.1
KRTAP8-3P
RF00070
DUSP16
RNU6-217P
RNA5SP77
WASHC3
RNU4-6P
LINC02414
AC099670.1
SMIM10L1
MGAT4C
AC121334.2
RN7SL668P
AC024909.1
AL121985.3
MAGOHB
FANCL
SMIM22
ACER2
KLRA1P
RN7SKP218
RNU6-477P
AC114300.1
RNU6-180P
CDKN1B
AC093536.2
RNA5SP347
RN7SL361P
AL157359.3
RNU2-9P
AC104408.1
DRAM1
AC119751.3
RNU1-46P
CFTRP3
FRMD4B
PNMA6E
RPSAP47
AL109941.1
RNU6-634P
AL356157.2
NIFKP4
AC072046.1
FAM234B
WBP11
RPS29P24
RNU6-12P
NFYB
SNX18P26
LINC00896
RPS27P1
MYO15A
RPL22P4
RNA5SP107
IGLVVII-41-1
AC008628.1
THSD4
MANSC1
RNU4-70P
NEDD1
AC073342.3
AL590240.4
CTDSP2
AC140878.1
ADI1P2
IGHV3-52
BICD1
PRKG2
LOH12CR2
RNU6-1074P
CREBL2
CYP4A26P
RNA5SP292
UTP20
IGHV3-35
AP000432.2
GDF3
RNU6-245P
RN7SL43P
AL512343.1
RN7SL189P
AICDA
PPIAP63
RNU6-1158P
MTND1P28
AC112487.1
AGAP10P
AC096638.1
IGHV3-29
IGHV4-39
SMOC2
RN7SKP242
AL391903.3
AC079907.1
AC073387.2
MIR4507
IGLV9-49
STK26
TRAF6P1
TRBV13
GHRHR
IFNA22P
RNA5S9
KRT8P1
RNU4ATAC7P
MIR5571
RPS11P1
RNU6-763P
CR383656.3
RNU1-21P
PTPRO
PLD1
BMP6
AC138517.1
AL136099.1
EPS8
ELOBP3
RPL7P47
AC083873.1
RNU6-953P
SYNPO2L
MRPL20P1
BNIP3P41
RAP1BP2
AC091953.2
RPL34P6
IGKV3-11
AC079341.2
KRTAP19-7
TBC1D3D
RNA5SP379
AL590139.1
AC136632.2
AC023490.2
MIR3685
AC090666.1
TMEM69
PRELP
SEPT12
RNU6-582P
IGHVII-30-1
AC097523.1
RN7SL870P
MYRF
RPL21P119
ADH1B
AC009511.2
MIR548X2
RNA5SP495
AC008115.4
MB21D2
RPSAP61
AC016739.1
RPL23P8
RPL41P1
OR7E125P
RPS6P20
AC006539.3
TMEM163
AC026741.1
AL354928.1
AGAP7P
EIF3LP2
AC073911.3
AC025166.1
RNU6-832P
TRAJ4
RPS29P23
RNU6-3P
RNU1-70P
RPL13AP7
VRK2
AL139094.1
KLHL7-AS1
RNU6-9
RPL12P4
RNU4-65P
FTLP3
RPS26
AC012486.1
AP003062.1
EEF1AKMT3
CR381653.1
AGAP2
RNU6-99P
TRAV15
RNY4P16
AC094104.1
AL133163.3
RN7SKP135
PARPBP
BORCS5
TMEM132D
AC073539.1
AC008834.1
AC068643.1
AC005345.1
HADHAP2
OR10T1P
DERA
AC026782.1
AC106872.10
SNX18P23
DNAJA1P1
KCNQ1
ATPAF1
POU2F3
PPIAP68
IGHVIII-67-4
PRKCH
AGAP14P
NPC1L1
AC024940.5
F11-AS1
GFI1B
ETV6
NR6A1
AC061975.4
KCNT2
HMGB3P11
NEPNP
SLC5A2
AC004156.1

































































































































































































































































































































































































































































































































































































































































































































































































































































































































































































































































































































































































































