x
NEK6
HIST2H2BE
AL691447.2
PPP6C
GAPVD1
RAB14
SURF6
GTF3C4
ZBTB43
TSC1
USP20
SEC16A
GPR107
TEX10
RABGAP1
CUTALP
EXOSC2
INIP
TBC1D13
MRRF
RBM18
GOLGA1
UCK1
FBXW2
FKTN
ZER1
RC3H2
ATP6V1G1
CDC26
RABEPK
SURF2
REXO4
C9orf147
MED22
NDUFA8
PRRC2B
PDCL
AIF1L
GTF3C5
GOLGA2
MAN1B1
BRD3OS
ARPC5L
ZBTB34
SPOUT1
NUP214
NOTCH1
FPGS
TMEM245
WDR34
POMT1
ODF2
DDX31
CACFD1
CDK5RAP2
GLE1
KIAA1958
MAMDC4
MEGF9
ALAD
PSMB7
CDK9
MIGA2
MVB12B
SPACA9
PAXX
ZNF883
ELP1
ADAMTS13
SLC2A8
FAM120A
CNTRL
RALGDS
GOLM1
ANKRD19P
CEP78
STRBP
AL355987.3
TMEM268
GNAQ
PHPT1
LINC00963
AL596244.1
C9orf16
FNBP1
KYAT1
AK1
MAP6
WDR31
PHF19
PMEPA1
APBA1
PSMD5
CRB2
DPYSL5
LHX2
MAOA
C9orf163
KIF5C
SNX30
FAM129B
FAM189A2
ASS1
NAIF1
AL137845.2
WBP1LP2
GARNL3
RNU6-29P
SETX
HSDL2
TRAF2
RALGPS1
AK8
SLC31A1
PLEKHG1
NAT1























































































































































































































































































































































































































































































































































































































































































































































































































































































































































































































































































































































































































































































































































































































