x
APCDD1L
AL133232.1
AL035409.1
DGUOK-AS1
GFRA3
AL035541.1
AC243972.2
AC010649.1
AL358232.1
DHH
LGI4
RN7SL636P
MTCO3P38
RNU6-804P
AC092268.1
LEF1
AC093904.3
MARCH10
AC011603.4
APCDD1L-AS1
AL445264.1
COL12A1
OR5AK2
RNA5SP407
BIN3
RNU6-1113P
RN7SL170P
PTP4A1P5
MPZ
OR5AK3P
OPRD1
AL391987.1
DPP4
CAPN12
AC012512.1
PPFIBP1
OR5AK1P
RNU6-1299P
AP003398.1
INSC
FDPSP5
AC005000.2
AC008687.5
AL590434.1
MLPH
RNU6-663P
JPH1
AC022497.1
SLC5A4-AS1
TEX2
NOS2
MCTP2
SH3RF2
LTBR
DNAJC19P9
AL049870.3
TIMM8AP1
ST6GALNAC2
AL590428.1
AC099343.1
AP001527.2
SDC3
AL049545.1
ZNF280A
AL049870.2
GJC3
ST6GALNAC5
IL34
GAL3ST1
SHH
AC012629.4
VWA5B2
BTC
SMYD2
NPM1P46
CHCHD4P2
AC109492.1
CLDN7
SLC17A9
AC011270.1
CLMP
LINC02340
AL390066.1
KCNN4
PKIG
SRSF10P1
FXYD3
USP12-AS2
ITPR3
YAP1
CD109
AZGP1
AC244502.1
CD200
SYPL2
ACP6
RNF165
AC136944.1
TUSC3
EIF4BP3
TMEM47
ERN1
NDN
S100A5
CEP126
PPP1R1AP2
RPL23AP43
YBX2
ABCA8
RHEBL1
SLC2A4
FURIN
AL009181.1
POSTN
LINC01711
TESC
FSTL3
TMEM159
SLC22A4
ARTN
C17orf82
MIR29B2CHG
MAPRE3
ZNF536
AP001542.1
TRAM1L1
PKP3
FMNL2
AC005828.4
SERPINE2
RN7SL825P
C3orf80
RFFL
A4GNT
KCNE4
TRAV39
PLK5
LEF1-AS1
AMPD3
EHBP1
AC009509.1
GRB10
LRRC1
UTRN
RPL31P63
BCL2L2
AC090844.3
EFNB2
MIR548AY
MRAS
AP003774.1
ESYT3
AC231533.2
PIWIL2
C1DP5
GFRA2
KCNF1
ADAMTSL5
TPT1P4
VANGL1
AC112220.1
AC011458.1
LURAP1
AL157888.1
AC087627.1
PPP1R3B
UCN2
AC090044.1
AGL
AC092070.4
RNU6ATAC
ACKR3
AC008121.2
AC011458.2
MAP10
AL157770.1
CCND3
CD58
MT1XP1
RASGEF1C
AC008063.1
ASS1P5
DPYS
TEX49
AC009161.2
MTATP6P24
ENTHD1
AC016866.3
MIR3142HG
OR10G3
FAM71D
AC069304.3
AL049569.1
AC005972.4
TEC
AC005840.2
LINC01778
PTPN14
STK39
AC122694.1
C11orf70
BEST2
AC021218.1
EVI5
AMOT
AC025048.5
IL1RAP
PALM
MAGEE1
TRAV30
KCNMA1
AZGP1P1
PPP2R3C
SLC25A30-AS1
SLC49A3
KIAA1211L
RILP


















































































































































































































































































































































































































































































































































































































































































































































































































































































































































































































































































































































































































































































































