x
SLC6A10P
AL356272.1
AC092447.8
LINC01518
AC007848.1
AC073488.9
AC073488.8
AC073488.5
VN1R54P
AC073488.3
AC073488.10
AC073488.11
AC073488.7
LINC00308
AC023824.5
LINC02575
LINC02404
AC073488.4
AC073488.1
AC136616.1
REM1
AC006206.2
LINC00624
AC025254.1
CSNK1A1P1
SDR42E1
AL031674.1
AC005150.1
AC093326.1
SAPCD2P1
AC007106.1
AC087783.2
AC106900.2
DEFB115
RNU4ATAC14P
KCNG2
LINC01257
AP001065.1
DEFB124
CDC27P3
AL513348.1
LINC01967
H3.Y
GUSBP6
AC023141.10
LRRC3
AL513318.2
LINC01606
OR7E5P
AC097499.1
TKTL1
FOXL2
TCL6
TSKS
MTND5P1
AC132825.4
AC117500.1
AC106774.2
POT1-AS1
HCG11
AC025674.1
AC073578.2
AC012485.1
FOXL2NB
C15orf41
AC008050.1
MTND6P21
LINC01497
RNASE10
AC073578.4
OR1AB1P
LINC01391
AC023141.2
LCE1F
AC005537.1
VN1R38P
VN2R19P
AC106872.1
RN7SL58P
AC008443.3
AC026254.1
VN1R21P
MIR4674
AC074135.2
IGHV2OR16-5
AC007376.2
TMEM9B-AS1
RN7SL255P
LINC01419
PRDX1P1
ASB5
AL139352.1
OR6D1P
PTGIR
KCNK15-AS1
LINC01598
HIF1A-AS1
TPT1P13
OR1H1P
AC091076.1
ADCY1
SPATA20
AC114341.1
AF186192.3
AC016757.1
RNU7-67P
LINC00028
ESRRB
AC021594.2
AC008565.1
AC233724.10
AC133561.5
MTCYBP21
AC010099.4
AL450322.2
CEP128
LRRC3-AS1
NR5A2
AC005178.1
LINC01342
AL162311.3
ZNF80

















































































































































































































































































































































































































































































































































































































































































































































































































































































































































































































































































































































































































































































































































































































