x
AC091114.1
AL138720.1
RPL7P41
AC093655.1
AC104073.4
AC009468.2
AC092637.1
GSTA9P
AL357172.1
AC092100.1
SRRM1P2
PNPT1P2
AC116337.3
AL391597.1
SEL1L2
AP001208.2
LINC02394
AC004910.1
AC090398.1
AC024132.1
AC092650.1
GRHL2
NCOR1P3
TSGA13
IGHV3-75
AC009169.1
AC025475.1
AC087269.1
AC053481.3
AC023906.5
SEPT14P1
AC003985.2
LINC01399
CA5AP1
AC012442.3
GTF3AP5
RN7SL88P
AC099522.1
LINC01949
LINC00051
AC073346.1
AC004801.7
PGAM1P5
AC073320.1
AC092364.1
AC103987.2
CYP2AB1P
AL606468.1
AC068533.2
OR7A17
AC010148.1
FGF10-AS1
AL021877.2
AC027688.2
CASC11
AL390838.1
LINC02142
MTCO1P49
HHLA2
AC139491.3
RPL21P18
RF00189
HNRNPCP9
CLVS1
TBPL2
AC024589.2
AC084116.3
AC009518.2
AC116917.1
TMEM114
TRBV7-4
SUN3
TNRC18P2
AC106872.11
LINC02061
AC090680.1
AC048334.1
AC004149.1
AL360175.1
AC009831.4
AC117500.4
BOLA3P1
AC020899.1
OR9K1P
MIR523
AL122001.1
PAQR5
AC027229.1
HMGN1P30
AC092278.1
TRAM2
FZD1
AL161727.1
CARD6
AL590666.3
BEAN1
AC112220.2
AC021752.1
AC034114.2
LINC02093
AC009276.1
AC007952.3
CTXND2
LIN28A
ELL2P1
AC112220.4

































































































































































































































































































































































































































































































































































































































































































































































































































































































































































































































































































































































































































































































































































































































