x
LINC00927
OBP2B
PAEP
OBP2A
ALG1L5P
LINC00954
AC005622.1
LINC00349
UBQLN1P1
RPS29P4
LINC01801
RNU6-699P
RNU2-8P
LCE2C
IGHVII-40-1
DNAAF5
PPP1R26-AS1
LINC02507
AC010329.2
RN7SKP280
AC092375.2
CCNJP1
AC108174.1
SLC13A1
ASH2LP1
LCE2B
AL353608.3
RPLP0P11
KIAA1024
EEF1A1P28
AC005019.2
AC022387.2
KRT16P2
SPIN2B
AC079612.2
RNU6-947P
LCE4A
RNU6ATAC28P
SRI
AC106900.1
C7orf66
SPIN2A
LCN1
NPAS1
GNAI2P1
AC005840.3
AC022893.2
RNU6-1018P
AC008677.2
AL355297.3
RRN3P1
RNU1-1
ADAM22
AL353613.1
AC004012.1
AL122018.1
AC024940.2
PPIAP85
LINC01338
AC105129.2
SUV39H1
AP000358.1
GPRC5A
RNU6-918P
SPIN3
AL590004.3
SPRR2G
AC008154.2
CRIP1
AC004522.2
AL022316.1
RPL22P12
AIM2
BEND4
UPK3B
CYP27C1
GBX1
RPL7L1P5
OR1L8
LINC01233
CBX1P4
AL355297.4
SH3BP1
AC135048.4
AC083964.2
OR10D1P
COX6B1P1
TMEM106B
CBX1P3
WNT8B
KIAA0895
HLA-W
C17orf97
AP003355.3
PAEPP1
AC022868.1
AL121782.1
AC115285.1
SDHAF3
AP001005.3
TM4SF1-AS1
AC008555.5
RNU6-219P
RNU1-76P
AC010329.5
AC010616.2
AC002127.2
KRT16P1
ZNF965P
LINC01502
AC092112.1
GAGE10
PIGPP3
IRGC
EEF1GP7
AP003041.1
AC134043.1






















































































































































































































































































































































































































































































































































































































































































































































































































































































































































































































































































































































































































































































































































































































