x
AC019211.1
KCNB2
AC008696.2
KHDRBS2
LINGO2
AL591501.1
AC067956.1
AC007368.1
AL445433.2
AC016598.2
ASIC2
GABRG3
AC016598.1
LINC01250
FAM19A1
LINC01680
AC091819.1
ZNF804B
RGS7
AGBL4
IQCJ-SCHIP1
CACNB4
GRM7
AL049544.1
RNU6-1012P
FP325330.3
MACROD2
CDH12
CCSER1
AL445123.1
MIR3648-2
AC091819.2
AC093843.1
LINC01327
FSTL4
AC130364.1
AL357833.1
AL117329.1
AC098826.1
RBFOX1
ERC2
CXXC4-AS1
OR2X1P
GRIP1
AC008700.1
DCC
AL445623.2
AL357833.2
AL359851.1
AC091826.2
PRELID2
RAB3C
AL713866.2
DIRC3
AC104162.1
DAB1
LINC02389
AL050305.1
DOK6
LINC01122
AL357153.2
AC020559.1
AC097634.3
MCTP1
NKAIN2
HTR1E
HSD3BP3
PDE4D
KCNH1
DLG2
AC136759.1
AL121580.1
PHACTR1
NRG1
DLGAP2
ISPD
KIAA0825
AC010280.3
ANKRD20A4
AC016999.2
DPP10
JAKMIP2
RPL12P40
AC090115.1
GRIN2B
RNU7-156P
HSD3BP1
CYP4A44P
AC007450.2
OR2L9P
AC073091.2
NDUFA5P6
ENOX1
CNTNAP2
ANKS1B
PPFIA2
AL645568.3
AC073091.1
AC084064.1
LINC02232
AC093775.1
ZMAT4
KRT8P4
LINC00402
KCTD8
AL049875.1
CHRM3
AC087457.1
RNU6-413P
LRFN2
RNU6-148P
KCNJ6
LRFN5
GRIK1
NOP56P2
AC017007.4
ISCA1P3
KSR2
EML5
CTAGE14P
ATP5MGP4
ACSL6
AL139393.1
UNC5C
PAK5
ANKRD20A3
CACNA1D
AL033539.1
CMC1
AC130364.2
GJD2
SMLR1
AC034229.5
AL031275.1
MRPL50P4
RPEL1
ZNF877P
Z93019.1
AC120193.1
RTL4
DDX39BP1
MCF2L2
DPYSL3
AL136452.1
SSBP3
MIR5692B
AC008562.1
SESTD1
VWC2
AC067945.3
SNRPN
CPEB1
ASS1P10
LINC02347
TMEM177
GTDC1
TANK
HTR4
AC100757.2
AC008507.2
AL161658.1
METTL25
AC012307.1
AC005740.1
THSD7A
SFTA1P
IL1RAPL2
CACNA2D3
MSC-AS1
POU6F2
MEF2C-AS1
TPK1
AC137770.1
LINC01868
AL356580.1
AC090568.2
AC010266.1
TRIM51FP
TRPC5
CPEB2-AS1
PRB2
AC097103.2
AC073333.1
AC018754.1
AC011247.1


















































































































































































































































































































































































































































































































































































































































































































































































































































































































































































































































































































































































































































































































































