x
LINC01893
AC103808.3
MIR5007
AC103808.4
KLRC2
AC103808.6
LINC02293
RNA5SP431
AC103808.2
LINC01561
MIR3663HG
RNU6-523P
RNY4P30
KLRC4-KLRK1
RNU6-609P
MIR7153
RNU6-555P
RNU6-1047P
ONECUT3
AL451054.2
RNU6-275P
AC068775.1
LINC01230
AC022075.2
U2AF1L5
AC006006.1
AC022075.1
RNU1-148P
AC011095.1
ZNF876P
RNU6-391P
RNA5SP64
AC108475.1
AL109807.1
MAST2
FAM217A
AC103808.1
AC092470.1
AC139453.1
AC005186.1
LINC02116
LSP1P2
DUX4L9
AC114781.5
RNA5SP190
AC010095.1
RN7SL148P
AC079140.3
RN7SL654P
VAX1
AC044792.1
F11
CST2P1
RNY1P1
AC022075.3
AC105105.5
AL021879.1
AL596276.2
RNU7-157P
AC244255.1
LINC01072
IGLC6
AL049874.1
AC079140.5
AC025035.1
HMGB3P16
ABO
RNU6-525P
RELL1
AC091305.1
AP003072.1
TRBV12-2
PCMTD1P7
C4orf19
ATP5MC1P8
RNU5A-2P
IGHV3-60
RNU6-175P
VDAC1P10
MYBPC2
TUBB7P
YIPF7
RNU6-66P
PLLP
RF00406
BANF1P5
YAP1P1
ZNF732
AC100843.2
AL731532.1
SPTLC1P3
VASH2
LINC01389
AC104581.1
STK32B
AC068831.1
BCL11A
AL671883.2
AL606490.2
PLPP4
AL590677.1
IGF2BP3
ABCA7
RN7SL567P
AC139453.2
YBX3
PPIAP55
AKR1E2
LINC00555
TRBV12-3
ZNF22
TRBV30
SEMA6A
MIR6129
IRGM
ZRANB2-AS1
LINC02298
NXT2
NDUFA5P4
AC079305.3
HSPE1P4
IGHVII-49-1
SETP20
PGAM5P1
CD24
HPDL
SNRPCP1
HNRNPA1P4
AL132657.1
WDR11-AS1
GTSCR1
AL450063.1
TSPY2
RNU6-520P
AC011840.3
RPL23AP46
AHCYP2
SMIM23
AC093582.1
AL391497.1
IGKV1OR1-1
IGKV2D-24
AC099513.1
IDI2
LINC02294
U2AF1
AL590408.1
TNFRSF13B
AL136307.1
LINC00363
PDE6A
KLRC1
AC124945.1
AC209007.1
AC015911.1
GMCL1P2
KRTAP2-5P
AC068473.1
AL121790.2
HIST1H1PS2
TMEM184A
AC004980.4
TNFRSF1A
SOX30
SEMA6A-AS2
DYNLL1
SEMA6D




































































































































































































































































































































































































































































































































































































































































































































































































































































































































































































































































































































































































































































































































































