x
LINC00927
OBP2B
LINC01893
PAEP
OBP2A
AC103808.3
MIR5007
AC103808.4
ALG1L5P
LINC00954
AC005622.1
KLRC2
AC103808.6
LINC02293
LINC00349
UBQLN1P1
RNU6-347P
RPS29P4
RNA5SP431
CCT2
AC103808.2
GATA6-AS1
RPL23AP75
LINC01561
MIR3663HG
RNU6-523P
RNA5SP204
RNY4P30
IRX5
LINC01801
RNU6-699P
KLRC4-KLRK1
RNU6-609P
RNU2-8P
FCAMR
LINC01323
LCE2C
IGHD5-12
MIR7153
AL161637.1
RNU6-555P
RNY1P8
AC093084.1
IRX3
IGHVII-40-1
RNU6-1047P
ONECUT3
DNAAF5
MIR5692A2
RN7SKP123
FAM90A28P
AL589647.1
AL451054.2
NDUFA5P9
AC092162.3
AC068587.4
PPP1R26-AS1
RNA5SP461
AC022182.2
TLX1
AC097467.4
RNU6-275P
AC018553.1
ELF5
AC068775.1
LINC02507
LINC01230
RNU6-154P
AC022075.2
AC010329.2
U2AF1L5
RNU6-803P
AC006006.1
RN7SL301P
RNU4-15P
LINC01481
ATP5MC1P7
RAX
RN7SKP280
AC069157.1
RNA5SP193
AL606490.3
AC092754.2
AC087664.3
AL133271.1
AL122127.1
AC022075.1
RNU1-148P
AP002791.1
AC013410.2
AC087385.3
AC092375.2
AP000567.1
GRHL3
RNU5F-8P
AC011095.1
AL603832.2
ZNF876P
LINC00958
CDK15
CCNJP1
RNU6-391P
GATA6
RNA5SP64
AC105177.1
AC108475.1
AC114814.1
AC090897.1
AC134684.3
RFC3P1
AL109807.1
MBOAT1
AC108174.1
SLC13A1
METTL21A
MAST2
ASH2LP1
ALKAL2
RNU6-552P
FAM217A
BTG4P1
LCE2B
AC103808.1
AL022722.2
AL353608.3
AC092470.1
GRAMD4P6
AC139453.1
RPLP0P11
IGHD2-15
RN7SL837P
AC005186.1
AL365356.2
LINC02116
PMM2P1
TRAJ13
KIAA1024
KDR
OR7H2P
PSMC1P5
EEF1A1P28
LSP1P2
AC005019.2
DUX4L9
AC109810.1
EI24P3
AC022387.2
KRT16P2
AC009159.4
AC114781.5
RNU6-170P
RNU6-1104P
AC091810.1
RNA5SP380
AC092473.1
RNA5SP190
AL162727.1
AP000770.2
RN7SL156P
SPIN2B
RNU6-163P
AL450472.2
AC079612.2
RNU6-232P
RNU6-947P
LCE4A
AL589843.2
ADPGK-AS1
AC010095.1
FZD10
AL139158.3
RN7SL148P
TCAM1P
AL391987.4
RNU6ATAC28P
MIR3159
AC079140.3
SRI
RN7SL654P
VAT1L
AC100770.1
AC023245.1
HIST1H2APS1
VAX1
AP004607.1
RNA5SP369
SUMO2P4
AC044792.1
RN7SL163P
F11
RN7SL18P
MAN1A2P1
CST2P1
AC106900.1
AC007349.1
RPL23AP61
RNY1P1
BOLA2P1
AC066615.1
C7orf66
RNU6-380P
AC007064.3
AC022075.3
RPL10P17
AC073873.1
AC105105.5
SPIN2A
DMBX1
IGHV4-80
FO624990.1
CRNDE
SYK
AL021879.1
AL596276.2
RNU1-44P
RNU7-157P
LCN1
AC013391.2
TPRKBP1
RPL18AP15
LINC00654
SLC25A6P1
AC244255.1
RF00002
LINC01072
IGLC6
AC114755.2
LINC02459
NPAS1
LINC00857
FABP5P13
MTCO1P17
AC013404.1
RNU6-121P
GLUD1P4
GNAI2P1
AP002992.1
CDKAL1
SIAH1P1
DNM1P46
AC005840.3
AL049874.1
LINC00658
TIMM8BP2
AC079140.5
AC125807.1
AC025035.1
HMGB3P16
ABBA01006766.1
E2F3
ALDOAP1
CSH2
AL359741.1
AC022893.2
KIAA1257
AC068587.1
ABO
RGS3
AC073255.1
IGHV3OR16-7
AL359837.1
MIR378F
AL137026.1
RNU6-525P
AC126177.8
AC021146.4
RNU4-90P
RELL1
RNU6-1018P
RN7SL380P
AC091305.1
BX323845.1
PHB2P1
RNU6-1096P
FAM218BP
AP003072.1
AC106738.1
AC253536.4
AC005262.1
TRBV12-2
AC026954.1
AP001269.2
RRH
KRT8P5
AC243829.2
AC022182.1
PPY
ADAMTS20
AC115115.1
AL355877.1
OR7E53P
AC022748.1
RNU6-693P
AL592436.1
AC008677.2
PCMTD1P7
AL355297.3
C4orf19
RNA5-8SP7
ATP5MC1P8
RRN3P1
AC233296.1
MIR4472-2
ELK1P1
RNU5A-2P
AC084768.2
RNA5SP508
IGHV3-60
RNU1-1
RNU6-175P
ADAM22
VDAC1P10
AC092162.2
AL353613.1
MYBPC2
LINC00886
TUBB7P
AC011979.2
MRPS11P1
YIPF7
RNU6-66P
PLLP
RN7SKP185
VCX3B
AC004012.1
RF00406
AL122018.1
CCKAR
LHX3
AC097486.1
DNAJC10
IGLJ5
RPS23P2
ADH5P4
ATP6V1G1P3
AC104027.1
PHLDB2
BANF1P5
CPA4
IGHD1-14
AC022795.1
TBC1D3E
RSL24D1P1
NAP1L1P3
AC024940.2
YAP1P1
PPIAP85
MPP4
AL133351.4
ZNF732
AC243829.1
MIR552
AC062021.1
LINC01338
UBBP3
AC100843.2
AL731532.1
ENPP7P3
LRP2BP
HPD
SPTLC1P3
AC010424.2
AF274858.1
VASH2
AC105129.2
DHDH
SUV39H1
SLC7A4
AC126755.2
AL353572.2
AP000358.1
MIR320B1
LINC01389
GPRC5A
AL161646.2
RNU6-918P
AC015720.1
TMEM196
DOCK5
RN7SL384P
RNU1-146P
AP003733.2
OR52A1
AC104581.1
STK32B
VPS13A
RPL10P14
GAL
AC068831.1
VCX3A
SPIN3
BCL11A
AP000253.1
AL671883.2
TSPAN1
LINC01849
RNA5SP41
AC140658.5
AL590004.3
AL591926.3
AL590068.1
AL390719.2
SPRR2G
AL512347.1
AL606490.2
AC008154.2
NPM1P47
RN7SKP106
C2orf80
HPX
PLPP4
AL590677.1
IGF2BP3
TLL1
ALPK3
ABCA7
C1orf228
TRAJ24
RN7SL567P
AC139453.2
AC106748.1
CRIP1
AC004522.2
YBX3
PPIAP55
AKR1E2
LINC00555
TRBV12-3
AL022316.1
CLVS2
RPL22P12
AIM2
MIR3912
SKOR2
UTS2
RNU6-487P
LINC02012
RNU2-45P
ZNF22
OR5M7P
TRBV30
AC079779.2
CRYGA
AC126177.4
FZD10-AS1
BEND4
RPL7P6
TRAV24
TRAPPC13P1
UPK3B
CYP27C1
SEMA6A
GBX1
AC105233.4
AC008155.1
MIR6129
AC011944.2
IRGM
Z98885.2
ZRANB2-AS1
TRAJ52
AC126177.2
AC093802.2
AC013489.2
BEGAIN
RPL7L1P5
OR1L8
LINC02298
NXT2
NDUFA5P4
IFNWP2
GOLGA6L2
AC079305.3
AC026471.5
AL935212.1
LINC01233
HSPE1P4
IGHVII-49-1
CBX1P4
AL138902.1
AL355297.4
AP002371.1
AC100812.1
FABP7
SLC46A2
SH3BP1
AC135048.4
SETP20
MTND1P3
PGAM5P1
AC068722.2
CD24
AL132821.1
HPDL
AC083964.2
SNRPCP1
AP005403.1
AC008494.2
RGS9BP
LINC00398
HNRNPA1P4
SYF2P2
OR10D1P
AL132657.1
AC021231.2
WDR11-AS1
GTSCR1
AF228730.5
AL590365.1
AL450063.1
COX6B1P1
OR2B8P
RPL21P108
AC007391.1
TMEM106B
AC243830.3
TSPY2
VHLL
PPM1AP1
FSCN2
MMP21
RNU6-520P
NPM1P39
CBX1P3
AC011840.3
RPL23AP46
VN1R80P
MIR298
TNFRSF18
AC004022.2
AL591926.5
WNT8B
KIAA0895
AC016957.2
AHCYP2
HLA-W
RPS3AP9
MIR4514
SMIM23
C17orf97
AC004552.1
AC093582.1
AL391497.1
NPIPA8
IGKV1OR1-1
AP003355.3
PAEPP1
AC022868.1
AC211433.2
AC007879.4
RPS16P8
RPL21P3
AL121782.1
AC133134.1
RN7SL811P
RPL27AP
HIST1H4PS1
MIR4678
RN7SL338P
AL355864.1
IGKV2D-24
AC099513.1
AC115285.1
PTP4A2P1
SDHAF3
IDI2
AP001005.3
LINC02294
TM4SF1-AS1
HNRNPA1P64
AC008555.5
AC021504.1
RNU6-219P
AC084851.1
RN7SL322P
RNU1-76P
AC105233.5
TLX1NB
AC018553.2
RNA5SP167
AC010329.5
U2AF1
AC005741.1
AC091588.3
AC010616.2
AL590408.1
LINC00939
TNFRSF13B
AL136307.1
LINC00363
MT4
PDE6A
KLRC1
AC111194.2
AC002127.2
AC092053.3
KRT16P1
ZNF965P
AL589843.1
AC124945.1
PNLIPRP1
NUDT7
KRT18P49
RNASE9
AC209007.1
AC007993.2
AC015911.1
LINC01502
LYZL6
DEFB132
AC092112.1
OR4C14P
ARL14EPL
AL035246.1
AL110118.1
GMCL1P2
GAGE10
LRIT3
KRTAP2-5P
AC074286.1
LINC02067
PIGPP3
AC010320.1
CPA5
AC110048.1
AC068473.1
IRGC
AC096582.1
AL121790.2
VEGFC
AC002472.1
AC092807.1
HIST1H1PS2
AP002954.1
AL355076.3
TMEM184A
AC004980.4
TREML5P
TNFRSF1A
CDC14A
SOX30
AP003040.1
SEMA6A-AS2
AC120498.4
DYNLL1
SEMA6D
MALINC1
TP53AIP1
LINC01823
EEF1GP7
AL354793.1
AP003041.1
HIST1H2BPS3
AC134043.1





























































































































































































































































































































































































































































































































































































































































































































































































































































