x
AL137003.1
AL137003.2
PRRC2A
SMIM13
ZNF603P
ABCC10
BRD2
PHF1
MEA1
PHF3
BRPF3
TPMT
EHMT2
CDC5L
BYSL
KLHDC3
SLC35B2
KLC4
LSM2
WDR46
TMEM63B
TAF8
AL035587.1
ATF6B
RNF5
MAD2L1BP
RING1
PBX2
VARS
CUL9
SKIV2L
KDM1B
ZBTB22
NUP153
NELFE
ZKSCAN8
PPP2R5D
WRNIP1
GPANK1
MRPL14
ZNF204P
ZNF184
MRPS18B
TRIM26
PRR3
C6orf62
RXRB
MED20
NFKBIL1
ZSCAN9
DNPH1
PFDN6
CUL7
BEND6
LEMD2
PGBD1
HSP90AB1
DXO
ZNF322
CNPY3
PTK7
TTBK1
ARRB2
STK19
GNMT
ZNF391
FBXO9
LRRC73
GTPBP2
AL021368.2
TNFAIP6
ZKSCAN4
DAXX
VPS52
ATG16L2
FKBPL
HMGN4
HSD17B8
PPARD
TMEM170B
HIVEP1
DDAH2
SYNGAP1
ZSCAN31
PPP1R11
AC096667.1
SLC29A1
ZKSCAN3
PEX6
FLOT1
ZNF192P1
DNAJC12
AL024498.1
TUBB2BP1
FAM187B2P
OR2C1
AL136304.1
KANSL3
ZNF318
ATXN1
RPL7L1
BAG6
C6orf136
POLR1C
UBR2
ZNF76
C6orf106
BICRAL
ACOT13
PFDN2
MUT
HTRA2
WDR54


























































































































































































































































































































































































































































































































































































































































































































































































































































































































































































































































































































































































































































































































































































































