"","Term","Overlap","P.value","Adjusted.P.value","Old.P.value","Old.Adjusted.P.value","Odds.Ratio","Combined.Score","Genes","Overlap_Number"
"1","H3K9ac Muscle Satellite Cultured Cells","90/10073",3.7921776835868e-05,0.0145240405281374,0,0,1.34357535852935,13.6775770286985,"CARS;C11ORF74;MTCH2;CELF1;ARHGAP1;NAT10;LDLRAD3;RRP8;ALKBH3;ZNF408;MDK;SMPD1;TRIM68;TCP11L1;ARFIP2;FBXO3;ACP2;METTL15;HTATIP2;FNBP4;CCDC34;HARBI1;SLC35C1;PRMT3;TALDO1;ZDHHC13;SLC39A13;ATG13;CKAP5;ARFGAP2;IMMP1L;RCN1;DEPDC7;TRAF6;MADD;CRY2;CAT;ANKRD42;NDUFS3;FAR1;NUP98;TOX;FJX1;TSG101;ZNF195;PSMD13;CSTF3;CTR9;MRPL17;DNAJC24;LIN7C;SPTY2D1;PHF21A;NUP160;C4ORF33;STK33;COMMD9;C11ORF49;APBB1;ZBED5;QSER1;TRIM44;PEX16;ZNF143;KDM4D;API5;SAAL1;SCLT1;NR1H3;GTF2H1;HPS5;ELP4;BTBD10;HIPK3;FANCF;TTC17;UEVLD;ABTB2;EXT2;FAM160A2;EIF3M;PPFIBP2;PSMC3;CAPRIN1;MOB2;RBMX;NUCB2;LGR4;C11ORF58;MARK2P9",90
"2","H3K4me3 CD4+ CD25- CD45RO+ Memory Primary Cells","73/7670",7.64280694136482e-05,0.0146359752927136,0,0,1.43121820195861,13.5667470877694,"CARS;C11ORF74;MTCH2;ARHGAP1;NAT10;ALKBH3;ZNF408;MDK;SMPD1;TRIM68;TCP11L1;ARFIP2;FBXO3;ACP2;TEAD1;METTL15;HTATIP2;FNBP4;CCDC34;HARBI1;PRMT3;TALDO1;ZDHHC13;SLC39A13;ATG13;DGKZ;CKAP5;IMMP1L;RCN1;DEPDC7;TRAF6;CRY2;CAT;ANKRD42;NDUFS3;FAR1;TSG101;ZNF195;PSMD13;MRPL17;LIN7C;SPTY2D1;NUP160;C4ORF33;COMMD9;C11ORF49;ZBED5;QSER1;TRIM44;PEX16;ZNF143;RIC3;KDM4D;SAAL1;SCLT1;NR1H3;GTF2H1;HPS5;ELP4;BTBD10;HIPK3;FANCF;UEVLD;ABTB2;EXT2;FAM160A2;PPFIBP2;PSMC3;CAPRIN1;MOB2;NUCB2;LGR4;C11ORF58",73
"3","H3K27ac CD4 Naive Primary Cells","84/9467",0.000166474503516867,0.0212532449489867,0,0,1.33427473828757,11.6090820420637,"CARS;MTCH2;CELF1;ARHGAP1;NAT10;ALKBH3;ZNF408;MDK;SMPD1;TRIM3;TRIM68;TCP11L1;ARFIP2;FBXO3;ACP2;METTL15;HTATIP2;FNBP4;CCDC34;HARBI1;SLC35C1;PRMT3;TALDO1;ZDHHC13;SLC39A13;ATG13;DGKZ;CKAP5;ARFGAP2;IMMP1L;RCN1;TRAF6;MADD;CAT;ANKRD42;NDUFS3;FAR1;NUP98;TOX;PXK;TSG101;ZNF195;PSMD13;CSTF3;CTR9;MRPL17;DNAJC24;LIN7C;SPTY2D1;PHF21A;NUP160;C4ORF33;COMMD9;C11ORF49;APBB1;ZBED5;QSER1;TRIM44;PEX16;ZNF143;KDM4D;API5;SAAL1;SCLT1;NR1H3;GTF2H1;HPS5;ELP4;BTBD10;HIPK3;FANCF;TTC17;UEVLD;ABTB2;EXT2;FAM160A2;EIF3M;PPFIBP2;PSMC3;MOB2;DCHS1;RBMX;NUCB2;C11ORF58",84
"4","H3K27ac H9","60/6048",0.000201524950582805,0.0192960140183036,0,0,1.49182480009548,12.6948283804912,"CARS;MTCH2;CELF1;ARHGAP1;NAT10;CHRDL1;RRP8;ALKBH3;ZNF408;MDK;TRIM3;TCP11L1;ARFIP2;ACP2;TEAD1;METTL15;FNBP4;HARBI1;PRMT3;SLC39A13;ATG13;ARFGAP2;IMMP1L;RCN1;MADD;ANKRD42;NDUFS3;NUP98;TSG101;ZNF195;CSTF3;CTR9;MRPL17;LIN7C;SPTY2D1;PHF21A;NUP160;C4ORF33;COMMD9;CHRNA10;ZBED5;TRIM44;TUB;ZNF143;RIC3;SCLT1;NR1H3;GTF2H1;HPS5;ELP4;HIPK3;FANCF;TTC17;ABTB2;EIF3M;PSMC3;CAPRIN1;RBMX;LGR4;C11ORF58",60
"5","H3K9ac Colon Smooth Muscle","54/5415",0.000480402445477912,0.036798827323608,0,0,1.49959385999625,11.4582262962799,"CARS;C11ORF74;MTCH2;CELF1;LDLRAD3;TRIM68;FBXO3;HTATIP2;CCDC34;HARBI1;PRMT3;ATG13;CKAP5;IMMP1L;DEPDC7;TRAF6;CAT;NDUFS3;FAR1;TOX;ZNF195;PSMD13;CTR9;LRP4;DNAJC24;AMBRA1;LIN7C;SPTY2D1;C4ORF33;STK33;C11ORF49;ZBED5;QSER1;TRIM44;PEX16;ZNF143;KDM4D;SAAL1;SCLT1;NR1H3;GTF2H1;HPS5;ELP4;BTBD10;HIPK3;FANCF;UEVLD;ABTB2;EXT2;FAM160A2;EIF3M;PSMC3;DCHS1;NUCB2",54
"6","H3K9ac H9","83/9682",0.000780518424414017,0.0498230927584281,0,0,1.2891141300887,9.22432346556109,"CARS;C11ORF74;MTCH2;CELF1;ARHGAP1;NAT10;LDLRAD3;CHRDL1;ALKBH3;ZNF408;TRIM68;TCP11L1;ARFIP2;FBXO3;TEAD1;METTL15;HTATIP2;FNBP4;USP47;CCDC34;HARBI1;PRMT3;TALDO1;ZDHHC13;SLC39A13;ATG13;CKAP5;DKK3;ARFGAP2;IMMP1L;RCN1;DEPDC7;TRAF6;CRY2;ANKRD42;NDUFS3;FAR1;NUP98;TOX;TSG101;ZNF195;PSMD13;CSTF3;CTR9;MRPL17;DNAJC24;AMBRA1;LIN7C;SPTY2D1;PHF21A;NUP160;C4ORF33;STK33;COMMD9;C11ORF49;CHRNA10;ZBED5;QSER1;TRIM44;PEX16;ZNF143;RIC3;KDM4D;API5;SCLT1;NR1H3;GTF2H1;HPS5;ELP4;BTBD10;HIPK3;FANCF;TTC17;UEVLD;ABTB2;FAM160A2;EIF3M;PSMC3;MOB2;DCHS1;RBMX;NUCB2;C11ORF58",83
"7","H3K27ac CD8 Memory Primary Cells","66/7225",0.000945172862720808,0.0517144580602957,0,0,1.37367640554674,9.56647854438597,"CARS;MTCH2;CELF1;ARHGAP1;ALKBH3;ZNF408;MDK;SMPD1;TRIM3;TCP11L1;ARFIP2;FBXO3;ACP2;TEAD1;HTATIP2;FNBP4;CCDC34;HARBI1;PRMT3;ZDHHC13;SLC39A13;CKAP5;ARFGAP2;IMMP1L;DEPDC7;TRAF6;MADD;CAT;NDUFS3;FAR1;PXK;TSG101;ZNF195;PSMD13;MRPL17;DNAJC24;LIN7C;SPTY2D1;NUP160;COMMD9;C11ORF49;APBB1;ZBED5;QSER1;TRIM44;PEX16;ZNF143;KDM4D;API5;SAAL1;NR1H3;GTF2H1;HPS5;ELP4;BTBD10;FANCF;TTC17;UEVLD;ABTB2;EXT2;FAM160A2;PPFIBP2;PSMC3;NUCB2;LGR4;C11ORF58",66
"8","H3K4me3 CD4+ CD25+ CD127- Treg Primary Cells","84/9893",0.000980948794073035,0.0469629235162465,0,0,1.27681986731714,8.84451883248979,"CARS;C11ORF74;MTCH2;CELF1;ARHGAP1;NAT10;RRP8;ALKBH3;ZNF408;MDK;SMPD1;TCP11L1;ARFIP2;FBXO3;ACP2;TEAD1;METTL15;HTATIP2;FNBP4;CCDC34;HARBI1;PRMT3;TALDO1;ZDHHC13;SLC39A13;ATG13;DGKZ;CKAP5;MAPK8IP1;IMMP1L;RCN1;DEPDC7;TRAF6;MADD;CRY2;CAT;ANKRD42;NDUFS3;FAR1;PXK;TSG101;ZNF195;PSMD13;CSTF3;CTR9;MRPL17;LRP4;DNAJC24;LIN7C;SPTY2D1;NUP160;C4ORF33;STK33;COMMD9;C11ORF49;APBB1;ZBED5;QSER1;TRIM44;ZNF143;RIC3;KDM4D;API5;SAAL1;NR1H3;GTF2H1;HPS5;ELP4;BTBD10;MT3;HIPK3;FANCF;TTC17;UEVLD;ABTB2;EXT2;FAM160A2;PPFIBP2;PSMC3;DCHS1;RBMX;NUCB2;LGR4;C11ORF58",84
"9","H3K4me3 Pancreatic Islets","77/8861",0.00108316347995325,0.0460946236468994,0,0,1.30673144886819,8.92219163628936,"CARS;C11ORF74;MTCH2;CELF1;ARHGAP1;NAT10;LDLRAD3;RRP8;ALKBH3;ZNF408;TRIM3;TRIM68;TCP11L1;ARFIP2;FBXO3;ACP2;TEAD1;FNBP4;USP47;CCDC34;HARBI1;PRMT3;TALDO1;ZDHHC13;SLC39A13;ATG13;CKAP5;ARFGAP2;RCN1;TRAF6;MADD;CRY2;CAT;ANKRD42;NDUFS3;FAR1;NUP98;FJX1;ZNF195;PSMD13;CSTF3;CTR9;MRPL17;DNAJC24;LIN7C;SPTY2D1;NUP160;C4ORF33;STK33;COMMD9;C11ORF49;APBB1;PEX16;ZNF143;RIC3;KDM4D;SAAL1;SCLT1;NR1H3;GTF2H1;HPS5;BTBD10;HIPK3;FANCF;TTC17;UEVLD;EXT2;FAM160A2;EIF3M;PPFIBP2;PSMC3;CAPRIN1;RBMX;NUCB2;LGR4;C11ORF58;MARK2P9",77
"10","H3K56ac H1","69/7742",0.00134383176368534,0.0514687565491487,0,0,1.34021439545648,8.86180612764769,"CARS;MTCH2;CELF1;ARHGAP1;NAT10;RRP8;ZNF408;MDK;TRIM3;TRIM68;TCP11L1;ARFIP2;ACP2;TEAD1;METTL15;FNBP4;USP47;CCDC34;HARBI1;PRMT3;TALDO1;SLC39A13;ATG13;CKAP5;DKK3;ARFGAP2;IMMP1L;RCN1;TRAF6;MADD;NDUFS3;FAR1;NUP98;TOX;NLGN3;TSG101;PSMD13;CSTF3;CTR9;MRPL17;LIN7C;PRDM11;PHF21A;NUP160;STK33;APBB1;ZBED5;QSER1;TRIM44;PEX16;ZNF143;KDM4D;NR1H3;GTF2H1;HPS5;ELP4;BTBD10;HIPK3;FANCF;TTC17;UEVLD;ABTB2;FAM160A2;EIF3M;PSMC3;CAPRIN1;RBMX;LGR4;C11ORF58",69
"11","H3K56ac IMR90","55/5790",0.00143912172895464,0.0501076020172389,0,0,1.42844157024686,9.34732490306696,"CARS;C11ORF74;MTCH2;CELF1;ARHGAP1;NAT10;ZNF408;TRIM68;ARFIP2;ACP2;FNBP4;USP47;CCDC34;HARBI1;PRMT3;SLC39A13;ATG13;CKAP5;IMMP1L;TRAF6;MADD;CAT;ANKRD42;NDUFS3;TOX;TSG101;PSMD13;CTR9;MRPL17;LIN7C;SPTY2D1;PHF21A;NUP160;C4ORF33;C11ORF49;ZBED5;QSER1;TRIM44;ZNF143;KDM4D;NR1H3;GTF2H1;HPS5;ELP4;BTBD10;HIPK3;FANCF;TTC17;UEVLD;EIF3M;PSMC3;CAPRIN1;RBMX;NUCB2;C11ORF58",55
"12","H3K56ac H9","55/5815",0.00160213929492167,0.0511349458295832,0,0,1.4223003769096,9.15451616809784,"CARS;DNHD1;NAT10;CHRDL1;RRP8;SMPD1;TCP11L1;ARFIP2;ACP2;FNBP4;USP47;HARBI1;PRMT3;TALDO1;SLC39A13;PAX6;ATG13;DKK3;ARFGAP2;TRAF6;MADD;ANKRD42;NDUFS3;TSG101;PSMD13;CSTF3;MRPL17;LIN7C;PRDM11;PHF21A;NUP160;COMMD9;CHRNA10;ZBED5;QSER1;TRIM44;PEX16;TUB;ZNF143;RIC3;NR1H3;GTF2H1;MT3;HIPK3;FANCF;TTC17;UEVLD;ABTB2;EIF3M;PSMC3;CAPRIN1;DCHS1;RBMX;LGR4;C11ORF58",55
"13","H3K4me3 CD4+ CD25int CD127+ Tmem Primary Cells","78/9114",0.00161318495972022,0.0475269107363728,0,0,1.28695669390725,8.27454574264475,"CARS;C11ORF74;MTCH2;CELF1;ARHGAP1;NAT10;ZNF408;MDK;SMPD1;TCP11L1;ARFIP2;FBXO3;ACP2;TEAD1;FNBP4;CCDC34;HARBI1;PRMT3;TALDO1;ZDHHC13;SLC39A13;PAX6;ATG13;DGKZ;CKAP5;IMMP1L;RCN1;DEPDC7;TRAF6;MADD;CRY2;CAT;ANKRD42;NDUFS3;FAR1;PXK;TSG101;ZNF195;PSMD13;CSTF3;CTR9;MRPL17;LRP4;DNAJC24;LIN7C;SPTY2D1;NUP160;C4ORF33;COMMD9;C11ORF49;APBB1;ZBED5;QSER1;TRIM44;PEX16;ZNF143;KDM4D;SAAL1;SCLT1;NR1H3;GTF2H1;ELP4;MT3;HIPK3;FANCF;TTC17;UEVLD;ABTB2;EXT2;FAM160A2;PPFIBP2;PSMC3;MOB2;DCHS1;RBMX;NUCB2;LGR4;C11ORF58",78
"14","H3K23ac IMR90","40/3888",0.00212210617709957,0.0580547618449382,0,0,1.54707757046938,9.52279805023156,"PXK;PSMD13;CELF1;CTR9;ARHGAP1;AMBRA1;LIN7C;PIK3C2A;NUP160;STK33;COMMD9;ZNF408;SMPD1;TRIM3;ARFIP2;QSER1;TRIM44;FNBP4;ZNF143;CCDC34;KDM4D;TALDO1;NR1H3;GTF2H1;ELP4;BTBD10;HIPK3;TTC17;UEVLD;IMMP1L;RCN1;PSMC3;TRAF6;MADD;CAT;ANKRD42;NDUFS3;TOX;RBMX;C11ORF58",40
"15","H3K4me3 CD4+ CD25- IL17+ PMA-Ionomcyin stimulated Th17 Primary Cells","72/8313",0.0022484233042468,0.0574097417017684,0,0,1.30242603983796,7.94157672183904,"CARS;C11ORF74;MTCH2;ARHGAP1;NAT10;ALKBH3;ZNF408;MDK;SMPD1;TRIM68;TCP11L1;ARFIP2;FBXO3;ACP2;TEAD1;HTATIP2;FNBP4;CCDC34;HARBI1;PRMT3;ZDHHC13;SLC39A13;ATG13;DGKZ;CKAP5;MAPK8IP1;IMMP1L;RCN1;DEPDC7;TRAF6;CRY2;ANKRD42;NDUFS3;FAR1;TSG101;ZNF195;MRPL17;LRP4;DNAJC24;LIN7C;C4ORF33;COMMD9;C11ORF49;APBB1;ZBED5;QSER1;TRIM44;PEX16;ZNF143;RIC3;KDM4D;SAAL1;SCLT1;NR1H3;GTF2H1;HPS5;ELP4;BTBD10;MT3;HIPK3;FANCF;TTC17;UEVLD;ABTB2;EXT2;FAM160A2;PPFIBP2;PSMC3;DCHS1;NUCB2;LGR4;C11ORF58",72
"16","H3K4me1 Pancreatic Islets","24/1952",0.00225991334267195,0.0540966756402098,0,0,1.84888450634784,11.2641972335453,"PSMD13;HARBI1;SAAL1;SCLT1;MRPL17;NR1H3;SLC39A13;GTF2H1;HPS5;AMBRA1;SPTY2D1;ATG13;CKAP5;NUP160;FANCF;C4ORF33;ALKBH3;UEVLD;EXT2;STK33;SMPD1;TRIM68;NDUFS3;ACP2",24
"17","H3K4me3 CD8 Naive Primary Cells","94/11714",0.00253726799068295,0.057163155319504,0,0,1.20670465646787,7.21207234679066,"CARS;C11ORF74;MTCH2;CELF1;ARHGAP1;NAT10;LDLRAD3;RRP8;ALKBH3;ZNF408;MDK;SMPD1;TRIM68;TCP11L1;ARFIP2;FBXO3;ACP2;TEAD1;METTL15;HTATIP2;FNBP4;CCDC34;HARBI1;SLC35C1;PRMT3;TALDO1;ZDHHC13;SLC39A13;ATG13;DGKZ;CKAP5;DKK3;MAPK8IP1;IMMP1L;RCN1;DEPDC7;TRAF6;MADD;CAT;ANKRD42;NDUFS3;FAR1;NUP98;TOX;PXK;TSG101;ZNF195;PSMD13;CSTF3;CTR9;MRPL17;LRP4;DNAJC24;LIN7C;SPTY2D1;PHF21A;NUP160;C4ORF33;STK33;COMMD9;C11ORF49;APBB1;ZBED5;QSER1;TRIM44;PEX16;ZNF143;RIC3;KDM4D;API5;SAAL1;SCLT1;NR1H3;GTF2H1;HPS5;ELP4;BTBD10;MT3;HIPK3;FANCF;TTC17;UEVLD;ABTB2;EXT2;FAM160A2;EIF3M;PPFIBP2;PSMC3;CAPRIN1;MOB2;DCHS1;RBMX;LGR4;C11ORF58",94
"18","H3K4me3 CD4 Memory Primary Cells","82/9903",0.00315164861163717,0.0670600787920575,0,0,1.24516076619905,7.17191383079034,"CARS;C11ORF74;MTCH2;CELF1;ARHGAP1;NAT10;LDLRAD3;ALKBH3;ZNF408;MDK;SMPD1;TRIM68;TCP11L1;ARFIP2;FBXO3;ACP2;TEAD1;METTL15;FNBP4;CCDC34;HARBI1;PRMT3;TALDO1;ZDHHC13;SLC39A13;ATG13;DGKZ;CKAP5;ARFGAP2;IMMP1L;RCN1;DEPDC7;TRAF6;CRY2;CAT;ANKRD42;NDUFS3;FAR1;PXK;TSG101;ZNF195;PSMD13;CTR9;MRPL17;LRP4;DNAJC24;LIN7C;SPTY2D1;NUP160;C4ORF33;COMMD9;C11ORF49;ZBED5;QSER1;TRIM44;PEX16;ZNF143;RIC3;KDM4D;API5;SAAL1;SCLT1;NR1H3;GTF2H1;HPS5;ELP4;BTBD10;MT3;HIPK3;FANCF;TTC17;UEVLD;ABTB2;EXT2;FAM160A2;EIF3M;PPFIBP2;PSMC3;MOB2;NUCB2;LGR4;C11ORF58",82
"19","H3K9ac Mesenchymal Stem Cell Derived Adipocyte Cultured Cells","69/8064",0.0044647022192118,0.0899989973662169,0,0,1.28669889008235,6.96303892876055,"C11ORF74;CELF1;LDLRAD3;ALKBH3;MDK;SMPD1;TRIM68;TCP11L1;ARFIP2;FBXO3;ACP2;METTL15;FNBP4;USP47;CCDC34;HARBI1;PRMT3;ZDHHC13;SLC39A13;ATG13;CKAP5;DKK3;IMMP1L;RCN1;DEPDC7;TRAF6;CAT;FAR1;NUP98;FJX1;NLGN3;ZNF195;CTR9;MRPL17;LRP4;DNAJC24;AMBRA1;LIN7C;SPTY2D1;NUP160;C4ORF33;STK33;COMMD9;C11ORF49;APBB1;ZBED5;QSER1;TRIM44;PEX16;ZNF143;API5;SAAL1;SCLT1;NR1H3;ELP4;BTBD10;HIPK3;FANCF;TTC17;UEVLD;ABTB2;EXT2;FAM160A2;PPFIBP2;PSMC3;RBMX;NUCB2;C11ORF58;MARK2P9",69
"20","H4K5ac H1","80/9702",0.00449456979787734,0.0860710116293511,0,0,1.23995827540403,6.70183228318334,"C11ORF74;MTCH2;CELF1;ARHGAP1;NAT10;LDLRAD3;CHRDL1;ZNF408;MDK;TRIM3;TRIM68;TCP11L1;ARFIP2;FBXO3;TEAD1;METTL15;HTATIP2;FNBP4;USP47;CCDC34;HARBI1;SLC35C1;PRMT3;TALDO1;ZDHHC13;SLC39A13;ATG13;CKAP5;DKK3;ARFGAP2;IMMP1L;RCN1;TRAF6;MADD;CAT;ANKRD42;NDUFS3;FAR1;NUP98;TSG101;ZNF195;PSMD13;CSTF3;CTR9;MRPL17;DNAJC24;LIN7C;SPTY2D1;PHF21A;NUP160;C4ORF33;STK33;C11ORF49;APBB1;ZBED5;TRIM44;ZNF143;RIC3;KDM4D;API5;SAAL1;NR1H3;GTF2H1;HPS5;ELP4;BTBD10;HIPK3;FANCF;TTC17;UEVLD;ABTB2;FAM160A2;EIF3M;PPFIBP2;PSMC3;CAPRIN1;RBMX;NUCB2;C11ORF58;MARK2P9",80
"21","H3K4me3 CD4+ CD25- Th Primary Cells","83/10187",0.00493674810208231,0.0900368820522631,0,0,1.22520889442611,6.50714379167196,"C11ORF74;MTCH2;CELF1;ARHGAP1;NAT10;LDLRAD3;ALKBH3;ZNF408;MDK;SMPD1;TCP11L1;ARFIP2;FBXO3;ACP2;TEAD1;METTL15;FNBP4;CCDC34;HARBI1;PRMT3;TALDO1;ZDHHC13;ATG13;DGKZ;CKAP5;DKK3;MAPK8IP1;IMMP1L;RCN1;DEPDC7;TRAF6;MADD;CRY2;CAT;ANKRD42;NDUFS3;FAR1;FJX1;TSG101;ZNF195;PSMD13;CSTF3;CTR9;MRPL17;LRP4;DNAJC24;LIN7C;SPTY2D1;PHF21A;NUP160;C4ORF33;STK33;COMMD9;C11ORF49;APBB1;ZBED5;QSER1;TRIM44;PEX16;ZNF143;RIC3;KDM4D;API5;SAAL1;NR1H3;GTF2H1;HPS5;ELP4;BTBD10;MT3;FANCF;TTC17;UEVLD;ABTB2;EXT2;FAM160A2;EIF3M;PPFIBP2;PSMC3;MOB2;DCHS1;RBMX;LGR4",83
"22","H3K4me3 Treg Primary Cells","63/7231",0.0050387289641585,0.0877196906033048,0,0,1.31014855628908,6.93147381015889,"CARS;C11ORF74;MTCH2;ARHGAP1;NAT10;ALKBH3;ZNF408;MDK;SMPD1;TRIM68;TCP11L1;ARFIP2;ACP2;TEAD1;FNBP4;CCDC34;HARBI1;TALDO1;ZDHHC13;CKAP5;MAPK8IP1;ARFGAP2;IMMP1L;RCN1;TRAF6;CAT;ANKRD42;NDUFS3;FAR1;NUP98;PXK;TSG101;ZNF195;PSMD13;MRPL17;LIN7C;SPTY2D1;C4ORF33;STK33;COMMD9;C11ORF49;APBB1;ZBED5;PEX16;ZNF143;RIC3;KDM4D;SAAL1;SCLT1;NR1H3;GTF2H1;HPS5;ELP4;BTBD10;TTC17;UEVLD;EXT2;FAM160A2;PPFIBP2;PSMC3;MOB2;NUCB2;LGR4",63
"23","H3K4me1 Muscle Satellite Cultured Cells","64/7385",0.00522998311680247,0.0870905884232759,0,0,1.30319027087013,6.84611099840752,"MTCH2;CELF1;NAT10;LDLRAD3;ALKBH3;MDK;SMPD1;TRIM3;TRIM68;ARFIP2;FBXO3;ACP2;TEAD1;METTL15;HTATIP2;FNBP4;USP47;CCDC34;HARBI1;PRMT3;TALDO1;ZDHHC13;ATG13;DGKZ;CKAP5;DEPDC7;TRAF6;MADD;ANKRD42;NUP98;NLGN3;PXK;TSG101;ZNF195;PSMD13;CSTF3;MRPL17;LRP4;DNAJC24;AMBRA1;SPTY2D1;NUP160;C4ORF33;COMMD9;C11ORF49;APBB1;TRIM44;PEX16;ZNF143;SAAL1;SCLT1;NR1H3;BTBD10;MT3;HIPK3;FANCF;TTC17;UEVLD;ABTB2;EXT2;PPFIBP2;NUCB2;LGR4;MARK2P9",64
"24","H3K4me3 CD4+ CD25- CD45RA+ Naive Primary Cells","83/10247",0.00601866712899211,0.0960478962668325,0,0,1.21803484019897,6.22767748579323,"CARS;C11ORF74;MTCH2;CELF1;ARHGAP1;NAT10;ALKBH3;ZNF408;MDK;SMPD1;TCP11L1;ARFIP2;FBXO3;ACP2;TEAD1;METTL15;FNBP4;CCDC34;HARBI1;PRMT3;ZDHHC13;PAX6;ATG13;DGKZ;CKAP5;DKK3;MAPK8IP1;IMMP1L;RCN1;TRAF6;CRY2;CAT;ANKRD42;NDUFS3;FAR1;NUP98;TOX;PXK;TSG101;ZNF195;PSMD13;CSTF3;CTR9;MRPL17;DNAJC24;LIN7C;SPTY2D1;PHF21A;NUP160;C4ORF33;COMMD9;C11ORF49;ZBED5;QSER1;TRIM44;PEX16;ZNF143;RIC3;KDM4D;API5;SAAL1;SCLT1;NR1H3;GTF2H1;HPS5;ELP4;BTBD10;MT3;HIPK3;FANCF;TTC17;UEVLD;ABTB2;EXT2;FAM160A2;EIF3M;PPFIBP2;PSMC3;CAPRIN1;DCHS1;RBMX;LGR4;C11ORF58",83
"25","H3K23me2 H1","83/10263",0.00634057557548008,0.0971376178163549,0,0,1.21613592590069,6.15460333938977,"CARS;C11ORF74;MTCH2;CELF1;ARHGAP1;DNHD1;NAT10;LDLRAD3;ARHGAP36;CHRDL1;RRP8;ALKBH3;ZNF408;MDK;SMPD1;TCP11L1;ARFIP2;FBXO3;TEAD1;METTL15;HTATIP2;USP47;CCDC34;PRMT3;TALDO1;ZDHHC13;SLC39A13;DGKZ;CKAP5;DKK3;MAPK8IP1;IMMP1L;DEPDC7;TRAF6;CRY2;ANKRD42;NDUFS3;FAR1;TOX;FJX1;NLGN3;PXK;TSG101;PSMD13;CTR9;MRPL17;LRP4;DNAJC24;LIN7C;SPTY2D1;PHF21A;NUP160;C4ORF33;STK33;COMMD9;C11ORF49;APBB1;ZBED5;TRIM44;PEX16;RIC3;API5;SAAL1;SCLT1;NR1H3;GTF2H1;HPS5;ELP4;BTBD10;MT3;HIPK3;FANCF;TTC17;UEVLD;ABTB2;EXT2;EIF3M;PPFIBP2;PSMC3;DCHS1;NUCB2;C11ORF58;MARK2P9",83
"26","H3K4me3 CD4 Naive Primary Cells","80/9819",0.00662282238284066,0.097559268177999,0,0,1.22518333720032,6.14703107671071,"CARS;C11ORF74;MTCH2;CELF1;ARHGAP1;NAT10;RRP8;ALKBH3;ZNF408;MDK;SMPD1;TRIM68;TCP11L1;ARFIP2;FBXO3;ACP2;TEAD1;METTL15;FNBP4;CCDC34;HARBI1;PRMT3;TALDO1;ZDHHC13;SLC39A13;PAX6;ATG13;DGKZ;CKAP5;MAPK8IP1;IMMP1L;DEPDC7;TRAF6;CRY2;CAT;ANKRD42;NDUFS3;FAR1;FJX1;PXK;TSG101;ZNF195;PSMD13;CSTF3;MRPL17;LRP4;DNAJC24;LIN7C;SPTY2D1;PHF21A;NUP160;C4ORF33;STK33;COMMD9;C11ORF49;QSER1;PEX16;ZNF143;RIC3;KDM4D;SAAL1;SCLT1;NR1H3;GTF2H1;HPS5;ELP4;BTBD10;MT3;HIPK3;FANCF;TTC17;UEVLD;ABTB2;EXT2;FAM160A2;EIF3M;PPFIBP2;PSMC3;RBMX;LGR4",80
"27","H3K9ac Bone Marrow Derived Mesenchymal Stem Cell Cultured Cells","63/7328",0.00705702774825044,0.100105245465923,0,0,1.29280625143645,6.40421481190808,"CARS;C11ORF74;MTCH2;CELF1;LDLRAD3;SMPD1;TRIM3;TRIM68;TCP11L1;ARFIP2;FBXO3;ACP2;METTL15;HTATIP2;FNBP4;CCDC34;HARBI1;TALDO1;ZDHHC13;ATG13;CKAP5;IMMP1L;RCN1;TRAF6;MADD;CAT;ANKRD42;NDUFS3;FAR1;NUP98;FJX1;TSG101;ZNF195;PSMD13;CTR9;MRPL17;LRP4;DNAJC24;LIN7C;SPTY2D1;PHF21A;C4ORF33;COMMD9;APBB1;ZBED5;QSER1;TRIM44;ZNF143;KDM4D;SAAL1;SCLT1;NR1H3;HPS5;ELP4;FANCF;UEVLD;ABTB2;EXT2;FAM160A2;PPFIBP2;PSMC3;RBMX;NUCB2",63
"28","H3K14ac H9","68/8069",0.00745793148233545,0.102013848490517,0,0,1.26726532529117,6.20767028252546,"C11ORF74;MTCH2;CELF1;ARHGAP1;NAT10;CHRDL1;ZNF408;TRIM3;TRIM68;TCP11L1;ARFIP2;TEAD1;HTATIP2;FNBP4;CCDC34;HARBI1;PRMT3;ZDHHC13;SLC39A13;ATG13;CKAP5;DKK3;MAPK8IP1;ARFGAP2;IMMP1L;RCN1;TRAF6;CAT;ANKRD42;NDUFS3;FAR1;TOX;TSG101;ZNF195;PSMD13;CSTF3;CTR9;MRPL17;LIN7C;SPTY2D1;PHF21A;NUP160;C4ORF33;STK33;COMMD9;APBB1;ZBED5;QSER1;TRIM44;ZNF143;KDM4D;API5;SCLT1;NR1H3;BBOX1;GTF2H1;ELP4;BTBD10;FANCF;TTC17;UEVLD;FAM160A2;PPFIBP2;PSMC3;CAPRIN1;RBMX;NUCB2;C11ORF58",68
"29","H3K4me1 CD4+ CD25- CD45RO+ Memory Primary Cells","42/4462",0.00838890184152265,0.110791358803558,0,0,1.41546155842318,6.76710324288188,"PXK;TSG101;PSMD13;CELF1;MRPL17;NAT10;AMBRA1;PIK3C2A;ALKBH3;SMPD1;TRIM3;TRIM68;C11ORF49;ARFIP2;FBXO3;ACP2;APBB1;HTATIP2;FNBP4;PEX16;USP47;CCDC34;PRMT3;SAAL1;ZDHHC13;NR1H3;SLC39A13;BTBD10;MAPK8IP1;FANCF;TTC17;UEVLD;EXT2;RCN1;DEPDC7;CAPRIN1;TRAF6;MADD;CRY2;CAT;DCHS1;NUCB2",42
"30","H3K27ac Brain Mid Frontal Lobe","44/4731",0.00841649751427955,0.107450618265636,0,0,1.39855027549851,6.6816599652442,"C11ORF74;TSG101;PSMD13;CTR9;DNAJC24;PRR5L;LIN7C;PRDM11;SPTY2D1;NUP160;C4ORF33;ALKBH3;TRIM68;TCP11L1;C11ORF49;FBXO3;ZBED5;QSER1;TRIM44;FNBP4;ZNF143;RIC3;CCDC34;KDM4D;PRMT3;SAAL1;SCLT1;GTF2H1;HPS5;ELP4;BTBD10;TTC17;UEVLD;IMMP1L;RCN1;DEPDC7;EIF3M;CAPRIN1;CAT;ANKRD42;NUP98;FJX1;RBMX;NUCB2",44
"31","H3K4me3 Stomach Mucosa","72/8709",0.00881316304375646,0.108885207927701,0,0,1.24320446310402,5.88223295020136,"CARS;C11ORF74;MTCH2;CELF1;ARHGAP1;NAT10;LDLRAD3;ALKBH3;ZNF408;SMPD1;TRIM68;FBXO3;TEAD1;FNBP4;HARBI1;SLC35C1;PRMT3;TALDO1;ZDHHC13;SLC39A13;PAX6;CKAP5;ARFGAP2;IMMP1L;DEPDC7;TRAF6;CRY2;CAT;ANKRD42;NDUFS3;PXK;TSG101;ZNF195;PSMD13;CTR9;MRPL17;DNAJC24;LIN7C;SPTY2D1;PHF21A;NUP160;C4ORF33;STK33;APBB1;ZBED5;QSER1;TRIM44;ZNF143;RIC3;KDM4D;API5;SAAL1;SCLT1;NR1H3;GTF2H1;HPS5;ELP4;BTBD10;HIPK3;FANCF;TTC17;UEVLD;ABTB2;EXT2;FAM160A2;EIF3M;PPFIBP2;PSMC3;CAPRIN1;RBMX;NUCB2;MARK2P9",72
"32","H3K27ac CD4 Memory Primary Cells","78/9606",0.00881394170913971,0.105491864831266,0,0,1.22104136042793,5.77726015585324,"CARS;MTCH2;ARHGAP1;NAT10;ALKBH3;ZNF408;MDK;SMPD1;TRIM3;TRIM68;TCP11L1;ARFIP2;FBXO3;ACP2;TEAD1;HTATIP2;FNBP4;CCDC34;HARBI1;PRMT3;TALDO1;ZDHHC13;ATG13;DGKZ;CKAP5;ARFGAP2;IMMP1L;RCN1;DEPDC7;TRAF6;MADD;CAT;ANKRD42;NDUFS3;FAR1;TSG101;ZNF195;PSMD13;CSTF3;CTR9;MRPL17;DNAJC24;LIN7C;SPTY2D1;NUP160;C4ORF33;COMMD9;C11ORF49;CHRNA10;APBB1;ZBED5;QSER1;TRIM44;PEX16;ZNF143;RIC3;KDM4D;SAAL1;SCLT1;NR1H3;GTF2H1;HPS5;ELP4;BTBD10;HIPK3;FANCF;TTC17;UEVLD;ABTB2;EXT2;FAM160A2;EIF3M;PPFIBP2;PSMC3;CAPRIN1;NUCB2;LGR4;C11ORF58",78
"33","H3K27ac iPS DF 6.9","28/2682",0.00956363807121491,0.110996163068949,0,0,1.56992032654343,7.29979523988826,"TSG101;PSMD13;CELF1;CSTF3;CTR9;ARHGAP1;MRPL17;NAT10;LIN7C;PRDM11;SPTY2D1;ZNF408;RDH16;TRIM68;TCP11L1;ZBED5;FNBP4;ZNF143;USP47;RIC3;HARBI1;PRMT3;TALDO1;ATG13;FANCF;UEVLD;CAPRIN1;NDUFS3",28
"34","H3K27ac CD4+ CD25int CD127+ Tmem Primary Cells","61/7140",0.00982488530783606,0.110674443320624,0,0,1.28472441608222,5.93907130183981,"MTCH2;ARHGAP1;NAT10;ALKBH3;ZNF408;MDK;SMPD1;TRIM68;TCP11L1;ARFIP2;FBXO3;ACP2;HTATIP2;FNBP4;CCDC34;HARBI1;PRMT3;TALDO1;ZDHHC13;ATG13;DGKZ;CKAP5;ARFGAP2;IMMP1L;RCN1;TRAF6;CAT;FAR1;TOX;PXK;TSG101;ZNF195;PSMD13;CSTF3;DNAJC24;LIN7C;SPTY2D1;C4ORF33;COMMD9;C11ORF49;APBB1;ZBED5;QSER1;TRIM44;ZNF143;KDM4D;SCLT1;NR1H3;GTF2H1;HPS5;ELP4;BTBD10;HIPK3;UEVLD;ABTB2;EXT2;FAM160A2;PPFIBP2;MOB2;NUCB2;C11ORF58",61
"35","H3K4me3 iPS DF 6.9","100/13090",0.00999521279299742,0.109376185706229,0,0,1.14878487280079,5.29089992511265,"CARS;C11ORF74;MTCH2;DNHD1;LDLRAD3;ARHGAP36;RRP8;ALKBH3;ARFIP2;FBXO3;FNBP4;HARBI1;TALDO1;ATG13;DGKZ;DKK3;MAPK8IP1;MADD;ANKRD42;FAR1;NUP98;TOX;PXK;TSG101;PSMD13;CTR9;MRPL17;DNAJC24;LIN7C;PHF21A;NUP160;STK33;COMMD9;ZBED5;QSER1;ZNF143;API5;HPS5;BTBD10;MT3;FANCF;UEVLD;ABTB2;EXT2;FAM160A2;PPFIBP2;CAPRIN1;MOB2;DCHS1;MARK2P9;CELF1;ARHGAP1;NAT10;CHRDL1;ZNF408;MDK;SMPD1;TRIM68;TCP11L1;ACP2;TEAD1;METTL15;HTATIP2;USP47;CCDC34;PRMT3;ZDHHC13;SLC39A13;CKAP5;IMMP1L;RCN1;DEPDC7;TRAF6;CRY2;CAT;NDUFS3;FJX1;NLGN3;ZNF195;LRP4;SPTY2D1;C4ORF33;C11ORF49;APBB1;TRIM44;RIC3;KDM4D;SAAL1;SCLT1;NR1H3;GTF2H1;ELP4;HIPK3;TTC17;EIF3M;PSMC3;RBMX;NUCB2;LGR4;C11ORF58",100
"36","H3K4me3 H1 Derived Mesenchymal Stem Cells","99/12936",0.0102667129159069,0.109226417966454,0,0,1.15083627435937,5.26950480230712,"CARS;C11ORF74;MTCH2;LDLRAD3;RRP8;ALKBH3;ARFIP2;FBXO3;FNBP4;HARBI1;TALDO1;ATG13;DGKZ;DKK3;MAPK8IP1;MADD;ANKRD42;FAR1;NUP98;TOX;PXK;TSG101;PSMD13;CSTF3;CTR9;MRPL17;DNAJC24;LIN7C;PHF21A;NUP160;STK33;COMMD9;RDH16;ZBED5;QSER1;ZNF143;API5;HPS5;BTBD10;MT3;FANCF;UEVLD;ABTB2;EXT2;FAM160A2;PPFIBP2;CAPRIN1;DCHS1;MARK2P9;CELF1;ARHGAP1;NAT10;CHRDL1;ZNF408;SMPD1;TRIM68;TCP11L1;ACP2;TEAD1;METTL15;HTATIP2;USP47;CCDC34;PRMT3;ZDHHC13;SLC39A13;CKAP5;IMMP1L;RCN1;DEPDC7;TRAF6;CRY2;CAT;NDUFS3;FJX1;NLGN3;ZNF195;LRP4;SPTY2D1;C4ORF33;C11ORF49;APBB1;TRIM44;PEX16;RIC3;KDM4D;SAAL1;SCLT1;NR1H3;GTF2H1;ELP4;HIPK3;TTC17;EIF3M;PSMC3;RBMX;NUCB2;LGR4;C11ORF58",99
"37","H3K4me3 Rectal Smooth Muscle","77/9519",0.0107399165936302,0.111172650144875,0,0,1.21640375758179,5.51491670562097,"CARS;C11ORF74;MTCH2;CELF1;ARHGAP1;DNHD1;NAT10;LDLRAD3;ALKBH3;ZNF408;MDK;SMPD1;TRIM68;ARFIP2;FBXO3;FNBP4;CCDC34;HARBI1;SLC35C1;PRMT3;TALDO1;ZDHHC13;ATG13;DGKZ;CKAP5;MAPK8IP1;IMMP1L;RCN1;DEPDC7;TRAF6;CAT;ANKRD42;NDUFS3;FAR1;FJX1;NLGN3;TSG101;ZNF195;PSMD13;CTR9;MRPL17;DNAJC24;LIN7C;SPTY2D1;NUP160;C4ORF33;STK33;COMMD9;C11ORF49;APBB1;ZBED5;QSER1;TRIM44;PEX16;ZNF143;RIC3;KDM4D;API5;SAAL1;SCLT1;NR1H3;GTF2H1;HPS5;ELP4;BTBD10;MT3;FANCF;TTC17;UEVLD;ABTB2;EXT2;FAM160A2;EIF3M;PPFIBP2;PSMC3;NUCB2;MARK2P9",77
"38","H3K27ac H1","73/8921",0.010757973642645,0.10842905013508,0,0,1.23051716276455,5.5768367576803,"MTCH2;CELF1;ARHGAP1;NAT10;LDLRAD3;RRP8;ZNF408;MDK;TRIM68;TCP11L1;ARFIP2;FBXO3;TEAD1;METTL15;HTATIP2;FNBP4;USP47;CCDC34;HARBI1;PRMT3;ZDHHC13;SLC39A13;ATG13;DGKZ;CKAP5;DKK3;ARFGAP2;IMMP1L;RCN1;DEPDC7;TRAF6;CRY2;CAT;ANKRD42;NDUFS3;FAR1;TOX;FJX1;TSG101;PSMD13;CTR9;MRPL17;DNAJC24;LIN7C;SPTY2D1;NUP160;STK33;C11ORF49;APBB1;ZBED5;QSER1;TRIM44;ZNF143;KDM4D;API5;SAAL1;NR1H3;GTF2H1;HPS5;ELP4;BTBD10;HIPK3;FANCF;UEVLD;ABTB2;EXT2;FAM160A2;PPFIBP2;PSMC3;RBMX;NUCB2;LGR4;C11ORF58",73
"39","H3K4me3 iPS DF 19.11","103/13632",0.0117313394437589,0.115207769409222,0,0,1.13620318401638,5.05098152098428,"CARS;C11ORF74;MTCH2;DNHD1;LDLRAD3;ARHGAP36;RRP8;ALKBH3;ARFIP2;FBXO3;FNBP4;HARBI1;TALDO1;ATG13;DGKZ;DKK3;MAPK8IP1;MADD;ANKRD42;FAR1;NUP98;TOX;PXK;TSG101;PSMD13;CSTF3;CTR9;MRPL17;DNAJC24;LIN7C;PHF21A;NUP160;STK33;COMMD9;ZBED5;QSER1;ZNF143;API5;HPS5;BTBD10;MT3;FANCF;UEVLD;ABTB2;EXT2;FAM160A2;PPFIBP2;CAPRIN1;MOB2;DCHS1;MARK2P9;CELF1;ARHGAP1;NAT10;CHRDL1;ZNF408;MDK;SMPD1;TRIM68;TCP11L1;ACP2;TEAD1;METTL15;HTATIP2;USP47;CCDC34;PRMT3;ZDHHC13;SLC39A13;PAX6;CKAP5;ARFGAP2;IMMP1L;RCN1;DEPDC7;TRAF6;CRY2;CAT;NDUFS3;FJX1;NLGN3;LRP4;SPTY2D1;C4ORF33;C11ORF49;APBB1;TRIM44;PEX16;RIC3;KDM4D;SAAL1;SCLT1;NR1H3;GTF2H1;ELP4;HIPK3;TTC17;EIF3M;PSMC3;RBMX;NUCB2;LGR4;C11ORF58",103
"40","H3K4me3 H1 BMP4 Derived Mesendoderm Cultured Cells","90/11547",0.011802628029704,0.113010163384416,0,0,1.17206500272505,5.20330411913571,"CARS;C11ORF74;MTCH2;CELF1;ARHGAP1;NAT10;CHRDL1;RRP8;ALKBH3;ZNF408;MDK;SMPD1;TRIM68;TCP11L1;ARFIP2;FBXO3;ACP2;TEAD1;METTL15;HTATIP2;FNBP4;USP47;CCDC34;HARBI1;PRMT3;TALDO1;ZDHHC13;SLC39A13;ATG13;DGKZ;MAPK8IP1;IMMP1L;RCN1;DEPDC7;TRAF6;CRY2;CAT;ANKRD42;NDUFS3;FAR1;NUP98;TOX;FJX1;NLGN3;PXK;TSG101;PSMD13;CSTF3;CTR9;LRP4;DNAJC24;LIN7C;SPTY2D1;PHF21A;NUP160;STK33;COMMD9;RDH16;C11ORF49;APBB1;ZBED5;QSER1;PEX16;ZNF143;RIC3;KDM4D;API5;SAAL1;NR1H3;GTF2H1;HPS5;ELP4;BTBD10;HIPK3;FANCF;TTC17;UEVLD;ABTB2;EXT2;FAM160A2;EIF3M;PPFIBP2;PSMC3;CAPRIN1;MOB2;DCHS1;RBMX;NUCB2;LGR4;C11ORF58",90
"41","H4K5ac H9","47/5240",0.0122230009427124,0.114180716123387,0,0,1.34879182689548,5.94066698088339,"ZNF195;CELF1;CSTF3;ARHGAP1;MRPL17;NAT10;PRR5L;LIN7C;PIK3C2A;CHRDL1;RRP8;NUP160;STK33;ZNF408;TRIM68;TCP11L1;ZBED5;TRIM44;FNBP4;PEX16;TUB;ZNF143;RIC3;HARBI1;PRMT3;NR1H3;SLC39A13;GTF2H1;HPS5;ATG13;DGKZ;HIPK3;DKK3;FANCF;ARFGAP2;TTC17;ABTB2;RCN1;EIF3M;PSMC3;CAPRIN1;ANKRD42;NUP98;TOX;FJX1;RBMX;C11ORF58",47
"42","H3K9ac Duodenum Mucosa","75/9271",0.012588337182897,0.114793646215466,0,0,1.216502587501,5.32217998165612,"CARS;C11ORF74;MTCH2;CELF1;ARHGAP1;NAT10;LDLRAD3;ALKBH3;ZNF408;MDK;SMPD1;TRIM68;TCP11L1;ARFIP2;FBXO3;METTL15;FNBP4;CCDC34;HARBI1;SLC35C1;PRMT3;TALDO1;ATG13;CKAP5;ARFGAP2;IMMP1L;RCN1;DEPDC7;TRAF6;CAT;ANKRD42;NDUFS3;FAR1;TSG101;ZNF195;PSMD13;CTR9;MRPL17;DNAJC24;AMBRA1;LIN7C;SPTY2D1;NUP160;C4ORF33;STK33;COMMD9;C11ORF49;APBB1;ZBED5;QSER1;TRIM44;PEX16;ZNF143;RIC3;KDM4D;SAAL1;SCLT1;NR1H3;GTF2H1;HPS5;ELP4;BTBD10;FANCF;TTC17;UEVLD;ABTB2;EXT2;FAM160A2;EIF3M;PPFIBP2;PSMC3;DCHS1;RBMX;NUCB2;C11ORF58",75
"43","H3K4me3 Breast vHMEC","80/10027",0.0126544011394799,0.112712456660949,0,0,1.19976814480602,5.24268710050141,"CARS;C11ORF74;MTCH2;ARHGAP1;NAT10;LDLRAD3;ALKBH3;ZNF408;SMPD1;TRIM3;TRIM68;TCP11L1;ARFIP2;FBXO3;ACP2;METTL15;HTATIP2;FNBP4;USP47;CCDC34;HARBI1;PRMT3;TALDO1;ZDHHC13;SLC39A13;ATG13;CKAP5;DKK3;MAPK8IP1;IMMP1L;DEPDC7;TRAF6;MADD;CRY2;CAT;ANKRD42;NDUFS3;FAR1;NUP98;TOX;PXK;TSG101;ZNF195;PSMD13;CSTF3;CTR9;MRPL17;LRP4;DNAJC24;LIN7C;SPTY2D1;PHF21A;NUP160;C4ORF33;STK33;COMMD9;C11ORF49;APBB1;ZBED5;QSER1;TRIM44;ZNF143;RIC3;KDM4D;API5;SAAL1;NR1H3;GTF2H1;HPS5;ELP4;BTBD10;FANCF;UEVLD;ABTB2;EXT2;FAM160A2;PPFIBP2;PSMC3;NUCB2;C11ORF58",80
"44","H3K4me3 CD34 Cultured Cells","78/9748",0.0135936293524343,0.118326364590508,0,0,1.20325434020011,5.17177248657988,"CARS;MTCH2;CELF1;ARHGAP1;NAT10;LDLRAD3;ALKBH3;ZNF408;MDK;SMPD1;TRIM68;TCP11L1;ARFIP2;FBXO3;ACP2;TEAD1;METTL15;HTATIP2;FNBP4;CCDC34;HARBI1;PRMT3;TALDO1;ZDHHC13;SLC39A13;ATG13;DGKZ;CKAP5;MAPK8IP1;IMMP1L;RCN1;DEPDC7;TRAF6;CRY2;ANKRD42;NDUFS3;FAR1;TSG101;ZNF195;PSMD13;CSTF3;CTR9;MRPL17;LRP4;DNAJC24;LIN7C;SPTY2D1;PHF21A;NUP160;C4ORF33;STK33;COMMD9;C11ORF49;APBB1;ZBED5;QSER1;TRIM44;PEX16;ZNF143;KDM4D;SAAL1;NR1H3;GTF2H1;HPS5;ELP4;BTBD10;MT3;HIPK3;FANCF;TTC17;UEVLD;ABTB2;EXT2;FAM160A2;PPFIBP2;PSMC3;NUCB2;LGR4",78
"45","H3K27ac Mobilized CD34 Primary Cells","75/9300",0.0137297583359426,0.116855498725912,0,0,1.21270919233568,5.2003270197995,"CARS;C11ORF74;MTCH2;CELF1;ARHGAP1;NAT10;ALKBH3;ZNF408;SMPD1;TRIM68;TCP11L1;ARFIP2;FBXO3;METTL15;HTATIP2;FNBP4;CCDC34;HARBI1;PRMT3;ZDHHC13;SLC39A13;ATG13;CKAP5;ARFGAP2;IMMP1L;RCN1;TRAF6;MADD;CRY2;CAT;ANKRD42;NDUFS3;FAR1;TOX;TSG101;ZNF195;PSMD13;CSTF3;CTR9;MRPL17;DNAJC24;LIN7C;PRDM11;SPTY2D1;PHF21A;NUP160;C4ORF33;COMMD9;C11ORF49;APBB1;ZBED5;QSER1;TRIM44;PEX16;ZNF143;KDM4D;API5;SAAL1;SCLT1;NR1H3;HPS5;ELP4;BTBD10;HIPK3;FANCF;TTC17;UEVLD;FAM160A2;EIF3M;PPFIBP2;PSMC3;MOB2;RBMX;NUCB2;C11ORF58",75
"46","H3K4me1 Duodenum Smooth Muscle","25/2384",0.0137503769750861,0.114486834379521,0,0,1.57692889942978,6.75980382827162,"PSMD13;MRPL17;NAT10;DNAJC24;AMBRA1;LIN7C;RRP8;ALKBH3;COMMD9;SMPD1;METTL15;FNBP4;ZNF143;CCDC34;PRMT3;GTF2H1;HPS5;ELP4;ARFGAP2;UEVLD;EXT2;IMMP1L;DEPDC7;PPFIBP2;NDUFS3",25
"47","H3K9ac Colonic Mucosa","73/9014",0.0142615282059115,0.116216283039662,0,0,1.21782156745313,5.17597268537797,"CARS;C11ORF74;MTCH2;NAT10;LDLRAD3;ALKBH3;MDK;TRIM3;TRIM68;TCP11L1;ARFIP2;FBXO3;METTL15;HTATIP2;FNBP4;CCDC34;HARBI1;PRMT3;TALDO1;ATG13;DGKZ;CKAP5;IMMP1L;RCN1;DEPDC7;TRAF6;CAT;ANKRD42;NDUFS3;FAR1;TOX;FJX1;PXK;TSG101;ZNF195;PSMD13;CTR9;LRP4;DNAJC24;LIN7C;SPTY2D1;PHF21A;NUP160;C4ORF33;STK33;C11ORF49;QSER1;TRIM44;ZNF143;KDM4D;API5;SAAL1;SCLT1;NR1H3;GTF2H1;HPS5;ELP4;BTBD10;MT3;HIPK3;FANCF;TTC17;UEVLD;ABTB2;EXT2;FAM160A2;EIF3M;PPFIBP2;PSMC3;CAPRIN1;RBMX;NUCB2;C11ORF58",73
"48","H3K4me3 Adult Kidney","80/10083",0.0149295357290968,0.119125253838418,0,0,1.19310474937716,5.01630603068235,"CARS;C11ORF74;MTCH2;CELF1;ARHGAP1;NAT10;LDLRAD3;CHRDL1;RRP8;ALKBH3;ZNF408;MDK;SMPD1;TRIM68;TCP11L1;ARFIP2;ACP2;HTATIP2;FNBP4;CCDC34;HARBI1;PRMT3;TALDO1;ZDHHC13;ATG13;DGKZ;CKAP5;DKK3;MAPK8IP1;IMMP1L;RCN1;TRAF6;ANKRD42;NDUFS3;FAR1;NLGN3;PXK;TSG101;ZNF195;PSMD13;CTR9;MRPL17;LRP4;DNAJC24;LIN7C;SPTY2D1;PHF21A;NUP160;C4ORF33;STK33;COMMD9;C11ORF49;APBB1;QSER1;TRIM44;ZNF143;RIC3;KDM4D;SAAL1;SCLT1;NR1H3;BBOX1;GTF2H1;HPS5;ELP4;BTBD10;MT3;FANCF;TTC17;UEVLD;EXT2;FAM160A2;EIF3M;PPFIBP2;PSMC3;CAPRIN1;DCHS1;RBMX;NUCB2;MARK2P9",80
"49","H3K4me3 CD19 Primary Cells","86/11008",0.0151397630376749,0.118337331498561,0,0,1.17481203007519,4.9229683770017,"CARS;C11ORF74;MTCH2;CELF1;ARHGAP1;NAT10;LDLRAD3;RRP8;ALKBH3;ZNF408;MDK;SMPD1;TRIM68;TCP11L1;ARFIP2;FBXO3;ACP2;TEAD1;METTL15;HTATIP2;FNBP4;CCDC34;HARBI1;PRMT3;TALDO1;ZDHHC13;SLC39A13;ATG13;DGKZ;CKAP5;MAPK8IP1;IMMP1L;RCN1;DEPDC7;TRAF6;CRY2;CAT;ANKRD42;FAR1;TOX;FJX1;TSG101;ZNF195;PSMD13;CSTF3;MRPL17;LRP4;DNAJC24;LIN7C;SPTY2D1;PHF21A;C4ORF33;STK33;COMMD9;C11ORF49;APBB1;ZBED5;QSER1;TRIM44;PEX16;ZNF143;RIC3;KDM4D;API5;SAAL1;NR1H3;GTF2H1;HPS5;ELP4;BTBD10;HIPK3;FANCF;TTC17;UEVLD;ABTB2;EXT2;FAM160A2;PPFIBP2;PSMC3;CAPRIN1;DCHS1;RBMX;NUCB2;LGR4;C11ORF58;MARK2P9",86
"50","H3K4me3 CD8 Memory Primary Cells","77/9655",0.0161086232249944,0.123392053903457,0,0,1.19926953582818,4.9510650069213,"CARS;C11ORF74;MTCH2;CELF1;ARHGAP1;NAT10;ALKBH3;ZNF408;MDK;SMPD1;TRIM68;TCP11L1;ARFIP2;FBXO3;ACP2;TEAD1;METTL15;FNBP4;CCDC34;HARBI1;PRMT3;TALDO1;SLC39A13;ATG13;DGKZ;CKAP5;DKK3;MAPK8IP1;IMMP1L;DEPDC7;TRAF6;MADD;CRY2;CAT;ANKRD42;NDUFS3;FAR1;TOX;PXK;TSG101;ZNF195;PSMD13;MRPL17;LRP4;DNAJC24;LIN7C;SPTY2D1;NUP160;C4ORF33;STK33;COMMD9;C11ORF49;APBB1;ZBED5;QSER1;PEX16;ZNF143;RIC3;KDM4D;SAAL1;SCLT1;NR1H3;GTF2H1;HPS5;ELP4;MT3;HIPK3;FANCF;TTC17;UEVLD;ABTB2;EXT2;FAM160A2;PPFIBP2;PSMC3;RBMX;LGR4",77
"51","H3K4me3 Penis Foreskin Keratinocyte Primary Cells","94/12296",0.016742320337177,0.12573154292429,0,0,1.14958834953356,4.7016043806536,"CARS;C11ORF74;MTCH2;CELF1;ARHGAP1;NAT10;LDLRAD3;PIK3C2A;CHRDL1;ALKBH3;ZNF408;MDK;SMPD1;TRIM68;TCP11L1;ARFIP2;FBXO3;ACP2;TEAD1;METTL15;HTATIP2;FNBP4;USP47;CCDC34;HARBI1;SLC35C1;PRMT3;TALDO1;ZDHHC13;PAX6;ATG13;DGKZ;CKAP5;MAPK8IP1;ARFGAP2;IMMP1L;RCN1;DEPDC7;TRAF6;MADD;CRY2;CAT;ANKRD42;NDUFS3;FAR1;TOX;FJX1;PXK;TSG101;ZNF195;PSMD13;CSTF3;CTR9;MRPL17;LRP4;DNAJC24;AMBRA1;LIN7C;SPTY2D1;PHF21A;NUP160;C4ORF33;STK33;COMMD9;C11ORF49;APBB1;ZBED5;QSER1;TRIM44;ZNF143;RIC3;KDM4D;API5;SAAL1;NR1H3;GTF2H1;HPS5;ELP4;BTBD10;MT3;FANCF;TTC17;UEVLD;ABTB2;EXT2;FAM160A2;EIF3M;PPFIBP2;PSMC3;RBMX;NUCB2;LGR4;C11ORF58;MARK2P9",94
"52","H3K27ac CD4+ CD25- IL17+ PMA-Ionomcyin stimulated Th17 Primary Cells","61/7316",0.0171172227521097,0.1260749291165,0,0,1.25381797851655,5.10011795703603,"MTCH2;ARHGAP1;NAT10;ALKBH3;MDK;SMPD1;TRIM3;TRIM68;TCP11L1;FBXO3;ACP2;METTL15;HTATIP2;FNBP4;CCDC34;HARBI1;PRMT3;TALDO1;ZDHHC13;ATG13;CKAP5;ARFGAP2;IMMP1L;RCN1;TRAF6;CRY2;CAT;NDUFS3;FAR1;TSG101;ZNF195;CSTF3;DNAJC24;LIN7C;C4ORF33;C11ORF49;APBB1;ZBED5;QSER1;TRIM44;ZNF143;RIC3;KDM4D;SAAL1;NR1H3;GTF2H1;HPS5;ELP4;BTBD10;HIPK3;FANCF;TTC17;UEVLD;ABTB2;EXT2;EIF3M;PPFIBP2;PSMC3;MOB2;NUCB2;C11ORF58",61
"53","H3K27ac H1 Derived Neuronal Progenitor Cultured Cells","51/5899",0.0173708996069803,0.12552933112214,0,0,1.30008017161058,5.26917151423597,"CARS;MTCH2;CELF1;ARHGAP1;NAT10;LDLRAD3;ZNF408;MDK;SMPD1;TRIM68;TCP11L1;TEAD1;METTL15;FNBP4;USP47;HARBI1;PRMT3;TALDO1;SLC39A13;ATG13;ARFGAP2;IMMP1L;RCN1;TRAF6;NDUFS3;NUP98;FJX1;TSG101;PSMD13;CSTF3;CTR9;MRPL17;LRP4;LIN7C;PRDM11;SPTY2D1;PHF21A;C4ORF33;QSER1;TRIM44;ZNF143;SCLT1;NR1H3;ELP4;BTBD10;HIPK3;FANCF;TTC17;FAM160A2;CAPRIN1;C11ORF58",51
"54","H3K18ac H9","71/8790",0.0176820764532119,0.125411764473706,0,0,1.21464069730641,4.90132273580951,"C11ORF74;MTCH2;CELF1;ARHGAP1;NAT10;LDLRAD3;CHRDL1;ZNF408;TRIM3;TRIM68;TCP11L1;ARFIP2;TEAD1;METTL15;FNBP4;USP47;CCDC34;HARBI1;PRMT3;ZDHHC13;SLC39A13;ATG13;CKAP5;DKK3;IMMP1L;RCN1;TRAF6;CRY2;CAT;ANKRD42;NDUFS3;FAR1;NUP98;TOX;TSG101;PSMD13;CSTF3;CTR9;MRPL17;LIN7C;SPTY2D1;PHF21A;NUP160;C4ORF33;STK33;COMMD9;ZBED5;TRIM44;ZNF143;RIC3;KDM4D;API5;SAAL1;SCLT1;NR1H3;GTF2H1;HPS5;ELP4;BTBD10;HIPK3;FANCF;TTC17;UEVLD;ABTB2;FAM160A2;EIF3M;PPFIBP2;PSMC3;CAPRIN1;LGR4;C11ORF58",71
"55","H3K27ac CD4+ CD25- CD45RO+ Memory Primary Cells","55/6470",0.0177725096841602,0.123761294709697,0,0,1.27831169887625,5.15172706510268,"MTCH2;ARHGAP1;NAT10;ALKBH3;ZNF408;SMPD1;TRIM68;FBXO3;ACP2;METTL15;HTATIP2;CCDC34;HARBI1;PRMT3;TALDO1;ZDHHC13;ATG13;CKAP5;ARFGAP2;IMMP1L;TRAF6;CAT;ANKRD42;NDUFS3;FAR1;PXK;TSG101;PSMD13;MRPL17;DNAJC24;LIN7C;SPTY2D1;C4ORF33;C11ORF49;QSER1;TRIM44;ZNF143;KDM4D;SAAL1;SCLT1;ELP4;BTBD10;FANCF;TTC17;UEVLD;ABTB2;EXT2;FAM160A2;EIF3M;PPFIBP2;PSMC3;MOB2;RBMX;NUCB2;C11ORF58",55
"56","H3K27ac Duodenum Smooth Muscle","45/5076",0.0179181437317549,0.122547304451109,0,0,1.33312003412787,5.36173074067936,"C11ORF74;PSMD13;CELF1;CTR9;NAT10;LDLRAD3;DNAJC24;AMBRA1;LIN7C;SPTY2D1;C4ORF33;ALKBH3;COMMD9;MDK;SMPD1;TRIM68;FBXO3;METTL15;QSER1;TRIM44;FNBP4;PEX16;ZNF143;CCDC34;HARBI1;SLC35C1;PRMT3;SCLT1;GTF2H1;HPS5;ELP4;ATG13;BTBD10;FANCF;ABTB2;IMMP1L;RCN1;PPFIBP2;PSMC3;CAT;ANKRD42;NDUFS3;RBMX;NUCB2;C11ORF58",45
"57","H3K4me3 Colon Smooth Muscle","89/11542",0.0183949471214544,0.123601135921351,0,0,1.15954415583231,4.6331665403629,"CARS;C11ORF74;MTCH2;CELF1;ARHGAP1;DNHD1;NAT10;LDLRAD3;CHRDL1;ALKBH3;ZNF408;MDK;SMPD1;TRIM3;TRIM68;TCP11L1;ARFIP2;FBXO3;ACP2;HTATIP2;FNBP4;CCDC34;HARBI1;SLC35C1;PRMT3;TALDO1;ZDHHC13;ATG13;DGKZ;CKAP5;DKK3;MAPK8IP1;ARFGAP2;IMMP1L;RCN1;DEPDC7;TRAF6;CRY2;CAT;ANKRD42;NDUFS3;FAR1;NLGN3;TSG101;ZNF195;PSMD13;CSTF3;CTR9;MRPL17;LRP4;DNAJC24;LIN7C;SPTY2D1;NUP160;C4ORF33;STK33;COMMD9;C11ORF49;APBB1;ZBED5;QSER1;TRIM44;PEX16;ZNF143;RIC3;KDM4D;API5;SAAL1;SCLT1;NR1H3;GTF2H1;HPS5;ELP4;BTBD10;MT3;FANCF;TTC17;UEVLD;ABTB2;EXT2;FAM160A2;EIF3M;PPFIBP2;PSMC3;CAPRIN1;DCHS1;RBMX;NUCB2;MARK2P9",89
"58","H3K27ac CD8 Naive Primary Cells","63/7635",0.0186972705683061,0.123466459097607,0,0,1.24082307930928,4.93770372208303,"CARS;MTCH2;CELF1;ARHGAP1;RRP8;ALKBH3;ZNF408;SMPD1;TRIM68;TCP11L1;ACP2;METTL15;HTATIP2;FNBP4;CCDC34;HARBI1;PRMT3;TALDO1;ZDHHC13;SLC39A13;ATG13;DGKZ;CKAP5;ARFGAP2;IMMP1L;RCN1;TRAF6;MADD;CAT;ANKRD42;NDUFS3;FAR1;PXK;TSG101;ZNF195;PSMD13;CTR9;LIN7C;SPTY2D1;C4ORF33;COMMD9;C11ORF49;ZBED5;QSER1;TRIM44;ZNF143;RIC3;KDM4D;SAAL1;SCLT1;GTF2H1;HPS5;ELP4;BTBD10;HIPK3;FANCF;TTC17;UEVLD;ABTB2;EXT2;PSMC3;RBMX;C11ORF58",63
"59","H3K4me1 Adult Kidney","49/5652",0.0192848211402732,0.125187906724147,0,0,1.30368383804522,5.14751345279092,"C11ORF74;MTCH2;NAT10;LDLRAD3;ALKBH3;SMPD1;TRIM68;ARFIP2;FBXO3;FNBP4;CCDC34;HARBI1;PRMT3;ATG13;CKAP5;IMMP1L;RCN1;NDUFS3;TOX;NLGN3;TSG101;ZNF195;DNAJC24;AMBRA1;LIN7C;PRDM11;C4ORF33;STK33;COMMD9;ZBED5;TRIM44;PEX16;ZNF143;KDM4D;SAAL1;SCLT1;NR1H3;BBOX1;GTF2H1;HPS5;ELP4;BTBD10;MT3;FANCF;UEVLD;EXT2;PSMC3;NUCB2;MARK2P9",49
"60","H3K4me1 Brain Hippocampus Middle","64/7798",0.0196858865116719,0.125661575566173,0,0,1.23417031936085,4.84763998723247,"C11ORF74;MTCH2;DNHD1;NAT10;ALKBH3;TRIM68;ARFIP2;FBXO3;METTL15;HTATIP2;FNBP4;USP47;CCDC34;PRMT3;ATG13;DGKZ;ARFGAP2;IMMP1L;RCN1;DEPDC7;MADD;CRY2;CAT;ANKRD42;NUP98;TOX;FJX1;NLGN3;PSMD13;CTR9;MRPL17;DNAJC24;PRR5L;AMBRA1;PRDM11;SPTY2D1;NUP160;C4ORF33;STK33;COMMD9;C11ORF49;ZBED5;TRIM44;PEX16;TUB;RIC3;KDM4D;SAAL1;SCLT1;NR1H3;GTF2H1;HPS5;ELP4;BTBD10;MT3;HIPK3;FANCF;UEVLD;ABTB2;EXT2;FAM160A2;PSMC3;DCHS1;NUCB2",64
"61","H3K9ac IMR90","77/9730",0.0199495675685463,0.125257120963168,0,0,1.19002542327041,4.65841141646303,"C11ORF74;MTCH2;CELF1;ARHGAP1;NAT10;LDLRAD3;ALKBH3;MDK;SMPD1;TRIM68;TCP11L1;ARFIP2;FBXO3;METTL15;HTATIP2;FNBP4;CCDC34;HARBI1;PRMT3;TALDO1;ZDHHC13;ATG13;CKAP5;ARFGAP2;IMMP1L;RCN1;DEPDC7;TRAF6;CRY2;CAT;ANKRD42;NDUFS3;FAR1;TOX;NLGN3;TSG101;ZNF195;PSMD13;CTR9;MRPL17;LRP4;DNAJC24;LIN7C;SPTY2D1;PHF21A;NUP160;C4ORF33;STK33;COMMD9;C11ORF49;APBB1;ZBED5;QSER1;TRIM44;PEX16;ZNF143;KDM4D;SAAL1;NR1H3;GTF2H1;HPS5;ELP4;BTBD10;FANCF;TTC17;UEVLD;ABTB2;EXT2;FAM160A2;EIF3M;PPFIBP2;PSMC3;DCHS1;RBMX;NUCB2;LGR4;C11ORF58",77
"62","H3K9ac Breast Myoepithelial Cells","83/10656",0.0207088659796942,0.127927349519724,0,0,1.17128406602091,4.54129480603954,"C11ORF74;MTCH2;CELF1;NAT10;LDLRAD3;CHRDL1;ALKBH3;MDK;SMPD1;TRIM68;TCP11L1;ARFIP2;FBXO3;METTL15;HTATIP2;FNBP4;HARBI1;SLC35C1;PRMT3;TALDO1;ZDHHC13;DGKZ;IMMP1L;RCN1;DEPDC7;TRAF6;CRY2;CAT;ANKRD42;NDUFS3;FAR1;TOX;PXK;TSG101;ZNF195;PSMD13;CSTF3;CTR9;MRPL17;LRP4;DNAJC24;AMBRA1;LIN7C;SPTY2D1;PHF21A;NUP160;C4ORF33;COMMD9;RDH16;C11ORF49;APBB1;ZBED5;QSER1;TRIM44;ZNF143;RIC3;KDM4D;API5;SAAL1;SCLT1;NR1H3;BBOX1;GTF2H1;HPS5;ELP4;BTBD10;MT3;HIPK3;FANCF;TTC17;UEVLD;ABTB2;EXT2;FAM160A2;EIF3M;PPFIBP2;PSMC3;CAPRIN1;MOB2;DCHS1;RBMX;NUCB2;C11ORF58",83
"63","H3K4me3 Colonic Mucosa","94/12388",0.0217739606395467,0.13237185595153,0,0,1.1410508835861,4.36684793172844,"CARS;C11ORF74;MTCH2;CELF1;ARHGAP1;DNHD1;NAT10;LDLRAD3;ARHGAP36;CHRDL1;ALKBH3;ZNF408;MDK;SMPD1;TRIM68;TCP11L1;ARFIP2;FBXO3;ACP2;TEAD1;METTL15;HTATIP2;FNBP4;CCDC34;HARBI1;SLC35C1;PRMT3;TALDO1;ZDHHC13;SLC39A13;PAX6;ATG13;DGKZ;CKAP5;DKK3;MAPK8IP1;IMMP1L;DEPDC7;TRAF6;CRY2;CAT;ANKRD42;NDUFS3;FAR1;FJX1;PXK;TSG101;ZNF195;PSMD13;CSTF3;CTR9;MRPL17;LRP4;DNAJC24;LIN7C;SPTY2D1;PHF21A;NUP160;C4ORF33;STK33;RDH16;C11ORF49;APBB1;ZBED5;QSER1;TRIM44;PEX16;ZNF143;RIC3;KDM4D;API5;SAAL1;NR1H3;GTF2H1;HPS5;ELP4;BTBD10;MT3;HIPK3;FANCF;TTC17;UEVLD;ABTB2;EXT2;FAM160A2;EIF3M;PPFIBP2;PSMC3;CAPRIN1;DCHS1;RBMX;NUCB2;C11ORF58;MARK2P9",94
"64","H4K91ac H9","42/4736",0.0227599456020849,0.136204049462477,0,0,1.33357041251778,5.04456755840162,"TSG101;ZNF195;CELF1;CSTF3;ARHGAP1;MRPL17;NAT10;LIN7C;SPTY2D1;NUP160;C4ORF33;STK33;TCP11L1;ARFIP2;ZBED5;QSER1;TRIM44;FNBP4;ZNF143;RIC3;HARBI1;PRMT3;SCLT1;SLC39A13;GTF2H1;HPS5;ATG13;HIPK3;FANCF;TTC17;PSMC3;CAPRIN1;TRAF6;MADD;CRY2;NDUFS3;NUP98;TOX;FJX1;RBMX;LGR4;C11ORF58",42
"65","H3K4ac H1","37/4059",0.0227877171689119,0.134272241164512,0,0,1.37075875201678,5.1835702903707,"CARS;TSG101;ZNF195;PSMD13;CELF1;CSTF3;DNHD1;MRPL17;NAT10;LIN7C;PRDM11;PHF21A;NUP160;STK33;MDK;ARFIP2;ACP2;ZBED5;QSER1;HTATIP2;FNBP4;ZNF143;USP47;RIC3;PRMT3;NR1H3;SLC39A13;TTC17;ABTB2;EIF3M;CAPRIN1;MADD;NDUFS3;FJX1;RBMX;LGR4;C11ORF58",37
"66","H3K79me2 IMR90","20/1876",0.0232947633186628,0.135180217440119,0,0,1.60315500905783,6.02710405108067,"KDM4D;HARBI1;CTR9;ARHGAP1;SAAL1;NR1H3;GTF2H1;HPS5;ATG13;ALKBH3;UEVLD;FAM160A2;DEPDC7;COMMD9;ZNF408;TRAF6;ANKRD42;ARFIP2;FBXO3;ACP2",20
"67","H2BK5ac H1","64/7863",0.0237242361457925,0.1356176484155,0,0,1.22396797028818,4.57918012114157,"MTCH2;CELF1;ARHGAP1;DNHD1;NAT10;ZNF408;TCP11L1;ARFIP2;ACP2;METTL15;HTATIP2;FNBP4;USP47;CCDC34;HARBI1;SLC35C1;PRMT3;SLC39A13;ATG13;CKAP5;DKK3;IMMP1L;TRAF6;MADD;ANKRD42;NDUFS3;FAR1;TOX;FJX1;TSG101;ZNF195;PSMD13;CSTF3;CTR9;MRPL17;LIN7C;PRDM11;SPTY2D1;PHF21A;NUP160;CHRNA10;ZBED5;TRIM44;ZNF143;RIC3;KDM4D;NR1H3;GTF2H1;HPS5;ELP4;BTBD10;HIPK3;FANCF;TTC17;UEVLD;ABTB2;EIF3M;PPFIBP2;PSMC3;CAPRIN1;RBMX;NUCB2;LGR4;C11ORF58",64
"68","H3K4me1 Bone Marrow Derived Mesenchymal Stem Cell Cultured Cells","46/5312",0.0246774852085105,0.138992306394993,0,0,1.3022012863484,4.82057203802854,"MTCH2;TSG101;ZNF195;PSMD13;CSTF3;NAT10;LDLRAD3;DNAJC24;AMBRA1;LIN7C;SPTY2D1;C4ORF33;ALKBH3;STK33;MDK;SMPD1;TRIM68;ARFIP2;APBB1;METTL15;FNBP4;PEX16;CCDC34;KDM4D;PRMT3;SAAL1;SCLT1;TALDO1;NR1H3;BBOX1;HPS5;BTBD10;CKAP5;FANCF;UEVLD;ABTB2;EXT2;IMMP1L;FAM160A2;PPFIBP2;MADD;CAT;ANKRD42;NUP98;NUCB2;LGR4",46
"69","H3K4me3 Duodenum Smooth Muscle","68/8472",0.0252256175067202,0.140020456595273,0,0,1.20698346432654,4.4415726967971,"CARS;C11ORF74;MTCH2;ARHGAP1;DNHD1;NAT10;LDLRAD3;ALKBH3;ZNF408;SMPD1;TRIM68;TCP11L1;ARFIP2;FBXO3;METTL15;FNBP4;HARBI1;PRMT3;TALDO1;ATG13;CKAP5;IMMP1L;TRAF6;ANKRD42;NDUFS3;FAR1;NLGN3;PXK;TSG101;ZNF195;PSMD13;CTR9;MRPL17;LRP4;DNAJC24;AMBRA1;LIN7C;SPTY2D1;NUP160;C4ORF33;STK33;COMMD9;C11ORF49;ZBED5;QSER1;TRIM44;PEX16;ZNF143;RIC3;KDM4D;SAAL1;SCLT1;NR1H3;GTF2H1;HPS5;ELP4;BTBD10;MT3;FANCF;UEVLD;EXT2;FAM160A2;PPFIBP2;PSMC3;DCHS1;RBMX;NUCB2;MARK2P9",68
"70","H3K4me1 Adipose Nuclei","28/2902",0.0254439700057908,0.139214864460255,0,0,1.45090500199499,5.32667343610371,"C11ORF74;MTCH2;TSG101;PSMD13;ARHGAP1;NAT10;SPTY2D1;RRP8;NUP160;C4ORF33;ALKBH3;ZBED5;FNBP4;PEX16;ZNF143;KDM4D;SCLT1;NR1H3;SLC39A13;GTF2H1;HPS5;ELP4;TTC17;UEVLD;ABTB2;IMMP1L;PPFIBP2;NUCB2",28
"71","H3K9ac Peripheral Blood Mononuclear Primary Cells","66/8187",0.0258862171004778,0.139639734499761,0,0,1.21226481373827,4.42966970878248,"CARS;C11ORF74;CELF1;LDLRAD3;ALKBH3;MDK;SMPD1;TRIM3;TRIM68;TCP11L1;ARFIP2;FBXO3;ACP2;TEAD1;METTL15;HTATIP2;TALDO1;DGKZ;CKAP5;DKK3;MAPK8IP1;RCN1;DEPDC7;TRAF6;CRY2;CAT;ANKRD42;NDUFS3;FAR1;TOX;FJX1;ZNF195;PSMD13;CSTF3;CTR9;LRP4;DNAJC24;PRR5L;LIN7C;SPTY2D1;NUP160;C4ORF33;STK33;COMMD9;C11ORF49;APBB1;QSER1;TRIM44;ZNF143;RIC3;SCLT1;NR1H3;GTF2H1;BTBD10;FANCF;TTC17;UEVLD;ABTB2;EXT2;FAM160A2;PPFIBP2;PSMC3;DCHS1;RBMX;LGR4;MARK2P9",66
"72","H3K27ac Brain Inferior Temporal Lobe","38/4232",0.026043303431231,0.138535905752243,0,0,1.35025654874426,4.92572861167904,"C11ORF74;MTCH2;CELF1;CTR9;DNAJC24;PRR5L;LIN7C;SPTY2D1;NUP160;C4ORF33;TRIM68;C11ORF49;FBXO3;ZBED5;METTL15;TRIM44;FNBP4;ZNF143;RIC3;CCDC34;KDM4D;HARBI1;SCLT1;ELP4;ATG13;BTBD10;FANCF;TTC17;ABTB2;EXT2;IMMP1L;RCN1;CAT;ANKRD42;FAR1;RBMX;NUCB2;LGR4",38
"73","H3K23ac H9","32/3436",0.0265977718756587,0.13954721408736,0,0,1.40047441070663,5.0794196164813,"CARS;CELF1;CSTF3;MRPL17;NAT10;LDLRAD3;LIN7C;RRP8;COMMD9;C11ORF49;ARFIP2;ACP2;ZBED5;TRIM44;FNBP4;ZNF143;PRMT3;NR1H3;SLC39A13;PAX6;GTF2H1;HPS5;DKK3;MAPK8IP1;TTC17;ABTB2;MADD;ANKRD42;NDUFS3;DCHS1;LGR4;C11ORF58",32
"74","H3K4ac IMR90","56/6751",0.0269131768167324,0.13929387460552,0,0,1.2473785560034,4.50944719964549,"CARS;C11ORF74;MTCH2;CELF1;NAT10;ALKBH3;MDK;SMPD1;TRIM68;TCP11L1;ARFIP2;FNBP4;USP47;CCDC34;HARBI1;PRMT3;TALDO1;ATG13;CKAP5;ARFGAP2;IMMP1L;DEPDC7;TRAF6;ANKRD42;NDUFS3;NUP98;TOX;TSG101;PSMD13;CTR9;MRPL17;LRP4;LIN7C;SPTY2D1;PHF21A;NUP160;C11ORF49;APBB1;QSER1;TRIM44;PEX16;ZNF143;KDM4D;SAAL1;NR1H3;GTF2H1;HPS5;ELP4;BTBD10;FANCF;TTC17;UEVLD;EIF3M;PSMC3;RBMX;C11ORF58",56
"75","H4K5ac IMR90","65/8066",0.0277814045986727,0.141870372817222,0,0,1.21180710268108,4.34237549227788,"CARS;C11ORF74;MTCH2;CELF1;NAT10;ALKBH3;ZNF408;MDK;SMPD1;TRIM3;TRIM68;TCP11L1;ARFIP2;FBXO3;FNBP4;USP47;CCDC34;HARBI1;PRMT3;TALDO1;ZDHHC13;ATG13;CKAP5;ARFGAP2;IMMP1L;DEPDC7;TRAF6;MADD;CAT;NDUFS3;TOX;TSG101;ZNF195;PSMD13;CTR9;MRPL17;DNAJC24;LIN7C;SPTY2D1;PHF21A;NUP160;STK33;C11ORF49;APBB1;QSER1;TRIM44;PEX16;ZNF143;KDM4D;SAAL1;NR1H3;BBOX1;GTF2H1;HPS5;ELP4;BTBD10;HIPK3;FANCF;UEVLD;FAM160A2;PSMC3;CAPRIN1;DCHS1;RBMX;C11ORF58",65
"76","H3K27ac iPS DF 19.11","64/7920",0.0278095165358988,0.14014532675328,0,0,1.21515910989595,4.35315804107718,"C11ORF74;MTCH2;CELF1;ALKBH3;TRIM68;TCP11L1;ARFIP2;TEAD1;METTL15;HTATIP2;USP47;CCDC34;HARBI1;PRMT3;ZDHHC13;ATG13;DGKZ;DKK3;IMMP1L;RCN1;TRAF6;MADD;CAT;ANKRD42;NDUFS3;TOX;FJX1;TSG101;ZNF195;CSTF3;CTR9;DNAJC24;LIN7C;PRDM11;SPTY2D1;PHF21A;C4ORF33;STK33;C11ORF49;ZBED5;TRIM44;ZNF143;RIC3;KDM4D;API5;SCLT1;BBOX1;GTF2H1;HPS5;ELP4;BTBD10;HIPK3;FANCF;TTC17;UEVLD;ABTB2;FAM160A2;EIF3M;PPFIBP2;MOB2;DCHS1;RBMX;LGR4;MARK2P9",64
"77","H3K4me2 H1 BMP4 Derived Trophoblast Cultured Cells","77/9903",0.031836291994889,0.158354543299253,0,0,1.16923632923569,4.03053112077474,"CARS;C11ORF74;MTCH2;CELF1;ARHGAP1;NAT10;ARHGAP36;CHRDL1;ALKBH3;ZNF408;MDK;SMPD1;TRIM68;TCP11L1;ARFIP2;FBXO3;METTL15;HTATIP2;FNBP4;HARBI1;PRMT3;ZDHHC13;ATG13;DGKZ;CKAP5;DKK3;IMMP1L;RCN1;DEPDC7;TRAF6;CAT;ANKRD42;NDUFS3;FAR1;NLGN3;ZNF195;PSMD13;CSTF3;CTR9;MRPL17;DNAJC24;LIN7C;SPTY2D1;PHF21A;C4ORF33;STK33;COMMD9;C11ORF49;ZBED5;QSER1;TRIM44;ZNF143;RIC3;KDM4D;API5;SAAL1;SCLT1;NR1H3;GTF2H1;HPS5;ELP4;BTBD10;HIPK3;FANCF;TTC17;UEVLD;ABTB2;EXT2;FAM160A2;EIF3M;PPFIBP2;PSMC3;MOB2;DCHS1;RBMX;NUCB2;MARK2P9",77
"78","H2AK5ac H9","19/1829",0.033807389726617,0.166002952119158,0,0,1.56213387487308,5.29106595239308,"FNBP4;TUB;ZNF143;CSTF3;TALDO1;MRPL17;NR1H3;LDLRAD3;GTF2H1;HPS5;LIN7C;PIK3C2A;NUP160;ARFGAP2;CAPRIN1;MOB2;NDUFS3;ARFIP2;C11ORF58",19
"79","H3K9ac Rectal Mucosa","52/6261",0.0338610238436963,0.164161672558679,0,0,1.24892970327112,4.22823985188641,"CARS;C11ORF74;CELF1;ARHGAP1;NAT10;LDLRAD3;ALKBH3;ZNF408;MDK;SMPD1;TRIM68;FBXO3;FNBP4;HARBI1;ATG13;ARFGAP2;IMMP1L;RCN1;MADD;CAT;FJX1;TSG101;ZNF195;PSMD13;CSTF3;CTR9;MRPL17;DNAJC24;SPTY2D1;C4ORF33;APBB1;ZBED5;TRIM44;PEX16;ZNF143;KDM4D;SCLT1;NR1H3;GTF2H1;HPS5;ELP4;BTBD10;HIPK3;FANCF;UEVLD;ABTB2;EXT2;EIF3M;PPFIBP2;PSMC3;DCHS1;RBMX",52
"80","H3K4me3 Breast Myoepithelial Cells","89/11768",0.033955020883556,0.162559662480024,0,0,1.13727554780902,3.84708308678113,"CARS;C11ORF74;MTCH2;CELF1;ARHGAP1;NAT10;LDLRAD3;CHRDL1;RRP8;ALKBH3;ZNF408;MDK;SMPD1;TRIM68;TCP11L1;ARFIP2;FBXO3;ACP2;HTATIP2;FNBP4;CCDC34;HARBI1;PRMT3;TALDO1;ZDHHC13;PAX6;ATG13;DGKZ;CKAP5;MAPK8IP1;IMMP1L;RCN1;DEPDC7;TRAF6;MADD;CRY2;CAT;ANKRD42;NDUFS3;FAR1;NUP98;TOX;NLGN3;PXK;TSG101;ZNF195;PSMD13;CSTF3;CTR9;MRPL17;LRP4;DNAJC24;LIN7C;SPTY2D1;NUP160;C4ORF33;STK33;COMMD9;C11ORF49;APBB1;ZBED5;QSER1;TRIM44;PEX16;ZNF143;RIC3;KDM4D;API5;NR1H3;BBOX1;GTF2H1;HPS5;ELP4;BTBD10;MT3;FANCF;TTC17;UEVLD;ABTB2;EXT2;FAM160A2;EIF3M;PPFIBP2;PSMC3;MOB2;DCHS1;RBMX;NUCB2;C11ORF58",89
"81","H3K4me2 Muscle Satellite Cultured Cells","68/8584",0.0340712159503578,0.161102169246754,0,0,1.19123531101753,4.02554429566791,"CARS;C11ORF74;MTCH2;ARHGAP1;NAT10;LDLRAD3;CHRDL1;ALKBH3;ZNF408;MDK;SMPD1;TCP11L1;ARFIP2;METTL15;HTATIP2;FNBP4;CCDC34;HARBI1;PRMT3;TALDO1;ZDHHC13;ATG13;DGKZ;CKAP5;MAPK8IP1;IMMP1L;TRAF6;CAT;ANKRD42;FAR1;TOX;TSG101;ZNF195;PSMD13;CTR9;MRPL17;LRP4;DNAJC24;SPTY2D1;PHF21A;C4ORF33;STK33;COMMD9;C11ORF49;APBB1;ZBED5;QSER1;ZNF143;KDM4D;SAAL1;SCLT1;NR1H3;GTF2H1;HPS5;ELP4;BTBD10;MT3;FANCF;TTC17;UEVLD;ABTB2;FAM160A2;PPFIBP2;DCHS1;RBMX;NUCB2;LGR4;MARK2P9",68
"82","H3K9ac Rectal Smooth Muscle","50/6008",0.0369310325354504,0.172494944647286,0,0,1.25146421312936,4.12820886843745,"C11ORF74;MTCH2;ALKBH3;MDK;TRIM68;TCP11L1;FBXO3;FNBP4;CCDC34;HARBI1;PRMT3;TALDO1;ZDHHC13;SLC39A13;ATG13;DGKZ;CKAP5;DKK3;IMMP1L;RCN1;TSG101;ZNF195;CSTF3;CTR9;MRPL17;LRP4;DNAJC24;LIN7C;SPTY2D1;NUP160;C11ORF49;QSER1;TRIM44;PEX16;ZNF143;KDM4D;SAAL1;GTF2H1;ELP4;HIPK3;FANCF;TTC17;UEVLD;ABTB2;EXT2;FAM160A2;EIF3M;RBMX;NUCB2;C11ORF58",50
"83","H3K4me3 H1","101/13703",0.0371987777187844,0.171652191160174,0,0,1.1083682350443,3.64817118584692,"CARS;C11ORF74;MTCH2;DNHD1;LDLRAD3;ARHGAP36;RRP8;ALKBH3;ARFIP2;FBXO3;FNBP4;HARBI1;SLC35C1;TALDO1;ATG13;DGKZ;DKK3;MAPK8IP1;MADD;ANKRD42;FAR1;NUP98;TOX;PXK;TSG101;PSMD13;CSTF3;CTR9;MRPL17;DNAJC24;LIN7C;PHF21A;NUP160;STK33;COMMD9;ZBED5;QSER1;ZNF143;API5;HPS5;BTBD10;MT3;FANCF;UEVLD;ABTB2;EXT2;FAM160A2;PPFIBP2;CAPRIN1;MOB2;DCHS1;MARK2P9;CELF1;ARHGAP1;NAT10;CHRDL1;ZNF408;MDK;SMPD1;TRIM68;TCP11L1;ACP2;TEAD1;METTL15;HTATIP2;USP47;CCDC34;PRMT3;ZDHHC13;SLC39A13;PAX6;CKAP5;IMMP1L;RCN1;DEPDC7;TRAF6;CRY2;CAT;NDUFS3;NLGN3;LRP4;SPTY2D1;C4ORF33;C11ORF49;APBB1;TRIM44;PEX16;RIC3;KDM4D;SAAL1;NR1H3;GTF2H1;ELP4;HIPK3;TTC17;EIF3M;PSMC3;RBMX;NUCB2;LGR4;C11ORF58",101
"84","H3K4me3 H9","96/12921",0.0389273854588166,0.177490340841985,0,0,1.11725796962804,3.6266833655875,"CARS;C11ORF74;MTCH2;CELF1;ARHGAP1;DNHD1;NAT10;LDLRAD3;ARHGAP36;CHRDL1;RRP8;ALKBH3;ZNF408;MDK;SMPD1;TRIM68;TCP11L1;ARFIP2;FBXO3;TEAD1;METTL15;HTATIP2;FNBP4;USP47;CCDC34;HARBI1;SLC35C1;PRMT3;TALDO1;ZDHHC13;SLC39A13;PAX6;ATG13;DGKZ;CKAP5;DKK3;MAPK8IP1;IMMP1L;DEPDC7;TRAF6;MADD;CRY2;CAT;ANKRD42;NDUFS3;FAR1;NUP98;TOX;FJX1;NLGN3;PXK;TSG101;PSMD13;CSTF3;CTR9;MRPL17;DNAJC24;LIN7C;SPTY2D1;PHF21A;NUP160;C4ORF33;STK33;COMMD9;C11ORF49;APBB1;ZBED5;QSER1;TRIM44;PEX16;ZNF143;RIC3;KDM4D;API5;SAAL1;NR1H3;GTF2H1;HPS5;ELP4;BTBD10;MT3;HIPK3;FANCF;UEVLD;ABTB2;EXT2;FAM160A2;EIF3M;PPFIBP2;PSMC3;MOB2;DCHS1;RBMX;NUCB2;LGR4;C11ORF58",96
"85","H3K27ac IMR90","81/10600",0.0399972836722611,0.180223054664424,0,0,1.14909916300184,3.69888555206087,"CARS;C11ORF74;MTCH2;CELF1;ARHGAP1;NAT10;LDLRAD3;ALKBH3;MDK;SMPD1;TRIM3;TRIM68;TCP11L1;ARFIP2;FBXO3;ACP2;METTL15;HTATIP2;FNBP4;CCDC34;HARBI1;PRMT3;ZDHHC13;ATG13;CKAP5;ARFGAP2;IMMP1L;TRAF6;MADD;CRY2;CAT;ANKRD42;NDUFS3;FAR1;NUP98;TOX;TSG101;ZNF195;PSMD13;CSTF3;CTR9;MRPL17;LRP4;DNAJC24;LIN7C;SPTY2D1;PHF21A;NUP160;C4ORF33;STK33;COMMD9;C11ORF49;APBB1;ZBED5;QSER1;TRIM44;PEX16;ZNF143;KDM4D;API5;SAAL1;NR1H3;BBOX1;GTF2H1;HPS5;ELP4;BTBD10;FANCF;TTC17;UEVLD;ABTB2;EXT2;FAM160A2;EIF3M;PPFIBP2;PSMC3;DCHS1;RBMX;NUCB2;LGR4;C11ORF58",81
"86","H4K91ac IMR90","48/5763",0.0410645241564119,0.182880380836114,0,0,1.25248049848724,3.99868262777016,"CARS;TSG101;CELF1;ARHGAP1;MRPL17;NAT10;LIN7C;PIK3C2A;SPTY2D1;PHF21A;NUP160;ZNF408;SMPD1;TCP11L1;ARFIP2;ACP2;ZBED5;TRIM44;FNBP4;ZNF143;USP47;CCDC34;KDM4D;HARBI1;PRMT3;NR1H3;SLC39A13;GTF2H1;HPS5;ATG13;BTBD10;CKAP5;FANCF;ARFGAP2;TTC17;UEVLD;RCN1;EIF3M;PSMC3;TRAF6;MADD;ANKRD42;NDUFS3;NUP98;TOX;RBMX;NUCB2;C11ORF58",48
"87","H3K4me2 IMR90","76/9864",0.0422746582885947,0.186105679592319,0,0,1.15861429730043,3.66535449807809,"CARS;C11ORF74;MTCH2;CELF1;ARHGAP1;NAT10;LDLRAD3;CHRDL1;ALKBH3;ZNF408;MDK;SMPD1;ARFIP2;FNBP4;CCDC34;HARBI1;PRMT3;TALDO1;ZDHHC13;ATG13;DGKZ;CKAP5;MAPK8IP1;IMMP1L;RCN1;TRAF6;CRY2;CAT;ANKRD42;FAR1;TOX;NLGN3;TSG101;ZNF195;PSMD13;CTR9;MRPL17;LRP4;DNAJC24;AMBRA1;LIN7C;PRDM11;SPTY2D1;NUP160;STK33;COMMD9;C11ORF49;APBB1;ZBED5;QSER1;TRIM44;PEX16;ZNF143;KDM4D;API5;SAAL1;NR1H3;BBOX1;GTF2H1;HPS5;ELP4;MT3;FANCF;TTC17;UEVLD;ABTB2;EXT2;FAM160A2;PPFIBP2;PSMC3;DCHS1;RBMX;NUCB2;LGR4;C11ORF58;MARK2P9",76
"88","H2BK12ac H9","41/4798",0.0427268306198111,0.185958819629405,0,0,1.28499656811892,4.05150192208407,"MTCH2;ZNF195;CELF1;NAT10;LDLRAD3;LIN7C;PRDM11;SPTY2D1;NUP160;STK33;TCP11L1;ZBED5;TEAD1;QSER1;TRIM44;FNBP4;ZNF143;USP47;RIC3;HARBI1;SLC35C1;PRMT3;TALDO1;PAX6;GTF2H1;HPS5;ATG13;HIPK3;DKK3;TTC17;ABTB2;RCN1;EIF3M;CAPRIN1;MOB2;NDUFS3;NUP98;FJX1;NUCB2;LGR4;C11ORF58",41
"89","H3K4me1 Fetal Lung","65/8234",0.0432001630999219,0.185906319856967,0,0,1.18708235246849,3.72970711095335,"CARS;C11ORF74;MTCH2;ARHGAP1;DNHD1;NAT10;LDLRAD3;PIK3C2A;ALKBH3;ZNF408;SMPD1;ARFIP2;FBXO3;ACP2;METTL15;HTATIP2;FNBP4;HARBI1;PRMT3;TALDO1;ATG13;DGKZ;CKAP5;MAPK8IP1;IMMP1L;TRAF6;MADD;CRY2;CAT;NDUFS3;NLGN3;TSG101;ZNF195;PSMD13;CTR9;MRPL17;DNAJC24;AMBRA1;LIN7C;SPTY2D1;NUP160;C4ORF33;STK33;C11ORF49;APBB1;TRIM44;ZNF143;RIC3;KDM4D;SAAL1;SCLT1;NR1H3;BBOX1;GTF2H1;HPS5;ELP4;BTBD10;MT3;UEVLD;ABTB2;EXT2;PPFIBP2;PSMC3;MOB2;MARK2P9",65
"90","H3K9me3 CD4+ CD25- Th Primary Cells","3/118",0.0441727826122058,0.18797973044972,0,0,3.82311711482095,11.9267737641341,"RDH16;TEAD1;MARK2P9",3
"91","H3K9ac Pancreatic Islets","69/8839",0.0446950763912532,0.188112244591758,0,0,1.17388164380858,3.64829728906572,"CARS;C11ORF74;MTCH2;CELF1;ARHGAP1;LDLRAD3;ALKBH3;ZNF408;SMPD1;TRIM68;TCP11L1;FBXO3;METTL15;HTATIP2;FNBP4;CCDC34;HARBI1;TALDO1;ZDHHC13;ATG13;DGKZ;CKAP5;ARFGAP2;IMMP1L;RCN1;TRAF6;CAT;ANKRD42;NDUFS3;FAR1;FJX1;PSMD13;CSTF3;MRPL17;LRP4;DNAJC24;LIN7C;SPTY2D1;PHF21A;C4ORF33;STK33;COMMD9;C11ORF49;APBB1;ZBED5;QSER1;TRIM44;ZNF143;RIC3;KDM4D;GTF2H1;HPS5;ELP4;BTBD10;MT3;HIPK3;FANCF;TTC17;UEVLD;ABTB2;EXT2;FAM160A2;EIF3M;PPFIBP2;PSMC3;RBMX;NUCB2;C11ORF58;MARK2P9",69
"92","H3K4me3 Adipose Nuclei","73/9454",0.0467380315092727,0.194572457261429,0,0,1.16114275534404,3.55680908198147,"CARS;C11ORF74;MTCH2;ARHGAP1;NAT10;LDLRAD3;ALKBH3;ZNF408;MDK;SMPD1;TRIM68;TCP11L1;ARFIP2;HTATIP2;FNBP4;CCDC34;HARBI1;PRMT3;ZDHHC13;ATG13;DGKZ;CKAP5;DKK3;MAPK8IP1;IMMP1L;DEPDC7;TRAF6;ANKRD42;NDUFS3;FAR1;TOX;FJX1;PXK;TSG101;PSMD13;CSTF3;CTR9;MRPL17;LRP4;DNAJC24;LIN7C;SPTY2D1;PHF21A;NUP160;C4ORF33;STK33;COMMD9;C11ORF49;APBB1;ZBED5;QSER1;PEX16;ZNF143;RIC3;KDM4D;SAAL1;SCLT1;NR1H3;GTF2H1;ELP4;BTBD10;FANCF;TTC17;UEVLD;ABTB2;EXT2;FAM160A2;PPFIBP2;PSMC3;CAPRIN1;RBMX;NUCB2;MARK2P9",73
"93","H3K4me3 CD3 Primary Cells","81/10669",0.0473641764143412,0.195058920071964,0,0,1.14166755345576,3.48195943609329,"CARS;C11ORF74;MTCH2;ARHGAP1;NAT10;LDLRAD3;CHRDL1;ALKBH3;ZNF408;MDK;TRIM68;TCP11L1;ARFIP2;FBXO3;ACP2;TEAD1;METTL15;HTATIP2;FNBP4;CCDC34;HARBI1;PRMT3;ZDHHC13;ATG13;CKAP5;DKK3;MAPK8IP1;IMMP1L;RCN1;TRAF6;MADD;CRY2;CAT;ANKRD42;NDUFS3;FAR1;FJX1;PXK;TSG101;ZNF195;PSMD13;CSTF3;MRPL17;LRP4;DNAJC24;LIN7C;SPTY2D1;PHF21A;NUP160;C4ORF33;STK33;COMMD9;RDH16;C11ORF49;ZBED5;QSER1;TRIM44;PEX16;ZNF143;RIC3;KDM4D;API5;SAAL1;NR1H3;GTF2H1;ELP4;BTBD10;MT3;HIPK3;FANCF;TTC17;UEVLD;ABTB2;EXT2;FAM160A2;EIF3M;PSMC3;RBMX;LGR4;C11ORF58;MARK2P9",81
"94","H2BK120ac H9","56/6960",0.0475512978282346,0.19374624540653,0,0,1.20992135511192,3.68535534953906,"MTCH2;CELF1;ARHGAP1;NAT10;LDLRAD3;CHRDL1;ZNF408;MDK;TCP11L1;ARFIP2;FBXO3;TEAD1;METTL15;HTATIP2;FNBP4;USP47;CCDC34;HARBI1;PRMT3;SLC39A13;PAX6;ATG13;ARFGAP2;IMMP1L;TRAF6;MADD;CRY2;ANKRD42;NDUFS3;NUP98;TOX;FJX1;TSG101;ZNF195;CSTF3;MRPL17;LIN7C;SPTY2D1;NUP160;STK33;ZBED5;QSER1;TRIM44;TUB;ZNF143;RIC3;BBOX1;GTF2H1;ELP4;HIPK3;FANCF;TTC17;PSMC3;RBMX;NUCB2;C11ORF58",56
"95","H3K14ac IMR90","39/4559",0.0477550779708938,0.192528366977393,0,0,1.28639211540587,3.91278014199816,"CARS;MTCH2;TSG101;PSMD13;CELF1;CTR9;NAT10;LIN7C;NUP160;C4ORF33;SMPD1;C11ORF49;ARFIP2;APBB1;ZBED5;METTL15;TRIM44;FNBP4;ZNF143;CCDC34;HARBI1;PRMT3;SCLT1;NR1H3;HPS5;ATG13;BTBD10;CKAP5;HIPK3;FANCF;TTC17;EIF3M;PSMC3;TRAF6;ANKRD42;NUP98;RBMX;NUCB2;C11ORF58",39
"96","H3K4me2 H1 BMP4 Derived Mesendoderm Cultured Cells","80/10539",0.0499730944676441,0.199371824803205,0,0,1.1414816574599,3.42018784968068,"CARS;C11ORF74;MTCH2;CELF1;ARHGAP1;DNHD1;ARHGAP36;CHRDL1;RRP8;ALKBH3;ZNF408;MDK;SMPD1;TRIM68;ARFIP2;FBXO3;ACP2;METTL15;HTATIP2;FNBP4;CCDC34;HARBI1;SLC35C1;PRMT3;TALDO1;ZDHHC13;SLC39A13;ATG13;DGKZ;CKAP5;MAPK8IP1;IMMP1L;RCN1;DEPDC7;TRAF6;CRY2;CAT;ANKRD42;NDUFS3;TOX;PXK;TSG101;ZNF195;PSMD13;CTR9;MRPL17;DNAJC24;LIN7C;SPTY2D1;PHF21A;NUP160;C4ORF33;STK33;COMMD9;C11ORF49;ZBED5;TRIM44;PEX16;ZNF143;RIC3;KDM4D;SAAL1;SCLT1;NR1H3;GTF2H1;HPS5;ELP4;BTBD10;MT3;HIPK3;FANCF;TTC17;UEVLD;ABTB2;EXT2;PPFIBP2;PSMC3;DCHS1;NUCB2;MARK2P9",80
