"","Term","Overlap","P.value","Adjusted.P.value","Old.P.value","Old.Adjusted.P.value","Odds.Ratio","Combined.Score","Genes","Overlap_Number"
"1","Spliceosome_Homo sapiens_hsa03040","91/134",4.14815121311978e-24,1.2154083054441e-21,0,0,2.59695784937644,139.818599166112,"ISY1;TCERG1;DDX46;EIF4A3;DDX42;HNRNPU;USP39;PQBP1;EFTUD2;MAGOH;DHX15;SNRPD3;TXNL4A;CTNNBL1;BCAS2;NCBP2;BUD31;PRPF40B;THOC3;PRPF40A;THOC2;PLRG1;WBP11;CRNKL1;PRPF4;RBMXL1;PRPF18;PRPF3;SNRPG;SRSF2;SRSF3;SNRNP27;PPIE;SRSF4;SNRPE;SNRPA1;RP9;SNRPF;SRSF6;SNRPC;SRSF7;SLU7;SNRPB;SRSF9;SF3B4;SF3B5;DDX5;SF3B2;SF3B3;DHX8;RBM8A;SF3B6;SRSF1;U2AF1;PRPF8;ZMAT2;PUF60;U2AF2;PCBP1;TRA2B;TRA2A;SNRPB2;HNRNPA1;SF3B1;SRSF10;SMNDC1;SF3A3;PRPF38B;PPIL1;PRPF38A;SF3A2;HSPA1L;ALYREF;CDC5L;CWC15;MAGOHB;LSM4;LSM3;U2SURP;LSM2;HNRNPM;LSM8;LSM7;SNRNP40;HNRNPK;LSM6;SNW1;PHF5A;ACIN1;PRPF31;RBMX",91
"2","Cell cycle_Homo sapiens_hsa04110","85/124",4.88741210445572e-23,7.16005873302763e-21,0,0,2.62135323505829,134.666240263486,"CDKN1C;CDKN1A;CDKN1B;MCM7;YWHAB;BUB1B;SMC3;CDC14A;CDC20;CDC23;CCND2;CCND1;YWHAQ;CDC26;CHEK2;CDC27;EP300;SKP2;YWHAG;YWHAH;CDC25C;SMC1A;YWHAZ;CDC25A;CDC25B;RBX1;CCNA2;TFDP1;RBL1;DBF4;TFDP2;ESPL1;CCNE1;MCM3;ANAPC4;MCM4;ANAPC5;MCM5;MCM6;MAD1L1;ANAPC1;MCM2;ANAPC13;PCNA;HDAC1;TTK;ANAPC11;ORC5;CCNB2;CCNB1;ORC6;CDC45;RAD21;ORC3;ORC2;E2F1;E2F2;E2F3;E2F4;BUB3;BUB1;SMAD2;CDKN2D;SMAD4;CDKN2B;CDKN2C;GADD45B;PLK1;CDC7;CDC6;GADD45G;MAD2L2;STAG1;CDK7;WEE1;STAG2;CDK6;CDK4;CDC16;CDK2;MDM2;CDK1;ATM;ATR;MAD2L1",85
"3","RNA transport_Homo sapiens_hsa03013","101/172",1.53900667059137e-19,1.50309651494424e-17,0,0,2.24554226510739,97.2723539807214,"POP5;EIF4A1;POP7;NUP107;NUP188;GEMIN2;FMR1;POP4;RPP30;EIF4A3;PHAX;MAGOH;PABPC4L;NUP214;NUP210;EIF1AX;THOC3;THOC2;TRNT1;THOC5;RPP25L;THOC7;SRRM1;THOC6;NUP93;EEF1A1;CLNS1A;EEF1A2;RPP21;GEMIN4;GEMIN6;GEMIN8;KPNB1;NUP205;POM121;RBM8A;AAAS;NUP160;FXR1;FXR2;NUP85;TPR;EIF4EBP1;NUP88;SMN1;EIF2B5;EIF2B4;UBE2I;NUP155;ALYREF;UPF3B;UPF3A;EIF2S2;MAGOHB;RNPS1;EIF4G2;EIF4G1;NXT1;XPO1;SUMO1;SUMO3;NUP62;EIF2B1;NDC1;EIF5B;UPF1;PRMT5;SEC13;NUP133;NCBP2;ELAC2;PABPC4;RANGAP1;NUP50;STRAP;NUP54;PABPC1;DDX20;NXF1;TGS1;RPP14;RAE1;EIF4E;EIF4B;PAIP1;RANBP2;XPOT;EIF3I;TACC3;EIF3G;NUP35;EIF3H;ACIN1;EIF3F;EIF3C;EIF3D;NUPL1;RAN;EIF3A;EIF3B;NUP37",101
"4","Ribosome_Homo sapiens_hsa03010","81/137",3.40331723978748e-16,2.49292987814433e-14,0,0,2.26095937251399,80.5277101708712,"RPL4;MRPS17;RPL5;MRPS16;RPL31;MRPS14;MRPS12;RPLP0;MRPS10;MRPL36;RPL8;RPL10A;MRPL34;RPL6;MRPL32;RPL7;RPS15;MRPL4;RPS4X;RPS14;RPL7A;RPS17;MRPL2;MRPL1;RPS19;RPL18A;RPS18;RPL35;RPLP2;RPL38;MRPL9;RPS11;RPS10;RPS7;RPS5;RPL22;RPS6;MRPS18A;RPL13A;MRPS2;MRPS21;RPSA;MRPS6;MRPS5;MRPS18C;RPL37A;RPL27;UBA52;MRPL18;MRPL19;RPL11;MRPL16;RPL36A;MRPL17;RPS27L;MRPL14;MRPL15;MRPL12;MRPL13;MRPL11;MRPL20;RPS15A;RPL14;RPS3;RPS2;RPL18;RPL19;RPL41;MRPL27;MRPL28;MRPL23;MRPL22;RPS26;RPS25;RPS28;RPS27;RPS29;RPL22L1;FAU;RSL24D1;RPS24",81
"5","DNA replication_Homo sapiens_hsa03030","32/36",3.92073686898427e-15,2.29755180522478e-13,0,0,3.39919269173571,112.759708627974,"RNASEH2C;PRIM2;FEN1;RNASEH2B;RNASEH2A;PCNA;MCM7;PRIM1;POLD3;RNASEH1;POLD1;POLD2;POLE;RFC5;RFC3;RFC4;LIG1;RFC1;RFC2;RPA1;RPA2;POLE4;POLA1;RPA3;POLE2;POLE3;MCM3;MCM4;MCM5;MCM6;SSBP1;MCM2",32
"6","Mismatch repair_Homo sapiens_hsa03430","20/23",1.63779638098655e-09,7.99790566048434e-08,0,0,3.32529719843711,67.2704769100495,"RFC5;RFC3;PCNA;RFC4;LIG1;RFC1;RFC2;RPA1;RPA2;MLH1;MLH3;POLD3;MSH6;MSH2;EXO1;RPA3;POLD1;POLD2;PMS2;SSBP1",20
"7","Fanconi anemia pathway_Homo sapiens_hsa03460","34/53",6.8685347541799e-09,2.87497240424959e-07,0,0,2.45319095205455,46.1109499764145,"BLM;BRCA1;BRCA2;BRIP1;SLX4;EME1;REV3L;USP1;POLI;PMS2;STRA13;POLH;FANCI;RMI2;FANCM;FANCL;TOP3A;FANCA;RPA1;RPA2;FANCB;MLH1;FANCE;PALB2;FANCG;FANCF;RAD51C;RAD51;APITD1;UBE2T;RPA3;ERCC1;TELO2;ATR",34
"8","Nucleotide excision repair_Homo sapiens_hsa03420","31/47",1.19100357697925e-08,4.3620506006865e-07,0,0,2.52227330051666,46.021107193159,"PCNA;CETN2;POLD3;POLD1;POLD2;POLE;RFC5;RFC3;RFC4;LIG1;RFC1;RFC2;RPA1;RPA2;RAD23A;GTF2H2;GTF2H3;RBX1;CUL4A;DDB1;POLE4;CDK7;ERCC3;RPA3;ERCC1;POLE2;POLE3;ERCC8;ERCC5;MNAT1;CUL4B",31
"9","RNA degradation_Homo sapiens_hsa03018","43/77",3.10890473310286e-08,1.0121212075546e-06,0,0,2.13553177224305,36.9156783289492,"BTG3;ZCCHC7;DDX6;BTG2;DIS3L;HSPD1;EXOSC7;EXOSC5;EXOSC10;EXOSC9;PABPC4L;EXOSC3;EXOSC2;DCPS;EXOSC1;HSPA9;CNOT6L;PNPT1;DIS3;PABPC4;LSM1;CNOT10;LSM4;PATL1;LSM3;LSM2;PAN2;LSM8;CNOT6;LSM7;LSM6;PAPD7;CNOT1;XRN2;C1D;CNOT3;RQCD1;SKIV2L;PABPC1;CNOT8;SKIV2L2;DCP2;MPHOSPH6",43
"10","Homologous recombination_Homo sapiens_hsa03440","22/29",3.11430386653513e-08,9.12491032894794e-07,0,0,2.90103514208479,50.1434498687367,"BLM;SHFM1;XRCC2;TOP3A;RPA1;RPA2;MRE11A;BRCA2;RAD54B;POLD3;RAD51B;RAD52;RAD50;RAD51C;RAD51;EME1;POLD1;RPA3;POLD2;RAD54L;NBN;SSBP1",22
"11","mRNA surveillance pathway_Homo sapiens_hsa03015","48/91",5.74107824826344e-08,1.52921447885562e-06,0,0,2.01710335553548,33.6312322295449,"HBS1L;DAZAP1;SMG1;NXT1;RBM8A;RNMT;CSTF3;EIF4A3;CSTF2;MSI1;PPP2R2A;SMG7;GSPT2;GSPT1;PPP1CC;NXF1;PPP2R1B;PPP2R5E;PPP2R1A;PCF11;CLP1;PPP2R3C;MAGOH;PAPOLA;PABPC4L;CSTF1;PELO;UPF1;CPSF4;CPSF6;RNGTT;NCBP2;PABPC4;ALYREF;CPSF2;PPP2R5B;SSU72;UPF3B;UPF3A;MAGOHB;SRRM1;WDR33;PPP1CA;NUDT21;WDR82;ACIN1;RNPS1;PABPC1",48
"12","Ubiquitin mediated proteolysis_Homo sapiens_hsa04120","64/137",1.67671645103805e-07,4.09398266795124e-06,0,0,1.78643703507278,27.8706655556295,"DET1;UBE3C;UBE2D3;KEAP1;UBE2D1;UBE3A;BRCA1;UBE2Z;CDC20;HERC4;CDC23;UBE2Q2;CDC26;CDC27;SKP2;PIAS4;FBXW8;UBE2E3;UBE4B;MID1;PIAS2;RBX1;DDB1;ANAPC4;ANAPC5;ANAPC1;ANAPC13;CUL7;CUL5;CUL2;NEDD4L;XIAP;UBE2J2;RCHY1;ANAPC11;RHOBTB2;SOCS3;UBR5;TCEB2;UBE2I;MAP3K1;UBE2C;FANCL;HUWE1;UBE2G2;PML;CUL4A;UBOX5;ITCH;UBE2S;RFWD2;NEDD4;CDC16;MDM2;UBE2O;UBA2;ERCC8;TRIM37;TRIP12;STUB1;SAE1;UBE2K;UBE2M;CUL4B",64
"13","Ribosome biogenesis in eukaryotes_Homo sapiens_hsa03008","46/89",2.37623374578933e-07,5.35566528858671e-06,0,0,1.97649687412723,30.1466744716611,"POP5;POP7;NXT1;NVL;WDR3;POP4;RPP30;HEATR1;FCF1;NAT10;PWP2;SPATA5;AK6;WDR43;EFTUD1;NOL6;FBL;NXF1;XPO1;NOB1;TCOF1;BMS1;GAR1;DROSHA;RIOK2;RIOK1;UTP15;NOP56;WDR36;NOP58;UTP6;REXO1;CSNK2A2;GNL2;GTPBP4;RPP25L;GNL3;LSG1;TBL3;DKC1;XRN2;SBDS;NHP2;MPHOSPH10;RAN;NOP10",46
"14","Pyrimidine metabolism_Homo sapiens_hsa00240","52/105",2.39377400530144e-07,5.00982702538088e-06,0,0,1.89383592825275,28.8719537952962,"PNP;ZNRD1;TK1;POLE;ENTPD1;ENTPD6;CAD;NME2;NME4;DCK;NME1;DCTD;POLR1A;POLR1B;DPYD;POLR1C;CMPK1;POLR1D;POLR1E;UMPS;DCTPP1;PRIM2;DTYMK;PRIM1;TYMS;POLD3;POLR2B;POLD1;TWISTNB;POLD2;POLR2D;POLR2E;POLR2F;POLR2G;POLR2H;POLR2I;POLR2J;POLR2L;DUT;RRM1;PNPT1;RRM2;TXNRD2;TXNRD1;POLE4;POLA1;POLR3A;POLE2;POLE3;POLR3F;POLR3K;ITPA",52
"15","Proteasome_Homo sapiens_hsa03050","27/44",9.10882460703422e-07,1.77925707324068e-05,0,0,2.34660177298801,32.6385366937102,"PSMD12;PSMD11;PSMD14;PSMD13;PSMA7;PSMD8;PSMB6;PSMB7;PSMD6;PSMD7;PSMB5;PSMB2;PSMD2;PSMD3;PSMD1;PSMF1;SHFM1;PSMB9;PSMA5;PSMC3;PSMA1;PSMC4;PSME3;PSMC1;PSMC2;PSME1;PSME2",27
"16","Epstein-Barr virus infection_Homo sapiens_hsa05169","82/202",4.91871076732179e-06,9.00738909265802e-05,0,0,1.55235408818128,18.9735921147751,"ATF2;CD40;CDKN1A;CDKN1B;YWHAB;GTF2B;AKAP8L;PSMD8;IKBKB;PSMD6;PSMD7;XPO1;YWHAQ;PSMD2;AKT3;PSMD3;AKT1;PSMD1;EP300;PRKACA;SKP2;YWHAG;YWHAH;NUP214;MAP2K3;MAP2K4;ENTPD1;USP7;TBP;CSNK2A2;YWHAZ;NCOR2;CCNA2;IRF3;TRAF3;POLR1C;POLR1D;TBPL1;PSMD12;PSMD11;PSMD14;PSMD13;HDAC1;PIK3R3;PIK3R2;GTF2E1;GTF2E2;MAPK9;MAPK8;POLR2B;POLR2D;POLR2E;POLR2F;RIPK1;POLR2G;PLCG1;POLR2H;POLR2I;POLR2J;POLR2L;JUN;HSPA1L;EIF2AK1;SHFM1;MAPK14;NFKB2;NFKBIA;MAPK11;SNW1;POLR3A;PSMC3;PSMC4;PSMC1;NEDD4;PSMC2;CDK2;MDM2;CDK1;POLR3F;VIM;POLR3K;RAN",82
"17","Basal transcription factors_Homo sapiens_hsa03022","26/45",7.07316510295153e-06,0.000121908080892047,0,0,2.20947524962821,26.2026143985067,"GTF2A1;GTF2A2;GTF2B;GTF2E1;GTF2E2;TAF5L;GTF2I;TBP;TAF15;TAF12;TAF10;TAF11;GTF2H2;GTF2H3;GTF2F1;GTF2F2;CDK7;ERCC3;TBPL1;TAF7;GTF2IRD1;TAF6;TAF5;MNAT1;TAF2;TAF1",26
"18","HTLV-I infection_Homo sapiens_hsa05166","99/258",1.01093002482586e-05,0.000164556942929988,0,0,1.46738405442661,16.8779317203046,"ATF1;ATF2;CRTC1;BUB1B;CDC20;ZFP36;CDC23;CCND2;KAT5;CCND1;CDC26;CHEK2;MYB;AKT3;CDC27;AKT1;EP300;PRKACA;MAP2K4;VDAC3;TBPL1;ANAPC4;VDAC1;ANAPC5;TLN1;ATF3;ANAPC1;ATF4;PIK3R3;PIK3R2;ANAPC11;CCNB2;TERT;DVL2;DVL3;SMAD2;EGR1;FDPS;EGR2;FZD3;JUN;SMAD4;FZD7;NFATC3;IL2;NFKB2;NFKBIA;CDK4;CDC16;ATM;TCF3;ATR;CD40;CDKN1A;WNT2B;TNFRSF13C;IKBKB;PPP3CB;PPP3CC;XPO1;TSPO;MYBL2;HRAS;MYBL1;POLE;TBP;FOS;TGFBR1;KAT2A;CREB1;VAC14;PCNA;SRF;ADCY3;XIAP;GPS2;IL2RG;ADCY6;POLD3;NRAS;MAPK8;POLD1;POLD2;E2F1;E2F2;E2F3;BUB3;RANBP1;MAP3K3;CDKN2B;CDKN2C;MAP3K1;NFYB;POLE4;POLE2;POLE3;CTNNB1;RAN;MAD2L1",99
"19","Progesterone-mediated oocyte maturation_Homo sapiens_hsa04914","45/98",1.877862346305e-05,0.000289586140772298,0,0,1.75596051039919,19.1097519147929,"ANAPC13;HSP90AB1;PDE3B;ARAF;GNAI3;PIK3R3;ADCY3;PIK3R2;ADCY6;GNAI1;IGF1R;ANAPC11;CCNB2;MAPK9;RPS6KA6;CCNB1;MAPK8;CDC23;CDC26;RPS6KA2;AKT3;CDC27;AKT1;PRKACA;BUB1;HSP90AA1;PLK1;BRAF;CDC25C;MAPK14;CDC25A;CDC25B;CCNA2;MAD2L2;MAPK11;CDC16;CDK2;SPDYA;CDK1;ANAPC4;ANAPC5;RAF1;MAD1L1;ANAPC1;MAD2L1",45
"20","FoxO signaling pathway_Homo sapiens_hsa04068","56/133",4.43965637733366e-05,0.000650409659279381,0,0,1.61014390661165,16.1374233414728,"CDKN1A;CDKN1B;ARAF;PTEN;PRKAG2;IRS2;SLC2A4;IGF1R;IKBKB;STK11;CCND2;CCND1;AKT3;AKT1;EP300;HOMER3;SKP2;HRAS;GABARAPL2;USP7;PDPK1;PRMT1;CSNK1E;PRKAB1;SIRT1;TGFBR1;RAF1;SOS1;FOXG1;PIK3R3;PIK3R2;FOXO4;EGFR;CCNB2;MAPK9;CCNB1;NRAS;MAPK8;BCL2L11;PCK2;PLK4;SMAD2;CDKN2D;SMAD4;CDKN2B;GADD45B;HOMER2;PLK1;BRAF;MAPK14;GADD45G;MAPK11;CCNG2;CDK2;MDM2;ATM",56
"21","RNA polymerase_Homo sapiens_hsa03020","19/32",7.32156472795411e-05,0.00102153260251931,0,0,2.27055449330784,21.6204501176662,"ZNRD1;POLR3A;POLR2B;POLR1A;POLR1B;TWISTNB;POLR2D;POLR1C;POLR2E;POLR3F;POLR1D;POLR2F;POLR1E;POLR2G;POLR2H;POLR2I;POLR2J;POLR3K;POLR2L",19
"22","Base excision repair_Homo sapiens_hsa03410","19/33",0.000130344236618224,0.00173594824223362,0,0,2.20174981169245,19.6953822389879,"FEN1;PCNA;LIG1;PARP1;PARP2;XRCC1;LIG3;UNG;POLD3;POLE4;NEIL3;NTHL1;POLD1;POLE2;APEX1;POLD2;POLE3;POLL;POLE",19
"23","p53 signaling pathway_Homo sapiens_hsa04115","31/69",0.000569336237139324,0.00725284858616617,0,0,1.71807021919251,12.8357702513363,"CDKN1A;GORAB;PTEN;RCHY1;PPM1D;PIDD1;CCNB2;CCNB1;CCND2;CCND1;CHEK2;CASP3;SESN2;BID;GTSE1;RPRM;RRM2;APAF1;GADD45B;GADD45G;CDK6;CCNE1;CDK4;RFWD2;CCNG2;CDK2;CDK1;MDM2;CYCS;ATM;ATR",31
"24","Oocyte meiosis_Homo sapiens_hsa04114","48/123",0.00117189991739305,0.0143069448248402,0,0,1.4923284988108,10.0719175282406,"ANAPC13;YWHAB;ADCY3;SMC3;ADCY6;IGF1R;ANAPC11;AURKA;CDC20;PPP1CC;CCNB2;RPS6KA6;CCNB1;PPP3CB;CDC23;SGOL1;PPP3CC;PPP2R1B;YWHAQ;PPP2R1A;PPP2R5E;CDC26;RPS6KA2;CDC27;FBXO5;PRKACA;BUB1;YWHAG;YWHAH;PLK1;PPP2R5B;CDC25C;SMC1A;YWHAZ;RBX1;PPP1CA;MAD2L2;STAG3;ESPL1;CCNE1;CDC16;CDK2;SPDYA;CDK1;ANAPC4;ANAPC5;ANAPC1;MAD2L1",48
"25","Non-homologous end-joining_Homo sapiens_hsa03450","9/13",0.001400821809353,0.0164176316056171,0,0,2.64744815414031,17.3955775470249,"FEN1;XRCC6;RAD50;DCLRE1C;XRCC4;XRCC5;POLM;MRE11A;POLL",9
"26","Colorectal cancer_Homo sapiens_hsa05210","27/62",0.00220805758661237,0.0248831104952855,0,0,1.66533029050762,10.1845639850972,"TCF7;ARAF;PIK3R3;PIK3R2;MAPK9;MAPK8;CCND1;CASP3;AKT3;AKT1;APPL1;SMAD2;JUN;SMAD4;DCC;AXIN1;BRAF;AXIN2;FOS;MLH1;TGFBR1;MSH6;MSH2;BIRC5;CYCS;CTNNB1;RAF1",27
"27","Viral carcinogenesis_Homo sapiens_hsa05203","72/205",0.00268785193764948,0.0291681710270851,0,0,1.34309564892972,7.9498005264222,"ATF2;CDKN1A;CDKN1B;DDX3X;YWHAB;GTF2B;HDAC11;UBE3A;CHD4;CDC20;CCND2;CCND1;YWHAQ;CREB3L4;CASP3;EP300;PRKACA;SKP2;HRAS;YWHAG;YWHAH;USP7;TBP;MRPS18B;SCRIB;YWHAZ;HIST2H2BE;DDB1;CCNA2;KAT2A;CREB1;RBL1;IRF3;CCNE1;TRAF3;MAPKAPK2;VDAC3;TBPL1;MAD1L1;ATF4;GTF2A1;VAC14;GTF2A2;HDAC3;HDAC1;SRF;UBR4;PIK3R3;PIK3R2;GTF2E1;HDAC9;GTF2E2;HDAC6;NRAS;BAK1;RANBP1;EGR2;JUN;CDKN2B;EGR3;GTF2H2;GTF2H3;NFKB2;NFKBIA;HNRNPK;SNW1;CDK6;CDK4;PSMC1;CDK2;MDM2;CDK1",72
"28","Chronic myeloid leukemia_Homo sapiens_hsa05220","30/73",0.00378355738825116,0.0395922255270568,0,0,1.57154456638466,8.76464643481314,"CDKN1A;CDKN1B;CTBP2;HDAC1;CTBP1;ARAF;PIK3R3;PIK3R2;CRKL;IKBKB;NRAS;CCND1;AKT3;E2F1;AKT1;E2F2;E2F3;HRAS;SMAD4;PTPN11;BRAF;GAB2;TGFBR1;NFKBIA;CDK6;CDK4;MDM2;RAF1;SOS1;CRK",30
"29","Bladder cancer_Homo sapiens_hsa05219","19/41",0.00418496137710345,0.0422825408100452,0,0,1.77214009233783,9.70469601039553,"CDKN1A;DAPK1;MMP2;DAPK3;ARAF;BRAF;EGFR;NRAS;RASSF1;RPS6KA5;CCND1;CDK4;ERBB2;E2F1;MDM2;E2F2;E2F3;RAF1;HRAS",19
"30","Hepatitis B_Homo sapiens_hsa05161","53/146",0.0042685133897625,0.0416891474400138,0,0,1.38819770030645,7.57468640420073,"ATF2;CDKN1A;DDX3X;CDKN1B;YWHAB;PTEN;IKBKB;CCND1;YWHAQ;CREB3L4;CASP3;AKT3;AKT1;EP300;HRAS;MAP2K4;APAF1;FOS;YWHAZ;TGFBR1;CCNA2;DDB1;CREB1;IRF3;CCNE1;VDAC3;BIRC5;RAF1;ATF4;PCNA;PIK3R3;PIK3R2;MAPK9;NRAS;MAPK8;E2F1;E2F2;E2F3;FADD;EGR2;SMAD4;JUN;EGR3;MAP3K1;STAT2;NFATC3;NFKBIA;CDK6;CDK4;CDK2;CYCS;MYD88;LAMTOR5",53
"31","Purine metabolism_Homo sapiens_hsa00230","62/176",0.0046942331561458,0.044368074669378,0,0,1.34712324004867,7.22249417096633,"PRUNE;PDE3B;NUDT5;PNP;ATIC;ZNRD1;PPAT;ENPP4;POLE;PGM1;GUCY1A2;ENTPD1;ADSL;ENTPD6;NME2;NME4;DCK;NME1;POLR1A;POLR1B;POLR1C;POLR1D;POLR1E;GART;PRPS2;PRIM2;PRPS1;GMPR2;PRIM1;AK2;GMPS;ADCY3;NTPCR;AK6;ADCY6;POLD3;POLR2B;POLD1;TWISTNB;POLD2;POLR2D;POLR2E;POLR2F;POLR2G;POLR2H;POLR2I;ADSS;POLR2J;POLR2L;RRM1;PNPT1;RRM2;PAICS;POLE4;POLA1;POLR3A;POLE2;POLE3;POLR3F;POLR3K;ITPA;ADA",62
