"","Term","Overlap","P.value","Adjusted.P.value","Old.P.value","Old.Adjusted.P.value","Odds.Ratio","Combined.Score","Genes","Overlap_Number"
"1","diamond-blackfan_anemia","31/85",0.0229897756123215,1,0,0,1.39466876616804,5.26167480440952,"RPL5;CEBPA;THRA;CTBP1;GTF2B;RPL11;PTPRK;EGFR;IGF1R;RPS17;CCND1;RPS19;EP300;KPNA2;PRKACA;BUB1;MEN1;SMAD1;HSP90AA1;POU2F1;RPS7;FUS;CSNK2A2;ARNT;AXIN2;FOS;TSHR;NCOR2;CREB1;CTNNB1;RPS24",31
"2","fanconi_anemia","32/90",0.030524799802969,1,0,0,1.35967707669429,4.74420676265058,"CEBPA;THRA;CTBP1;GTF2B;PTPRK;EGFR;IGF1R;BRIP1;CCND1;EP300;KPNA2;PRKACA;BUB1;MEN1;FANCI;SMAD1;HSP90AA1;POU2F1;FANCM;FUS;CSNK2A2;FANCA;ARNT;AXIN2;FOS;FANCE;PALB2;TSHR;FANCF;NCOR2;CREB1;CTNNB1",32
"3","anemia","22/60",0.0471203828970914,1,0,0,1.40216698534098,4.2836897068702,"FANCI;RPL5;MTRR;GPX1;RPS7;FANCM;PUS1;GLRX5;RPL11;GSR;FANCA;BRCA2;FANCE;PALB2;FANCF;DHFR;RPS17;BRIP1;RPS19;TERT;IRF1;RPS24",22
"4","charcot-marie-tooth_disease","35/104",0.0537968133566158,1,0,0,1.28695396381821,3.76117578210181,"CEBPA;PRPS1;MTMR2;THRA;CTBP1;GTF2B;PTPRK;EGFR;IGF1R;FGD4;CCND1;LMNA;EP300;MFN2;KPNA2;PRKACA;SBF2;BUB1;MEN1;YARS;SMAD1;EGR2;HSP90AA1;POU2F1;FUS;CSNK2A2;ARNT;AXIN2;FOS;GDAP1;TSHR;NCOR2;CREB1;CTNNB1;GARS",35
"5","adenocarcinoma","28/83",0.0760221391953913,1,0,0,1.29005505770693,3.32412444081197,"CEBPA;THRA;CTBP1;GTF2B;PTPRK;EGFR;IGF1R;RAD54B;CCND1;ERBB2;EP300;RAD54L;KPNA2;PRKACA;BUB1;MEN1;SMAD1;HSP90AA1;POU2F1;FUS;CSNK2A2;ARNT;AXIN2;FOS;TSHR;NCOR2;CREB1;CTNNB1",28
"6","xeroderma_pigmentosum","29/87",0.0822733419239191,1,0,0,1.27469725940089,3.18382171728493,"CEBPA;THRA;CTBP1;GTF2B;PTPRK;EGFR;IGF1R;CCND1;EP300;KPNA2;PRKACA;BUB1;POLH;MEN1;SMAD1;HSP90AA1;POU2F1;PARP1;FUS;CSNK2A2;ARNT;AXIN2;FOS;TSHR;NCOR2;CREB1;ERCC3;CTNNB1;ERCC5",29
"7","cutis_laxa","28/84",0.0865685968335698,1,0,0,1.27469725940089,3.11895239304827,"CEBPA;THRA;CTBP1;GTF2B;ELN;PTPRK;EGFR;IGF1R;EFEMP2;CCND1;EP300;KPNA2;ATP7A;PRKACA;BUB1;MEN1;SMAD1;HSP90AA1;POU2F1;FUS;CSNK2A2;ARNT;AXIN2;FOS;TSHR;NCOR2;CREB1;CTNNB1",28
"8","breast_cancer","34/105",0.0912124308659609,1,0,0,1.23827733770372,2.96513444364586,"CEBPA;THRA;CTBP1;GTF2B;HMMR;PTPRK;BRCA2;PPM1D;EGFR;IGF1R;BRIP1;CCND1;CHEK2;EP300;RAD54L;KPNA2;PRKACA;BUB1;MEN1;BARD1;SMAD1;HSP90AA1;POU2F1;FUS;CSNK2A2;ARNT;AXIN2;FOS;PALB2;TSHR;NCOR2;CREB1;CTNNB1;ATM",34
"9","leukodystrophy","28/85",0.0980511853272061,1,0,0,1.259700821055,2.92535993014707,"CEBPA;THRA;CTBP1;GTF2B;PTPRK;EGFR;LMNB1;IGF1R;HSPD1;CCND1;EP300;KPNA2;PRKACA;BUB1;MEN1;SMAD1;HSP90AA1;POU2F1;FUS;CSNK2A2;ARNT;AXIN2;FOS;FAM126A;TSHR;NCOR2;CREB1;CTNNB1",28
"10","thyroid_carcinoma","30/93",0.111703486766675,1,0,0,1.23357799296861,2.70388867937585,"CEBPA;THRA;CTBP1;GTF2B;PTEN;PTPRK;EGFR;IGF1R;PCM1;NRAS;CCND1;EP300;KPNA2;PRKACA;HRAS;BUB1;MEN1;SMAD1;HSP90AA1;POU2F1;FUS;CSNK2A2;ARNT;AXIN2;FOS;TSHR;NCOR2;CREB1;CTNNB1;TRIM33",30
"11","prostate_cancer","34/107",0.113051059361157,1,0,0,1.21513196690552,2.64888526385915,"CEBPA;RNASEL;HIP1;THRA;CTBP1;GTF2B;PTEN;PTPRK;BRCA2;EGFR;IGF1R;CCND1;CHEK2;EP300;KPNA2;PRKACA;EPHB2;BUB1;MEN1;SMAD1;ZFHX3;HSP90AA1;POU2F1;FUS;ELAC2;CSNK2A2;ARNT;AXIN2;FOS;TSHR;NCOR2;CREB1;CTNNB1;MAD1L1",34
"12","dyskeratosis","27/83",0.116393831334444,1,0,0,1.24398166278882,2.67552558195014,"CEBPA;THRA;CTBP1;GTF2B;PTPRK;EGFR;IGF1R;CCND1;TERT;EP300;KPNA2;PRKACA;BUB1;MEN1;SMAD1;HSP90AA1;POU2F1;FUS;CSNK2A2;ARNT;AXIN2;FOS;TSHR;NCOR2;CREB1;DKC1;CTNNB1",27
"13","homocystinuria","27/83",0.116393831334444,1,0,0,1.24398166278882,2.67552558195014,"CEBPA;MTRR;THRA;CTBP1;GTF2B;PTPRK;EGFR;IGF1R;CCND1;EP300;KPNA2;PRKACA;BUB1;MEN1;SMAD1;HSP90AA1;POU2F1;FUS;CSNK2A2;ARNT;AXIN2;FOS;TSHR;NCOR2;CREB1;CTNNB1;MMACHC",27
"14","lipodystrophy","27/83",0.116393831334444,1,0,0,1.24398166278882,2.67552558195014,"CEBPA;THRA;CTBP1;GTF2B;PTPRK;LMNB2;EGFR;IGF1R;CCND1;LMNA;EP300;KPNA2;PRKACA;BUB1;MEN1;SMAD1;HSP90AA1;POU2F1;FUS;CSNK2A2;ARNT;AXIN2;FOS;TSHR;NCOR2;CREB1;CTNNB1",27
"15","lissencephaly","27/83",0.116393831334444,1,0,0,1.24398166278882,2.67552558195014,"CEBPA;THRA;CTBP1;GTF2B;PTPRK;EGFR;IGF1R;TUBA1A;CCND1;EP300;KPNA2;PRKACA;BUB1;MEN1;SMAD1;HSP90AA1;POU2F1;FUS;CSNK2A2;ARNT;AXIN2;FOS;TSHR;NCOR2;CREB1;DCX;CTNNB1",27
"16","nephronophthisis","27/83",0.116393831334444,1,0,0,1.24398166278882,2.67552558195014,"CEBPA;THRA;CTBP1;GTF2B;PTPRK;EGFR;IGF1R;CCND1;NPHP1;EP300;KPNA2;PRKACA;BUB1;MEN1;NEK8;SMAD1;HSP90AA1;POU2F1;FUS;CSNK2A2;ARNT;AXIN2;FOS;TSHR;NCOR2;CREB1;CTNNB1",27
"17","colorectal_cancer","35/111",0.119050711587159,1,0,0,1.20579470483868,2.56617919866015,"CEBPA;THRA;CTBP1;GTF2B;BUB1B;PTPRK;EGFR;IGF1R;NRAS;CCND1;CHEK2;EP300;PMS2;KPNA2;PRKACA;BUB1;MEN1;SMAD1;HSP90AA1;POU2F1;FUS;DCC;CSNK2A2;ARNT;BRAF;AXIN2;FOS;MLH1;MLH3;TSHR;MSH6;NCOR2;CREB1;MSH2;CTNNB1",35
"18","adenoma","26/80",0.12267302062839,1,0,0,1.24282982791587,2.60774634979766,"CEBPA;THRA;CTBP1;GTF2B;ODC1;PTPRK;EGFR;IGF1R;CCND1;EP300;KPNA2;PRKACA;BUB1;MEN1;SMAD1;HSP90AA1;POU2F1;FUS;CSNK2A2;ARNT;AXIN2;FOS;TSHR;NCOR2;CREB1;CTNNB1",26
"19","colon_cancer","27/84",0.130521576588013,1,0,0,1.22917235727943,2.50286131554535,"CEBPA;THRA;CTBP1;GTF2B;PTPRK;BCL10;EGFR;IGF1R;CCND1;EP300;KPNA2;PRKACA;BUB1;MEN1;SMAD1;HSP90AA1;POU2F1;FUS;CSNK2A2;ARNT;AXIN2;FOS;MLH3;TSHR;NCOR2;CREB1;CTNNB1",27
"20","endometrial_cancer","27/84",0.130521576588013,1,0,0,1.22917235727943,2.50286131554535,"CEBPA;THRA;CTBP1;GTF2B;PTEN;PTPRK;EGFR;IGF1R;CCND1;EP300;KPNA2;PRKACA;BUB1;MEN1;SMAD1;HSP90AA1;POU2F1;FUS;CSNK2A2;ARNT;AXIN2;FOS;TSHR;NCOR2;MSH6;CREB1;CTNNB1",27
"21","porphyria","27/84",0.130521576588013,1,0,0,1.22917235727943,2.50286131554535,"CEBPA;THRA;CTBP1;GTF2B;PTPRK;PPOX;EGFR;IGF1R;CCND1;EP300;KPNA2;PRKACA;BUB1;MEN1;SMAD1;HSP90AA1;POU2F1;FUS;UROS;CSNK2A2;ARNT;AXIN2;FOS;TSHR;NCOR2;CREB1;CTNNB1",27
"22","sarcoma","27/84",0.130521576588013,1,0,0,1.22917235727943,2.50286131554535,"CEBPA;THRA;CTBP1;GTF2B;PTPRK;EGFR;IGF1R;CCND1;EP300;KPNA2;PRKACA;BUB1;MEN1;SS18;SMAD1;HSP90AA1;POU2F1;FUS;CSNK2A2;ARNT;AXIN2;FOS;TSHR;NCOR2;CREB1;EWSR1;CTNNB1",27
"23","squamous_cell_carcinoma","27/84",0.130521576588013,1,0,0,1.22917235727943,2.50286131554535,"CEBPA;THRA;CTBP1;GTF2B;PTPRK;ING1;EGFR;IGF1R;CCND1;EP300;KPNA2;PRKACA;LZTS1;BUB1;MEN1;SMAD1;HSP90AA1;POU2F1;FUS;CSNK2A2;ARNT;AXIN2;FOS;TSHR;NCOR2;CREB1;CTNNB1",27
"24","microcephaly","29/91",0.131219346450253,1,0,0,1.21866661063602,2.47497168548497,"CEBPA;THRA;CTBP1;GTF2B;PTPRK;EGFR;IGF1R;CCND1;EP300;KPNA2;PRKACA;BUB1;MEN1;SMAD1;HSP90AA1;STIL;POU2F1;FUS;CSNK2A2;ARNT;AXIN2;FOS;TSHR;NCOR2;ASPM;MYCN;CREB1;CTNNB1;MCPH1",29
"25","ehlers-danlos","28/88",0.138212552733348,1,0,0,1.21675647488267,2.40791548601224,"CEBPA;THRA;CTBP1;GTF2B;PTPRK;EGFR;IGF1R;CCND1;EP300;KPNA2;PRKACA;BUB1;MEN1;SMAD1;HSP90AA1;POU2F1;FUS;CSNK2A2;ARNT;AXIN2;FOS;TSHR;NCOR2;COL1A1;COL3A1;CREB1;COL5A2;CTNNB1",28
"26","pancreatic_cancer","28/88",0.138212552733348,0.994067206197543,0,0,1.21675647488267,2.40791548601224,"CEBPA;THRA;CTBP1;GTF2B;PTPRK;BRCA2;EGFR;IGF1R;STK11;CCND1;RBBP8;EP300;KPNA2;PRKACA;BUB1;MEN1;SMAD1;HSP90AA1;POU2F1;FUS;CSNK2A2;ARNT;AXIN2;FOS;TSHR;NCOR2;CREB1;CTNNB1",28
"27","hermansky-pudlak_syndrome","27/85",0.145637105751953,1,0,0,1.21471150601732,2.3403085308394,"CEBPA;THRA;CTBP1;GTF2B;PTPRK;EGFR;IGF1R;CCND1;BLOC1S3;EP300;KPNA2;PRKACA;BUB1;MEN1;SMAD1;HSP90AA1;POU2F1;FUS;CSNK2A2;ARNT;AXIN2;FOS;HPS5;TSHR;NCOR2;CREB1;CTNNB1",27
"28","joubert_syndrome","27/85",0.145637105751953,0.972647813414826,0,0,1.21471150601732,2.3403085308394,"CEBPA;THRA;CTBP1;GTF2B;PTPRK;EGFR;IGF1R;CCND1;TMEM67;NPHP1;EP300;KPNA2;PRKACA;BUB1;MEN1;SMAD1;HSP90AA1;POU2F1;FUS;CSNK2A2;ARNT;AXIN2;FOS;TSHR;NCOR2;CREB1;CTNNB1",27
"29","leukoencephalopathy","27/85",0.145637105751953,0.939108233641901,0,0,1.21471150601732,2.3403085308394,"CEBPA;THRA;CTBP1;GTF2B;PTPRK;EGFR;IGF1R;CCND1;EP300;KPNA2;EIF2B1;PRKACA;BUB1;MEN1;EIF2B5;SMAD1;HSP90AA1;POU2F1;FUS;CSNK2A2;ARNT;AXIN2;FOS;TSHR;NCOR2;CREB1;CTNNB1",27
"30","bardet-biedl_syndrome","29/92",0.145744233033886,0.908472385911221,0,0,1.20542023443345,2.32152126692123,"CEBPA;THRA;CTBP1;GTF2B;PTPRK;EGFR;IGF1R;CCND1;TMEM67;EP300;KPNA2;PRKACA;BBS5;BUB1;MEN1;SMAD1;MKKS;HSP90AA1;POU2F1;FUS;CSNK2A2;ARNT;AXIN2;FOS;TSHR;NCOR2;CREB1;BBS12;CTNNB1",29
"31","disorder_of_glycosylation","30/96",0.153116529355774,0.923638419017089,0,0,1.19502868068834,2.24253826207717,"CEBPA;THRA;CTBP1;GTF2B;PTPRK;RTF1;EGFR;IGF1R;CCND1;EP300;KPNA2;PRKACA;BUB1;MEN1;SLC35A1;SMAD1;HSP90AA1;COG8;ALG8;POU2F1;FUS;CSNK2A2;ARNT;AXIN2;FOS;TSHR;DPM1;NCOR2;CREB1;CTNNB1",30
"32","ovarian_cancer","28/89",0.153496510741931,0.896995234648159,0,0,1.20308505381657,2.25467456201314,"CEBPA;THRA;CTBP1;GTF2B;PTPRK;BRCA1;BRCA2;EGFR;IGF1R;CCND1;ERBB2;EP300;KPNA2;PRKACA;BUB1;MEN1;SMAD1;HSP90AA1;POU2F1;FUS;CSNK2A2;ARNT;AXIN2;FOS;TSHR;NCOR2;CREB1;CTNNB1",28
"33","chondrodysplasia","27/86",0.161724353765341,0.916438004670266,0,0,1.20058695362177,2.18730364398342,"CEBPA;THRA;CTBP1;GTF2B;PTPRK;EGFR;IGF1R;CCND1;COL10A1;EP300;KPNA2;PRKACA;BUB1;MEN1;SMAD1;HSP90AA1;POU2F1;FUS;CSNK2A2;ARNT;AXIN2;FOS;TSHR;NCOR2;GNPAT;CREB1;CTNNB1",27
"34","holoprosencephaly","27/86",0.161724353765341,0.889483945709376,0,0,1.20058695362177,2.18730364398342,"CEBPA;THRA;CTBP1;GTF2B;PTPRK;EGFR;IGF1R;CCND1;ZIC2;SIX3;EP300;KPNA2;PRKACA;BUB1;MEN1;SMAD1;HSP90AA1;POU2F1;FUS;CSNK2A2;ARNT;AXIN2;FOS;TSHR;NCOR2;CREB1;CTNNB1",27
"35","spinal_muscular_atrophy","27/86",0.161724353765341,0.864070118689108,0,0,1.20058695362177,2.18730364398342,"CEBPA;THRA;CTBP1;GTF2B;PTPRK;EGFR;IGF1R;CCND1;EP300;SMN1;KPNA2;PRKACA;BUB1;MEN1;SMAD1;HSP90AA1;POU2F1;FUS;CSNK2A2;ARNT;AXIN2;FOS;TSHR;NCOR2;CREB1;VAPB;CTNNB1",27
"36","adrenoleukodystrophy","26/83",0.17046424545926,0.885467052802266,0,0,1.19790826787072,2.11937489533602,"CEBPA;THRA;CTBP1;GTF2B;PTPRK;EGFR;IGF1R;CCND1;EP300;KPNA2;PRKACA;BUB1;MEN1;SMAD1;HSP90AA1;POU2F1;FUS;CSNK2A2;ARNT;PEX1;AXIN2;FOS;TSHR;NCOR2;CREB1;CTNNB1",26
"37","arthrogryposis","26/83",0.17046424545926,0.861535510834637,0,0,1.19790826787072,2.11937489533602,"CEBPA;THRA;CTBP1;GTF2B;PTPRK;EGFR;IGF1R;GLE1;CCND1;EP300;KPNA2;PRKACA;BUB1;MEN1;SMAD1;HSP90AA1;POU2F1;FUS;CSNK2A2;ARNT;AXIN2;FOS;TSHR;NCOR2;CREB1;CTNNB1",26
"38","bare_lymphocyte_syndrome","26/83",0.17046424545926,0.83886352370741,0,0,1.19790826787072,2.11937489533602,"CEBPA;THRA;CTBP1;GTF2B;PTPRK;EGFR;IGF1R;CCND1;EP300;KPNA2;PRKACA;BUB1;MEN1;SMAD1;HSP90AA1;POU2F1;FUS;CSNK2A2;ARNT;AXIN2;FOS;TSHR;NCOR2;CREB1;RFX5;CTNNB1",26
"39","glioblastoma","26/83",0.17046424545926,0.817354202586707,0,0,1.19790826787072,2.11937489533602,"CEBPA;THRA;CTBP1;GTF2B;PTPRK;EGFR;IGF1R;CCND1;ERBB2;EP300;KPNA2;PRKACA;BUB1;MEN1;SMAD1;HSP90AA1;POU2F1;FUS;CSNK2A2;ARNT;AXIN2;FOS;TSHR;NCOR2;CREB1;CTNNB1",26
"40","infections","26/83",0.17046424545926,0.796920347522039,0,0,1.19790826787072,2.11937489533602,"CEBPA;THRA;CTBP1;GTF2B;PTPRK;EGFR;IGF1R;CCND1;EP300;KPNA2;PRKACA;BUB1;MEN1;SMAD1;HSP90AA1;POU2F1;FUS;CSNK2A2;ARNT;AXIN2;FOS;TSHR;NCOR2;CREB1;CTNNB1;MYD88",26
"41","lymphoproliferative_syndrome","26/83",0.17046424545926,0.77748326587516,0,0,1.19790826787072,2.11937489533602,"CEBPA;THRA;CTBP1;GTF2B;PTPRK;EGFR;IGF1R;NRAS;CCND1;EP300;KPNA2;PRKACA;BUB1;MEN1;SMAD1;HSP90AA1;POU2F1;FUS;CSNK2A2;ARNT;AXIN2;FOS;TSHR;NCOR2;CREB1;CTNNB1",26
"42","meckel_syndrome","26/83",0.17046424545926,0.758971759544799,0,0,1.19790826787072,2.11937489533602,"CEBPA;THRA;CTBP1;GTF2B;PTPRK;EGFR;IGF1R;CCND1;TMEM67;EP300;KPNA2;PRKACA;BUB1;MEN1;SMAD1;HSP90AA1;POU2F1;FUS;CSNK2A2;ARNT;AXIN2;FOS;TSHR;NCOR2;CREB1;CTNNB1",26
"43","mitochondrial_dna_depletion_syndrome","26/83",0.17046424545926,0.741321253508874,0,0,1.19790826787072,2.11937489533602,"CEBPA;THRA;CTBP1;GTF2B;PTPRK;EGFR;IGF1R;CCND1;EP300;KPNA2;PRKACA;BUB1;MEN1;SMAD1;HSP90AA1;POU2F1;FUS;CSNK2A2;ARNT;AXIN2;FOS;TSHR;NCOR2;CREB1;SUCLA2;CTNNB1",26
"44","mucopolysaccharidosis","26/83",0.17046424545926,0.724473043201854,0,0,1.19790826787072,2.11937489533602,"CEBPA;THRA;CTBP1;GTF2B;PTPRK;EGFR;IGF1R;CCND1;EP300;KPNA2;GUSB;PRKACA;BUB1;MEN1;SMAD1;HSP90AA1;POU2F1;FUS;CSNK2A2;ARNT;AXIN2;FOS;TSHR;NCOR2;CREB1;CTNNB1",26
"45","preeclampsia","26/83",0.17046424545926,0.708373642241813,0,0,1.19790826787072,2.11937489533602,"CEBPA;THRA;CTBP1;GTF2B;PTPRK;EGFR;IGF1R;CCND1;EP300;KPNA2;PRKACA;BUB1;STOX1;MEN1;SMAD1;HSP90AA1;POU2F1;FUS;CSNK2A2;ARNT;AXIN2;FOS;TSHR;NCOR2;CREB1;CTNNB1",26
"46","coronary_artery_disease","27/87",0.17875820006177,0.726690943729369,0,0,1.18678710358014,2.0433165445901,"CX3CR1;CEBPA;THRA;CTBP1;GTF2B;PTPRK;EGFR;IGF1R;LRP6;CCND1;EP300;KPNA2;PRKACA;BUB1;MEN1;SMAD1;HSP90AA1;POU2F1;FUS;CSNK2A2;ARNT;AXIN2;FOS;TSHR;NCOR2;CREB1;CTNNB1",27
"47","gastric_cancer","27/87",0.17875820006177,0.711229434288319,0,0,1.18678710358014,2.0433165445901,"CEBPA;THRA;CTBP1;GTF2B;PTPRK;EGFR;IGF1R;CCND1;ERBB2;EP300;KPNA2;PRKACA;BUB1;MEN1;SMAD1;HSP90AA1;POU2F1;FUS;CSNK2A2;ARNT;AXIN2;FOS;TSHR;NCOR2;CREB1;IRF1;CTNNB1",27
"48","neuropathy","34/112",0.181047025454632,0.705329036667002,0,0,1.16088500409724,1.98395069854051,"CEBPA;CTDP1;THRA;CTBP1;GTF2B;ELAVL4;PTPRK;EGFR;IGF1R;CCND1;PRX;EP300;MFN2;SLC12A6;KPNA2;PRKACA;BUB1;CCT5;MEN1;SMAD1;EGR2;HSP90AA1;POU2F1;FUS;CSNK2A2;ARNT;GP1BA;AXIN2;FOS;TSHR;NCOR2;CREB1;CTNNB1;GARS",34
"49","encephalopathy","28/91",0.186808753087085,0.712923200556833,0,0,1.17664362406236,1.97401958666545,"CEBPA;THRA;CTBP1;GTF2B;ARX;PTPRK;EGFR;IGF1R;CCND1;SLC19A3;EP300;KPNA2;PRKACA;BUB1;MEN1;RANBP2;SMAD1;HSP90AA1;POU2F1;FUS;CSNK2A2;ARNT;AXIN2;FOS;TSHR;NCOR2;CREB1;CTNNB1",28
"50","aids","26/84",0.188369580855591,0.70450223239991,0,0,1.18364745515797,1.97592115760143,"CX3CR1;CEBPA;THRA;CTBP1;GTF2B;PTPRK;EGFR;IGF1R;CCND1;EP300;KPNA2;PRKACA;BUB1;MEN1;SMAD1;HSP90AA1;POU2F1;FUS;CSNK2A2;ARNT;AXIN2;FOS;TSHR;NCOR2;CREB1;CTNNB1",26
"51","dermatitis","26/84",0.188369580855591,0.690688463137167,0,0,1.18364745515797,1.97592115760143,"CEBPA;THRA;CTBP1;GTF2B;PTPRK;EGFR;IGF1R;SOCS3;CCND1;EP300;KPNA2;PRKACA;BUB1;MEN1;SMAD1;HSP90AA1;POU2F1;FUS;CSNK2A2;ARNT;AXIN2;FOS;TSHR;NCOR2;CREB1;CTNNB1",26
"52","epiphyseal_dysplasia,_multiple","26/84",0.188369580855591,0.677405992692221,0,0,1.18364745515797,1.97592115760143,"CEBPA;THRA;CTBP1;GTF2B;PTPRK;EGFR;IGF1R;CCND1;EP300;KPNA2;PRKACA;BUB1;MEN1;SMAD1;HSP90AA1;POU2F1;FUS;CSNK2A2;ARNT;AXIN2;FOS;TSHR;NCOR2;CREB1;CTNNB1;COL9A2",26
"53","neutropenia","26/84",0.188369580855591,0.664624747547085,0,0,1.18364745515797,1.97592115760143,"CEBPA;THRA;CTBP1;GTF2B;PTPRK;EGFR;IGF1R;CCND1;EP300;KPNA2;PRKACA;BUB1;MEN1;SMAD1;HSP90AA1;POU2F1;FUS;CSNK2A2;ARNT;AXIN2;FOS;TSHR;NCOR2;HAX1;CREB1;CTNNB1",26
"54","polydactyly","26/84",0.188369580855591,0.652316881851769,0,0,1.18364745515797,1.97592115760143,"CEBPA;THRA;CTBP1;GTF2B;PTPRK;EGFR;IGF1R;MIPOL1;CCND1;EP300;KPNA2;PRKACA;BUB1;MEN1;SMAD1;HSP90AA1;POU2F1;FUS;CSNK2A2;ARNT;AXIN2;FOS;TSHR;NCOR2;CREB1;CTNNB1",26
"55","wilms_tumor","26/84",0.188369580855591,0.640456574909009,0,0,1.18364745515797,1.97592115760143,"CEBPA;THRA;CTBP1;GTF2B;PTPRK;EGFR;IGF1R;CCND1;GPC3;EP300;KPNA2;PRKACA;BUB1;MEN1;SMAD1;HSP90AA1;POU2F1;FUS;CSNK2A2;ARNT;AXIN2;FOS;TSHR;NCOR2;CREB1;CTNNB1",26
"56","ectodermal_dysplasia","27/88",0.196704634928295,0.656852977349841,0,0,1.173300886494,1.90784824185279,"CEBPA;THRA;CTBP1;GTF2B;PTPRK;EGFR;IGF1R;CCND1;EP300;KPNA2;PRKACA;BUB1;MEN1;SMAD1;HSP90AA1;POU2F1;FUS;CSNK2A2;ARNT;AXIN2;FOS;TSHR;EDAR;NCOR2;NFKBIA;CREB1;CTNNB1",27
"57","lymphoma","30/99",0.202217199515168,0.66341432121643,0,0,1.15881569036445,1.85226596456148,"CEBPA;THRA;CTBP1;GTF2B;BCL10;PTPRK;EGFR;IGF1R;RAD54B;CCND1;BCL7A;EP300;RAD54L;KPNA2;PRKACA;BUB1;MEN1;SMAD1;HSP90AA1;POU2F1;FUS;CSNK2A2;ARNT;AXIN2;FOS;TSHR;NCOR2;CREB1;CTNNB1;MAD1L1",30
"58","parkinson_disease","30/99",0.202217199515168,0.651976143264422,0,0,1.15881569036445,1.85226596456148,"CEBPA;THRA;CTBP1;GTF2B;DBH;PTPRK;EGFR;IGF1R;CCND1;EP300;KPNA2;PRKACA;BUB1;MEN1;SNCA;SMAD1;HSP90AA1;POU2F1;TBP;FUS;CSNK2A2;ARNT;AXIN2;FOS;SNCAIP;TSHR;NCOR2;CREB1;CTNNB1;MAPT",30
"59","hepatocellular_carcinoma","26/85",0.207200841580603,0.656721311450385,0,0,1.16972219097964,1.84122075716963,"CEBPA;THRA;CTBP1;GTF2B;PTPRK;EGFR;IGF1R;CCND1;EP300;KPNA2;PRKACA;BUB1;MEN1;SMAD1;HSP90AA1;POU2F1;FUS;CSNK2A2;ARNT;AXIN2;FOS;IGF2R;TSHR;NCOR2;CREB1;CTNNB1",26
"60","myasthenic_syndrome","26/85",0.207200841580603,0.645775956259545,0,0,1.16972219097964,1.84122075716963,"CEBPA;THRA;CTBP1;GTF2B;PTPRK;EGFR;IGF1R;CCND1;CHRNE;EP300;KPNA2;PRKACA;BUB1;MEN1;SMAD1;HSP90AA1;POU2F1;FUS;CSNK2A2;ARNT;AXIN2;FOS;TSHR;NCOR2;CREB1;CTNNB1",26
"61","split-hand/foot_malformation","26/85",0.207200841580603,0.635189465173323,0,0,1.16972219097964,1.84122075716963,"CEBPA;THRA;CTBP1;GTF2B;PTPRK;EGFR;IGF1R;CCND1;EP300;KPNA2;PRKACA;BUB1;MEN1;SMAD1;HSP90AA1;POU2F1;FUS;SHFM1;CSNK2A2;ARNT;AXIN2;FOS;TSHR;NCOR2;CREB1;CTNNB1",26
"62","microphthalmia","29/96",0.212591737060019,0.641204110164895,0,0,1.15519439133206,1.78868183233468,"CEBPA;THRA;CTBP1;GTF2B;HCCS;CRYBA4;PTPRK;EGFR;IGF1R;CCND1;EP300;OTX2;KPNA2;PRKACA;BUB1;MEN1;STRA6;SMAD1;HSP90AA1;POU2F1;FUS;CSNK2A2;ARNT;AXIN2;FOS;TSHR;NCOR2;CREB1;CTNNB1",29
"63","ciliary_dyskinesia","27/89",0.215521076350839,0.639721290120744,0,0,1.16011773046598,1.78042870421174,"CEBPA;THRA;CTBP1;GTF2B;PTPRK;EGFR;IGF1R;CCND1;EP300;KPNA2;PRKACA;BUB1;MEN1;SMAD1;HSP90AA1;RSPH4A;DNAH11;POU2F1;FUS;CSNK2A2;ARNT;AXIN2;FOS;TSHR;NCOR2;CREB1;CTNNB1",27
"64","dementia","27/89",0.215521076350839,0.629725644962608,0,0,1.16011773046598,1.78042870421174,"CEBPA;THRA;CTBP1;GTF2B;PTPRK;EGFR;IGF1R;CCND1;EP300;KPNA2;PRKACA;BUB1;MEN1;SNCA;SMAD1;HSP90AA1;POU2F1;FUS;CSNK2A2;ARNT;AXIN2;FOS;TSHR;NCOR2;CREB1;CTNNB1;MAPT",27
"65","zellweger_syndrome","27/89",0.215521076350839,0.620037558117029,0,0,1.16011773046598,1.78042870421174,"CEBPA;THRA;CTBP1;GTF2B;PTPRK;EGFR;IGF1R;CCND1;EP300;KPNA2;PRKACA;BUB1;MEN1;SMAD1;HSP90AA1;POU2F1;FUS;CSNK2A2;ARNT;PEX1;AXIN2;FOS;PEX14;TSHR;NCOR2;CREB1;CTNNB1",27
"66","coloboma","26/86",0.226907319569201,0.642904072112736,0,0,1.1561207701543,1.71477408272454,"CEBPA;THRA;CTBP1;GTF2B;PTPRK;EGFR;IGF1R;CCND1;EP300;KPNA2;PRKACA;BUB1;MEN1;SMAD1;HSP90AA1;POU2F1;FUS;CSNK2A2;ARNT;PAX6;AXIN2;FOS;TSHR;NCOR2;CREB1;CTNNB1",26
"67","complex_i","26/86",0.226907319569201,0.633308488946875,0,0,1.1561207701543,1.71477408272454,"CEBPA;THRA;CTBP1;GTF2B;PTPRK;EGFR;IGF1R;CCND1;EP300;KPNA2;PRKACA;BUB1;MEN1;SMAD1;HSP90AA1;POU2F1;FUS;CSNK2A2;NDUFA1;ARNT;AXIN2;FOS;TSHR;NCOR2;CREB1;CTNNB1",26
"68","coronary_heart_disease","26/86",0.226907319569201,0.623995128815303,0,0,1.1561207701543,1.71477408272454,"CEBPA;THRA;CTBP1;GTF2B;CHD5;PTPRK;EGFR;IGF1R;CCND1;EP300;KPNA2;PRKACA;BUB1;MEN1;SMAD1;HSP90AA1;POU2F1;FUS;CSNK2A2;ARNT;AXIN2;FOS;TSHR;NCOR2;CREB1;CTNNB1",26
"69","epidermolysis_bullosa","27/90",0.235156828933899,0.637309087110712,0,0,1.1472275334608,1.66061487218687,"COL17A1;CEBPA;THRA;ITGB4;CTBP1;GTF2B;PTPRK;EGFR;IGF1R;CCND1;EP300;KPNA2;PRKACA;BUB1;MEN1;SMAD1;HSP90AA1;POU2F1;FUS;CSNK2A2;ARNT;AXIN2;FOS;TSHR;NCOR2;CREB1;CTNNB1",27
"70","glycogen_storage_disease","27/90",0.235156828933899,0.628204671580559,0,0,1.1472275334608,1.66061487218687,"CEBPA;THRA;CTBP1;GTF2B;GBE1;PRKAG2;PTPRK;EGFR;IGF1R;CCND1;EP300;KPNA2;PRKACA;BUB1;MEN1;SMAD1;HSP90AA1;POU2F1;FUS;CSNK2A2;ARNT;AXIN2;FOS;TSHR;NCOR2;CREB1;CTNNB1",27
"71","leber_amaurosis","27/90",0.235156828933899,0.619356718459706,0,0,1.1472275334608,1.66061487218687,"CEBPA;THRA;CTBP1;GTF2B;PTPRK;EGFR;SPATA7;IGF1R;CCND1;EP300;KPNA2;PRKACA;BUB1;MEN1;SMAD1;HSP90AA1;POU2F1;FUS;CSNK2A2;ARNT;AXIN2;FOS;TSHR;NCOR2;RPGRIP1;CREB1;CTNNB1",27
"72","melanoma","27/90",0.235156828933899,0.610754541814432,0,0,1.1472275334608,1.66061487218687,"CEBPA;THRA;CTBP1;GTF2B;PTPRK;EGFR;IGF1R;STK11;CCND1;EP300;KPNA2;PRKACA;BUB1;MEN1;SMAD1;HSP90AA1;POU2F1;FUS;CSNK2A2;ARNT;AXIN2;FOS;TSHR;NCOR2;CREB1;CDK4;CTNNB1",27
"73","rheumatoid_arthritis","27/90",0.235156828933899,0.602388041241632,0,0,1.1472275334608,1.66061487218687,"CEBPA;THRA;CTBP1;GTF2B;PTPRK;EGFR;IGF1R;CCND1;EP300;KPNA2;PRKACA;BUB1;MEN1;SMAD1;HSP90AA1;POU2F1;FUS;NFKBIL1;CSNK2A2;ARNT;AXIN2;MIF;FOS;TSHR;NCOR2;CREB1;CTNNB1",27
"74","asperger_syndrome","25/83",0.238979271300059,0.603907077474473,0,0,1.15183487295261,1.64871162866464,"CEBPA;THRA;CTBP1;GTF2B;PTPRK;EGFR;IGF1R;CCND1;EP300;KPNA2;PRKACA;BUB1;MEN1;SMAD1;HSP90AA1;POU2F1;FUS;CSNK2A2;ARNT;AXIN2;FOS;TSHR;NCOR2;CREB1;CTNNB1",25
"75","atopy","25/83",0.238979271300059,0.595854983108147,0,0,1.15183487295261,1.64871162866464,"CEBPA;THRA;CTBP1;GTF2B;PTPRK;EGFR;IGF1R;CCND1;EP300;KPNA2;PRKACA;BUB1;MEN1;SMAD1;HSP90AA1;POU2F1;FUS;CSNK2A2;ARNT;AXIN2;FOS;TSHR;NCOR2;CREB1;CTNNB1",25
"76","autoimmune_disease","25/83",0.238979271300059,0.588014785961987,0,0,1.15183487295261,1.64871162866464,"CEBPA;THRA;CTBP1;GTF2B;PTPRK;EGFR;IGF1R;CCND1;EP300;KPNA2;PRKACA;BUB1;MEN1;SMAD1;HSP90AA1;POU2F1;FUS;CSNK2A2;ARNT;AXIN2;FOS;TSHR;NCOR2;CREB1;CTNNB1",25
"77","bartter_syndrome","25/83",0.238979271300059,0.580378230300143,0,0,1.15183487295261,1.64871162866464,"CEBPA;THRA;CTBP1;GTF2B;PTPRK;EGFR;IGF1R;CCND1;EP300;KPNA2;PRKACA;BUB1;MEN1;SMAD1;HSP90AA1;POU2F1;FUS;CSNK2A2;ARNT;AXIN2;FOS;TSHR;NCOR2;CREB1;CTNNB1",25
"78","central_hypoventilation_syndrome","25/83",0.238979271300059,0.572937483757834,0,0,1.15183487295261,1.64871162866464,"CEBPA;THRA;CTBP1;GTF2B;PTPRK;EGFR;IGF1R;CCND1;EP300;KPNA2;PRKACA;BUB1;MEN1;SMAD1;HSP90AA1;POU2F1;FUS;CSNK2A2;ARNT;AXIN2;FOS;TSHR;NCOR2;CREB1;CTNNB1",25
"79","cholestasis","25/83",0.238979271300059,0.565685110545709,0,0,1.15183487295261,1.64871162866464,"CEBPA;THRA;CTBP1;GTF2B;PTPRK;EGFR;IGF1R;CCND1;EP300;KPNA2;PRKACA;BUB1;MEN1;SMAD1;HSP90AA1;POU2F1;FUS;CSNK2A2;ARNT;AXIN2;FOS;TSHR;NCOR2;CREB1;CTNNB1",25
"80","episodic_ataxia","25/83",0.238979271300059,0.558614046663888,0,0,1.15183487295261,1.64871162866464,"CEBPA;THRA;CTBP1;GTF2B;PTPRK;EGFR;IGF1R;CCND1;EP300;KPNA2;PRKACA;BUB1;MEN1;SMAD1;HSP90AA1;POU2F1;FUS;CSNK2A2;ARNT;AXIN2;FOS;TSHR;NCOR2;CREB1;CTNNB1",25
"81","fetal_hemoglobin_quantitative_trait_locus","25/83",0.238979271300059,0.551717576951988,0,0,1.15183487295261,1.64871162866464,"CEBPA;THRA;CTBP1;GTF2B;PTPRK;EGFR;IGF1R;CCND1;EP300;KPNA2;PRKACA;BUB1;MEN1;SMAD1;HSP90AA1;POU2F1;FUS;CSNK2A2;ARNT;AXIN2;FOS;TSHR;NCOR2;CREB1;CTNNB1",25
"82","goiter","25/83",0.238979271300059,0.544989313818427,0,0,1.15183487295261,1.64871162866464,"CEBPA;THRA;CTBP1;GTF2B;PTPRK;EGFR;IGF1R;CCND1;EP300;KPNA2;PRKACA;BUB1;MEN1;SMAD1;HSP90AA1;POU2F1;FUS;CSNK2A2;ARNT;AXIN2;FOS;TSHR;NCOR2;CREB1;CTNNB1",25
"83","hemochromatosis","25/83",0.238979271300059,0.538423177507362,0,0,1.15183487295261,1.64871162866464,"CEBPA;THRA;CTBP1;GTF2B;PTPRK;EGFR;IGF1R;CCND1;EP300;KPNA2;PRKACA;BUB1;MEN1;SMAD1;HSP90AA1;POU2F1;FUS;CSNK2A2;ARNT;AXIN2;FOS;TSHR;NCOR2;CREB1;CTNNB1",25
"84","kallmann_syndrome","25/83",0.238979271300059,0.532013377775131,0,0,1.15183487295261,1.64871162866464,"CEBPA;THRA;CTBP1;GTF2B;PTPRK;EGFR;IGF1R;CCND1;EP300;KPNA2;PRKACA;BUB1;MEN1;SMAD1;HSP90AA1;POU2F1;FUS;CSNK2A2;ARNT;AXIN2;FOS;TSHR;NCOR2;CREB1;CTNNB1",25
"85","keratosis","25/83",0.238979271300059,0.52575439686013,0,0,1.15183487295261,1.64871162866464,"CEBPA;THRA;CTBP1;GTF2B;PTPRK;EGFR;IGF1R;CCND1;EP300;KPNA2;PRKACA;BUB1;MEN1;SMAD1;HSP90AA1;POU2F1;FUS;CSNK2A2;ARNT;AXIN2;FOS;TSHR;NCOR2;CREB1;CTNNB1",25
"86","lymphedema","25/83",0.238979271300059,0.519640973640826,0,0,1.15183487295261,1.64871162866464,"CEBPA;THRA;CTBP1;GTF2B;PTPRK;EGFR;IGF1R;CCND1;EP300;KPNA2;PRKACA;BUB1;MEN1;SMAD1;HSP90AA1;POU2F1;FUS;CSNK2A2;ARNT;AXIN2;FOS;TSHR;NCOR2;CREB1;CTNNB1",25
"87","malignant_hyperthermia","25/83",0.238979271300059,0.513668088886334,0,0,1.15183487295261,1.64871162866464,"CEBPA;THRA;CTBP1;GTF2B;PTPRK;EGFR;IGF1R;CCND1;EP300;KPNA2;PRKACA;BUB1;MEN1;SMAD1;HSP90AA1;POU2F1;FUS;CSNK2A2;ARNT;AXIN2;FOS;TSHR;NCOR2;CREB1;CTNNB1",25
"88","otosclerosis","25/83",0.238979271300059,0.507830951512625,0,0,1.15183487295261,1.64871162866464,"CEBPA;THRA;CTBP1;GTF2B;PTPRK;EGFR;IGF1R;CCND1;EP300;KPNA2;PRKACA;BUB1;MEN1;SMAD1;HSP90AA1;POU2F1;FUS;CSNK2A2;ARNT;AXIN2;FOS;TSHR;NCOR2;CREB1;CTNNB1",25
"89","paget_disease","25/83",0.238979271300059,0.502124985765292,0,0,1.15183487295261,1.64871162866464,"CEBPA;THRA;CTBP1;GTF2B;PTPRK;EGFR;IGF1R;CCND1;EP300;KPNA2;PRKACA;BUB1;MEN1;SMAD1;HSP90AA1;POU2F1;FUS;CSNK2A2;ARNT;AXIN2;FOS;TSHR;NCOR2;CREB1;CTNNB1",25
"90","pheochromocytoma","25/83",0.238979271300059,0.496545819256789,0,0,1.15183487295261,1.64871162866464,"CEBPA;THRA;CTBP1;GTF2B;PTPRK;EGFR;IGF1R;CCND1;EP300;KPNA2;PRKACA;BUB1;MEN1;SMAD1;HSP90AA1;POU2F1;FUS;CSNK2A2;ARNT;AXIN2;FOS;TSHR;NCOR2;CREB1;CTNNB1",25
"91","refsum_disease","25/83",0.238979271300059,0.491089271792429,0,0,1.15183487295261,1.64871162866464,"CEBPA;THRA;CTBP1;GTF2B;PTPRK;EGFR;IGF1R;CCND1;EP300;KPNA2;PRKACA;BUB1;MEN1;SMAD1;HSP90AA1;POU2F1;FUS;CSNK2A2;ARNT;AXIN2;FOS;TSHR;NCOR2;CREB1;CTNNB1",25
"92","restless_legs_syndrome","25/83",0.238979271300059,0.48575134492512,0,0,1.15183487295261,1.64871162866464,"CEBPA;THRA;CTBP1;GTF2B;PTPRK;EGFR;IGF1R;CCND1;EP300;KPNA2;PRKACA;BUB1;MEN1;SMAD1;HSP90AA1;POU2F1;FUS;CSNK2A2;ARNT;AXIN2;FOS;TSHR;NCOR2;CREB1;CTNNB1",25
"93","vitreoretinopathy","25/83",0.238979271300059,0.48052821218399,0,0,1.15183487295261,1.64871162866464,"CEBPA;THRA;CTBP1;GTF2B;PTPRK;EGFR;IGF1R;CCND1;EP300;KPNA2;PRKACA;BUB1;MEN1;SMAD1;HSP90AA1;POU2F1;FUS;CSNK2A2;ARNT;AXIN2;FOS;TSHR;NCOR2;CREB1;CTNNB1",25
"94","immunodeficiency","31/105",0.246123626323594,0.489628916196938,0,0,1.12901757261222,1.58279380937226,"CEBPA;DCLRE1C;THRA;CTBP1;GTF2B;PTPRK;IL2RG;EGFR;IGF1R;UNG;CCND1;EP300;KPNA2;PRKACA;BUB1;MEN1;SMAD1;HSP90AA1;POU2F1;FUS;CSNK2A2;ARNT;AXIN2;FOS;IL2;TSHR;NFKBIA;NCOR2;CREB1;CTNNB1;CD247",31
"95","hypotrichosis","26/87",0.247429894384013,0.487046213155899,0,0,1.14283202566977,1.59611119733218,"CEBPA;THRA;CTBP1;GTF2B;PTPRK;EGFR;IGF1R;CCND1;EP300;KPNA2;PRKACA;BUB1;MEN1;SMAD1;HSP90AA1;ST14;POU2F1;FUS;CSNK2A2;ARNT;AXIN2;FOS;TSHR;NCOR2;CREB1;CTNNB1",26
"96","osteoporosis","26/87",0.247429894384013,0.481972815102191,0,0,1.14283202566977,1.59611119733218,"CEBPA;THRA;CTBP1;GTF2B;PTPRK;EGFR;IGF1R;CCND1;EP300;KPNA2;PRKACA;BUB1;MEN1;SMAD1;HSP90AA1;POU2F1;FUS;CSNK2A2;ARNT;AXIN2;FOS;TSHR;NCOR2;COL1A1;CREB1;CTNNB1",26
"97","corneal_dystrophy","27/91",0.255553672500826,0.492665327398499,0,0,1.13462063748871,1.54798883106293,"CEBPA;THRA;CTBP1;GTF2B;PTPRK;EGFR;IGF1R;CCND1;EP300;KPNA2;PRKACA;BUB1;MEN1;SMAD1;HSP90AA1;POU2F1;FUS;CSNK2A2;ARNT;PAX6;AXIN2;FOS;TSHR;NCOR2;ZEB1;CREB1;CTNNB1",27
"98","leigh_syndrome","27/91",0.255553672500826,0.487638130180147,0,0,1.13462063748871,1.54798883106293,"CEBPA;THRA;CTBP1;GTF2B;PTPRK;EGFR;IGF1R;CCND1;EP300;KPNA2;PRKACA;BUB1;MEN1;SMAD1;HSP90AA1;POU2F1;FUS;CSNK2A2;ARNT;AXIN2;FOS;LRPPRC;TSHR;NCOR2;CREB1;CTNNB1;DLD",27
"99","amelogenesis_imperfecta","25/84",0.260424054248847,0.491912102470044,0,0,1.13812255303651,1.53128015875266,"CEBPA;THRA;CTBP1;GTF2B;PTPRK;EGFR;IGF1R;CCND1;EP300;KPNA2;PRKACA;BUB1;MEN1;SMAD1;HSP90AA1;POU2F1;FUS;CSNK2A2;ARNT;AXIN2;FOS;TSHR;NCOR2;CREB1;CTNNB1",25
"100","amyloidosis","25/84",0.260424054248847,0.486992981445343,0,0,1.13812255303651,1.53128015875266,"CEBPA;THRA;CTBP1;GTF2B;PTPRK;EGFR;IGF1R;CCND1;EP300;KPNA2;PRKACA;BUB1;MEN1;SMAD1;HSP90AA1;POU2F1;FUS;CSNK2A2;ARNT;AXIN2;FOS;TSHR;NCOR2;CREB1;CTNNB1",25
"101","body_mass_index","25/84",0.260424054248847,0.482171268757766,0,0,1.13812255303651,1.53128015875266,"CEBPA;THRA;CTBP1;GTF2B;PTPRK;EGFR;IGF1R;CCND1;EP300;KPNA2;PRKACA;BUB1;MEN1;SMAD1;HSP90AA1;POU2F1;FUS;CSNK2A2;ARNT;AXIN2;FOS;TSHR;NCOR2;CREB1;CTNNB1",25
"102","dyslexia","25/84",0.260424054248847,0.477444099456219,0,0,1.13812255303651,1.53128015875266,"CEBPA;THRA;CTBP1;GTF2B;PTPRK;EGFR;IGF1R;CCND1;EP300;KPNA2;PRKACA;BUB1;MEN1;SMAD1;HSP90AA1;POU2F1;FUS;CSNK2A2;ARNT;AXIN2;FOS;TSHR;NCOR2;CREB1;CTNNB1",25
"103","hypoglycemia","25/84",0.260424054248847,0.472808719849848,0,0,1.13812255303651,1.53128015875266,"CEBPA;THRA;CTBP1;GTF2B;PTPRK;EGFR;IGF1R;CCND1;EP300;KPNA2;PRKACA;BUB1;MEN1;SMAD1;HSP90AA1;POU2F1;FUS;CSNK2A2;ARNT;AXIN2;FOS;TSHR;NCOR2;CREB1;CTNNB1",25
"104","nevus","25/84",0.260424054248847,0.468262482158984,0,0,1.13812255303651,1.53128015875266,"CEBPA;THRA;CTBP1;GTF2B;PTPRK;EGFR;IGF1R;CCND1;EP300;KPNA2;PRKACA;BUB1;MEN1;SMAD1;HSP90AA1;POU2F1;FUS;CSNK2A2;ARNT;AXIN2;FOS;TSHR;NCOR2;CREB1;CTNNB1",25
"105","night_blindness","25/84",0.260424054248847,0.463802839471756,0,0,1.13812255303651,1.53128015875266,"CEBPA;THRA;CTBP1;GTF2B;PTPRK;EGFR;IGF1R;CCND1;EP300;KPNA2;PRKACA;BUB1;MEN1;SMAD1;HSP90AA1;POU2F1;FUS;CSNK2A2;ARNT;AXIN2;FOS;TSHR;NCOR2;CREB1;CTNNB1",25
"106","ovarian_failure","25/84",0.260424054248847,0.459427340986173,0,0,1.13812255303651,1.53128015875266,"CEBPA;THRA;CTBP1;GTF2B;PTPRK;EGFR;IGF1R;CCND1;EP300;KPNA2;PRKACA;BUB1;MEN1;SMAD1;HSP90AA1;POU2F1;FUS;CSNK2A2;ARNT;AXIN2;FOS;TSHR;NCOR2;CREB1;CTNNB1",25
"107","pseudohypoaldosteronism","25/84",0.260424054248847,0.455133627519012,0,0,1.13812255303651,1.53128015875266,"CEBPA;THRA;CTBP1;GTF2B;PTPRK;EGFR;IGF1R;CCND1;EP300;KPNA2;PRKACA;BUB1;MEN1;SMAD1;HSP90AA1;POU2F1;FUS;CSNK2A2;ARNT;AXIN2;FOS;TSHR;NCOR2;CREB1;CTNNB1",25
"108","usher_syndrome","26/88",0.268701776042831,0.465252149259346,0,0,1.12984529810534,1.48478976160938,"CEBPA;THRA;CTBP1;GTF2B;PTPRK;EGFR;IGF1R;CCND1;EP300;KPNA2;PRKACA;BUB1;MEN1;SMAD1;HSP90AA1;POU2F1;FUS;CSNK2A2;ARNT;AXIN2;MYO7A;FOS;TSHR;NCOR2;CREB1;CTNNB1",26
"109","atrial_fibrillation","25/85",0.282600391026731,0.484828193779804,0,0,1.12473287594196,1.42134903279389,"CEBPA;THRA;CTBP1;GTF2B;PTPRK;EGFR;IGF1R;CCND1;EP300;KPNA2;PRKACA;BUB1;MEN1;SMAD1;HSP90AA1;POU2F1;FUS;CSNK2A2;ARNT;AXIN2;FOS;TSHR;NCOR2;CREB1;CTNNB1",25
"110","ceroid-lipofuscinosis,_neuronal","25/85",0.282600391026731,0.480420664745443,0,0,1.12473287594196,1.42134903279389,"CEBPA;THRA;CTBP1;GTF2B;PTPRK;EGFR;IGF1R;CCND1;EP300;KPNA2;PRKACA;BUB1;MEN1;SMAD1;HSP90AA1;POU2F1;FUS;CSNK2A2;ARNT;AXIN2;FOS;TSHR;NCOR2;CREB1;CTNNB1",25
"111","optic_atrophy","25/85",0.282600391026731,0.476092550648637,0,0,1.12473287594196,1.42134903279389,"CEBPA;THRA;CTBP1;GTF2B;PTPRK;EGFR;IGF1R;CCND1;EP300;KPNA2;PRKACA;BUB1;MEN1;SMAD1;HSP90AA1;POU2F1;FUS;CSNK2A2;ARNT;AXIN2;FOS;TSHR;NCOR2;CREB1;CTNNB1",25
"112","osteoarthritis","25/85",0.282600391026731,0.47184172430356,0,0,1.12473287594196,1.42134903279389,"CEBPA;THRA;CTBP1;GTF2B;PTPRK;EGFR;IGF1R;CCND1;EP300;KPNA2;PRKACA;BUB1;MEN1;SMAD1;HSP90AA1;POU2F1;FUS;CSNK2A2;ARNT;AXIN2;FOS;TSHR;NCOR2;CREB1;CTNNB1",25
"113","osteopetrosis","25/85",0.282600391026731,0.467666133822997,0,0,1.12473287594196,1.42134903279389,"CEBPA;THRA;CTBP1;GTF2B;PTPRK;EGFR;IGF1R;CCND1;EP300;KPNA2;PRKACA;BUB1;MEN1;SMAD1;HSP90AA1;POU2F1;FUS;CSNK2A2;ARNT;AXIN2;FOS;TSHR;NCOR2;CREB1;CTNNB1",25
"114","renal_cell_carcinoma","25/85",0.282600391026731,0.463563799315778,0,0,1.12473287594196,1.42134903279389,"CEBPA;THRA;CTBP1;GTF2B;PTPRK;EGFR;IGF1R;CCND1;EP300;KPNA2;PRKACA;BUB1;MEN1;SMAD1;HSP90AA1;POU2F1;FUS;CSNK2A2;ARNT;AXIN2;FOS;TSHR;NCOR2;CREB1;CTNNB1",25
"115","rickets","25/85",0.282600391026731,0.45953280975651,0,0,1.12473287594196,1.42134903279389,"CEBPA;THRA;CTBP1;GTF2B;PTPRK;EGFR;IGF1R;CCND1;EP300;KPNA2;PRKACA;BUB1;MEN1;SMAD1;HSP90AA1;POU2F1;FUS;CSNK2A2;ARNT;AXIN2;FOS;TSHR;NCOR2;CREB1;CTNNB1",25
"116","seizures","25/85",0.282600391026731,0.45557132001723,0,0,1.12473287594196,1.42134903279389,"CEBPA;THRA;CTBP1;GTF2B;PTPRK;EGFR;IGF1R;CCND1;EP300;KPNA2;PRKACA;BUB1;MEN1;SMAD1;HSP90AA1;POU2F1;FUS;CSNK2A2;ARNT;AXIN2;FOS;TSHR;NCOR2;CREB1;CTNNB1",25
"117","thalassemia","25/85",0.282600391026731,0.451677548051271,0,0,1.12473287594196,1.42134903279389,"CEBPA;THRA;CTBP1;GTF2B;PTPRK;EGFR;IGF1R;CCND1;EP300;KPNA2;PRKACA;BUB1;MEN1;SMAD1;HSP90AA1;POU2F1;FUS;CSNK2A2;ARNT;AXIN2;FOS;TSHR;NCOR2;CREB1;CTNNB1",25
"118","waardenburg_syndrome","25/85",0.282600391026731,0.447849772220328,0,0,1.12473287594196,1.42134903279389,"CEBPA;THRA;CTBP1;GTF2B;PTPRK;EGFR;IGF1R;CCND1;EP300;KPNA2;PRKACA;BUB1;MEN1;SMAD1;HSP90AA1;POU2F1;FUS;CSNK2A2;ARNT;AXIN2;FOS;TSHR;NCOR2;CREB1;CTNNB1",25
"119","lateral_sclerosis","28/96",0.284282115518226,0.446729038671498,0,0,1.11536010197578,1.40288674086378,"CEBPA;THRA;CTBP1;GTF2B;PTPRK;EGFR;IGF1R;CCND1;EP300;KPNA2;PRKACA;BUB1;MEN1;SMAD1;HSP90AA1;POU2F1;FUS;CSNK2A2;ARNT;AXIN2;FOS;TSHR;NCOR2;SETX;CREB1;VAPB;CTNNB1;TARDBP",28
"120","fibrosis","26/89",0.290649364356191,0.452928592788397,0,0,1.11715040711539,1.38039312811025,"CEBPA;THRA;CTBP1;GTF2B;PTPRK;EGFR;IGF1R;CCND1;TERT;EP300;KPNA2;PRKACA;BUB1;MEN1;SMAD1;HSP90AA1;POU2F1;FUS;CSNK2A2;ARNT;AXIN2;FOS;TSHR;NCOR2;CREB1;CTNNB1",26
"121","skin/hair/eye_pigmentation","26/89",0.290649364356191,0.449185381277749,0,0,1.11715040711539,1.38039312811025,"SLC24A2;CEBPA;THRA;CTBP1;GTF2B;PTPRK;EGFR;IGF1R;CCND1;EP300;KPNA2;PRKACA;BUB1;MEN1;SMAD1;HSP90AA1;POU2F1;FUS;CSNK2A2;ARNT;AXIN2;FOS;TSHR;NCOR2;CREB1;CTNNB1",26
"122","myocardial_infarction","27/93",0.298364448332658,0.457329113427927,0,0,1.11022019367174,1.34274422112386,"CEBPA;THRA;CTBP1;GTF2B;PTPRK;LRP8;EGFR;IGF1R;CCND1;EP300;KPNA2;PRKACA;BUB1;MEN1;SMAD1;HSP90AA1;POU2F1;FUS;CSNK2A2;ARNT;AXIN2;FOS;MIAT;TSHR;NCOR2;CREB1;CTNNB1",27
"123","albinism","25/86",0.305425417786495,0.464345960374589,0,0,1.11165458668682,1.31847754658637,"CEBPA;THRA;CTBP1;GTF2B;PTPRK;EGFR;IGF1R;CCND1;EP300;KPNA2;PRKACA;BUB1;MEN1;SMAD1;HSP90AA1;POU2F1;FUS;CSNK2A2;ARNT;AXIN2;FOS;TSHR;NCOR2;CREB1;CTNNB1",25
"124","attention-deficit_hyperactivity_disorder","25/86",0.305425417786495,0.460601234887697,0,0,1.11165458668682,1.31847754658637,"CEBPA;THRA;CTBP1;GTF2B;PTPRK;EGFR;IGF1R;CCND1;EP300;KPNA2;PRKACA;BUB1;MEN1;SMAD1;HSP90AA1;POU2F1;FUS;CSNK2A2;ARNT;AXIN2;FOS;TSHR;NCOR2;CREB1;CTNNB1",25
"125","brachydactyly","25/86",0.305425417786495,0.456916425008596,0,0,1.11165458668682,1.31847754658637,"CEBPA;THRA;CTBP1;GTF2B;PTPRK;EGFR;IGF1R;CCND1;EP300;KPNA2;PRKACA;BUB1;MEN1;SMAD1;HSP90AA1;POU2F1;FUS;CSNK2A2;ARNT;AXIN2;FOS;TSHR;NCOR2;CREB1;CTNNB1",25
"126","cone_dystrophy","25/86",0.305425417786495,0.453290104175194,0,0,1.11165458668682,1.31847754658637,"CEBPA;THRA;CTBP1;GTF2B;PTPRK;EGFR;IGF1R;CCND1;EP300;KPNA2;PRKACA;BUB1;MEN1;SMAD1;HSP90AA1;POU2F1;FUS;CSNK2A2;ARNT;AXIN2;FOS;TSHR;NCOR2;CREB1;CTNNB1",25
"127","hiv","25/86",0.305425417786495,0.449720890756492,0,0,1.11165458668682,1.31847754658637,"CEBPA;THRA;CTBP1;GTF2B;PTPRK;EGFR;IGF1R;CCND1;EP300;KPNA2;PRKACA;BUB1;MEN1;SMAD1;HSP90AA1;POU2F1;FUS;CSNK2A2;ARNT;AXIN2;FOS;TSHR;NCOR2;CREB1;CTNNB1",25
"128","hypercholesterolemia","25/86",0.305425417786495,0.446207446297457,0,0,1.11165458668682,1.31847754658637,"CEBPA;THRA;CTBP1;GTF2B;PTPRK;EGFR;IGF1R;CCND1;EP300;KPNA2;PRKACA;BUB1;MEN1;SMAD1;HSP90AA1;POU2F1;FUS;CSNK2A2;ARNT;AXIN2;FOS;TSHR;NCOR2;CREB1;CTNNB1",25
"129","hypothyroidism","25/86",0.305425417786495,0.442748473845539,0,0,1.11165458668682,1.31847754658637,"CEBPA;THRA;CTBP1;GTF2B;PTPRK;EGFR;IGF1R;CCND1;EP300;KPNA2;PRKACA;BUB1;MEN1;SMAD1;HSP90AA1;POU2F1;FUS;CSNK2A2;ARNT;AXIN2;FOS;TSHR;NCOR2;CREB1;CTNNB1",25
"130","multiple_sclerosis","25/86",0.305425417786495,0.439342716354419,0,0,1.11165458668682,1.31847754658637,"CEBPA;THRA;CTBP1;GTF2B;PTPRK;EGFR;IGF1R;CCND1;EP300;KPNA2;PRKACA;BUB1;MEN1;SMAD1;HSP90AA1;POU2F1;FUS;CSNK2A2;ARNT;AXIN2;FOS;TSHR;NCOR2;CREB1;CTNNB1",25
"131","tuberculosis","25/86",0.305425417786495,0.435988955160874,0,0,1.11165458668682,1.31847754658637,"CEBPA;THRA;CTBP1;GTF2B;PTPRK;EGFR;IGF1R;CCND1;EP300;KPNA2;PRKACA;BUB1;MEN1;SMAD1;HSP90AA1;POU2F1;FUS;CSNK2A2;ARNT;AXIN2;FOS;TSHR;NCOR2;CREB1;CTNNB1",25
"132","lung_cancer","28/97",0.305770604411139,0.43317502291578,0,0,1.10386154422345,1.30798775007957,"CEBPA;THRA;CTBP1;GTF2B;PTPRK;EGFR;IGF1R;RASSF1;CCND1;PPP2R1B;EP300;KPNA2;PRKACA;BUB1;MEN1;SMAD1;HSP90AA1;POU2F1;FUS;CSNK2A2;ARNT;AXIN2;FOS;TSHR;NCOR2;CREB1;IRF1;CTNNB1",28
"133","anomalies","26/90",0.313193204179333,0.440354354748386,0,0,1.10473762481411,1.28252858896154,"CEBPA;THRA;CTBP1;GTF2B;PTPRK;EGFR;IGF1R;CCND1;EP300;KPNA2;PRKACA;BUB1;MEN1;SMAD1;HSP90AA1;POU2F1;EYA1;FUS;CSNK2A2;ARNT;AXIN2;FOS;TSHR;NCOR2;CREB1;CTNNB1",26
"134","dystonia","27/94",0.320631121378028,0.447447908191726,0,0,1.09840934054758,1.24940105052671,"CEBPA;THRA;CTBP1;GTF2B;PTPRK;EGFR;IGF1R;CCND1;EP300;KPNA2;PRKACA;BUB1;MEN1;SMAD1;HSP90AA1;POU2F1;FUS;CSNK2A2;ARNT;AXIN2;FOS;TSHR;THAP1;NCOR2;CREB1;CTNNB1;TAF1",27
"135","hirschsprung_disease","25/87",0.328810706181593,0.455463718933021,0,0,1.09887694775939,1.22225121969922,"CEBPA;THRA;CTBP1;GTF2B;PTPRK;EGFR;IGF1R;CCND1;EP300;KPNA2;PRKACA;BUB1;MEN1;SMAD1;HSP90AA1;POU2F1;FUS;CSNK2A2;ARNT;AXIN2;FOS;TSHR;NCOR2;CREB1;CTNNB1",25
"136","macular_dystrophy","25/87",0.328810706181593,0.45211472099969,0,0,1.09887694775939,1.22225121969922,"CEBPA;THRA;CTBP1;GTF2B;PTPRK;EGFR;IGF1R;CCND1;EP300;KPNA2;PRKACA;BUB1;MEN1;SMAD1;HSP90AA1;POU2F1;FUS;CSNK2A2;ARNT;AXIN2;FOS;TSHR;NCOR2;CREB1;CTNNB1",25
"137","major_affective_disorder","25/87",0.328810706181593,0.448814613547138,0,0,1.09887694775939,1.22225121969922,"CEBPA;THRA;CTBP1;GTF2B;PTPRK;EGFR;IGF1R;CCND1;EP300;KPNA2;PRKACA;BUB1;MEN1;SMAD1;HSP90AA1;POU2F1;FUS;CSNK2A2;ARNT;AXIN2;FOS;TSHR;NCOR2;CREB1;CTNNB1",25
"138","nephropathy","25/87",0.328810706181593,0.445562333738825,0,0,1.09887694775939,1.22225121969922,"CEBPA;THRA;CTBP1;GTF2B;PTPRK;EGFR;IGF1R;CCND1;EP300;KPNA2;PRKACA;BUB1;MEN1;SMAD1;HSP90AA1;POU2F1;FUS;CSNK2A2;ARNT;AXIN2;FOS;TSHR;NCOR2;CREB1;CTNNB1",25
"139","thrombocytopenia","25/87",0.328810706181593,0.442356849323438,0,0,1.09887694775939,1.22225121969922,"CEBPA;THRA;CTBP1;GTF2B;PTPRK;EGFR;IGF1R;CCND1;EP300;KPNA2;PRKACA;BUB1;MEN1;SMAD1;HSP90AA1;POU2F1;FUS;CSNK2A2;ARNT;AXIN2;FOS;TSHR;NCOR2;CREB1;CTNNB1",25
"140","celiac_disease","26/91",0.33624901343979,0.449132610808863,0,0,1.09259765091505,1.19082576572352,"CEBPA;THRA;CTBP1;GTF2B;PTPRK;EGFR;IGF1R;CCND1;EP300;KPNA2;PRKACA;BUB1;MEN1;SMAD1;HSP90AA1;POU2F1;FUS;CSNK2A2;ARNT;MYO9B;AXIN2;FOS;TSHR;NCOR2;CREB1;CTNNB1",26
"141","malaria","26/91",0.33624901343979,0.445947273143552,0,0,1.09259765091505,1.19082576572352,"CEBPA;THRA;GYPC;CTBP1;GTF2B;PTPRK;EGFR;IGF1R;CCND1;EP300;KPNA2;PRKACA;BUB1;MEN1;SMAD1;HSP90AA1;POU2F1;FUS;CSNK2A2;ARNT;AXIN2;FOS;TSHR;NCOR2;CREB1;CTNNB1",26
"142","aneurysm","27/95",0.343366189260867,0.452179418251987,0,0,1.08684713696287,1.16179371808314,"CEBPA;THRA;CTBP1;GTF2B;PTPRK;EGFR;IGF1R;CCND1;EP300;KPNA2;PRKACA;BUB1;MEN1;SMAD1;HSP90AA1;POU2F1;FUS;CSNK2A2;ARNT;AXIN2;FOS;TSHR;NCOR2;COL3A1;CREB1;CTNNB1;FBN1",27
"143","macular_degeneration","27/95",0.343366189260867,0.449017324418057,0,0,1.08684713696287,1.16179371808314,"CX3CR1;CEBPA;THRA;CTBP1;GTF2B;PTPRK;EGFR;IGF1R;CCND1;EP300;KPNA2;PRKACA;BUB1;MEN1;SMAD1;HSP90AA1;POU2F1;FUS;CSNK2A2;ARNT;AXIN2;FOS;TSHR;NCOR2;CREB1;CTNNB1;CFB",27
"144","alopecia","25/88",0.352663452240961,0.457972677562915,0,0,1.08638970971667,1.13227997338584,"CEBPA;THRA;CTBP1;GTF2B;PTPRK;EGFR;IGF1R;CCND1;EP300;KPNA2;PRKACA;BUB1;MEN1;SMAD1;HSP90AA1;POU2F1;FUS;CSNK2A2;ARNT;AXIN2;FOS;TSHR;NCOR2;CREB1;CTNNB1",25
"145","long_qt_syndrome","25/88",0.352663452240961,0.45481424530386,0,0,1.08638970971667,1.13227997338584,"CEBPA;THRA;CTBP1;GTF2B;PTPRK;EGFR;IGF1R;CCND1;EP300;KPNA2;PRKACA;BUB1;MEN1;SMAD1;HSP90AA1;POU2F1;FUS;CSNK2A2;ARNT;AXIN2;FOS;TSHR;NCOR2;CREB1;CTNNB1",25
"146","thrombophilia","25/88",0.352663452240961,0.451699079240135,0,0,1.08638970971667,1.13227997338584,"CEBPA;THRA;CTBP1;GTF2B;PTPRK;EGFR;IGF1R;CCND1;EP300;KPNA2;PRKACA;BUB1;MEN1;SMAD1;HSP90AA1;POU2F1;FUS;CSNK2A2;ARNT;AXIN2;FOS;TSHR;NCOR2;CREB1;CTNNB1",25
"147","cholesterol_level","26/92",0.359728761428528,0.457614138687992,0,0,1.08072158949206,1.10493512643061,"CEBPA;THRA;CTBP1;GTF2B;PTPRK;EGFR;IGF1R;CCND1;EP300;KPNA2;PRKACA;BUB1;MEN1;SMAD1;HSP90AA1;POU2F1;FUS;CSNK2A2;ARNT;AXIN2;FOS;TSHR;NCOR2;CREB1;VNN1;CTNNB1",26
"148","cone-rod_dystrophy","26/92",0.359728761428528,0.454522151264424,0,0,1.08072158949206,1.10493512643061,"CEBPA;THRA;CTBP1;GTF2B;PTPRK;EGFR;IGF1R;CCND1;EP300;KPNA2;PRKACA;BUB1;MEN1;SMAD1;HSP90AA1;POU2F1;FUS;CSNK2A2;ARNT;AXIN2;FOS;TSHR;NCOR2;RPGRIP1;CREB1;CTNNB1",26
"149","orofacial_cleft","27/96",0.366486040019107,0.459952278413241,0,0,1.0755258126195,1.07960726999606,"CEBPA;THRA;CTBP1;GTF2B;MTR;PTPRK;EGFR;IGF1R;CCND1;SUMO1;EP300;KPNA2;PRKACA;BUB1;MEN1;SMAD1;HSP90AA1;POU2F1;FUS;CSNK2A2;ARNT;AXIN2;FOS;TSHR;NCOR2;CREB1;CTNNB1",27
"150","bone_mineral_density","25/89",0.376887700536376,0.469853333335349,0,0,1.0741830837648,1.04819645999688,"CEBPA;THRA;CTBP1;GTF2B;PTPRK;EGFR;IGF1R;CCND1;EP300;KPNA2;PRKACA;BUB1;MEN1;SMAD1;HSP90AA1;POU2F1;FUS;CSNK2A2;ARNT;AXIN2;FOS;TSHR;NCOR2;CREB1;CTNNB1",25
"151","psoriasis","25/89",0.376887700536376,0.466741721856307,0,0,1.0741830837648,1.04819645999688,"CEBPA;THRA;CTBP1;GTF2B;PTPRK;EGFR;IGF1R;CCND1;EP300;KPNA2;PRKACA;BUB1;MEN1;SMAD1;HSP90AA1;POU2F1;FUS;CSNK2A2;ARNT;AXIN2;FOS;TSHR;NCOR2;CREB1;CTNNB1",25
"152","cardiomyopathy,_hypertrophic","26/93",0.38354177363177,0.47185731361277,0,0,1.06910092723946,1.02452662086609,"CEBPA;THRA;CTBP1;GTF2B;PRKAG2;PTPRK;EGFR;IGF1R;CCND1;EP300;KPNA2;PRKACA;BUB1;MEN1;SMAD1;HSP90AA1;POU2F1;FUS;CSNK2A2;ARNT;AXIN2;FOS;TSHR;NCOR2;CREB1;CTNNB1",26
"153","glaucoma","26/93",0.38354177363177,0.468773278883275,0,0,1.06910092723946,1.02452662086609,"CEBPA;THRA;CTBP1;GTF2B;PTPRK;EGFR;IGF1R;CCND1;EP300;KPNA2;PRKACA;BUB1;MEN1;SMAD1;HSP90AA1;WDR36;POU2F1;FUS;CSNK2A2;ARNT;AXIN2;FOS;TSHR;NCOR2;CREB1;CTNNB1",26
"154","arrhythmogenic_right_ventricular_dysplasia","25/90",0.401385578260231,0.487396773601709,0,0,1.06224771616741,0.969654527156014,"CEBPA;THRA;CTBP1;GTF2B;PTPRK;EGFR;IGF1R;CCND1;EP300;KPNA2;PRKACA;BUB1;MEN1;SMAD1;HSP90AA1;POU2F1;FUS;CSNK2A2;ARNT;AXIN2;FOS;TSHR;NCOR2;CREB1;CTNNB1",25
"155","cdeficiency","25/90",0.401385578260231,0.48425227828815,0,0,1.06224771616741,0.969654527156014,"CEBPA;THRA;CTBP1;GTF2B;PTPRK;EGFR;IGF1R;CCND1;EP300;KPNA2;PRKACA;BUB1;MEN1;SMAD1;HSP90AA1;POU2F1;FUS;CSNK2A2;ARNT;AXIN2;FOS;TSHR;NCOR2;CREB1;CTNNB1",25
"156","hypogonadism","25/90",0.401385578260231,0.481148097017072,0,0,1.06224771616741,0.969654527156014,"CEBPA;THRA;CTBP1;GTF2B;PTPRK;EGFR;IGF1R;CCND1;EP300;KPNA2;PRKACA;BUB1;MEN1;SMAD1;HSP90AA1;POU2F1;FUS;CSNK2A2;ARNT;AXIN2;FOS;TSHR;NCOR2;CREB1;CTNNB1",25
"157","cataract","34/124",0.406964390142741,0.484728286348361,0,0,1.04854129402331,0.94266965058038,"CEBPA;CTDP1;THRA;CTBP1;GTF2B;CRYBA4;PTPRK;EGFR;BEST1;IGF1R;CCND1;EP300;KPNA2;PRKACA;BUB1;MEN1;SMAD1;HSP90AA1;POU2F1;EYA1;FUS;CRYBB1;CSNK2A2;SORD;ARNT;PAX6;AXIN2;FOS;TSHR;NCOR2;MAF;CREB1;CTNNB1;GALK1",34
"158","ichthyosis","26/94",0.407595841024145,0.482407735895665,0,0,1.05772751311989,0.949288422468263,"CEBPA;THRA;CTBP1;GTF2B;PTPRK;EGFR;IGF1R;CCND1;EP300;KPNA2;PRKACA;BUB1;MEN1;SMAD1;HSP90AA1;ST14;POU2F1;FUS;CSNK2A2;ARNT;AXIN2;FOS;TSHR;NCOR2;CREB1;CTNNB1",26
"159","convulsions","25/91",0.426058513209715,0.501087685347275,0,0,1.05057466434139,0.896327807863248,"CEBPA;THRA;CTBP1;GTF2B;PTPRK;EGFR;IGF1R;CCND1;EP300;KPNA2;PRKACA;BUB1;MEN1;SMAD1;HSP90AA1;POU2F1;FUS;CSNK2A2;ARNT;AXIN2;FOS;TSHR;NCOR2;CREB1;CTNNB1",25
"160","myopia","25/92",0.450808413622722,0.526882333421556,0,0,1.0391553745116,0.827908422594684,"CEBPA;THRA;CTBP1;GTF2B;PTPRK;EGFR;IGF1R;CCND1;EP300;KPNA2;PRKACA;BUB1;MEN1;SMAD1;HSP90AA1;POU2F1;FUS;CSNK2A2;ARNT;AXIN2;FOS;TSHR;NCOR2;CREB1;CTNNB1",25
"161","autism","26/96",0.456057149319215,0.529706129954616,0,0,1.03569152326322,0.813159890715431,"CEBPA;THRA;CTBP1;GTF2B;PTEN;PTPRK;EGFR;IGF1R;CCND1;EP300;KPNA2;PRKACA;BUB1;MEN1;SMAD1;HSP90AA1;POU2F1;FUS;CSNK2A2;ARNT;AXIN2;FOS;TSHR;NCOR2;CREB1;CTNNB1",26
"162","inflammatory_bowel_disease","27/100",0.461084365790192,0.532239360510901,0,0,1.03250478011472,0.79933861033528,"CEBPA;THRA;CTBP1;GTF2B;PTPRK;EGFR;IGF1R;CCND1;EP300;KPNA2;PRKACA;BUB1;MEN1;SMAD1;HSP90AA1;POU2F1;FUS;CSNK2A2;ARNT;AXIN2;FOS;TSHR;NCOR2;CREB1;ATG16L1;CTNNB1;IRF5",27
"163","migraine","25/93",0.475538788271984,0.545556769367246,0,0,1.02798166080717,0.764105786170231,"CEBPA;THRA;CTBP1;GTF2B;PTPRK;EGFR;IGF1R;CCND1;EP300;KPNA2;PRKACA;BUB1;MEN1;SMAD1;HSP90AA1;POU2F1;FUS;CSNK2A2;ARNT;AXIN2;FOS;TSHR;NCOR2;CREB1;CTNNB1",25
"164","muscular_dystrophy","29/109",0.493409852573732,0.562607575800536,0,0,1.01741891346677,0.718720089960644,"CEBPA;THRA;CTBP1;GTF2B;POMT1;PTPRK;EGFR;IGF1R;SGCD;CCND1;LMNA;EP300;KPNA2;PRKACA;EMD;BUB1;MEN1;SMAD1;HSP90AA1;POU2F1;FUS;CSNK2A2;ARNT;AXIN2;FOS;TSHR;NCOR2;CREB1;CTNNB1",29
"165","spastic_paraplegia","29/109",0.493409852573732,0.559197832916896,0,0,1.01741891346677,0.718720089960644,"CEBPA;THRA;CTBP1;GTF2B;PTPRK;EGFR;IGF1R;HSPD1;SPAST;CCND1;EP300;KPNA2;PRKACA;BUB1;CCT5;MEN1;SMAD1;HSP90AA1;POU2F1;FUS;CSNK2A2;ARNT;AXIN2;FOS;TSHR;REEP1;NCOR2;CREB1;CTNNB1",29
"166","diabetes_mellitus,_type_2","28/106",0.512359751722358,0.577176346819765,0,0,1.01013745084599,0.675507460466986,"CEBPA;THRA;CTBP1;GTF2B;IRS2;SLC2A4;PTPRK;EGFR;IGF1R;CCND1;EP300;KPNA2;PRKACA;BUB1;MEN1;SMAD1;HSP90AA1;POU2F1;FUS;CSNK2A2;ARNT;CDKAL1;AXIN2;FOS;TSHR;NCOR2;CREB1;CTNNB1",28
"167","cardiomyopathy,_dilated","28/110",0.602199432891413,0.674319125453258,0,0,0.973405179906136,0.493678600054297,"CEBPA;THRA;CTBP1;GTF2B;PTPRK;EGFR;IGF1R;SGCD;CCND1;LMNA;EP300;KPNA2;PRKACA;BUB1;TMPO;MEN1;SMAD1;HSP90AA1;POU2F1;FUS;CSNK2A2;ARNT;AXIN2;FOS;TSHR;NCOR2;CREB1;CTNNB1",28
"168","asthma","25/99",0.618551443219568,0.688506665964638,0,0,0.965679741970373,0.463888325362395,"CEBPA;THRA;CTBP1;GTF2B;PTPRK;EGFR;IGF1R;CCND1;EP300;KPNA2;PRKACA;BUB1;MEN1;SMAD1;HSP90AA1;POU2F1;FUS;CSNK2A2;ARNT;AXIN2;FOS;TSHR;NCOR2;CREB1;CTNNB1",25
"169","alzheimer_disease","26/103",0.620271675896535,0.68633611474942,0,0,0.965304720711355,0.461027324053277,"CEBPA;THRA;CTBP1;GTF2B;PTPRK;EGFR;IGF1R;CCND1;EP300;KPNA2;PRKACA;BUB1;MEN1;SMAD1;HSP90AA1;POU2F1;FUS;CSNK2A2;ARNT;AXIN2;FOS;TSHR;NCOR2;CREB1;CTNNB1;BLMH",26
"170","myopathy","30/120",0.647083668571374,0.711792035428511,0,0,0.956022944550669,0.416137356703589,"CEBPA;THRA;CTBP1;GTF2B;PTPRK;EGFR;IGF1R;CCND1;CFL2;EP300;FLNC;KPNA2;PRKACA;BUB1;MEN1;SMAD1;HSP90AA1;POU2F1;TPM3;FUS;PUS1;CSNK2A2;ARNT;AXIN2;FOS;TSHR;NCOR2;CREB1;CTNNB1;ISCU",30
"171","leukemia","19/77",0.658171627808542,0.71975493801285,0,0,0.943607062153907,0.394700972586066,"NUP214;CEBPA;CHIC2;NPM1;RBM15;NUMA1;CBFB;GMPS;ARNT;PTPN11;DEK;BRCA2;PML;PBX1;IRF1;MYB;ATM;TCF3;SH3GL1",19
"172","stature","25/101",0.662361495701973,0.72012557962947,0,0,0.946557370842247,0.389928446008231,"CEBPA;THRA;CTBP1;GTF2B;PTPRK;EGFR;IGF1R;CCND1;EP300;KPNA2;PRKACA;BUB1;MEN1;SMAD1;HSP90AA1;POU2F1;FUS;CSNK2A2;ARNT;AXIN2;FOS;TSHR;NCOR2;CREB1;CTNNB1",25
"173","systemic_lupus_erythematosus","26/105",0.663191779131747,0.716860478021021,0,0,0.946917964126377,0.388890752834509,"CEBPA;THRA;CTBP1;GTF2B;PTPRK;EGFR;IGF1R;CCND1;EP300;KPNA2;PRKACA;BUB1;MEN1;SMAD1;HSP90AA1;POU2F1;FUS;CSNK2A2;ARNT;AXIN2;FOS;TSHR;NCOR2;CREB1;CTNNB1;IRF5",26
"174","hypertension","26/106",0.683696541575709,0.734777317670446,0,0,0.937984775785562,0.356660374624288,"CEBPA;BMPR2;THRA;CTBP1;GTF2B;PTPRK;EGFR;IGF1R;CCND1;EP300;KPNA2;PRKACA;BUB1;MEN1;SMAD1;HSP90AA1;POU2F1;FUS;CSNK2A2;ARNT;AXIN2;FOS;TSHR;NCOR2;CREB1;CTNNB1",26
"175","cardiomyopathy","29/118",0.685215190204243,0.732201374675391,0,0,0.939819165829471,0.355272643786783,"CEBPA;THRA;CTBP1;GTF2B;PRKAG2;PTPRK;EGFR;IGF1R;SGCD;CCND1;LMNA;EP300;KPNA2;PRKACA;BUB1;TMPO;MEN1;SMAD1;HSP90AA1;POU2F1;FUS;CSNK2A2;ARNT;AXIN2;FOS;TSHR;NCOR2;CREB1;CTNNB1",29
"176","diabetes_mellitus,_type_1","25/103",0.703465997638133,0.747432622490516,0,0,0.928177616068611,0.326473237606749,"CEBPA;THRA;CTBP1;GTF2B;PTPRK;EGFR;IGF1R;CCND1;EP300;KPNA2;PRKACA;BUB1;MEN1;SMAD1;HSP90AA1;POU2F1;FUS;CSNK2A2;ARNT;AXIN2;FOS;TSHR;NCOR2;CREB1;CTNNB1",25
"177","schizophrenia","26/107",0.703510681665896,0.743257047861709,0,0,0.929218562927753,0.326780353903441,"CEBPA;THRA;CTBP1;GTF2B;PTPRK;EGFR;IGF1R;CCND1;EP300;KPNA2;PRKACA;BUB1;MEN1;SMAD1;HSP90AA1;POU2F1;FUS;CSNK2A2;ARNT;NRG1;AXIN2;FOS;TSHR;NCOR2;CREB1;CTNNB1",26
"178","spinocerebellar_ataxia","27/114",0.757716542513427,0.796028053089948,0,0,0.905705947469055,0.251284417803516,"CEBPA;THRA;CTBP1;GTF2B;PTPRK;EGFR;IGF1R;TTBK2;CCND1;EP300;KPNA2;PRKACA;BUB1;MEN1;SMAD1;HSP90AA1;POU2F1;TBP;FUS;CSNK2A2;ARNT;AXIN2;FOS;TSHR;NCOR2;CREB1;CTNNB1",27
"179","obesity","25/107",0.776476045810089,0.811178885846294,0,0,0.893479387430532,0.226040890793393,"CEBPA;THRA;CTBP1;GTF2B;PTPRK;EGFR;IGF1R;CCND1;EP300;KPNA2;PRKACA;BUB1;MEN1;SMAD1;HSP90AA1;POU2F1;FUS;CSNK2A2;ARNT;AXIN2;FOS;TSHR;NCOR2;CREB1;CTNNB1",25
"180","blood","26/113",0.806527958262028,0.837892934416662,0,0,0.879879524188226,0.189188805637065,"CEBPA;GYPC;THRA;CTBP1;GTF2B;PTPRK;EGFR;IGF1R;CCND1;EP300;KPNA2;PRKACA;BUB1;MEN1;SMAD1;HSP90AA1;POU2F1;FUS;CSNK2A2;ARNT;AXIN2;FOS;TSHR;NCOR2;CREB1;CTNNB1",26
"181","ataxia","8/59",0.993841234367988,1,0,0,0.518520919078329,0.00320332323098832,"SETX;TBP;FMR1;SACS;MRE11A;ATM;FXN;TTBK2",8
"182","retinitis_pigmentosa","5/50",0.998790106523291,1,0,0,0.382409177820268,0.000462954488994929,"RP9;PRPF31;PRPF8;TOPORS;SPATA7",5
"183","mental_retardation","16/113",0.999314791989217,1,0,0,0.54146432257737,0.000371142860939994,"ARX;POMT1;ATRX;HUWE1;UPF3B;AMMECR1;PRSS12;FGD1;ZDHHC15;SOX3;OPHN1;PAK3;BRWD3;CC2D1A;MCPH1;CUL4B",16
"184","epilepsy","5/57",0.999758007536646,1,0,0,0.335446647210761,8.11853840041731e-05,"EPM2A;STRADA;CHRNA4;ARX;ME2",5
"185","diabetes_mellitus","3/57",0.999989719341362,1,0,0,0.201267988326457,2.0691781190513e-06,"IRS2;CDKAL1;SLC2A4",3
"186","deafness","8/110",0.99999554882046,1,0,0,0.278115765687467,1.23794596103622e-06,"JAG1;LHFPL5;KCNQ4;MYH9;MYO7A;GRHL2;TRIOBP;CCDC50",8
"187","diabetes","4/74",0.999995603501049,0.99999560350105,0,0,0.206707663686631,9.08792024225103e-07,"KLF11;IRS2;CDKAL1;SLC2A4",4
