PSID Gene Module kTotal kWithin kOut kDiff rank
GABRA6 GABRA6 pink 30.6411273983304 16.8116714288341 13.8294559694963 2.98221545933787 1
LINC01179 LINC01179 pink 28.0199312825506 14.3124486951815 13.707482587369 0.60496610781253 2
CCDC155 CCDC155 pink 27.7511943286738 13.7934317785752 13.9577625500986 -0.164330771523453 3
AC025284.1 AC025284.1 pink 25.8468579225096 13.0499419863122 12.7969159361974 0.253026050114769 4
AC005064.1 AC005064.1 pink 27.3893280651933 12.9829324130251 14.4063956521682 -1.42346323914314 5
ZP2 ZP2 pink 26.3598137632305 12.4723507265925 13.887463036638 -1.41511231004554 6
AC007614.1 AC007614.1 pink 24.983306323596 12.1976400177799 12.785666305816 -0.588026288036115 7
CRTAM CRTAM pink 24.2757051464446 11.7989588981012 12.4767462483435 -0.677787350242276 8
AKAIN1 AKAIN1 pink 23.4151207145235 10.866942272608 12.5481784419155 -1.68123616930749 9
GRM4 GRM4 pink 22.8458269782265 10.8424908569977 12.0033361212288 -1.16084526423115 10
TMEM266 TMEM266 pink 25.0185950282934 10.6391859163146 14.3794091119788 -3.74022319566423 11
LMAN1L LMAN1L pink 23.3252425418734 9.64552349634751 13.6797190455259 -4.03419554917842 12
SLC26A5 SLC26A5 pink 23.3616916825478 9.45244257363489 13.9092491089129 -4.45680653527796 13
CCDC175 CCDC175 pink 22.8064392242426 8.57859240517142 14.2278468190711 -5.64925441389971 14
AL356218.1 AL356218.1 pink 20.2757501325762 8.54647034543764 11.7292797871386 -3.18280944170096 15
GACAT2 GACAT2 pink 20.1417431526883 8.47941508264801 11.6623280700403 -3.1829129873923 16
PRR35 PRR35 pink 20.3293355801244 8.31497239978088 12.0143631803435 -3.69939078056259 17
SNAP25-AS1 SNAP25-AS1 pink 21.7458597294916 7.97181796431379 13.7740417651778 -5.80222380086402 18
AL138733.1 AL138733.1 pink 20.6427247719404 7.85937882791276 12.7833459440276 -4.92396711611487 19
RELN RELN pink 20.4948649288555 7.63845391434054 12.8564110145149 -5.21795710017438 20
ARHGEF33 ARHGEF33 pink 18.4389565583276 6.66249879068662 11.7764577676409 -5.11395897695431 21
ZNF702P ZNF702P pink 19.4506089092114 6.61513228997409 12.8354766192373 -6.22034432926321 22
PCSK9 PCSK9 pink 18.6460376461438 6.15478132636218 12.4912563197816 -6.33647499341944 23
IL16 IL16 pink 19.2124965436436 6.05479544249214 13.1577011011514 -7.10290565865929 24
AL590483.3 AL590483.3 pink 17.7762397920911 6.01049036611442 11.7657494259767 -5.75525905986227 25
STARD4-AS1 STARD4-AS1 pink 21.9127234922407 6.00272689319726 15.9099965990434 -9.90726970584615 26
FAT2 FAT2 pink 17.5274516966467 5.94426836302969 11.583183333617 -5.63891497058735 27
CHRNB3 CHRNB3 pink 19.1345605952029 5.69892112505289 13.43563947015 -7.7367183450971 28
AC020659.1 AC020659.1 pink 17.0301204877416 5.6081553799264 11.4219651078152 -5.81380972788877 29
TRIM72 TRIM72 pink 17.8387888717727 5.54593664902469 12.292852222748 -6.74691557372327 30
PTPRR PTPRR pink 17.7887973120563 5.1512657353334 12.6375315767228 -7.48626584138945 31
AC084879.1 AC084879.1 pink 22.0839839169342 5.10832683334049 16.9756570835937 -11.8673302502532 32
TERF1P1 TERF1P1 pink 18.7351882985647 5.08514152841223 13.6500467701525 -8.56490524174024 33
BARHL2 BARHL2 pink 15.5256118937052 5.06517820821821 10.460433685487 -5.39525547726878 34
LINC02139 LINC02139 pink 17.2339726541183 4.98242490178823 12.25154775233 -7.26912285054178 35
ESR1 ESR1 pink 18.7077778229179 4.92440479780488 13.7833730251131 -8.85896822730819 36
SPINT1-AS1 SPINT1-AS1 pink 18.8223169894553 4.83299041272482 13.9893265767305 -9.15633616400569 37
AC007255.1 AC007255.1 pink 20.7132674665317 4.82766294840041 15.8856045181313 -11.0579415697308 38
PLEKHD1 PLEKHD1 pink 16.4754052322412 4.82718154893022 11.6482236833109 -6.82104213438072 39
AL355512.1 AL355512.1 pink 19.6499804338288 4.80551943824392 14.8444609955849 -10.038941557341 40
AC084759.2 AC084759.2 pink 24.1199676241813 4.6963743887791 19.4235932354022 -14.7272188466231 41
AL606491.1 AL606491.1 pink 16.2733331252386 4.66769566884055 11.6056374563981 -6.93794178755755 42
LINC01798 LINC01798 pink 18.3718011298879 4.58812749622135 13.7836736336665 -9.1955461374452 43
AC138819.1 AC138819.1 pink 16.3793725168783 4.46901175486669 11.9103607620116 -7.44134900714491 44
MTCO3P44 MTCO3P44 pink 15.8261598578792 4.45066842452299 11.3754914333562 -6.92482300883319 45
SLC22A31 SLC22A31 pink 14.7835519226981 4.44307476188029 10.3404771608178 -5.89740239893748 46
ZNF663P ZNF663P pink 15.0967053513186 4.31104621105882 10.7856591402598 -6.47461292920098 47
LINC02395 LINC02395 pink 17.7753728511914 4.17591249771214 13.5994603534793 -9.42354785576715 48
AL590683.1 AL590683.1 pink 15.0356222888172 4.08329170835753 10.9523305804597 -6.86903887210215 49
FLT3 FLT3 pink 13.9646873589303 3.91545921616683 10.0492281427635 -6.13376892659665 50
TMEM51-AS1 TMEM51-AS1 pink 15.039515482234 3.8376173930451 11.2018980891889 -7.36428069614381 51
FADS6 FADS6 pink 14.3641672841688 3.8165009033569 10.5476663808119 -6.73116547745503 52
RAB37 RAB37 pink 14.0068499699625 3.80803777710174 10.1988121928608 -6.39077441575905 53
GRM1 GRM1 pink 14.9989092312947 3.80618596588385 11.1927232654108 -7.38653729952697 54
AC139099.4 AC139099.4 pink 16.3414739876041 3.78864633552319 12.5528276520809 -8.76418131655769 55
RHBG RHBG pink 15.3955006167432 3.72953237827551 11.6659682384677 -7.9364358601922 56
LINC02054 LINC02054 pink 17.7016513129516 3.58757582538769 14.1140754875639 -10.5264996621762 57
AC139491.7 AC139491.7 pink 14.1896759132132 3.57327590911904 10.6164000040941 -7.04312409497511 58
U52112.2 U52112.2 pink 16.1665723048384 3.56323694179849 12.6033353630399 -9.04009842124138 59
STRC STRC pink 14.2219548420153 3.54716587364046 10.6747889683749 -7.12762309473443 60
FGF5 FGF5 pink 14.9928339621982 3.51225570459457 11.4805782576037 -7.96832255300911 61
AC011330.3 AC011330.3 pink 14.7575184535424 3.48528686954863 11.2722315839938 -7.78694471444517 62
NRG4 NRG4 pink 18.3881168848746 3.48182493294242 14.9062919519322 -11.4244670189898 63
STARD5 STARD5 pink 14.3083239518147 3.47493824096609 10.8333857108486 -7.35844746988253 64
GULOP GULOP pink 19.7667641095984 3.39697861275445 16.3697854968439 -12.9728068840895 65
AC005280.1 AC005280.1 pink 15.6178120932221 3.39537819978582 12.2224338934363 -8.82705569365045 66
OPRM1 OPRM1 pink 13.8305964414419 3.38255317930413 10.4480432621378 -7.06549008283368 67
RYR2 RYR2 pink 16.6003658289575 3.35961331715533 13.2407525118022 -9.88113919464684 68
RORC RORC pink 16.6474108444377 3.34497259018241 13.3024382542553 -9.95746566407289 69
SLC35F4 SLC35F4 pink 21.5308965112392 3.33429826317491 18.1965982480643 -14.8622999848894 70
LHX1-DT LHX1-DT pink 14.064564855198 3.31614518887057 10.7484196663274 -7.43227447745684 71
MICAL2 MICAL2 pink 14.0755323750812 3.20605035718886 10.8694820178924 -7.6634316607035 72
NAPA-AS1 NAPA-AS1 pink 13.9259040031772 3.18239588313463 10.7435081200426 -7.56111223690798 73
MTND4LP25 MTND4LP25 pink 18.6223999799712 3.12607040586736 15.4963295741038 -12.3702591682365 74
PCLO PCLO pink 14.8936205604343 3.08086524099913 11.8127553194351 -8.731890078436 75
FGF3 FGF3 pink 14.2467357996419 3.06939668590191 11.17733911374 -8.10794242783806 76
AJ003147.1 AJ003147.1 pink 14.0549502079751 2.90167165220059 11.1532785557745 -8.2516069035739 77
FAM153C FAM153C pink 13.7777059539388 2.89019079306886 10.8875151608699 -7.99732436780107 78
KRTAP5-5 KRTAP5-5 pink 14.0420027744954 2.83893074049226 11.2030720340031 -8.36414129351084 79
FAM153A FAM153A pink 14.7434368055514 2.81687293327557 11.9265638722758 -9.10969093900021 80
AC092142.1 AC092142.1 pink 14.0930006937119 2.74855733918084 11.344443354531 -8.59588601535018 81
AC011365.2 AC011365.2 pink 13.7336862343589 2.58301508969504 11.1506711446638 -8.56765605496879 82
LINC01619 LINC01619 pink 16.5527297162086 2.57877672196072 13.9739529942479 -11.3951762722872 83
AC139769.2 AC139769.2 pink 13.4595477141647 2.5741219644655 10.8854257496992 -8.31130378523373 84
AC010328.3 AC010328.3 pink 12.5650348259539 2.57070620954654 9.99432861640737 -7.42362240686083 85
GALNT12 GALNT12 pink 13.5544636200985 2.54788502008232 11.0065786000162 -8.45869357993383 86
CLCNKA CLCNKA pink 14.0857871818315 2.50562660523664 11.5801605765948 -9.0745339713582 87
KCP KCP pink 14.3541268533552 2.49328674154608 11.8608401118092 -9.36755337026307 88
AL137785.1 AL137785.1 pink 13.5598984692076 2.49263490980637 11.0672635594013 -8.5746286495949 89
SLC6A7 SLC6A7 pink 13.2283223725613 2.48848057629813 10.7398417962632 -8.25136121996508 90
WSCD2 WSCD2 pink 13.103299659168 2.47036237531907 10.632937283849 -8.16257490852989 91
AC091980.2 AC091980.2 pink 12.6787945104166 2.40944353189785 10.2693509785188 -7.85990744662095 92
DKK4 DKK4 pink 14.8249227507539 2.38325547351254 12.4416672772414 -10.0584118037288 93
SV2B SV2B pink 12.6524301720745 2.37824420670283 10.2741859653716 -7.89594175866879 94
CLCNKB CLCNKB pink 13.1676754007561 2.37399758433263 10.7936778164235 -8.41968023209087 95
KCNJ12 KCNJ12 pink 13.3376907154818 2.36319158585399 10.9744991296278 -8.6113075437738 96
UNC13C UNC13C pink 12.9336625308305 2.34816416641488 10.5854983644156 -8.23733419800076 97
PRSS22 PRSS22 pink 14.0186460104921 2.33150733116403 11.6871386793281 -9.35563134816402 98
SRGAP2B SRGAP2B pink 14.5882296637447 2.31778648544735 12.2704431782973 -9.95265669284998 99
AL355312.2 AL355312.2 pink 12.9782097770214 2.31691057659008 10.6612992004313 -8.3443886238412 100
FSTL5 FSTL5 pink 14.3838859620465 2.31456697708683 12.0693189849596 -9.75475200787282 101
SYTL1 SYTL1 pink 13.4474845395228 2.30818801450436 11.1392965250185 -8.83110851051412 102
SCNN1G SCNN1G pink 12.7028957504414 2.28299370975975 10.4199020406816 -8.13690833092189 103
DPPA3P3 DPPA3P3 pink 14.8693777360394 2.27993192611062 12.5894458099288 -10.3095138838182 104
COL13A1 COL13A1 pink 13.1432667323188 2.26818216942438 10.8750845628944 -8.60690239347 105
RPS29P11 RPS29P11 pink 12.8422929660653 2.25404879686841 10.5882441691969 -8.33419537232844 106
GABRB2 GABRB2 pink 12.6581267724547 2.21422935172512 10.4438974207295 -8.22966806900441 107
CADPS2 CADPS2 pink 13.7248058796365 2.21359060531159 11.5112152743249 -9.29762466901335 108
RIMS1 RIMS1 pink 13.0006439037892 2.20652496603922 10.79411893775 -8.58759397171073 109
ALS2 ALS2 pink 12.983767748709 2.19752657912621 10.7862411695828 -8.5887145904566 110
TMC2 TMC2 pink 15.0397697876381 2.18424550046506 12.855524287173 -10.671278786708 111
POLB POLB pink 14.2728395020835 2.18286781298644 12.089971689097 -9.90710387611061 112
EOMES EOMES pink 12.2512562478403 2.15645705534324 10.094799192497 -7.93834213715377 113
AC138904.3 AC138904.3 pink 14.3507291307196 2.15501238202702 12.1957167486926 -10.0407043666656 114
HLA-DPB2 HLA-DPB2 pink 12.5749404960281 2.11702861612274 10.4579118799053 -8.34088326378259 115
SYT2 SYT2 pink 12.5508531475566 2.11134063794167 10.4395125096149 -8.32817187167321 116
HTR5A HTR5A pink 12.113976546151 2.09096356338806 10.0230129827629 -7.93204941937487 117
KCNJ3 KCNJ3 pink 12.7967341485173 2.08850472049781 10.7082294280195 -8.61972470752169 118
FAAH2 FAAH2 pink 15.6143083911994 2.08369565532275 13.5306127358766 -11.4469170805539 119
SLC36A1 SLC36A1 pink 12.1303738871915 2.06508223042833 10.0652916567632 -8.00020942633485 120
PVALB PVALB pink 12.0561573047073 2.04189096483343 10.0142663398739 -7.97237537504048 121
AC069120.1 AC069120.1 pink 12.7454773884405 2.03896410747733 10.7065132809631 -8.66754917348581 122
LCN8 LCN8 pink 12.5476652747659 2.03351359606897 10.5141516786969 -8.48063808262793 123
ATP4A ATP4A pink 12.9826635627408 1.9815236237198 11.001139939021 -9.01961631530118 124
AC005703.4 AC005703.4 pink 15.6519881282186 1.95898563645903 13.6930024917596 -11.7340168553006 125
LINC01284 LINC01284 pink 14.2941031089208 1.95755006209289 12.3365530468279 -10.379002984735 126
GABRA1 GABRA1 pink 13.5097641697032 1.95218616976078 11.5575779999424 -9.60539183018164 127
RNU1-151P RNU1-151P pink 11.6594760254213 1.93847585018245 9.72100017523885 -7.7825243250564 128
AL355472.3 AL355472.3 pink 13.0351673210379 1.93200871411725 11.1031586069206 -9.1711498928034 129
SMIM10L2B-AS1 SMIM10L2B-AS1 pink 12.9507223647111 1.92465163153542 11.0260707331757 -9.10141910164025 130
ARHGAP44 ARHGAP44 pink 12.2913418667882 1.91312741123487 10.3782144555533 -8.46508704431844 131
LINC01166 LINC01166 pink 11.7074259258167 1.86540804469214 9.84201788112455 -7.97660983643241 132
WISP3 WISP3 pink 12.1952070319878 1.83537810164494 10.3598289303429 -8.52445082869795 133
HLA-DPA3 HLA-DPA3 pink 11.1753802191741 1.83031630908979 9.34506391008427 -7.51474760099448 134
AL354712.1 AL354712.1 pink 12.7152314502814 1.82880997597349 10.8864214743079 -9.05761149833439 135
AC007663.2 AC007663.2 pink 13.1579460934379 1.82156893573313 11.3363771577047 -9.5148082219716 136
AQP7 AQP7 pink 11.9716814254993 1.81904400754961 10.1526374179497 -8.33359341040006 137
SLC5A5 SLC5A5 pink 11.8783426441069 1.80882651377236 10.0695161303346 -8.26068961656222 138
WBP2P1 WBP2P1 pink 12.0379482743907 1.79899575872542 10.2389525156653 -8.43995675693987 139
HTR5A-AS1 HTR5A-AS1 pink 12.1426841728938 1.7924883379194 10.3501958349744 -8.557707497055 140
GLS2 GLS2 pink 12.3007564222665 1.74646301049921 10.5542934117673 -8.8078304012681 141
AL354751.1 AL354751.1 pink 11.7647335059749 1.72609322266347 10.0386402833114 -8.31254706064791 142
CCL4 CCL4 pink 11.5522387694393 1.71035372698056 9.84188504245876 -8.1315313154782 143
AL031687.1 AL031687.1 pink 11.7829783195135 1.67542126368366 10.1075570558299 -8.43213579214623 144
CAMK4 CAMK4 pink 12.9812391052572 1.67206460458923 11.309174500668 -9.63710989607874 145
OLFM3 OLFM3 pink 13.1771671629512 1.66931234713663 11.5078548158146 -9.83854246867793 146
SPTB SPTB pink 12.6570201193696 1.66540268762381 10.9916174317458 -9.32621474412197 147
LDLRAP1 LDLRAP1 pink 11.4388204147605 1.64488007802138 9.79394033673912 -8.14906025871774 148
AC233702.5 AC233702.5 pink 11.2980448777133 1.64466386661982 9.65338101109346 -8.00871714447364 149
PKLR PKLR pink 13.1783049188677 1.64428926438558 11.5340156544822 -9.88972639009658 150
MSH4 MSH4 pink 13.8601496751464 1.64425040399298 12.2158992711534 -10.5716488671604 151
CCNJL CCNJL pink 12.4871778906523 1.64003175085859 10.8471461397938 -9.20711438893516 152
ATP8A2 ATP8A2 pink 12.8747136985499 1.63684586684968 11.2378678317002 -9.60102196485052 153
RBFOX3 RBFOX3 pink 11.824840073728 1.63110233408929 10.1937377396388 -8.56263540554947 154
CCL4L2 CCL4L2 pink 11.2403944634555 1.62509170564311 9.61530275781241 -7.9902110521693 155
LINGO4 LINGO4 pink 11.8140842610777 1.62280592271344 10.1912783383642 -8.56847241565077 156
CDC42BPG CDC42BPG pink 12.8191458915963 1.62035762764982 11.1987882639465 -9.57843063629665 157
LRCH1 LRCH1 pink 12.8238534254133 1.61320645199644 11.2106469734169 -9.59744052142042 158
ITPR1 ITPR1 pink 11.89369709923 1.6097834622913 10.2839136369387 -8.67413017464736 159
CLEC4GP1 CLEC4GP1 pink 11.4144286149025 1.60896031451206 9.80546830039045 -8.19650798587839 160
AC068389.1 AC068389.1 pink 12.402619389266 1.60860604117433 10.7940133480916 -9.1854073069173 161
AC005606.2 AC005606.2 pink 12.7039998589526 1.60374120126808 11.1002586576845 -9.49651745641639 162
HCG24 HCG24 pink 11.8316494836053 1.60102304327225 10.2306264403331 -8.6296033970608 163
AC017037.2 AC017037.2 pink 12.4151305462445 1.58122041283398 10.8339101334105 -9.25268972057656 164
SCN2A SCN2A pink 11.496374981407 1.57791457671699 9.91846040469004 -8.34054582797306 165
AC244035.1 AC244035.1 pink 13.1884231209637 1.56698344314639 11.6214396778173 -10.0544562346709 166
AC100756.2 AC100756.2 pink 11.8239431177658 1.56606225004746 10.2578808677183 -8.69181861767087 167
LINC02032 LINC02032 pink 11.990357817264 1.56359367758361 10.4267641396804 -8.86317046209675 168
AC006357.1 AC006357.1 pink 12.5316808995194 1.56249248719069 10.9691884123287 -9.40669592513805 169
CCL3L1 CCL3L1 pink 11.5065868438694 1.56249226748966 9.94409457637974 -8.38160230889009 170
AC010168.1 AC010168.1 pink 12.3914121433886 1.56228553459638 10.8291266087923 -9.26684107419588 171
MRGPRF-AS1 MRGPRF-AS1 pink 12.1541890795103 1.55545300772076 10.5987360717896 -9.0432830640688 172
GRB7 GRB7 pink 12.2488167601174 1.55397989238629 10.6948368677311 -9.14085697534485 173
MFSD4A MFSD4A pink 11.7040348295901 1.54938889676254 10.1546459328276 -8.60525703606504 174
AC092376.1 AC092376.1 pink 13.0738070089682 1.53736693490491 11.5364400740633 -9.99907313915837 175
MAP7D2 MAP7D2 pink 12.6106596068423 1.53080934749031 11.079850259352 -9.54904091186166 176
EXPH5 EXPH5 pink 12.2092830231877 1.52433845786349 10.6849445653242 -9.16060610746075 177
GPR83 GPR83 pink 11.3712472609049 1.51736392092064 9.85388333998422 -8.33651941906358 178
ZNF57 ZNF57 pink 12.4223612403435 1.50275503828639 10.9196062020571 -9.4168511637707 179
KLHL3 KLHL3 pink 11.1855365468196 1.49500960804175 9.69052693877787 -8.19551733073612 180
AC008060.3 AC008060.3 pink 14.1645942601393 1.49414774747679 12.6704465126625 -11.1762987651857 181
AC125603.1 AC125603.1 pink 11.7204211578923 1.47916074999285 10.2412604078994 -8.76209965790657 182
AC106795.3 AC106795.3 pink 11.8606116507765 1.47590629996696 10.3847053508095 -8.90879905084255 183
CLEC4M CLEC4M pink 12.2086309559786 1.4734246285025 10.7352063274761 -9.26178169897358 184
MAP3K21 MAP3K21 pink 12.7432503785545 1.46923135210635 11.2740190264482 -9.80478767434182 185
TMEM151B TMEM151B pink 12.3672903834047 1.46532107228211 10.9019693111226 -9.43664823884044 186
HOMER3 HOMER3 pink 13.3013877865494 1.46079059137288 11.8405971951765 -10.3798066038036 187
ADAMTS18 ADAMTS18 pink 11.8636686150795 1.46062654417427 10.4030420709053 -8.942415526731 188
AL034347.1 AL034347.1 pink 12.1636413887667 1.43568603000184 10.7279553587649 -9.29226932876301 189
RAP1GAP2 RAP1GAP2 pink 11.3928420568558 1.4212646427885 9.97157741406733 -8.55031277127883 190
EGR1 EGR1 pink 11.1435931737622 1.41877619138697 9.72481698237525 -8.30604079098828 191
CBLN3 CBLN3 pink 11.5521214412879 1.40894716406226 10.1431742772257 -8.73422711316343 192
AC092957.1 AC092957.1 pink 12.4512364098225 1.4040660460786 11.0471703637439 -9.64310431766534 193
AC004448.2 AC004448.2 pink 12.0669224713796 1.39751018560692 10.6694122857727 -9.27190210016576 194
TOMM20P3 TOMM20P3 pink 11.7538567284902 1.38795315830746 10.3659035701828 -8.9779504118753 195
FLNC-AS1 FLNC-AS1 pink 12.5602437659148 1.38645485854773 11.1737889073671 -9.78733404881939 196
VIPR1 VIPR1 pink 11.4381525430694 1.38319195449067 10.0549605885788 -8.67176863408809 197
TUBA8 TUBA8 pink 12.4803822728544 1.38115382357141 11.099228449283 -9.71807462571158 198
NHSL2 NHSL2 pink 12.5169308123595 1.37552982802356 11.1414009843359 -9.76587115631236 199
AC022424.1 AC022424.1 pink 12.4937776525149 1.36441463144938 11.1293630210656 -9.76494838961618 200
PPM1H PPM1H pink 12.4642347007694 1.35316196425292 11.1110727365165 -9.7579107722636 201
MYO5C MYO5C pink 12.2296717885852 1.3496902569396 10.8799815316456 -9.53029127470599 202
AC140481.1 AC140481.1 pink 11.0121983475996 1.34677364445584 9.66542470314375 -8.31865105868792 203
CASP12 CASP12 pink 12.0335988349235 1.34015363320091 10.6934452017226 -9.35329156852168 204
AL355994.2 AL355994.2 pink 11.0280541565265 1.32752678575427 9.70052737077227 -8.373000585018 205
SRGAP2 SRGAP2 pink 12.3182313292088 1.32352860520955 10.9947027239993 -9.67117411878971 206
KRT31 KRT31 pink 11.4450352676231 1.32001856549457 10.1250167021285 -8.80499813663395 207
RAPGEF6 RAPGEF6 pink 11.8635209444068 1.31902012244774 10.544500821959 -9.22548069951128 208
CNTN6 CNTN6 pink 11.2993908280571 1.31661095322562 9.98277987483144 -8.66616892160582 209
FOS FOS pink 10.6824994205804 1.30785224395577 9.37464717662463 -8.06679493266887 210
RNF152 RNF152 pink 11.1345242336036 1.29992664455769 9.83459758904591 -8.53467094448822 211
PATJ PATJ pink 11.6203045400488 1.29543454911859 10.3248699909302 -9.02943544181163 212
SIAH3 SIAH3 pink 12.3811568847642 1.29356445966068 11.0875924251035 -9.79402796544282 213
AC013726.1 AC013726.1 pink 11.0958276239669 1.28001836688319 9.81580925708366 -8.53579089020046 214
CDH23 CDH23 pink 12.5606356347581 1.27166122147747 11.2889744132807 -10.0173131918032 215
HEATR4 HEATR4 pink 11.9908250059868 1.26868662709284 10.722138378894 -9.45345175180115 216
UBASH3B UBASH3B pink 11.8063023976857 1.2656667874096 10.5406356102761 -9.27496882286646 217
EGR2 EGR2 pink 11.2522340550401 1.26200575374182 9.99022830129831 -8.72822254755649 218
AL121768.1 AL121768.1 pink 10.747754723109 1.2604784446545 9.48727627845448 -8.22679783379997 219
IQSEC3 IQSEC3 pink 11.5276620495929 1.26007221485252 10.2675898347403 -9.00751761988782 220
CLEC4G CLEC4G pink 11.3134436524635 1.25631113544396 10.0571325170196 -8.80082138157561 221
LINC02259 LINC02259 pink 14.1837468658842 1.24622852005702 12.9375183458272 -11.6912898257701 222
NR4A1 NR4A1 pink 11.2910288883514 1.24475129020214 10.0462775981493 -8.80152630794716 223
STK10 STK10 pink 12.5368669876729 1.23630314988889 11.300563837784 -10.0642606878951 224
ZNF385C ZNF385C pink 12.149405955927 1.23600779952773 10.9133981563993 -9.67739035687156 225
MPZL3 MPZL3 pink 11.9869812685435 1.23508648162376 10.7518947869198 -9.51680830529601 226
LAMC2 LAMC2 pink 12.1514161970219 1.23360825986815 10.9178079371538 -9.68419967728563 227
TSPAN9 TSPAN9 pink 12.0275210210569 1.2265566800234 10.8009643410335 -9.57440766101006 228
DHFRP2 DHFRP2 pink 10.737095725539 1.22093277576722 9.51616294977181 -8.29523017400459 229
CCM2L CCM2L pink 12.2563317621503 1.21645336696043 11.0398783951899 -9.82342502822947 230
STXBP5L STXBP5L pink 11.5989784050239 1.20982167214936 10.3891567328745 -9.17933506072512 231
CCDC88B CCDC88B pink 11.039782493244 1.20625415764249 9.83352833560153 -8.62727417795904 232
SRGAP2C SRGAP2C pink 15.0639280540743 1.20000003468935 13.863928019385 -12.6639279846956 233
NR4A2 NR4A2 pink 11.3196842486218 1.197773363804 10.1219108848178 -8.92413752101382 234
AC107884.1 AC107884.1 pink 11.0486190916369 1.18392686260231 9.86469222903464 -8.68076536643234 235
ZNF600 ZNF600 pink 11.6119797052492 1.18379097632713 10.4281887289221 -9.24439775259497 236
RPSAP69 RPSAP69 pink 10.6905300320249 1.17223368518263 9.51829634684222 -8.34606266165959 237
AC135782.1 AC135782.1 pink 11.334833019656 1.17163728281341 10.1631957368426 -8.99155845402916 238
AP4B1-AS1 AP4B1-AS1 pink 11.6551038229383 1.15367768182947 10.5014261411089 -9.34774845927939 239
RNA5SP448 RNA5SP448 pink 10.5150826927792 1.15356966544663 9.36151302733257 -8.20794336188594 240
PRSS8 PRSS8 pink 12.6579877655757 1.14118224782069 11.5168055177551 -10.3756232699344 241
HCN1 HCN1 pink 13.3476522815542 1.13603814750292 12.2116141340512 -11.0755759865483 242
LRRC46 LRRC46 pink 11.7567457999258 1.13592840268839 10.6208173972375 -9.48488899454908 243
NAMA NAMA pink 12.5471339586222 1.13549702660489 11.4116369320173 -10.2761399054124 244
SLC10A1 SLC10A1 pink 12.0882689084766 1.12635263359558 10.961916274881 -9.8355636412854 245
AC139491.5 AC139491.5 pink 10.4746283770881 1.10835924995436 9.36626912713377 -8.25790987717941 246
MORN1 MORN1 pink 11.4356660666913 1.10798007788196 10.3276859888093 -9.21970591092736 247
RNA5SP365 RNA5SP365 pink 10.2249309176983 1.10607786065602 9.11885305704224 -8.01277519638622 248
RNA5SP481 RNA5SP481 pink 12.7234101246261 1.10575079445814 11.617659330168 -10.5119085357098 249
AL031686.1 AL031686.1 pink 11.7973117898491 1.1033171472185 10.6939946426306 -9.59067749541213 250
SLC1A6 SLC1A6 pink 10.9663746214473 1.09709267457549 9.86928194687178 -8.77218927229629 251
AP1S3 AP1S3 pink 11.7226594436618 1.09546031326149 10.6271991304003 -9.53173881713881 252
ATP2A3 ATP2A3 pink 11.5654188685401 1.0809636616758 10.4844552068643 -9.4034915451885 253
KCNK9 KCNK9 pink 11.6706214380809 1.08092634871114 10.5896950893697 -9.50876874065858 254
TMEM238 TMEM238 pink 11.206402719196 1.08024716123365 10.1261555579624 -9.04590839672872 255
FBXO31 FBXO31 pink 11.6346223638855 1.08014159085517 10.5544807730303 -9.47433918217513 256
EPHA1 EPHA1 pink 11.392777897381 1.07028275523746 10.3224951421436 -9.25221238690611 257
AC011603.2 AC011603.2 pink 12.2540894133739 1.06775029363314 11.1863391197408 -10.1185888261076 258
AC104964.1 AC104964.1 pink 11.1766028806698 1.06175444818047 10.1148484324893 -9.05309398430883 259
MTCL1 MTCL1 pink 10.7174950560162 1.0601773359119 9.65731772010425 -8.59714038419235 260
PPARGC1B PPARGC1B pink 11.2260157316396 1.05067841764541 10.1753373139942 -9.12465889634881 261
ANKRD34C ANKRD34C pink 10.7625786850384 1.05059817945995 9.7119805055784 -8.66138232611845 262
CLDN18 CLDN18 pink 11.5185057399669 1.04867732593886 10.469828414028 -9.42115108808916 263
RNF212 RNF212 pink 11.3408979009087 1.04787462918638 10.2930232717223 -9.24514864253591 264
LINC01948 LINC01948 pink 11.1485926663292 1.04506627285262 10.1035263934765 -9.05846012062392 265
AC005476.2 AC005476.2 pink 11.1562513626287 1.04494979363281 10.1113015689959 -9.06635177536309 266
AC007285.1 AC007285.1 pink 11.4817453586402 1.04298142854196 10.4387639300982 -9.39578250155624 267
LIMA1 LIMA1 pink 12.4116638066601 1.03987023136474 11.3717935752953 -10.3319233439306 268
AL139008.1 AL139008.1 pink 11.1337789112504 1.03962093119994 10.0941579800504 -9.05453704885048 269
ZBTB46 ZBTB46 pink 11.6450183867192 1.03927973561018 10.605738651109 -9.56645891549884 270
IL17RE IL17RE pink 11.2000988997476 1.03898479481609 10.1611141049315 -9.12212931011539 271
NKX6-3 NKX6-3 pink 10.6888945434357 1.03462065084148 9.65427389259418 -8.6196532417527 272
CDH15 CDH15 pink 10.8461730908927 1.02980339653296 9.81636969435974 -8.78656629782678 273
RPS6KA4 RPS6KA4 pink 12.1088215866738 1.02389294110728 11.0849286455665 -10.0610357044592 274
ANK3 ANK3 pink 11.702496136909 1.0235311810785 10.6789649558305 -9.655433774752 275
PRKCG PRKCG pink 10.9910466406528 1.02304197872193 9.96800466193088 -8.94496268320895 276
PITPNM3 PITPNM3 pink 11.7905413518728 1.01510994182921 10.7754314100436 -9.76032146821441 277
MMP24OS MMP24OS pink 11.7756353251372 1.01391972280355 10.7617156023336 -9.74779587953006 278
NFKBID NFKBID pink 10.7803856123572 1.01308121684087 9.76730439551636 -8.75422317867549 279
LINC00866 LINC00866 pink 10.2661704719401 1.01178403218658 9.25438643975353 -8.24260240756696 280
C1orf146 C1orf146 pink 13.3659618094584 1.00666401574453 12.3592977937139 -11.3526337779693 281
FUT1 FUT1 pink 10.9743980532793 1.0042764153008 9.97012163797851 -8.96584522267771 282
TPM4 TPM4 pink 11.6984876408107 1.00335878418268 10.695128856628 -9.69177007244532 283
NR4A3 NR4A3 pink 11.3550891257395 1.00282277758742 10.3522663481521 -9.34944357056463 284
ZFP36 ZFP36 pink 10.725475152381 1.0017399872178 9.72373516516319 -8.72199517794539 285
CFC1 CFC1 pink 11.1248044919891 1.00162798327908 10.12317650871 -9.12154852543094 286
ARHGAP9 ARHGAP9 pink 11.2954042592587 0.999489293648417 10.2959149656103 -9.29642567196186 287
PRSS51 PRSS51 pink 11.032379127482 0.996816148376983 10.035562979105 -9.03874683072805 288
KLK10 KLK10 pink 10.7075654612207 0.996418993783667 9.71114646743706 -8.7147274736534 289
CERKL CERKL pink 11.1993594390631 0.991409683974188 10.2079497550889 -9.21654007111472 290
BTG2 BTG2 pink 10.4689326586063 0.990586913839718 9.47834574476654 -8.48775883092682 291
AC004888.1 AC004888.1 pink 11.642486614125 0.987753278040868 10.6547333360841 -9.66698005804322 292
MANSC4 MANSC4 pink 11.6607585435059 0.985301373300585 10.6754571702053 -9.69015579690474 293
TMEM211 TMEM211 pink 11.1712741686023 0.984749745377797 10.1865244232245 -9.20177467784667 294
EGR3 EGR3 pink 10.8568826215626 0.981496130779031 9.87538649078355 -8.89389036000452 295
SLF1 SLF1 pink 11.6636448286354 0.976365522485971 10.6872793061494 -9.71091378366348 296
LINC01588 LINC01588 pink 15.7104481171382 0.975040473229147 14.7354076439091 -13.7603671706799 297
MOV10L1 MOV10L1 pink 10.5111308945056 0.969269466212521 9.5418614282931 -8.57259196208058 298
MTND4P9 MTND4P9 pink 11.2297098192271 0.968234700251682 10.2614751189754 -9.29324041872374 299
KCNK1 KCNK1 pink 11.4352194899711 0.968201965078496 10.4670175248926 -9.49881555981412 300
PLCB4 PLCB4 pink 13.9205142465966 0.967459771109218 12.9530544754874 -11.9855947043782 301
CDR2L CDR2L pink 11.8056077602636 0.965157088238352 10.8404506720252 -9.87529358378685 302
KIAA0513 KIAA0513 pink 12.2385611329609 0.962874684715332 11.2756864482456 -10.3128117635303 303
P2RX4 P2RX4 pink 11.9939374297564 0.953656549102289 11.0402808806541 -10.0866243315518 304
SYNE4 SYNE4 pink 10.9663223591461 0.948673908669027 10.0176484504771 -9.06897454180808 305
AL591242.1 AL591242.1 pink 10.5573510422149 0.945491022471956 9.6118600197429 -8.66636899727095 306
ZIC3 ZIC3 pink 11.3974773145655 0.943814673561455 10.453662641004 -9.50984796744259 307
AC139769.1 AC139769.1 pink 12.5163893236636 0.942914175833592 11.57347514783 -10.6305609719964 308
IFNLR1 IFNLR1 pink 11.873202879104 0.942343353438338 10.9308595256656 -9.98851617222729 309
AP005671.1 AP005671.1 pink 12.2807898069597 0.939498800959628 11.3412910060001 -10.4017922050405 310
CMTM7 CMTM7 pink 11.2662145097185 0.93260136105963 10.3336131486589 -9.40101178759928 311
AC243919.1 AC243919.1 pink 11.6603499933557 0.930599521959808 10.7297504713959 -9.79915094943609 312
ADAMTS16 ADAMTS16 pink 12.010890409295 0.926479853705651 11.0844105555894 -10.1579307018837 313
AL158064.1 AL158064.1 pink 11.6260836893746 0.921544462443229 10.7045392269314 -9.78299476448816 314
TNF TNF pink 10.4596816732546 0.921118289666766 9.53856338358781 -8.61744509392104 315
PDE1A PDE1A pink 11.816418587407 0.920246804283943 10.8961717831231 -9.97592497883912 316
FBXO16 FBXO16 pink 12.1955656686916 0.915172288104279 11.2803933805873 -10.365221092483 317
AP003774.4 AP003774.4 pink 11.5413304904083 0.913547774888293 10.62778271552 -9.71423494063172 318
CDYL2 CDYL2 pink 11.1923075756773 0.913545483292622 10.2787620923847 -9.36521660909203 319
CATSPERG CATSPERG pink 11.1351952572649 0.912972922148164 10.2222223351167 -9.30924941296858 320
AC139493.1 AC139493.1 pink 10.2120815827849 0.911749366968197 9.30033221581665 -8.38858284884846 321
ALOXE3 ALOXE3 pink 11.8053909131432 0.907824165531162 10.8975667476121 -9.9897425820809 322
ITGA4 ITGA4 pink 11.2691677434652 0.907188512485889 10.3619792309793 -9.45479071849345 323
MAP1LC3B2 MAP1LC3B2 pink 11.4574848176269 0.906764299120165 10.5507205185067 -9.64395621938658 324
C1orf127 C1orf127 pink 11.7075885399876 0.904709466086881 10.8028790739007 -9.89816960781381 325
USP45 USP45 pink 11.5849826473826 0.901565368038695 10.6834172793439 -9.78185191130525 326
GPRIN3 GPRIN3 pink 10.0836039607947 0.891655585415775 9.19194837537893 -8.30029278996315 327
TLX3 TLX3 pink 10.5267597505628 0.889740476828058 9.6370192737347 -8.74727879690665 328
RGS7BP RGS7BP pink 11.2628907895371 0.881290079009193 10.3816007105279 -9.50031063151869 329
MSRA MSRA pink 12.4261571859484 0.88077333917109 11.5453838467773 -10.6646105076062 330
LINC01691 LINC01691 pink 11.1505804101863 0.879378680405566 10.2712017297807 -9.39182304937516 331
ETV1 ETV1 pink 11.2491276570946 0.876340176608276 10.3727874804864 -9.4964473038781 332
OSM OSM pink 10.3688063702153 0.875328753744164 9.49347761647114 -8.61814886272697 333
Z84485.1 Z84485.1 pink 12.0986961874729 0.868074195352394 11.2306219921205 -10.3625477967681 334
PDLIM1P2 PDLIM1P2 pink 11.1705660590699 0.862460409026897 10.308105650043 -9.44564524101608 335
IER2 IER2 pink 10.4850550492556 0.860990691068449 9.62406435818719 -8.76307366711875 336
LINC02396 LINC02396 pink 11.5809582479567 0.857874142401377 10.7230841055553 -9.86520996315392 337
LHX1 LHX1 pink 10.124403245872 0.85428628754536 9.27011695832661 -8.41583067078125 338
AC061961.1 AC061961.1 pink 10.7470484518399 0.85359390309508 9.89345454874484 -9.03986064564976 339
AC125603.4 AC125603.4 pink 11.1051198075029 0.852430921847238 10.2526888856557 -9.40025796380845 340
CH25H CH25H pink 10.8011875267689 0.848818232653144 9.95236929411574 -9.1035510614626 341
GSTM5P1 GSTM5P1 pink 11.1012218481078 0.848270846245019 10.2529510018628 -9.40468015561781 342
AK2 AK2 pink 11.9795670853801 0.846682215575864 11.1328848698042 -10.2862026542283 343
CASP16P CASP16P pink 10.7646619743344 0.844486575879271 9.92017539845513 -9.07568882257586 344
TSPAN15 TSPAN15 pink 11.378571387545 0.84418926398892 10.5343821235561 -9.6901928595672 345
STRCP1 STRCP1 pink 10.6066317640458 0.829277148869118 9.77735461517665 -8.94807746630753 346
CHRNA6 CHRNA6 pink 10.9486353194636 0.828726640103862 10.1199086793598 -9.2911820392559 347
CPNE9 CPNE9 pink 10.6537296403119 0.828510855358896 9.82521878495296 -8.99670792959406 348
GPAT3 GPAT3 pink 10.7693246430995 0.828086606120038 9.94123803697946 -9.11315143085942 349
MPP3 MPP3 pink 11.0781397260532 0.825956889422106 10.2521828366311 -9.42622594720903 350
PGLYRP1 PGLYRP1 pink 10.6896516492937 0.820144673921083 9.86950697537259 -9.04936230145151 351
MIR1275 MIR1275 pink 10.0346683683089 0.815924020183694 9.21874434812522 -8.40282032794153 352
AL133516.1 AL133516.1 pink 11.0291821514787 0.813077029478522 10.2161051220002 -9.40302809252166 353
TBC1D9 TBC1D9 pink 10.7325659171925 0.80948974081546 9.92307617637699 -9.11358643556154 354
MPP4 MPP4 pink 11.5625146922866 0.806933352231895 10.7555813400547 -9.94864798782282 355
C11orf80 C11orf80 pink 11.4408127755335 0.802928782908744 10.6378839926248 -9.83495520971605 356
VIM2P VIM2P pink 10.9799090587994 0.79955617852402 10.1803528802754 -9.38079670175138 357
LINC02145 LINC02145 pink 11.6905953380519 0.797434035932542 10.8931613021194 -10.0957272661868 358
SLC22A7 SLC22A7 pink 11.9387282123421 0.796935954120646 11.1417922582215 -10.3448563041008 359
MAGEA8 MAGEA8 pink 11.6794546654932 0.791337154448513 10.8881175110447 -10.0967803565962 360
CNKSR2 CNKSR2 pink 10.8289133434946 0.789545793617027 10.0393675498776 -9.24982175626059 361
GRID2IP GRID2IP pink 10.6637729066127 0.78886442093077 9.87490848568189 -9.08604406475112 362
SLC7A4 SLC7A4 pink 10.2874511141898 0.788703446276165 9.49874766791362 -8.71004422163746 363
SLC22A14 SLC22A14 pink 12.0735855010524 0.788174556680566 11.2854109443719 -10.4972363876913 364
ALOX5 ALOX5 pink 11.7622436495797 0.787706426478502 10.9745372231012 -10.1868307966227 365
SRCIN1 SRCIN1 pink 11.1764926506481 0.785211996457128 10.391280654191 -9.60606865773385 366
CA4 CA4 pink 11.2490351686183 0.785110192308187 10.4639249763101 -9.67881478400191 367
LINC02033 LINC02033 pink 10.6100821366261 0.784963338454133 9.82511879817192 -9.04015545971778 368
EPB41 EPB41 pink 11.8088695256056 0.783665709212489 11.0252038163931 -10.2415381071806 369
ZIC4 ZIC4 pink 10.6242302417715 0.779043916165265 9.84518632560619 -9.06614240944092 370
TCTEX1D1 TCTEX1D1 pink 11.4699681217453 0.777883021903987 10.6920850998413 -9.91420207793728 371
AC010615.4 AC010615.4 pink 11.8951482060604 0.776994300387468 11.118153905673 -10.3411596052855 372
MEIS1 MEIS1 pink 10.6749263870603 0.773817578075347 9.9011088089849 -9.12729123090956 373
SFTPA2 SFTPA2 pink 10.6229553310081 0.772837887063554 9.85011744394457 -9.07727955688102 374
SCGB1A1 SCGB1A1 pink 12.5768038761145 0.770117772754133 11.8066861033604 -11.0365683306062 375
ANK1 ANK1 pink 10.6226245790694 0.769056449089462 9.85356812997997 -9.0845116808905 376
LLGL2 LLGL2 pink 11.4361459392811 0.766336957332953 10.6698089819481 -9.90347202461514 377
SAMD12 SAMD12 pink 13.1874686758318 0.766192845805418 12.4212758300264 -11.655082984221 378
SIDT1 SIDT1 pink 10.7417903669455 0.763644624389489 9.97814574255598 -9.21450111816649 379
GABRD GABRD pink 11.2999489138684 0.76315627808936 10.536792635779 -9.77363635768967 380
TRANK1 TRANK1 pink 10.8125618589936 0.762352088946025 10.0502097700476 -9.28785768110159 381
DUSP5 DUSP5 pink 10.4058116690991 0.762196778015685 9.64361489108342 -8.88141811306773 382
AHI1 AHI1 pink 11.46526244576 0.761634027852658 10.7036284179073 -9.94199439005464 383
KCNC1 KCNC1 pink 10.5759952359741 0.759974872894313 9.81602036307983 -9.05604549018551 384
MAPT-AS1 MAPT-AS1 pink 10.7453586530149 0.759037359361782 9.98632129365313 -9.22728393429135 385
COL27A1 COL27A1 pink 11.1891646485814 0.758205733146745 10.4309589154346 -9.67275318228788 386
CD83 CD83 pink 10.9142721323758 0.756995682077605 10.1572764502982 -9.40028076822055 387
SHISA8 SHISA8 pink 11.4329148059317 0.756544424222422 10.6763703817092 -9.91982595748681 388
AC064853.2 AC064853.2 pink 10.5132814030586 0.75638961505911 9.75689178799952 -9.00050217294041 389
TMEM178A TMEM178A pink 10.9657716495897 0.754409291906076 10.2113623576836 -9.45695306577752 390
ERFE ERFE pink 10.5210185794262 0.752492278311172 9.76852630111499 -9.01603402280382 391
LINC02373 LINC02373 pink 11.8681372681825 0.751985008126372 11.1161522600561 -10.3641672519298 392
RNU6-506P RNU6-506P pink 9.86039763598585 0.751678149911428 9.10871948607442 -8.357041336163 393
GPRC5C GPRC5C pink 10.8394080939759 0.749071104966548 10.0903369890093 -9.34126588404278 394
ZIC1 ZIC1 pink 10.4544792362095 0.746232959119954 9.70824627708958 -8.96201331796963 395
ELL ELL pink 11.6611333241715 0.745374178114284 10.9157591460572 -10.1703849679429 396
HS3ST1 HS3ST1 pink 10.8158674285824 0.745146644203108 10.0707207843793 -9.32557414017621 397
PRKCZ PRKCZ pink 11.8454965931095 0.74400067121882 11.1014959218907 -10.3574952506719 398
SLC22A4 SLC22A4 pink 11.0879505693557 0.743617655396399 10.3443329139593 -9.60071525856294 399
TIAM1 TIAM1 pink 10.8745046276483 0.742566931640903 10.1319376960074 -9.38937076436648 400
LURAP1L LURAP1L pink 11.1163891669421 0.742496297269182 10.3738928696729 -9.63139657240374 401
DEGS2 DEGS2 pink 11.2647964091297 0.741134097235041 10.5236623118946 -9.78252821465958 402
CCDC173 CCDC173 pink 11.1556529439942 0.739544040552385 10.4161089034418 -9.67656486288942 403
PPP1R2P5 PPP1R2P5 pink 9.97170571950887 0.738343008291298 9.23336271121758 -8.49501970292628 404
LINC01396 LINC01396 pink 12.3393958946708 0.737816519309425 11.6015793753614 -10.8637628560519 405
ABCG4 ABCG4 pink 10.6443467535387 0.736656151203851 9.90769060233486 -9.17103445113101 406
Z95624.1 Z95624.1 pink 10.4138414165928 0.731366418488468 9.68247499810433 -8.95110857961587 407
CCDC177 CCDC177 pink 11.4846917013788 0.729820896761924 10.7548708046169 -10.0250499078549 408
AC008915.2 AC008915.2 pink 10.1145364040428 0.729474443903877 9.38506196013892 -8.65558751623504 409
ZNF559-ZNF177 ZNF559-ZNF177 pink 11.9984817394768 0.729158810911422 11.2693229285654 -10.540164117654 410
PHTF1 PHTF1 pink 10.6009804853953 0.725692158821997 9.87528832657331 -9.14959616775131 411
RASGEF1C RASGEF1C pink 10.7859289608208 0.722469833453607 10.0634591273672 -9.34098929391356 412
KBTBD12 KBTBD12 pink 11.072191306269 0.721735634608099 10.3504556716609 -9.6287200370528 413
SPHKAP SPHKAP pink 10.2666993376783 0.719140817584697 9.54755852009356 -8.82841770250887 414
IRF6 IRF6 pink 10.4189286510525 0.716269557086192 9.70265909396634 -8.98638953688015 415
TEDDM1 TEDDM1 pink 10.8406493866434 0.716101750301507 10.1245476363418 -9.40844588604033 416
AC213203.1 AC213203.1 pink 10.7509193262017 0.715594019765607 10.0353253064361 -9.31973128667046 417
C7orf57 C7orf57 pink 11.3749371800879 0.713752557160427 10.6611846229275 -9.94743206576706 418
AC104042.1 AC104042.1 pink 12.0687749821686 0.711495040326226 11.3572799418424 -10.6457849015161 419
SEMA7A SEMA7A pink 11.6227116979409 0.709828881413741 10.9128828165271 -10.2030539351134 420
SDR16C5 SDR16C5 pink 10.2629675894982 0.709229823070536 9.55373776642766 -8.84450794335712 421
SNAI2 SNAI2 pink 10.5919138149823 0.708228236167207 9.88368557881507 -9.17545734264786 422
AC092681.2 AC092681.2 pink 10.4530353013872 0.707296505221153 9.74573879616601 -9.03844229094486 423
CALB1 CALB1 pink 9.83659727603491 0.707233586419556 9.12936368961535 -8.4221301031958 424
AC092611.2 AC092611.2 pink 10.2321864672416 0.706024914962844 9.52616155227879 -8.82013663731594 425
AL359764.1 AL359764.1 pink 10.8793554787091 0.705858007446223 10.1734974712629 -9.4676394638167 426
ARHGAP4 ARHGAP4 pink 11.0067155723797 0.705470736802338 10.3012448355774 -9.59577409877502 427
AC244021.1 AC244021.1 pink 11.4258274702061 0.704737122139995 10.7210903480661 -10.0163532259261 428
ANKMY1 ANKMY1 pink 11.9746147794197 0.701553836600635 11.273060942819 -10.5715071062184 429
AL162377.2 AL162377.2 pink 11.0592216167761 0.698205847144257 10.3610157696319 -9.6628099224876 430
GPS2P1 GPS2P1 pink 11.3965701035542 0.696811590492307 10.6997585130619 -10.0029469225696 431
NCOA7 NCOA7 pink 10.392760774624 0.694546846280075 9.6982139283439 -9.00366708206383 432
METTL21EP METTL21EP pink 10.4118940334815 0.693262922176162 9.71863111130531 -9.02536818912915 433
ADARB1 ADARB1 pink 10.9598592796558 0.692362749141722 10.2674965305141 -9.57513378137239 434
ATP2B2 ATP2B2 pink 10.3818752010138 0.692303122288327 9.68957207872552 -8.99726895643719 435
AC092115.3 AC092115.3 pink 10.6334850967356 0.689946121122097 9.94353897561352 -9.25359285449143 436
TNK1 TNK1 pink 10.9782312281655 0.687343296975213 10.2908879311903 -9.6035446342151 437
AJ003147.2 AJ003147.2 pink 11.3896224520132 0.686105012491179 10.7035174395221 -10.0174124270309 438
TUBA3E TUBA3E pink 10.9629277739106 0.685730947450709 10.2771968264599 -9.59146587900918 439
NT5C1A NT5C1A pink 10.4448817392261 0.678981782199664 9.76589995702642 -9.08691817482675 440
SLC12A2 SLC12A2 pink 10.768171035771 0.678103221422823 10.0900678143482 -9.41196459292539 441
ACOT6 ACOT6 pink 10.5280116250306 0.676005792250459 9.85200583278011 -9.17600004052965 442
TBC1D3F TBC1D3F pink 10.8742567279161 0.674681753007143 10.1995749749089 -9.52489322190179 443
AC022217.3 AC022217.3 pink 10.1651585565691 0.674132050693185 9.49102650587588 -8.81689445518269 444
AC108134.4 AC108134.4 pink 10.2353011800174 0.670783336308521 9.56451784370885 -8.89373450740033 445
PTK2B PTK2B pink 10.4918279000166 0.669660794262824 9.82216710575378 -9.15250631149095 446
PDLIM2 PDLIM2 pink 10.8883145639086 0.668954095871788 10.2193604680368 -9.55040637216498 447
MGAT4A MGAT4A pink 10.5890894572463 0.666140523353038 9.92294893389328 -9.25680841054024 448
LINC01637 LINC01637 pink 10.6069676495467 0.66465887041358 9.9423087791331 -9.27764990871952 449
VSX1 VSX1 pink 10.4406784486468 0.661749816046687 9.7789286326001 -9.11717881655341 450
AC119403.1 AC119403.1 pink 11.8015010019025 0.660901968984982 11.1405990329175 -10.4796970639325 451
GALNT17 GALNT17 pink 11.7998407818894 0.660776832474326 11.1390639494151 -10.4782871169408 452
STXBP5 STXBP5 pink 10.6444042680747 0.660513348328732 9.98389091974592 -9.32337757141719 453
EBF1 EBF1 pink 10.5170051237786 0.654734108380528 9.86227101539807 -9.20753690701754 454
AL022157.1 AL022157.1 pink 10.4047353763133 0.652794087520265 9.75194128879302 -9.09914720127276 455
MAGIX MAGIX pink 10.3437826820892 0.650853426283125 9.69292925580605 -9.04207582952293 456
LINC00184 LINC00184 pink 10.4419794059876 0.650053754412529 9.79192565157509 -9.14187189716256 457
KLF8 KLF8 pink 11.0315083192783 0.646889375981955 10.3846189432963 -9.73772956731439 458
MLXIPL MLXIPL pink 11.4445297287913 0.645615472185018 10.7989142566063 -10.1532987844213 459
PHEX PHEX pink 11.3939903074772 0.64425103920186 10.7497392682754 -10.1054882290735 460
AC104109.3 AC104109.3 pink 11.173425127368 0.641044625086797 10.5323805022812 -9.89133587719442 461
AC025034.1 AC025034.1 pink 10.7641390239219 0.637836741270909 10.126302282651 -9.48846554138011 462
IL1B IL1B pink 10.5886387723885 0.637170691728877 9.95146808065966 -9.31429738893079 463
AL583810.3 AL583810.3 pink 10.9298276737021 0.637063488622301 10.2927641850798 -9.65570069645746 464
ERICH3 ERICH3 pink 10.077103482385 0.637016614820414 9.44008686756454 -8.80307025274412 465
AP002530.1 AP002530.1 pink 9.7096224857719 0.63651127959164 9.07311120618026 -8.43659992658861 466
TRMT9B TRMT9B pink 9.68906701814127 0.636433891698427 9.05263312644284 -8.41619923474442 467
AMPH AMPH pink 10.748303354005 0.635991070447413 10.1123122835576 -9.47632121311016 468
AL139300.2 AL139300.2 pink 10.3360411035685 0.635592535587183 9.70044856798132 -9.06485603239414 469
AL590094.1 AL590094.1 pink 10.3038049577495 0.634155664197443 9.66964929355207 -9.03549362935463 470
INTS6L INTS6L pink 11.1942570829109 0.632425420359871 10.561831662551 -9.92940624219113 471
AC137800.2 AC137800.2 pink 10.1902929512886 0.632290856459712 9.55800209482887 -8.92571123836916 472
SLC27A2 SLC27A2 pink 10.8414146731875 0.63209890499441 10.2093157681931 -9.57721686319869 473
ZNF720 ZNF720 pink 11.0185167098323 0.626621585606643 10.3918951242257 -9.76527353861903 474
ART3 ART3 pink 10.164511873681 0.617834145657174 9.54667772802384 -8.92884358236667 475
SYT9 SYT9 pink 12.0311444188424 0.617636056341825 11.4135083625006 -10.7958723061587 476
NSF NSF pink 10.6201427769377 0.615938648495983 10.0042041284417 -9.38826547994571 477
PAG1 PAG1 pink 11.8113176742442 0.615783023021061 11.1955346512231 -10.5797516282021 478
GRAMD1B GRAMD1B pink 11.7316014270076 0.614506030395243 11.1170953966124 -10.5025893662171 479
IDI2-AS1 IDI2-AS1 pink 10.8615797287879 0.612057588440653 10.2495221403473 -9.63746455190663 480
MIR194-2HG MIR194-2HG pink 10.7495937842951 0.611992706678378 10.1376010776168 -9.52560837093838 481
GLCE GLCE pink 10.1730289957061 0.611621762004545 9.56140723370153 -8.94978547169698 482
SCN2B SCN2B pink 10.4213861605034 0.61107797830533 9.81030818219802 -9.19923020389269 483
LINC01763 LINC01763 pink 9.83258952029042 0.60927111882147 9.22331840146895 -8.61404728264748 484
MTDHP3 MTDHP3 pink 10.2583452267587 0.609212243925408 9.6491329828333 -9.03992073890789 485
C1orf158 C1orf158 pink 10.9985987257666 0.60656032794212 10.3920383978244 -9.78547806988231 486
JUN JUN pink 10.3321475140703 0.605263811611022 9.72688370245933 -9.1216198908483 487
FAM131C FAM131C pink 10.14419741735 0.598892910771197 9.54530450657883 -8.94641159580763 488
NTM NTM pink 11.2681269329445 0.598033436380161 10.6700934965644 -10.0720600601842 489
AC013452.2 AC013452.2 pink 10.5867322342371 0.596217771017721 9.99051446321942 -9.3942966922017 490
IER3 IER3 pink 10.2977883586189 0.593891578355253 9.7038967802636 -9.11000520190835 491
AC026585.1 AC026585.1 pink 9.50257747379696 0.59357482146318 8.90900265233378 -8.3154278308706 492
CACNA1A CACNA1A pink 10.3163170600636 0.592612464274772 9.72370459578882 -9.13109213151405 493
ARHGAP29 ARHGAP29 pink 10.8841734501573 0.592426628551494 10.2917468216058 -9.6993201930543 494
ARC ARC pink 10.482018375976 0.59195080095424 9.8900675750218 -9.29811677406756 495
CSRNP1 CSRNP1 pink 10.8359972351755 0.591734655720528 10.244262579455 -9.65252792373448 496
BTBD17 BTBD17 pink 10.9334660344787 0.590336193470096 10.3431298410086 -9.75279364753852 497
ATP2B3 ATP2B3 pink 9.98572412947396 0.589754158870531 9.39596997060343 -8.8062158117329 498
SPINT2 SPINT2 pink 10.3325064924756 0.58952624147292 9.74298025100264 -9.15345400952972 499
PTCHD1 PTCHD1 pink 9.79278096039768 0.588684786733843 9.20409617366384 -8.61541138692999 500
WDR38 WDR38 pink 10.4178869697743 0.588098060297 9.8297889094773 -9.2416908491803 501
MAG MAG pink 12.5325716747735 0.586422731667455 11.946148943106 -11.3597262114386 502
LYN LYN pink 11.2259963105432 0.58566047146374 10.6403358390794 -10.0546753676157 503
RHOXF1P3 RHOXF1P3 pink 12.3579255131073 0.585425314817164 11.7725001982901 -11.187074883473 504
EPS8L2 EPS8L2 pink 10.7407825541501 0.58303934123876 10.1577432129114 -9.57470387167259 505
GIPC2 GIPC2 pink 11.3864009188631 0.582760113046905 10.8036408058162 -10.2208806927693 506
LMNB1-DT LMNB1-DT pink 10.65102820548 0.582353030367092 10.0686751751129 -9.48632214474582 507
HPCAL1 HPCAL1 pink 10.7511732918288 0.578148183529884 10.1730251082989 -9.59487692476904 508
AC082651.3 AC082651.3 pink 10.7639228420769 0.57759842000973 10.1863244220671 -9.60872600205741 509
AL391845.2 AL391845.2 pink 9.79013134320841 0.577526037054794 9.21260530615361 -8.63507926909882 510
ANKRD36 ANKRD36 pink 11.7550615770349 0.575223822712086 11.1798377543228 -10.6046139316107 511
Z98885.2 Z98885.2 pink 10.5764066032218 0.574810325053368 10.0015962781684 -9.42678595311506 512
ARHGAP26 ARHGAP26 pink 11.4345336819543 0.570413585008525 10.8641200969458 -10.2937065119372 513
NOX1 NOX1 pink 10.4334801271324 0.568324766971906 9.86515536016051 -9.29683059318861 514
KCND2 KCND2 pink 11.1672347871485 0.567634162192401 10.5996006249561 -10.0319664627637 515
ATF3 ATF3 pink 10.8988310338 0.56554467489418 10.3332863589058 -9.76774168401161 516
REL REL pink 11.2324940322271 0.564693215082279 10.6678008171448 -10.1031076020625 517
TRPM2 TRPM2 pink 10.4341423015823 0.563442241535348 9.87070006004691 -9.30725781851156 518
MRPS21P6 MRPS21P6 pink 9.36899365707044 0.562028810976465 8.80696484609398 -8.24493603511752 519
SRF SRF pink 10.9996707592212 0.5604628532783 10.4392079059429 -9.87874505266462 520
FAM156A FAM156A pink 10.3900182099561 0.557444310215529 9.83257389974056 -9.27512958952503 521
LINC01783 LINC01783 pink 11.035736774629 0.55472452767304 10.4810122469559 -9.9262877192829 522
MAATS1 MAATS1 pink 11.2470493428901 0.552239472858142 10.6948098700319 -10.1425703971738 523
HBEGF HBEGF pink 10.6474767107712 0.551902562486272 10.0955741482849 -9.54367158579863 524
NKAIN4 NKAIN4 pink 11.336166694901 0.551805142143112 10.7843615527579 -10.2325564106148 525
RSPH1 RSPH1 pink 10.1290942604432 0.5516427057009 9.57745155474233 -9.02580884904143 526
KLHL33 KLHL33 pink 10.3734247321283 0.549543075604682 9.82388165652366 -9.27433858091898 527
BCKDK BCKDK pink 11.2254785498429 0.54854621581065 10.6769323340323 -10.1283861182216 528
AC096642.1 AC096642.1 pink 10.0323393877463 0.547814447447887 9.48452494029846 -8.93671049285058 529
FGF20 FGF20 pink 11.0328739337167 0.54765114876375 10.4852227849529 -9.9375716361892 530
TGIF2-C20orf24 TGIF2-C20orf24 pink 13.3819948573991 0.547018491444591 12.8349763659545 -12.2879578745099 531
NOVA1 NOVA1 pink 10.401562295115 0.544564739308657 9.85699755580631 -9.31243281649765 532
AC021752.1 AC021752.1 pink 11.0611149530465 0.542242250437567 10.518872702609 -9.9766304521714 533
BEST4 BEST4 pink 10.5942352304576 0.541302560730998 10.0529326697266 -9.5116301089956 534
RNA5SP511 RNA5SP511 pink 9.26607447921795 0.54087111857163 8.72520336064632 -8.18433224207469 535
AC022392.1 AC022392.1 pink 9.76474774423678 0.538307658354212 9.22644008588257 -8.68813242752836 536
PLGLB1 PLGLB1 pink 9.64007534414454 0.537334617177566 9.10274072696698 -8.56540610978941 537
DSE DSE pink 10.4229271660493 0.535732904559714 9.88719426148957 -9.35146135692986 538
CHIC1 CHIC1 pink 10.4204990101626 0.533884537046457 9.88661447311616 -9.3527299360697 539
MDFI MDFI pink 10.0006276033158 0.533340083746447 9.46728751956938 -8.93394743582294 540
STK26 STK26 pink 11.6103694906747 0.533285891230018 11.0770835994447 -10.5437977082147 541
AC068787.1 AC068787.1 pink 9.28261771562003 0.532334341599843 8.75028337402019 -8.21794903242034 542
PRKCB PRKCB pink 10.2378331967812 0.531866425524855 9.70596677125632 -9.17410034573146 543
ELK3 ELK3 pink 10.6718585751446 0.529719577656872 10.1421389974877 -9.61241941983083 544
YPEL2 YPEL2 pink 11.0232052816206 0.527692397202449 10.4955128844182 -9.96782048721571 545
ZCCHC12 ZCCHC12 pink 10.2673095526077 0.524383612531689 9.74292594007601 -9.21854232754432 546
AC139491.1 AC139491.1 pink 9.49218093165056 0.524183162439974 8.96799776921058 -8.44381460677061 547
DUSP2 DUSP2 pink 10.0852755029434 0.523730580000934 9.56154492294249 -9.03781434294156 548
AC109826.1 AC109826.1 pink 10.2405449737261 0.523592756696991 9.71695221702911 -9.19335946033212 549
GADD45B GADD45B pink 10.3512061595329 0.523336979783893 9.827869179749 -9.3045321999651 550
GRPEL2-AS1 GRPEL2-AS1 pink 10.3646256764252 0.520634327298396 9.84399134912677 -9.32335702182838 551
MYT1 MYT1 pink 10.7932315581609 0.520477478350455 10.2727540798105 -9.75227660146 552
PPIL6 PPIL6 pink 10.6356845746725 0.516901043990942 10.1187835306816 -9.60188248669065 553
AC116407.1 AC116407.1 pink 9.6766197563192 0.513380445402604 9.16323931091659 -8.64985886551399 554
SLC16A14 SLC16A14 pink 10.4289267405525 0.512850111706334 9.91607662884614 -9.40322651713981 555
LINC02219 LINC02219 pink 12.3237480896805 0.511783226769764 11.8119648629108 -11.300181636141 556
AC025283.3 AC025283.3 pink 10.0052179491849 0.510003108240085 9.49521484094482 -8.98521173270473 557
GRIK2 GRIK2 pink 10.1909229667678 0.505324696011472 9.68559827075634 -9.18027357474486 558
LONRF1 LONRF1 pink 10.583452923419 0.505229097466347 10.0782238259527 -9.57299472848635 559
HPX HPX pink 10.3319198049482 0.50419314322066 9.82772666172757 -9.32353351850692 560
SGK1 SGK1 pink 10.4657542927971 0.504044868802056 9.96170942399503 -9.45766455519297 561
RNU6-147P RNU6-147P pink 10.1319484022373 0.503890631003351 9.62805777123394 -9.12416714023059 562
PILRA PILRA pink 10.4507913672743 0.503879557661049 9.94691180961326 -9.44303225195221 563
ANKRD36C ANKRD36C pink 11.1290699870539 0.503382969498287 10.6256870175557 -10.1223040480574 564
AC021491.4 AC021491.4 pink 10.1189041766564 0.500866788153604 9.61803738850284 -9.11717060034923 565
AC005520.2 AC005520.2 pink 10.3715966599128 0.500084048466668 9.87151261144611 -9.37142856297944 566
AC005796.1 AC005796.1 pink 9.91944760571658 0.497921266974161 9.42152633874242 -8.92360507176826 567
AFF2 AFF2 pink 10.9853672994308 0.497653279613873 10.487714019817 -9.99006074020309 568
AC005523.1 AC005523.1 pink 10.1713451851902 0.496621677923754 9.67472350726646 -9.1781018293427 569
OTUD1 OTUD1 pink 10.4553087741001 0.494414974860263 9.96089379923983 -9.46647882437956 570
C6orf118 C6orf118 pink 10.0844811541572 0.487440102922869 9.59704105123432 -9.10960094831145 571
DOC2A DOC2A pink 10.5053013116232 0.486321503444492 10.0189798081787 -9.53265830473418 572
AC092958.1 AC092958.1 pink 10.2711819053255 0.485995954318582 9.78518595100696 -9.29918999668837 573
EEF2K EEF2K pink 10.2141883933722 0.484978573306339 9.72920982006588 -9.24423124675954 574
AL500527.1 AL500527.1 pink 10.5162629688902 0.483452339917454 10.0328106289727 -9.54935828905526 575
AC125603.3 AC125603.3 pink 11.0565876135984 0.480483625861754 10.5761039877367 -10.0956203618749 576
AL138921.1 AL138921.1 pink 10.0816371316088 0.478540918459847 9.60309621314898 -9.12455529468914 577
BTBD3 BTBD3 pink 9.85852706348258 0.478349510917286 9.38017755256529 -8.90182804164801 578
MTHFD1L MTHFD1L pink 11.0425858056795 0.478061482607075 10.5645243230724 -10.0864628404654 579
LINC00173 LINC00173 pink 10.3860288913661 0.473844029539734 9.91218486182632 -9.43834083228658 580
MCL1 MCL1 pink 10.5963874180224 0.473528798099246 10.1228586199232 -9.64932982182395 581
HPCAL4 HPCAL4 pink 10.2984806107376 0.472804049637744 9.82567656109984 -9.3528725114621 582
LMLN LMLN pink 10.0822160883453 0.471867106544889 9.61034898180037 -9.13848187525548 583
BEGAIN BEGAIN pink 10.6779185707669 0.471418026387356 10.2065005443796 -9.73508251799222 584
RPS6KA6 RPS6KA6 pink 10.4848845876891 0.46762047379881 10.0172641138903 -9.54964364009146 585
MTND5P15 MTND5P15 pink 10.5571942091579 0.464822343521192 10.0923718656367 -9.62754952211555 586
GPC1 GPC1 pink 10.0257166124065 0.464717052411248 9.56099955999521 -9.09628250758396 587
NCEH1 NCEH1 pink 9.95595710318936 0.464367264217059 9.4915898389723 -9.02722257475524 588
LINC00398 LINC00398 pink 10.5406435884037 0.461205196795413 10.0794383916083 -9.6182331948129 589
AC104964.3 AC104964.3 pink 10.4155268399915 0.454875864168929 9.96065097582256 -9.50577511165363 590
CFAP44 CFAP44 pink 10.7291256289328 0.454491735172673 10.2746338937601 -9.82014215858742 591
LINC02202 LINC02202 pink 10.0989124732881 0.453423438901555 9.64548903438656 -9.192065595485 592
MIGA1 MIGA1 pink 10.00346442919 0.449441168631181 9.55402326055877 -9.10458209192759 593
NUDT18 NUDT18 pink 10.6770996897461 0.448809719595902 10.2282899701502 -9.77948025055429 594
EN2 EN2 pink 11.0738951596674 0.448132036746889 10.6257631229205 -10.1776310861736 595
CYP26B1 CYP26B1 pink 9.83649550140107 0.447158515920011 9.38933698548106 -8.94217846956105 596
AC243960.3 AC243960.3 pink 9.9537328657349 0.445803690923112 9.50792917481179 -9.06212548388868 597
AC069213.2 AC069213.2 pink 10.3255472089953 0.445120160187252 9.88042704880807 -9.43530688862082 598
AC105749.1 AC105749.1 pink 10.0547916126597 0.444938063714272 9.60985354894541 -9.16491548523113 599
AC010307.2 AC010307.2 pink 9.79222739782865 0.443148737862429 9.34907865996622 -8.90592992210379 600
CYR61 CYR61 pink 10.2718390117296 0.441318430810172 9.83052058091944 -9.38920215010926 601
CALB2 CALB2 pink 9.96037608024752 0.440914721831552 9.51946135841597 -9.07854663658441 602
ARMC9 ARMC9 pink 10.5798026524418 0.434252869432288 10.1455497830095 -9.71129691357726 603
TMEM52 TMEM52 pink 9.92304507133499 0.434078339874961 9.48896673146003 -9.05488839158507 604
MICU3 MICU3 pink 10.5067688269988 0.433065871234891 10.0737029557639 -9.64063708452901 605
AC068418.2 AC068418.2 pink 9.50163657786684 0.425881507685281 9.07575507018156 -8.64987356249628 606
USP2 USP2 pink 10.0715126221398 0.425376073700091 9.64613654843974 -9.22076047473965 607
RN7SL767P RN7SL767P pink 9.32834834030909 0.425023054328203 8.90332528598089 -8.47830223165268 608
HRH3 HRH3 pink 9.77073607623064 0.423901801829956 9.34683427440068 -8.92293247257073 609
AC123912.5 AC123912.5 pink 9.81577022950957 0.419906044283559 9.39586418522601 -8.97595814094245 610
AC104024.2 AC104024.2 pink 9.97846906266961 0.418431571975854 9.56003749069376 -9.1416059187179 611
MTMR7 MTMR7 pink 11.6651116500985 0.416210896832375 11.2489007532661 -10.8326898564337 612
MLF1 MLF1 pink 10.2630420261174 0.410242454352433 9.85279957176501 -9.44255711741258 613
PALD1 PALD1 pink 10.605652757217 0.410200422107113 10.1954523351099 -9.78525191300279 614
ZFP36L1 ZFP36L1 pink 10.3581788759143 0.410095299520441 9.94808357639382 -9.53798827687338 615
AC119403.2 AC119403.2 pink 9.91289924320514 0.408789790337791 9.50410945286735 -9.09531966252956 616
SGSM1 SGSM1 pink 10.5642402123791 0.403694175494246 10.1605460368848 -9.75685186139057 617
DNALI1 DNALI1 pink 10.5595826340201 0.403430886789042 10.156151747231 -9.752720860442 618
RPS6KA3 RPS6KA3 pink 10.455598064859 0.402992171365365 10.0526058934936 -9.64961372212825 619
AL080312.2 AL080312.2 pink 9.69542549625504 0.40249575581988 9.29292974043516 -8.89043398461529 620
CPXM1 CPXM1 pink 10.5894368194922 0.397101044014174 10.1923357754781 -9.7952347314639 621
MYL5 MYL5 pink 10.6059874568261 0.392978549576829 10.2130089072493 -9.82003035767243 622
ZNF213-AS1 ZNF213-AS1 pink 10.5073327057019 0.390946449026787 10.1163862566751 -9.72543980764831 623
COLQ COLQ pink 10.5573602064616 0.390461469029537 10.1668987374321 -9.77643726840252 624
PIM2 PIM2 pink 10.3298132462772 0.389877820380399 9.93993542589679 -9.55005760551639 625
COL20A1 COL20A1 pink 10.3303662808423 0.389787979193286 9.94057830164899 -9.55079032245571 626
SEL1L3 SEL1L3 pink 10.6372347349964 0.386293965657166 10.2509407693393 -9.86464680368209 627
LZTFL1 LZTFL1 pink 11.0127700804579 0.384344477469252 10.6284256029886 -10.2440811255194 628
MCF2 MCF2 pink 10.0289426544748 0.384228419053017 9.64471423542178 -9.26048581636877 629
RNA5SP502 RNA5SP502 pink 11.0282778690621 0.380592968268721 10.6476849007934 -10.2670919325247 630
HOMER3-AS1 HOMER3-AS1 pink 10.0603235319513 0.379301558308368 9.68102197364292 -9.30172041533455 631
PTGS2 PTGS2 pink 10.040341224252 0.37789260005517 9.66244862419679 -9.28455602414162 632
ANKRD36B ANKRD36B pink 11.0328509339822 0.373687786594098 10.6591631473881 -10.285475360794 633
UBXN11 UBXN11 pink 10.6993200554526 0.366951495237531 10.3323685602151 -9.96541706497755 634
AL356512.1 AL356512.1 pink 9.91992937798142 0.365005551377468 9.55492382660395 -9.18991827522649 635
SCN4B SCN4B pink 9.57566686586509 0.364192418260339 9.21147444760475 -8.84728202934441 636
CXorf21 CXorf21 pink 9.98286534818443 0.363483382286183 9.61938196589825 -9.25589858361206 637
HTT-AS HTT-AS pink 10.0933787180852 0.361614149008706 9.73176456907653 -9.37015042006782 638
AC010531.1 AC010531.1 pink 9.86973363575027 0.359667375975558 9.51006625977471 -9.15039888379915 639
RPAP2 RPAP2 pink 11.8795820104981 0.357762469192701 11.5218195413054 -11.1640570721127 640
AREG AREG pink 10.1247216258307 0.356000524679695 9.76872110115103 -9.41272057647133 641
RIBC1 RIBC1 pink 10.0565128096248 0.354221757303802 9.70229105232098 -9.34806929501718 642
SNORA50D SNORA50D pink 10.3788161702061 0.353294133790601 10.0255220364155 -9.67222790262489 643
AL360227.1 AL360227.1 pink 9.65512508719514 0.346596152370492 9.30852893482465 -8.96193278245416 644
AC011595.2 AC011595.2 pink 10.7062010306058 0.34198599286657 10.3642150377392 -10.0222290448726 645
FOXJ1 FOXJ1 pink 9.94124474111349 0.341465004748795 9.5997797363647 -9.2583147316159 646
AC072052.1 AC072052.1 pink 10.1041971087283 0.337387423235519 9.76680968549278 -9.42942226225726 647
ZNF334 ZNF334 pink 9.45423653844559 0.336631814688589 9.117604723757 -8.78097290906842 648
CCDC191 CCDC191 pink 10.5564817303182 0.336535792526524 10.2199459377917 -9.88341014526519 649
AC003102.1 AC003102.1 pink 10.5622327666176 0.333893997761794 10.2283387688558 -9.89444477109404 650
LINC01480 LINC01480 pink 10.0624031734601 0.332209092961887 9.73019408049821 -9.39798498753633 651
SMS SMS pink 10.0708367361717 0.331401410986637 9.73943532518504 -9.4080339141984 652
SLC22A15 SLC22A15 pink 11.3647024817506 0.324493743419612 11.040208738331 -10.7157149949114 653
AC092278.1 AC092278.1 pink 11.2814887280384 0.322442109630662 10.9590466184078 -10.6366045087771 654
MT-ND3 MT-ND3 pink 10.2616838549617 0.317801143828746 9.943882711133 -9.62608156730426 655
U2AF1L5 U2AF1L5 pink 9.70878902224315 0.315108961338973 9.39368006090418 -9.07857109956521 656
PER2 PER2 pink 10.2925391748176 0.312853525248038 9.97968564956953 -9.66683212432149 657
TSPAN12 TSPAN12 pink 11.1255939399519 0.312432295527576 10.8131616444243 -10.5007293488967 658
AC096733.2 AC096733.2 pink 9.4532679443326 0.299749462157337 9.15351848217526 -8.85376902001792 659
DYNC2LI1 DYNC2LI1 pink 10.8817221300601 0.299533061635422 10.5821890684247 -10.2826560067892 660
PIFO PIFO pink 9.86545939348926 0.298587955417967 9.5668714380713 -9.26828348265333 661
FAM41C FAM41C pink 9.58334570968923 0.294024345798683 9.28932136389055 -8.99529701809187 662
EIF2S2 EIF2S2 pink 11.3200210051992 0.289911653169992 11.0301093520292 -10.7401976988592 663
AL138787.1 AL138787.1 pink 9.79990289554839 0.284269985167495 9.51563291038089 -9.2313629252134 664
SNRPGP12 SNRPGP12 pink 11.5859598866701 0.280546146314703 11.3054137403554 -11.0248675940407 665
CTGF CTGF pink 10.5625275795606 0.278771808312638 10.283755771248 -10.0049839629354 666
KCND1 KCND1 pink 9.27245410056019 0.277705924006698 8.99474817655349 -8.71704225254679 667
AC027281.1 AC027281.1 pink 10.2216669529916 0.274632206953036 9.94703474603854 -9.67240253908551 668
SLC22A8 SLC22A8 pink 10.7076710918726 0.270055939936418 10.4376151519362 -10.1675592119998 669
AC016738.1 AC016738.1 pink 9.99493536793027 0.241393282793295 9.75354208513697 -9.51214880234368 670
IGLV5-37 IGLV5-37 pink 8.60024977230444 0.22635304779362 8.37389672451082 -8.1475436767172 671
AC002472.1 AC002472.1 pink 9.85584362997765 0.219773159837167 9.63607047014048 -9.41629731030331 672
BCO1 BCO1 pink 10.6709812494641 0.179022207790828 10.4919590416733 -10.3129368338825 673
