PSID Gene Module kTotal kWithin kOut kDiff rank
ATXN10 ATXN10 black 13.8249393672193 4.48327180488217 9.34166756233714 -4.85839575745497 1
XRCC6 XRCC6 black 14.0420899561174 4.43018800898937 9.61190194712798 -5.18171393813861 2
ZC3H7B ZC3H7B black 13.5856582536013 4.27565167776602 9.3100065758353 -5.03435489806928 3
MIEF1 MIEF1 black 13.9705144452194 4.24576464595211 9.72474979926726 -5.47898515331515 4
TRMU TRMU black 13.4967840277791 4.23259317763137 9.26419085014775 -5.03159767251638 5
PPP6R2 PPP6R2 black 13.7562805232527 4.09408225743615 9.66219826581656 -5.5681160083804 6
MCAT MCAT black 14.0059842728057 4.06098396788151 9.9450003049242 -5.88401633704269 7
GGA1 GGA1 black 13.5086769813039 3.94859016482168 9.56008681648223 -5.61149665166055 8
PHF5A PHF5A black 13.6155500173646 3.85670880957246 9.75884120779212 -5.90213239821966 9
L3MBTL2 L3MBTL2 black 13.3181657153033 3.82733676637091 9.49082894893238 -5.66349218256147 10
TAB1 TAB1 black 12.9195221738877 3.53453782368974 9.38498435019794 -5.8504465265082 11
BRD1 BRD1 black 13.3283785232533 3.49735889410866 9.83101962914462 -6.33366073503597 12
ST13 ST13 black 12.8029361697305 3.44868815307763 9.3542480166529 -5.90555986357528 13
NUP50 NUP50 black 12.6311668939812 3.40606989188021 9.22509700210099 -5.81902711022077 14
HPS4 HPS4 black 13.8035499102413 3.31380275597897 10.4897471542624 -7.17594439828341 15
SLC25A17 SLC25A17 black 12.9376407230383 3.28982574660987 9.64781497642846 -6.35798922981859 16
SELENOO SELENOO black 12.5502056307538 3.27838374665672 9.27182188409704 -5.99343813744032 17
UBE2L3 UBE2L3 black 12.9569832328602 3.21923431736114 9.73774891549904 -6.5185145981379 18
GTPBP1 GTPBP1 black 12.7632593903844 3.20369679043514 9.55956259994928 -6.35586580951413 19
SNU13 SNU13 black 12.3524673544752 3.16879807452983 9.18366927994533 -6.0148712054155 20
PPIL2 PPIL2 black 13.3210202491103 3.16648054747426 10.1545397016361 -6.98805915416179 21
RANBP1 RANBP1 black 13.4841740812656 3.16644642236671 10.3177276588989 -7.15128123653219 22
RANGAP1 RANGAP1 black 12.5335943651049 3.16405872477534 9.36953564032958 -6.20547691555424 23
POLDIP3 POLDIP3 black 12.5401583975523 3.13615642368466 9.40400197386766 -6.267845550183 24
TUBGCP6 TUBGCP6 black 12.8624920488693 3.1097653295383 9.75272671933102 -6.64296138979271 25
DRG1 DRG1 black 12.8994758598551 3.10957858461631 9.78989727523884 -6.68031869062253 26
CDPF1 CDPF1 black 12.8505900625406 3.06447403843489 9.78611602410572 -6.72164198567082 27
POLR3H POLR3H black 12.5239005428738 3.05848412649491 9.46541641637893 -6.40693228988401 28
ANKRD54 ANKRD54 black 13.2456409132468 3.01245439202071 10.2331865212261 -7.22073212920537 29
ZBED4 ZBED4 black 12.9421030499125 2.95785069616007 9.98425235375239 -7.02640165759231 30
NDUFA6 NDUFA6 black 12.3587867948274 2.94822577763926 9.41056101718818 -6.46233523954893 31
THAP7 THAP7 black 13.3557965960415 2.92097527526894 10.4348213207725 -7.5138460455036 32
SBF1 SBF1 black 12.6313305293985 2.90344315411355 9.72788737528499 -6.82444422117144 33
XPNPEP3 XPNPEP3 black 13.0061930433315 2.8998240772685 10.106368966063 -7.2065448887945 34
RBX1 RBX1 black 11.9436426322184 2.85633413007996 9.08730850213843 -6.23097437205848 35
ARMC10 ARMC10 black 13.6167408559132 2.8073020354439 10.8094388204693 -8.00213678502536 36
SMARCB1 SMARCB1 black 12.9450493831791 2.80722935822818 10.1378200249509 -7.33059066672269 37
RPS19BP1 RPS19BP1 black 12.8544737262373 2.80231063553254 10.0521630907048 -7.24985245517222 38
RNF185 RNF185 black 13.4202075488868 2.77793166742435 10.6422758814625 -7.86434421403814 39
ESS2 ESS2 black 13.2456501888187 2.77131983145311 10.4743303573656 -7.7030105259125 40
DESI1 DESI1 black 12.501894160624 2.75650292621629 9.74539123440771 -6.98888830819142 41
SAMM50 SAMM50 black 11.9938522240683 2.75605401495963 9.23779820910867 -6.48174419414905 42
PEX26 PEX26 black 13.1109017885128 2.74928621651771 10.3616155719951 -7.61232935547739 43
ZNHIT1 ZNHIT1 black 13.6337607090177 2.7237185520121 10.9100421570056 -8.1863236049935 44
LMF2 LMF2 black 12.2892971337584 2.699609008631 9.58968812512737 -6.89007911649637 45
BUD31 BUD31 black 13.1879799566453 2.68243601866348 10.5055439379818 -7.82310791931836 46
PITPNB PITPNB black 12.0399885532955 2.66705969042187 9.37292886287361 -6.70586917245174 47
PMM1 PMM1 black 11.802097986832 2.66556918845652 9.13652879837553 -6.47095960991901 48
TFIP11 TFIP11 black 12.8512151640417 2.66536498671308 10.1858501773286 -7.52048519061554 49
SLC37A3 SLC37A3 black 13.6470534394315 2.62121043702153 11.0258430024099 -8.4046325653884 50
NUP50-AS1 NUP50-AS1 black 12.3227192716419 2.6151044081714 9.70761486347052 -7.09251045529913 51
ARFGAP3 ARFGAP3 black 12.8059932434575 2.60908423253907 10.1969090109185 -7.58782477837939 52
NCAPH2 NCAPH2 black 12.1558044254844 2.59861753741979 9.55718688806457 -6.95856935064478 53
RTCB RTCB black 12.4355757365847 2.56939531393006 9.86618042265468 -7.29678510872462 54
ZDHHC8 ZDHHC8 black 12.8690060583519 2.54853813082975 10.3204679275221 -7.77192979669237 55
DDX17 DDX17 black 12.14609186181 2.53291040450177 9.61318145730819 -7.08027105280642 56
COPS6 COPS6 black 13.0075499606335 2.52215964624495 10.4853903143885 -7.9632306681436 57
PRR14L PRR14L black 12.8460072894864 2.49544612209243 10.350561167394 -7.85511504530153 58
PACSIN2 PACSIN2 black 12.064509250564 2.46433215941305 9.60017709115092 -7.13584493173787 59
MED15 MED15 black 12.9813885208054 2.46363039422623 10.5177581265792 -8.05412773235293 60
IFT22 IFT22 black 13.477416308812 2.46179500413368 11.0156213046783 -8.55382630054459 61
RTL6 RTL6 black 11.9794932512032 2.44409064728816 9.53540260391509 -7.09131195662694 62
TRMT2A TRMT2A black 12.8262113422059 2.44309814914377 10.3831131930622 -7.94001504391841 63
MAPK1 MAPK1 black 12.6120021332132 2.43751933146355 10.1744828017497 -7.73696347028613 64
PES1 PES1 black 12.500726212247 2.4360762004564 10.0646500117906 -7.62857381133418 65
ALKBH4 ALKBH4 black 13.0698106440702 2.43006645916225 10.6397441849079 -8.20967772574565 66
CUL1 CUL1 black 12.6171343997546 2.41730958590463 10.19982481385 -7.78251522794537 67
TTLL12 TTLL12 black 11.8340437435572 2.38884527285721 9.44519847070001 -7.05635319784281 68
PMPCB PMPCB black 12.5915968612805 2.37911143623904 10.2124854250415 -7.83337398880241 69
TRABD TRABD black 12.0361447088848 2.37669182858689 9.65945288029786 -7.28276105171097 70
LRWD1 LRWD1 black 13.8886586807867 2.35259459007431 11.5360640907124 -9.1834695006381 71
KCTD17 KCTD17 black 11.7870851783296 2.33886965498539 9.4482155233442 -7.10934586835881 72
ZNF3 ZNF3 black 13.1633634283275 2.33505520742455 10.8283082209029 -8.49325301347838 73
ALG12 ALG12 black 11.6319233539033 2.33402044682929 9.29790290707402 -6.96388246024473 74
DENND6B DENND6B black 11.8086808451167 2.30226664372067 9.50641420139606 -7.20414755767539 75
CRELD2 CRELD2 black 11.9226624910862 2.30013643360195 9.62252605748429 -7.32238962388234 76
ZKSCAN1 ZKSCAN1 black 12.8700543439767 2.29575572511226 10.5742986188644 -8.27854289375215 77
PISD PISD black 13.9796053326345 2.27667227464869 11.7029330579858 -9.42626078333715 78
TTLL1 TTLL1 black 12.022057337344 2.27614178389058 9.74591555345342 -7.46977376956284 79
TOMM22 TOMM22 black 11.5082360578512 2.26682721657454 9.24140884127662 -6.97458162470208 80
ACO2 ACO2 black 12.097624133221 2.26041782362708 9.83720630959395 -7.57678848596686 81
CSNK1E CSNK1E black 11.8537100130687 2.24919651732543 9.60451349574326 -7.35531697841784 82
EIF3D EIF3D black 12.0817455978137 2.24016584877061 9.84157974904312 -7.60141390027252 83
TXN2 TXN2 black 12.1356894295942 2.23867822416346 9.89701120543076 -7.65833298126731 84
GNB2 GNB2 black 12.9452921983641 2.21489395298194 10.7303982453822 -8.51550429240023 85
JOSD1 JOSD1 black 11.5786776960822 2.21142576416691 9.36725193191527 -7.15582616774836 86
CABIN1 CABIN1 black 11.8568546347179 2.20030694336159 9.65654769135631 -7.45624074799472 87
COMT COMT black 12.5592205259711 2.19814854852282 10.3610719774483 -8.16292342892549 88
UBE3C UBE3C black 12.4063175805286 2.18284445297097 10.2234731275577 -8.04062867458669 89
BCL2L13 BCL2L13 black 12.3132377672662 2.17345849572805 10.1397792715382 -7.96632077581012 90
SRPK2 SRPK2 black 12.4893794170094 2.15818429854969 10.3311951184597 -8.17301081990997 91
DGCR6L DGCR6L black 12.1427827448587 2.15696807690972 9.98581466794893 -7.82884659103921 92
ORC5 ORC5 black 12.2206618460498 2.15258419050835 10.0680776555415 -7.91549346503311 93
SNRPD3 SNRPD3 black 12.092034138151 2.14788895957863 9.94414517857239 -7.79625621899376 94
ZKSCAN5 ZKSCAN5 black 12.7469397169648 2.13365208830115 10.6132876286636 -8.47963554036247 95
SMDT1 SMDT1 black 11.4843995415584 2.10759388044617 9.37680566111226 -7.26921178066608 96
VPS50 VPS50 black 12.7824678819723 2.10308734804141 10.6793805339309 -8.57629318588947 97
ASCC2 ASCC2 black 12.8642924444429 2.09265319502761 10.7716392494153 -8.67898605438766 98
PDAP1 PDAP1 black 12.5453180601 2.09144675678128 10.4538713033187 -8.36242454653744 99
KLHL22 KLHL22 black 13.1514280542127 2.08210495063241 11.0693231035803 -8.98721815294785 100
HIRA HIRA black 12.2946372054382 2.07976034270868 10.2148768627295 -8.13511652002081 101
RHBDD3 RHBDD3 black 12.0253777998693 2.07579109885359 9.94958670101574 -7.87379560216215 102
TNPO3 TNPO3 black 12.8604281220514 2.07529258898304 10.7851355330684 -8.70984294408534 103
POLR2J POLR2J black 13.0058042523007 2.07098449459728 10.9348197577034 -8.86383526310613 104
PRKRIP1 PRKRIP1 black 12.5064336617167 2.06898376030041 10.4374499014163 -8.36846614111593 105
GCAT GCAT black 11.7879194742593 2.04297851371596 9.74494096054335 -7.70196244682739 106
RINT1 RINT1 black 14.1459008210876 2.04292551742896 12.1029753036587 -10.0600497862297 107
TNRC6B TNRC6B black 11.7419863082209 2.04155794486927 9.70042836335165 -7.65887041848238 108
TCF20 TCF20 black 11.6623162642191 2.02861400675858 9.63370225746051 -7.60508825070193 109
TAF6 TAF6 black 12.0211664923578 2.02428713889582 9.99687935346197 -7.97259221456615 110
KRIT1 KRIT1 black 11.5491579776202 2.01789041444215 9.53126756317802 -7.51337714873588 111
PLXNB2 PLXNB2 black 11.9344749801047 2.00677714977015 9.9276978303345 -7.92092068056435 112
TECPR1 TECPR1 black 13.068898789715 1.95304328680899 11.115855502906 -9.162812216097 113
GRAMD4 GRAMD4 black 11.7628405914908 1.92655233113806 9.83628826035276 -7.9097359292147 114
TOM1 TOM1 black 12.0763991090367 1.92569909991447 10.1507000091223 -8.2250009092078 115
MPST MPST black 11.6147328047595 1.9229215697328 9.69181123502675 -7.76888966529394 116
CRKL CRKL black 11.4307627421361 1.91285852997227 9.51790421216384 -7.60504568219157 117
TRIOBP TRIOBP black 12.1995094688447 1.88950207798506 10.3100073908597 -8.42050531287462 118
DGCR2 DGCR2 black 11.515844856619 1.86456369183444 9.65128116478455 -7.78671747295011 119
MICALL1 MICALL1 black 11.8493373476626 1.8594830552487 9.98985429241387 -8.13037123716517 120
RNF216 RNF216 black 13.134904716194 1.85328593973109 11.2816187764629 -9.42833283673186 121
PPARA PPARA black 12.0396527853956 1.84378980527063 10.195862980125 -8.35207317485436 122
RNF215 RNF215 black 12.0759308303741 1.82924841263549 10.2466824177386 -8.4174340051031 123
VOPP1 VOPP1 black 11.8637105372251 1.82683927302717 10.0368712641979 -8.21003199117075 124
COG5 COG5 black 12.8146548112794 1.80354146026017 11.0111133510192 -9.20757189075907 125
SFI1 SFI1 black 12.7964563837782 1.78006816678752 11.0163882169907 -9.2363200502032 126
AC099681.1 AC099681.1 black 12.3543736456211 1.77512274506987 10.5792509005512 -8.80412815548132 127
DLD DLD black 12.2427561917821 1.76022186203602 10.4825343297461 -8.72231246771007 128
LZTR1 LZTR1 black 11.8159012379835 1.75091974050608 10.0649814974775 -8.31406175697137 129
GIGYF1 GIGYF1 black 12.1171099347787 1.74955822899013 10.3675517057885 -8.6179934767984 130
ZNF800 ZNF800 black 12.8399873897295 1.7485601555703 11.0914272341592 -9.34286707858885 131
TMEM184B TMEM184B black 11.504693264722 1.73824592549113 9.76644733923086 -8.02820141373973 132
UFD1 UFD1 black 11.4079912542288 1.73591462485329 9.67207662937551 -7.93616200452223 133
ATP6V1E1 ATP6V1E1 black 12.9120996086212 1.73503988601238 11.1770597226088 -9.44201983659644 134
FAM200A FAM200A black 12.1579050009035 1.73179932411418 10.4261056767893 -8.69430635267512 135
UQCR10 UQCR10 black 11.8392839735116 1.72905590182395 10.1102280716877 -8.38117216986374 136
ABCF2 ABCF2 black 12.2369956606914 1.72525175096567 10.5117439097257 -8.78649215876005 137
ZNF70 ZNF70 black 11.5455520408253 1.70623328213008 9.8393187586952 -8.13308547656512 138
MKL1 MKL1 black 11.1179170144518 1.7040369065748 9.41388010787698 -7.70984320130219 139
FIS1 FIS1 black 12.9526490807356 1.69937584910421 11.2532732316314 -9.55389738252721 140
POP7 POP7 black 11.9224962414703 1.69602361198267 10.2264726294877 -8.53044901750499 141
SND1 SND1 black 11.9428252028424 1.69281861975142 10.250006583091 -8.55718796333954 142
TBC1D22A TBC1D22A black 12.3074527629843 1.69069501195134 10.616757751033 -8.92606273908162 143
ZNF74 ZNF74 black 12.0406208682674 1.68101925452624 10.3596016137411 -8.6785823592149 144
AL021453.1 AL021453.1 black 11.1319383861524 1.6735214270186 9.45841695913382 -7.78489553211522 145
PEX1 PEX1 black 11.5256211759707 1.67227524553813 9.8533459304326 -8.18107068489446 146
CERK CERK black 11.6149967156656 1.67010548018441 9.94489123548118 -8.27478575529677 147
GUCD1 GUCD1 black 12.0736563369074 1.66410038169545 10.409555955212 -8.74545557351653 148
HSCB HSCB black 11.5961399991415 1.663297673998 9.93284232514354 -8.26954465114554 149
SRRD SRRD black 11.2818133994454 1.65442202056488 9.62739137888057 -7.97296935831569 150
EP300 EP300 black 12.2844873254649 1.64591794000339 10.6385693854615 -8.99265144545807 151
AP1B1 AP1B1 black 12.0385798224389 1.6368181487182 10.4017616737207 -8.76494352500254 152
NAPEPLD NAPEPLD black 11.6900258412057 1.6295226128381 10.0605032283676 -8.43098061552951 153
ANKIB1 ANKIB1 black 11.5796295868652 1.62316407422344 9.95646551264173 -8.33330143841829 154
C22orf23 C22orf23 black 11.9632530063589 1.61678759819272 10.3464654081662 -8.7296778099735 155
GTSE1 GTSE1 black 12.1521069467939 1.61611164068917 10.5359953061047 -8.91988366541556 156
KLHDC10 KLHDC10 black 11.7422419988466 1.60979761698784 10.1324443818587 -8.52264676487088 157
USP42 USP42 black 12.8898392324935 1.59601150596256 11.2938277265309 -9.69781622056833 158
FAM185A FAM185A black 11.4703332967823 1.59567211935306 9.87466117742927 -8.27898905807621 159
HMGXB4 HMGXB4 black 11.8105831726368 1.58802239437732 10.2225607782594 -8.63453838388212 160
KMT2E KMT2E black 12.2954138004619 1.58539178231117 10.7100220181507 -9.12463023583956 161
LMBR1 LMBR1 black 11.6734403676794 1.58277178561004 10.0906685820694 -8.50789679645933 162
CBX6 CBX6 black 11.2620130574964 1.5758807044552 9.68613235304123 -8.11025164858603 163
THOC5 THOC5 black 11.231609728845 1.56905475175844 9.66255497708653 -8.0935002253281 164
PLA2G6 PLA2G6 black 11.3695076843059 1.55682653096844 9.81268115333743 -8.25585462236899 165
NOM1 NOM1 black 12.2014348723105 1.55501774232626 10.6464171299842 -9.09139938765798 166
PI4KA PI4KA black 11.2811159773371 1.55459567761306 9.72652029972406 -8.17192462211099 167
AGK AGK black 12.32840037603 1.55401724163291 10.7743831343971 -9.22036589276416 168
MRPS33 MRPS33 black 12.1562835580032 1.5467694202245 10.6095141377787 -9.06274471755416 169
HDHD5 HDHD5 black 11.9886765027798 1.54371343222297 10.4449630705568 -8.90124963833385 170
AL589743.1 AL589743.1 black 11.4268335888662 1.54032011797482 9.88651347089138 -8.34619335291657 171
ZMAT5 ZMAT5 black 11.5378695682964 1.53733662406874 10.0005329442277 -8.46319632015893 172
EIF3B EIF3B black 11.666610453158 1.51254848387864 10.1540619692793 -8.64151348540067 173
PMS2P1 PMS2P1 black 11.7264939563334 1.50879207565223 10.2177018806812 -8.70890980502893 174
CUX1 CUX1 black 12.8195009627489 1.48894809058463 11.3305528721642 -9.84160478157959 175
CCDC134 CCDC134 black 11.5097353388217 1.485497690224 10.0242376485977 -8.53873995837373 176
AP5Z1 AP5Z1 black 12.4130729872505 1.47984461105417 10.9332283761963 -9.45338376514212 177
AP4M1 AP4M1 black 11.6210663911638 1.47572555832499 10.1453408328388 -8.66961527451377 178
CENPM CENPM black 11.9297232202553 1.47474194061977 10.4549812796355 -8.98023933901571 179
ORAI2 ORAI2 black 11.8502812600517 1.47263179689999 10.3776494631517 -8.9050176662517 180
GATAD1 GATAD1 black 11.747897586421 1.47012720014272 10.2777703862783 -8.80764318613559 181
DNAJC2 DNAJC2 black 11.7493488228419 1.45749683609958 10.2918519867423 -8.83435515064273 182
FASTK FASTK black 11.9014406339204 1.43955040592351 10.4618902279969 -9.02233982207341 183
WASL WASL black 11.9872044661476 1.43725538480113 10.5499490813465 -9.11269369654532 184
PPM1F PPM1F black 11.7521606240254 1.43125266741348 10.3209079566119 -8.88965528919844 185
EWSR1 EWSR1 black 12.1801230792722 1.42859319484518 10.751529884427 -9.32293668958179 186
CHCHD3 CHCHD3 black 11.801758598222 1.42491629548174 10.3768423027402 -8.9519260072585 187
FOXRED2 FOXRED2 black 10.8889730920119 1.42162114376647 9.46735194824539 -8.04573080447892 188
DGCR8 DGCR8 black 11.3219050501623 1.41915682375009 9.90274822641219 -8.48359140266209 189
NF2 NF2 black 11.1951292708407 1.40525661510817 9.78987265573255 -8.38461604062438 190
FAM227A FAM227A black 10.549639125202 1.40355899065734 9.14608013454466 -7.74252114388732 191
CHKB CHKB black 10.6929458767724 1.40342735677346 9.28951851999897 -7.88609116322551 192
BAZ1B BAZ1B black 12.2858852920658 1.40306001943081 10.882825272635 -9.47976525320418 193
AGAP3 AGAP3 black 11.8363545524852 1.3971594305866 10.4391951218986 -9.04203569131204 194
BRI3 BRI3 black 12.5684644328357 1.39375727062442 11.1747071622113 -9.7809498915869 195
IFT27 IFT27 black 11.7497788494113 1.38036000492842 10.3694188444829 -8.98905883955444 196
MICAL3 MICAL3 black 12.9501886383303 1.37999135635783 11.5701972819724 -10.1902059256146 197
SEPT3 SEPT3 black 11.65149566613 1.37872828285537 10.2727673832746 -8.89403910041922 198
TXNRD2 TXNRD2 black 11.7507511975496 1.37811310930543 10.3726380882442 -8.99452497893875 199
WIPI2 WIPI2 black 12.2995124946333 1.37719082865046 10.9223216659828 -9.54513083733238 200
GTPBP10 GTPBP10 black 10.9865870548263 1.37065850118886 9.61592855363739 -8.24527005244853 201
PATZ1 PATZ1 black 11.2847339870608 1.3695662842677 9.91516770279308 -8.54560141852538 202
DUXAP9 DUXAP9 black 11.3320740438929 1.36605679154036 9.96601725235256 -8.5999604608122 203
CCT6A CCT6A black 11.2702350939275 1.36407595264279 9.9061591412847 -8.54208318864191 204
MAPK12 MAPK12 black 10.9049613568039 1.36066447033803 9.54429688646582 -8.18363241612779 205
FAM133B FAM133B black 11.1555680445277 1.35765251455032 9.79791552997743 -8.44026301542711 206
SNAP29 SNAP29 black 11.0684920285682 1.34972510790931 9.71876692065893 -8.36904181274963 207
UBN2 UBN2 black 11.5295535791256 1.34907267746609 10.1804809016595 -8.83140822419344 208
CYB5R3 CYB5R3 black 10.8285106754136 1.34617986715577 9.48233080825787 -8.1361509411021 209
LINC00634 LINC00634 black 10.6987939540323 1.33896050419248 9.35983344983981 -8.02087294564733 210
ZNF212 ZNF212 black 11.2970698649831 1.31698685094697 9.98008301403617 -8.6630961630892 211
Z95115.1 Z95115.1 black 10.695913729311 1.31367187960949 9.38224184970156 -8.06856997009207 212
ARVCF ARVCF black 12.0486314981546 1.31290078140549 10.7357307167491 -9.42282993534364 213
AC099681.2 AC099681.2 black 11.2757306436374 1.31289957400705 9.96283106963036 -8.64993149562331 214
TST TST black 10.7918030503172 1.30805359548124 9.48374945483594 -8.1756958593547 215
BCR BCR black 11.8482438501182 1.29849257348654 10.5497512766317 -9.25125870314516 216
LMTK2 LMTK2 black 11.874344428729 1.29829990134494 10.5760445273841 -9.27774462603913 217
C7orf43 C7orf43 black 12.9164243841464 1.29413875175456 11.6222856323918 -10.3281468806373 218
AIMP2 AIMP2 black 12.3876892937924 1.2912145174911 11.0964747763013 -9.80526025881016 219
CCDC117 CCDC117 black 11.2431598682524 1.28213017664499 9.96102969160737 -8.67889951496237 220
CHEK2 CHEK2 black 11.6599889126053 1.27890654242267 10.3810823701826 -9.10217582775993 221
TEF TEF black 10.4826553113059 1.27234295901334 9.2103123522926 -7.93796939327926 222
DDT DDT black 10.8042795546574 1.27210187626129 9.53217767839606 -8.26007580213477 223
SLC35B4 SLC35B4 black 11.5460491961881 1.27166068687984 10.2743885093082 -9.0027278224284 224
PSPH PSPH black 10.5424808054069 1.27082712509304 9.27165368031389 -8.00082655522085 225
SMURF1 SMURF1 black 12.5873207587473 1.26860194921841 11.3187188095289 -10.0501168603105 226
AC079781.5 AC079781.5 black 11.233576803916 1.26192458107725 9.97165222283873 -8.70972764176149 227
CRYBB2P1 CRYBB2P1 black 11.3075827734087 1.2557743237208 10.0518084496879 -8.79603412596709 228
POT1 POT1 black 12.4368072151539 1.2503346459087 11.1864725692451 -9.93613792333644 229
AC245060.4 AC245060.4 black 11.0492919200902 1.2496055372357 9.79968638285452 -8.55008084561881 230
MCM7 MCM7 black 11.4908234966094 1.24681652369836 10.244006972911 -8.99719044921269 231
ACTR3B ACTR3B black 11.0428031493842 1.24620867970886 9.79659446967534 -8.55038578996648 232
AC099681.3 AC099681.3 black 11.0864539385157 1.24092344865444 9.84553048986128 -8.60460704120684 233
AC241585.1 AC241585.1 black 11.1839994299826 1.24082268085716 9.94317674912548 -8.70235406826832 234
MRM2 MRM2 black 11.861040887002 1.23730490141787 10.6237359855841 -9.38643108416628 235
DPY19L2P2 DPY19L2P2 black 11.402055776764 1.23692006516752 10.1651357115965 -8.928215646429 236
CHCHD2 CHCHD2 black 11.8708291915134 1.23538816819967 10.6354410233137 -9.40005285511403 237
BUD23 BUD23 black 11.5964568965169 1.22722540392949 10.3692314925875 -9.14200608865797 238
ZNF282 ZNF282 black 11.5030548795066 1.2246445561256 10.278410323381 -9.05376576725545 239
COA1 COA1 black 11.642253375998 1.21550460436448 10.4267487716335 -9.21124416726906 240
GAS2L1 GAS2L1 black 11.1525121105904 1.20896368563452 9.94354842495586 -8.73458473932134 241
BRAT1 BRAT1 black 11.8835378744956 1.20667114073099 10.6768667337646 -9.47019559303365 242
NUDCD3 NUDCD3 black 11.4659998397659 1.20635804977209 10.2596417899938 -9.05328374022174 243
CCDC157 CCDC157 black 11.5695761305422 1.20437434969281 10.3652017808494 -9.16082743115654 244
TRIM4 TRIM4 black 11.3106380986097 1.20272621550522 10.1079118831044 -8.90518566759923 245
NIPSNAP2 NIPSNAP2 black 11.4759525574382 1.19973472510765 10.2762178323305 -9.07648310722288 246
ABCB8 ABCB8 black 11.512534804402 1.19193278421225 10.3206020201897 -9.12866923597748 247
CBY1 CBY1 black 10.8512920351679 1.18775263062584 9.66353940454208 -8.47578677391624 248
TTC28-AS1 TTC28-AS1 black 10.8160323780542 1.18623367732819 9.62979870072598 -8.44356502339779 249
RPL23AP82 RPL23AP82 black 11.1362927188294 1.18507098207453 9.95122173675484 -8.7661507546803 250
ZNF789 ZNF789 black 11.2061231886085 1.17964874784064 10.0264744407678 -8.84682569292719 251
HIC2 HIC2 black 10.7588422585479 1.17891553772715 9.57992672082073 -8.40101118309358 252
RBFOX2 RBFOX2 black 10.903193651802 1.17455951995045 9.72863413185157 -8.55407461190111 253
PSMG3 PSMG3 black 11.3825470007682 1.1722466554289 10.2103003453393 -9.03805368991037 254
PUS7 PUS7 black 11.3204809257614 1.16591884747213 10.1545620782892 -8.98864323081711 255
RBM28 RBM28 black 11.0399458544066 1.15866040801983 9.88128544638682 -8.72262503836698 256
FBXL18 FBXL18 black 11.7895956249752 1.15849872386327 10.6310969011119 -9.47259817724867 257
RRP7A RRP7A black 9.97953225728254 1.1556851749236 8.82384708235894 -7.66816190743534 258
CAPZA2 CAPZA2 black 11.6908510311384 1.14552302339067 10.5453280077477 -9.39980498435705 259
RPA3 RPA3 black 11.7891276229795 1.1409192328341 10.6482083901454 -9.50728915731133 260
NDUFA5 NDUFA5 black 11.2397070602712 1.13845332845456 10.1012537318166 -8.96280040336205 261
RBM48 RBM48 black 10.6342755718966 1.12861857512698 9.50565699676961 -8.37703842164263 262
TAX1BP1 TAX1BP1 black 11.6298436007664 1.12573332698571 10.5041102737807 -9.37837694679497 263
PAXIP1 PAXIP1 black 13.1582210068299 1.12499449909858 12.0332265077313 -10.9082320086327 264
MKLN1 MKLN1 black 11.7192050209879 1.11679382423676 10.6024111967512 -9.4856173725144 265
RSBN1L RSBN1L black 11.0805844543624 1.11590471847087 9.96467973589149 -8.84877501742062 266
NDUFB2 NDUFB2 black 11.810106361992 1.11524493796769 10.6948614240244 -9.57961648605667 267
GNB1L GNB1L black 10.8008665824931 1.10790073240792 9.69296585008517 -8.58506511767725 268
PHF14 PHF14 black 11.7415175718029 1.10562064941512 10.6358969223878 -9.5302762729727 269
AC073342.1 AC073342.1 black 11.0892773588383 1.10440744186053 9.98486991697781 -8.88046247511728 270
C1QTNF6 C1QTNF6 black 10.1911268236104 1.1034634982154 9.08766332539496 -7.98419982717956 271
GARS GARS black 11.9732729536193 1.10175904090242 10.8715139127169 -9.76975487181444 272
NUB1 NUB1 black 12.093317044571 1.10078051744552 10.9925365271254 -9.89175600967993 273
TP53TG1 TP53TG1 black 11.4965272540026 1.10044316466679 10.3960840893358 -9.29564092466905 274
PHF21B PHF21B black 11.1865767021041 1.09493132788107 10.0916453742231 -8.99671404634199 275
ZNF398 ZNF398 black 11.344513564626 1.09450520822132 10.2500083564046 -9.15550314818332 276
SLC25A13 SLC25A13 black 12.7413082210144 1.09396127956794 11.6473469414465 -10.5533856618785 277
CBLL1 CBLL1 black 11.0835726231999 1.09392449406242 9.98964812913752 -8.89572363507509 278
RRP7BP RRP7BP black 11.1339669171328 1.09186350389962 10.0421034132332 -8.95023990933353 279
STARD3NL STARD3NL black 11.8961134479177 1.0896193934761 10.8064940544416 -9.71687466096555 280
AC004540.1 AC004540.1 black 10.988134088784 1.08874577999258 9.89938830879146 -8.81064252879888 281
CALU CALU black 11.3723299907922 1.07922300282053 10.2931069879716 -9.21388398515112 282
SRRT SRRT black 11.4574513950868 1.07889505033122 10.3785563447556 -9.29966129442436 283
STYXL1 STYXL1 black 10.9754989847093 1.07491794195671 9.90058104275257 -8.82566310079586 284
CCM2 CCM2 black 11.7368784268445 1.07398539239421 10.6628930344503 -9.58890764205606 285
MEPCE MEPCE black 11.0688969232974 1.07305135704186 9.9958455662555 -8.92279420921363 286
ATF4 ATF4 black 11.5422116640846 1.06902514522601 10.4731865188586 -9.40416137363255 287
KLHL7 KLHL7 black 11.6034008676089 1.06842879683896 10.53497207077 -9.46654327393101 288
DPY19L1P1 DPY19L1P1 black 11.3354287612074 1.06746557337899 10.2679631878284 -9.20049761444938 289
TUG1 TUG1 black 11.2527997088408 1.06693381486262 10.1858658939782 -9.11893207911558 290
NDUFA6-AS1 NDUFA6-AS1 black 9.83500147972631 1.05296656431717 8.78203491540914 -7.72906835109197 291
SNX13 SNX13 black 11.7317967791056 1.04910357471428 10.6826932043913 -9.63358962967706 292
MALSU1 MALSU1 black 10.9279915134822 1.04545484759149 9.88253666589074 -8.83708181829925 293
EFCAB10 EFCAB10 black 13.35292316903 1.04425029975883 12.3086728692712 -11.2644225695124 294
DNAJB6 DNAJB6 black 11.7188264050229 1.04288755740623 10.6759388476166 -9.6330512902104 295
SCO2 SCO2 black 9.9813139910654 1.04217109761676 8.93914289344864 -7.89697179583188 296
LRCH4 LRCH4 black 12.0263792092566 1.03979106382205 10.9865881454346 -9.9467970816125 297
ASPHD2 ASPHD2 black 10.6574152068747 1.03974421900477 9.61767098786991 -8.57792676886515 298
EXOC4 EXOC4 black 11.8010100795501 1.039416153384 10.7615939261661 -9.72217777278212 299
AVL9 AVL9 black 11.5735591924896 1.02831755751851 10.5452416349711 -9.51692407745255 300
AGFG2 AGFG2 black 10.8939545746318 1.02609061800698 9.86786395662479 -8.84177333861781 301
ZC3HC1 ZC3HC1 black 10.9561756862662 1.02109057602063 9.93508511024561 -8.91399453422498 302
EZH2 EZH2 black 10.9432320333878 1.01596936663743 9.9272626667504 -8.91129330011297 303
CDC45 CDC45 black 11.4779507147668 1.01493732490539 10.4630133898614 -9.44807606495599 304
INTS1 INTS1 black 11.0671281730721 1.01204492365224 10.0550832494198 -9.04303832576757 305
FAM220A FAM220A black 11.5570098275983 1.01147789794543 10.5455319296528 -9.5340540317074 306
POLR2F POLR2F black 10.6101160795809 1.01147522307759 9.59864085650331 -8.58716563342571 307
ZNRF3 ZNRF3 black 10.6424805568645 1.00989402388146 9.63258653298302 -8.62269250910156 308
AC002454.1 AC002454.1 black 11.5301259436813 1.00457413909945 10.5255518045818 -9.52097766548236 309
FBXO7 FBXO7 black 10.6244659445317 1.00144563183776 9.62302031269396 -8.6215746808562 310
MIOS MIOS black 11.7947033383287 1.0001568974233 10.7945464409054 -9.79438954348212 311
EIF2AK1 EIF2AK1 black 11.8617684335326 0.99123585689104 10.8705325766415 -9.87929671975049 312
CBX3 CBX3 black 11.0702795495084 0.990303227141687 10.0799763223667 -9.089673095225 313
SPDYE3 SPDYE3 black 11.1525701095971 0.989859947560758 10.1627101620363 -9.17285021447554 314
CASD1 CASD1 black 11.6216260794737 0.987260649007525 10.6343654304662 -9.64710478145868 315
WDR60 WDR60 black 11.0353882172992 0.983337870944157 10.0520503463551 -9.06871247541093 316
CLIP2 CLIP2 black 11.409339970644 0.983061355759987 10.426278614884 -9.44321725912401 317
LINC01004 LINC01004 black 11.0346792881183 0.98293745722587 10.0517418308924 -9.06880437366653 318
DUXAP8 DUXAP8 black 10.6018435751565 0.98270959193436 9.61913398322216 -8.6364243912878 319
MORC2 MORC2 black 10.3340608074375 0.982283553691938 9.35177725374557 -8.36949370005363 320
BCAP29 BCAP29 black 10.9390724671343 0.981897800499273 9.95717466663499 -8.97527686613572 321
SMARCD3 SMARCD3 black 11.7655661595171 0.98002203909431 10.7855441204228 -9.80552208132848 322
POLD2 POLD2 black 11.7115041806469 0.979184090375359 10.7323200902716 -9.75313599989621 323
CDK5 CDK5 black 10.3313506692675 0.978670588555805 9.35268008071172 -8.37400949215592 324
LSM5 LSM5 black 10.9208124558499 0.975568425490208 9.9452440303597 -8.96967560486949 325
TMEM209 TMEM209 black 10.7922166003341 0.973797908647792 9.81841869168628 -8.84462078303849 326
DBF4 DBF4 black 11.115628713094 0.971508113279977 10.144120599814 -9.17261248653406 327
POR POR black 11.4444714883174 0.971322110053688 10.4731493782637 -9.50182726821 328
TCAF1 TCAF1 black 10.7537072465265 0.969416694978598 9.78429055154789 -8.8148738565693 329
AC093673.1 AC093673.1 black 10.727599023414 0.965709613668581 9.76188940974545 -8.79617979607687 330
ZNF280B ZNF280B black 10.5255447854265 0.963720394173704 9.5618243912528 -8.59810399707909 331
AC018638.5 AC018638.5 black 10.6397192900246 0.963616952624551 9.67610233740004 -8.71248538477549 332
CYCS CYCS black 11.7632208272553 0.963339342145856 10.7998814851095 -9.8365421429636 333
SYNGR1 SYNGR1 black 10.65457102774 0.963181417190815 9.69138961054923 -8.72820819335842 334
SLC25A40 SLC25A40 black 10.5558816766153 0.959834078786526 9.59604759782878 -8.63621351904226 335
FAM19A5 FAM19A5 black 11.1198968840188 0.957127646080243 10.1627692379386 -9.20564159185831 336
TOB2 TOB2 black 11.0785943249283 0.954714137691628 10.1238801872367 -9.16916604954508 337
METTL2B METTL2B black 10.1914397714842 0.947539212403526 9.24390055908068 -8.29636134667715 338
IQCE IQCE black 11.3625663414751 0.945294237354866 10.4172721041202 -9.47197786676533 339
BPGM BPGM black 12.0163342684244 0.940325677815327 11.076008590609 -10.1356829127937 340
EIF4H EIF4H black 12.0732915428458 0.931948086144393 11.1413434567014 -10.209395370557 341
CDK14 CDK14 black 10.8895216580766 0.928819001109755 9.96070265696685 -9.0318836558571 342
RP9 RP9 black 10.8586441483434 0.927433767686702 9.93121038065673 -9.00377661297003 343
GTF2I GTF2I black 12.2212958094401 0.927212583606133 11.294083225834 -10.3668706422279 344
FAM71F2 FAM71F2 black 10.3653607189692 0.925628579675545 9.43973213929367 -8.51410355961812 345
TNRC18 TNRC18 black 10.721357765068 0.924727350622388 9.79663041444561 -8.87190306382322 346
SUMF2 SUMF2 black 10.7957491563242 0.919577292089589 9.8761718642346 -8.95659457214501 347
AL138899.1 AL138899.1 black 11.1974786558948 0.914391248206489 10.2830874076883 -9.36869615948184 348
BRAF BRAF black 11.5960570023727 0.91397446560532 10.6820825367674 -9.76810807116206 349
LIMK2 LIMK2 black 10.6482964500426 0.905980915705733 9.74231553433683 -8.8363346186311 350
AC004947.2 AC004947.2 black 10.1294598688078 0.904512698276088 9.22494717053171 -8.32043447225563 351
AL021707.2 AL021707.2 black 10.1135650538091 0.90407141737768 9.20949363643146 -8.30542221905377 352
GTSE1-AS1 GTSE1-AS1 black 10.0901351222357 0.903569113006171 9.18656600922957 -8.28299689622339 353
AC092647.5 AC092647.5 black 10.683668415579 0.902692016775916 9.78097639880308 -8.87828438202716 354
COX19 COX19 black 11.2796233949489 0.901352201766878 10.3782711931821 -9.47691899141518 355
AC091812.1 AC091812.1 black 15.9898700304184 0.901019559745099 15.0888504706733 -14.1878309109282 356
PLEKHA8 PLEKHA8 black 10.9624513662416 0.899268352291732 10.0631830139499 -9.16391466165814 357
AC018638.2 AC018638.2 black 10.573479534547 0.899013946804242 9.6744655877428 -8.77545164093856 358
AC102953.2 AC102953.2 black 10.9896310413408 0.896622887020119 10.0930081543207 -9.19638526730059 359
NT5C3A NT5C3A black 10.8152167224179 0.895923773892312 9.91929294852557 -9.02336917463326 360
NAGA NAGA black 10.5376647082126 0.895821412486825 9.64184329572573 -8.7460218832389 361
AC004540.2 AC004540.2 black 10.1998198233218 0.893666890430955 9.30615293289083 -8.41248604245987 362
SF3A1 SF3A1 black 11.372592761183 0.891593829418523 10.4809989317644 -9.58940510234592 363
SLC25A1 SLC25A1 black 10.6066917974287 0.88832543449307 9.71836636293558 -8.83004092844251 364
YPEL1 YPEL1 black 10.8671447322429 0.887686435576311 9.97945829666661 -9.0917718610903 365
ZCWPW1 ZCWPW1 black 11.3039190956682 0.887196274710188 10.416722820958 -9.52952654624779 366
GGCT GGCT black 10.9782186836943 0.886050282292172 10.0921684014021 -9.20611811910992 367
AC007566.1 AC007566.1 black 10.3910460083438 0.88603753166794 9.50500847667582 -8.61897094500788 368
SUN2 SUN2 black 10.9665101712181 0.879113115550218 10.0873970556679 -9.2082839401177 369
SLC4A2 SLC4A2 black 11.0476374651058 0.878398861361322 10.1692386037445 -9.2908397423832 370
DNAJC30 DNAJC30 black 10.5799093580956 0.874143593255847 9.70576576483979 -8.83162217158395 371
AC118758.3 AC118758.3 black 10.6028648318913 0.870382607234032 9.73248222465731 -8.86209961742328 372
NUDT1 NUDT1 black 11.1910725994269 0.865559198163669 10.3255134012633 -9.4599542030996 373
PAXIP1-AS1 PAXIP1-AS1 black 10.9995137226123 0.865216154922644 10.1342975676896 -9.269081412767 374
AC004112.1 AC004112.1 black 11.3675121815394 0.859308518769519 10.5082036627699 -9.64889514400034 375
TMEM120A TMEM120A black 11.0744668918054 0.857610925402723 10.2168559664027 -9.35924504099999 376
MIF-AS1 MIF-AS1 black 10.040013999298 0.853604770612042 9.186409228686 -8.33280445807396 377
TBL2 TBL2 black 11.667313354925 0.849756667520003 10.817556687405 -9.96780001988502 378
CYTH3 CYTH3 black 11.7975485680412 0.843756618721179 10.95379194932 -10.1100353305989 379
AC018638.4 AC018638.4 black 10.7928430579973 0.839187236159401 9.95365582183791 -9.11446858567851 380
TWISTNB TWISTNB black 11.1489240061286 0.836862653519044 10.3120613526096 -9.47519869909052 381
FAM131B FAM131B black 11.0505677337477 0.836841070138306 10.2137266636094 -9.37688559347106 382
PURB PURB black 11.1075320798592 0.836619438925497 10.2709126409337 -9.43429320200816 383
AKR1B1 AKR1B1 black 10.8864700024077 0.833026506853729 10.053443495554 -9.22041698870028 384
CENPBD1P1 CENPBD1P1 black 11.7505256446654 0.832535282897181 10.9179903617682 -10.085455078871 385
RHBDD2 RHBDD2 black 11.3785478146372 0.829545149736207 10.549002664901 -9.71945751516475 386
TMEM248 TMEM248 black 11.4032411043254 0.827909839948721 10.5753312643767 -9.74742142442796 387
NRF1 NRF1 black 11.0268244225358 0.826731617565469 10.2000928049703 -9.37336118740481 388
PI4KAP2 PI4KAP2 black 10.3725809886178 0.822264375310294 9.55031661330753 -8.72805223799724 389
TANGO2 TANGO2 black 10.9820238314521 0.820886893050074 10.161136938402 -9.34025004535193 390
UBE2D4 UBE2D4 black 11.2885825977868 0.820524091493418 10.4680585062934 -9.64753441479999 391
NDUFA4 NDUFA4 black 11.8609813851023 0.818952977345539 11.0420284077567 -10.2230754304112 392
AC006978.2 AC006978.2 black 11.4641114782396 0.818785448161484 10.6453260300781 -9.82654058191659 393
Z97055.2 Z97055.2 black 9.82547060557056 0.817453789592301 9.00801681597826 -8.19056302638596 394
STMP1 STMP1 black 10.8662778093517 0.817174148851795 10.0491036605 -9.23192951164816 395
AGBL3 AGBL3 black 11.5613517306776 0.811713911378051 10.7496378192996 -9.93792390792154 396
ZNRF2P2 ZNRF2P2 black 11.1645809593958 0.808469678418909 10.3561112809769 -9.54764160255802 397
SERHL SERHL black 9.8141514731185 0.80818097663647 9.00597049648203 -8.19778951984556 398
XBP1 XBP1 black 10.8777101523296 0.806124722543232 10.0715854297864 -9.26546070724312 399
RP9P RP9P black 10.9732013565712 0.805891558353141 10.1673097982181 -9.36141823986494 400
KDM7A KDM7A black 11.1588995118121 0.805685538263872 10.3532139735483 -9.54752843528439 401
GPC2 GPC2 black 11.223932868029 0.799505169439109 10.4244276985899 -9.62492252915078 402
KBTBD2 KBTBD2 black 10.8596778111468 0.79603341276042 10.0636443983863 -9.26761098562591 403
KIAA0087 KIAA0087 black 10.4526369511942 0.795128974453255 9.65750797674097 -8.86237900228771 404
MGAT3 MGAT3 black 11.1094369001044 0.793386575621275 10.3160503244831 -9.52266374886184 405
AL118516.1 AL118516.1 black 9.76920660655647 0.792764155893055 8.97644245066342 -8.18367829477036 406
AC006333.2 AC006333.2 black 10.9662099394143 0.792381783184723 10.1738281562296 -9.3814463730449 407
KIAA0895 KIAA0895 black 11.628231263552 0.790182290274318 10.8380489732777 -10.0478666830034 408
DPP6 DPP6 black 10.8955193635113 0.789588433427127 10.1059309300841 -9.316342496657 409
TMEM60 TMEM60 black 10.5380435365912 0.785881047688519 9.7521624889027 -8.96628144121418 410
DAGLB DAGLB black 11.2214511057561 0.782725101135875 10.4387260046203 -9.6560009034844 411
CCDC126 CCDC126 black 11.6175337860403 0.781848704112441 10.8356850819279 -10.0538363778154 412
H2AFV H2AFV black 11.0804844132073 0.779082841903161 10.3014015713041 -9.52231872940094 413
RFC2 RFC2 black 11.0545402197427 0.779046054580392 10.2754941651623 -9.49644811058194 414
SBDS SBDS black 12.2387117348907 0.775947091241056 11.4627646436497 -10.6868175524086 415
AC018647.2 AC018647.2 black 10.9303734629451 0.772021382829287 10.1583520801158 -9.38633069728653 416
ZYX ZYX black 11.3137781973465 0.771474771362169 10.5423034259843 -9.77082865462216 417
TTYH3 TTYH3 black 11.1078219890704 0.765532069084494 10.342289919986 -9.57675785090146 418
TOMM7 TOMM7 black 11.8047106043703 0.757331955649795 11.0473786487205 -10.2900466930707 419
GALNT11 GALNT11 black 10.4221006535456 0.753012005407194 9.66908864813838 -8.91607664273119 420
AC090114.2 AC090114.2 black 11.3359513296583 0.747807776904059 10.5881435527543 -9.84033577585021 421
RAB36 RAB36 black 10.3587920976617 0.747514903853212 9.61127719380851 -8.8637622899553 422
TCAF1P1 TCAF1P1 black 10.9645252572449 0.745591356086298 10.2189339011586 -9.47334254507229 423
AP000350.6 AP000350.6 black 9.77087769848672 0.745369215626316 9.0255084828604 -8.28013926723408 424
LANCL2 LANCL2 black 10.7928611125478 0.742505787586861 10.0503553249609 -9.30784953737406 425
C7orf49 C7orf49 black 11.3849424771515 0.742128426650923 10.6428140505006 -9.90068562384966 426
PIM3 PIM3 black 9.87913874657091 0.740705694909824 9.13843305166108 -8.39772735675126 427
MAPK11 MAPK11 black 10.3910346859438 0.739349469652315 9.65168521629151 -8.91233574663919 428
ABHD11 ABHD11 black 11.1420887813321 0.737670568030718 10.4044182133014 -9.66674764527069 429
NRCAM NRCAM black 10.2817569068129 0.735045772317454 9.54671113449544 -8.81166536217799 430
OPN1SW OPN1SW black 10.7027633039788 0.734114922424581 9.96864838155422 -9.23453345912964 431
MAD1L1 MAD1L1 black 11.4986663521989 0.73145504199631 10.7672113102025 -10.0357562682062 432
AP000350.4 AP000350.4 black 10.3067087647322 0.730898994321717 9.57580977041051 -8.8449107760888 433
SHANK3 SHANK3 black 11.0495942579298 0.728584507002377 10.3210097509274 -9.59242524392503 434
AC008267.5 AC008267.5 black 11.0572902256056 0.724358480247484 10.3329317453581 -9.60857326511064 435
LIMK1 LIMK1 black 10.840885047419 0.721328862103938 10.119556185315 -9.39822732321109 436
MLC1 MLC1 black 9.87325176211029 0.718208994725047 9.15504276738525 -8.4368337726602 437
THAP7-AS1 THAP7-AS1 black 9.92844072528689 0.71793736198022 9.21050336330667 -8.49256600132646 438
P2RX6 P2RX6 black 10.5343202529221 0.716337515871922 9.81798273705016 -9.10164522117824 439
GNA12 GNA12 black 11.7998491975447 0.710416402215806 11.0894327953289 -10.3790163931131 440
STAG3L5P-PVRIG2P-PILRB STAG3L5P-PVRIG2P-PILRB black 10.3241006059635 0.706994079058672 9.61710652690484 -8.91011244784617 441
GTF2IRD2 GTF2IRD2 black 11.0228301570384 0.70380748377223 10.3190226732662 -9.61521518949399 442
PPP1R9A PPP1R9A black 10.4309780663081 0.703237390003158 9.72774067630491 -9.02450328630175 443
LINC01311 LINC01311 black 9.85086250048389 0.702065546077784 9.1487969544061 -8.44673140832832 444
NBEAP3 NBEAP3 black 10.2162153362183 0.700413874735297 9.515801461483 -8.81538758674771 445
SRI SRI black 10.8493542966275 0.699996779873997 10.1493575167535 -9.4493607368795 446
ST7 ST7 black 11.6875967194828 0.697566927326396 10.9900297921564 -10.29246286483 447
RADIL RADIL black 12.2376589870255 0.69753941726304 11.5401195697625 -10.8425801524994 448
TMEM243 TMEM243 black 10.8784388867632 0.694467003559326 10.1839718832039 -9.48950487964459 449
PSMC2 PSMC2 black 11.3366031788557 0.6932394695984 10.6433637092573 -9.95012423965894 450
KREMEN1 KREMEN1 black 10.6644830423623 0.691535728230263 9.97294731413206 -9.2814115859018 451
CHST12 CHST12 black 10.8607758352998 0.691326152256386 10.1694496830434 -9.47812353078701 452
CROT CROT black 10.7786616628136 0.691039706388434 10.0876219564252 -9.39658225003673 453
GTF2IRD1 GTF2IRD1 black 11.2839415176613 0.688721105441353 10.59522041222 -9.90649930677863 454
BID BID black 10.4521952529395 0.681250819317764 9.77094443362175 -9.08969361430399 455
KIAA0930 KIAA0930 black 10.3289737267317 0.679903254853802 9.64907047187794 -8.96916721702413 456
TTC38 TTC38 black 10.0761701958294 0.675376304584161 9.40079389124526 -8.7254175866611 457
NYAP1 NYAP1 black 10.6415680874175 0.673520522534357 9.96804756488315 -9.2945270423488 458
GTF2IRD2B GTF2IRD2B black 11.2196945252516 0.673174723604066 10.5465198016476 -9.87334507804349 459
SERHL2 SERHL2 black 10.7841403726435 0.667648483418929 10.1164918892246 -9.44884340580564 460
SP4 SP4 black 11.0101080753528 0.665808827376998 10.3442992479758 -9.67849042059877 461
BMT2 BMT2 black 11.403868840919 0.665221133113969 10.738647707805 -10.0734265746911 462
SBDSP1 SBDSP1 black 11.6997335398841 0.663339164379404 11.0363943755047 -10.3730552111253 463
PHTF2 PHTF2 black 10.7793649675676 0.659859250924746 10.1195057166429 -9.45964646571814 464
CECR2 CECR2 black 11.2882410962964 0.657318480060298 10.6309226162361 -9.97360413617582 465
TSPO TSPO black 10.45020579403 0.656028924206691 9.79417686982326 -9.13814794561657 466
SEPT7P2 SEPT7P2 black 10.8936428252757 0.65514040887348 10.2385024164022 -9.58336200752875 467
ST7-AS1 ST7-AS1 black 11.3376596005218 0.654650009994453 10.6830095905273 -10.0283595805329 468
HUS1 HUS1 black 10.7857349182747 0.65442539905376 10.131309519221 -9.47688412016722 469
ZNRF2 ZNRF2 black 12.6839937287926 0.64917227768012 12.0348214511125 -11.3856491734323 470
ESYT2 ESYT2 black 10.3683945673609 0.644182249893392 9.72421231746749 -9.0800300675741 471
TCN2 TCN2 black 10.5195181323106 0.642405642647022 9.87711248966359 -9.23470684701657 472
AL022476.1 AL022476.1 black 9.41977420400778 0.641011389772337 8.77876281423544 -8.1377514244631 473
NCAPG2 NCAPG2 black 11.5153347469153 0.634847919993286 10.880486826922 -10.2456389069287 474
AC091812.3 AC091812.3 black 9.27188511655578 0.633599759386723 8.63828535716906 -8.00468559778234 475
AMZ1 AMZ1 black 10.8929432932667 0.633010526630273 10.2599327666364 -9.62692224000612 476
PMS2CL PMS2CL black 11.02627249111 0.631824166828755 10.3944483242812 -9.76262415745244 477
AC018638.8 AC018638.8 black 9.706843142638 0.62823960437418 9.07860353826382 -8.45036393388964 478
IMPDH1 IMPDH1 black 10.1486537006185 0.62731589422592 9.52133780639261 -8.89402191216669 479
ANKMY2 ANKMY2 black 10.5570779516574 0.625921125073416 9.93115682658397 -9.30523570151055 480
CYP2D7 CYP2D7 black 10.0228044171379 0.625479382247776 9.39732503489008 -8.7718456526423 481
LINC01804 LINC01804 black 12.8810545277036 0.625323828774262 12.2557306989293 -11.6304068701551 482
SH2B2 SH2B2 black 10.4470160771092 0.624580627079516 9.82243545002972 -9.19785482295021 483
FAM71F1 FAM71F1 black 11.6299782660816 0.623754822747838 11.0062234433337 -10.3824686205859 484
SGCE SGCE black 10.5495403208204 0.622625443018138 9.92691487780227 -9.30428943478413 485
PBRM1 PBRM1 black 13.24170502283 0.62212871936581 12.6195763034642 -11.9974475840984 486
AC018638.6 AC018638.6 black 10.117857114789 0.621895940654958 9.49596117413401 -8.87406523347905 487
FOXK1 FOXK1 black 11.1730980017942 0.618417333093887 10.5546806687003 -9.93626333560646 488
XRCC2 XRCC2 black 10.7496928486708 0.616948871314573 10.1327439773563 -9.51579510604168 489
GTF2IP13 GTF2IP13 black 10.0840253932476 0.615494980221467 9.46853041302614 -8.85303543280467 490
SEPT7-AS1 SEPT7-AS1 black 10.9994865075242 0.615410963447098 10.3840755440771 -9.76866458063004 491
RNF32 RNF32 black 10.4325893005933 0.613710759843564 9.81887854074977 -9.20516778090621 492
AC005076.1 AC005076.1 black 10.1920492119075 0.613233832789291 9.57881537911824 -8.96558154632895 493
IGLV5-52 IGLV5-52 black 10.5041585490839 0.608956680252024 9.89520186883186 -9.28624518857983 494
PSPHP1 PSPHP1 black 9.43394385137061 0.606878301085708 8.8270655502849 -8.22018724919919 495
NBAS NBAS black 10.4068626403465 0.606144255276578 9.80071838506994 -9.19457412979336 496
CLTCL1 CLTCL1 black 10.8842593589204 0.601858479170983 10.2824008797494 -9.68054240057845 497
PTPRZ1 PTPRZ1 black 11.0735261911525 0.600797904083888 10.4727282870686 -9.87193038298472 498
SUN1 SUN1 black 11.2973104159452 0.60011401973214 10.697196396213 -10.0970823764809 499
BBS9 BBS9 black 11.4912829175212 0.599855866273665 10.8914270512475 -10.2915711849739 500
AC093673.2 AC093673.2 black 10.5163597290548 0.596765054496299 9.9195946745585 -9.3228296200622 501
TMEM178B TMEM178B black 10.7970971575023 0.594863832159723 10.2022333253425 -9.60736949318282 502
AL078621.3 AL078621.3 black 10.3127540362282 0.593076590035551 9.71967744619262 -9.12660085615707 503
YWHAH YWHAH black 10.2770921289277 0.590755179149318 9.68633694977835 -9.09558177062903 504
AC073517.1 AC073517.1 black 10.5981267487609 0.589770686365967 10.008356062395 -9.41858537602901 505
YWHAG YWHAG black 10.3702595783598 0.587502212572638 9.78275736578716 -9.19525515321453 506
AC006547.1 AC006547.1 black 10.5549031304821 0.585162960393924 9.96974017008819 -9.38457720969427 507
H1F0 H1F0 black 10.2423166752369 0.583697607306559 9.65861906793036 -9.0749214606238 508
SDHAF3 SDHAF3 black 10.1144787409879 0.581473812031514 9.53300492895641 -8.9515311169249 509
CCDC188 CCDC188 black 10.5101508906243 0.580243658367857 9.92990723225642 -9.34966357388856 510
LINC01003 LINC01003 black 11.3899852041489 0.575582021784953 10.814403182364 -10.238821160579 511
MAFF MAFF black 9.92980882242789 0.574934536018052 9.35487428640984 -8.77993975039179 512
MYH9 MYH9 black 10.0912384389355 0.574766904501425 9.51647153443409 -8.94170462993267 513
ADAM22 ADAM22 black 10.6034739852193 0.572912898347237 10.0305610868721 -9.45764818852487 514
AP000350.2 AP000350.2 black 10.55339280015 0.571509164189843 9.98188363596013 -9.41037447177028 515
AL589743.6 AL589743.6 black 9.83587346903482 0.571181714832279 9.26469175420254 -8.69351003937026 516
CCZ1B CCZ1B black 10.2740462358317 0.570898190780152 9.7031480450515 -9.13224985427135 517
PEG10 PEG10 black 10.4970134218823 0.57002397253277 9.92698944934949 -9.35696547681672 518
GALR3 GALR3 black 10.2553120188282 0.567928899878448 9.68738311894971 -9.11945421907127 519
EMID1 EMID1 black 11.1945474627748 0.567572242754566 10.6269752200202 -10.0594029772656 520
HIBADH HIBADH black 11.0245001561351 0.563714099858013 10.460786056277 -9.89707195641903 521
FKBP9P1 FKBP9P1 black 10.468881258714 0.560447178404087 9.90843408030991 -9.34798690190583 522
SNX10 SNX10 black 10.2191708559722 0.559790459302828 9.65938039666939 -9.09958993736656 523
PTPN12 PTPN12 black 10.5422714920917 0.557932090053641 9.98433940203805 -9.42640731198441 524
NIPSNAP1 NIPSNAP1 black 10.1704488234641 0.55784755360464 9.61260126985942 -9.05475371625478 525
FKBP14 FKBP14 black 10.8812788670497 0.555152358248522 10.3261265088012 -9.77097415055265 526
SMC6 SMC6 black 11.4903619082742 0.554498489819682 10.9358634184546 -10.3813649286349 527
FAM3C FAM3C black 11.2973013947474 0.554043948979615 10.7432574457678 -10.1892134967882 528
AL606534.5 AL606534.5 black 9.60980099563213 0.552374295555838 9.05742670007629 -8.50505240452045 529
CHCHD10 CHCHD10 black 10.0231580606872 0.551477522610691 9.47168053807651 -8.92020301546582 530
LINC01521 LINC01521 black 10.8152610049324 0.549702871454896 10.2655581334775 -9.71585526202261 531
DDX1 DDX1 black 9.9301743244297 0.548690440982049 9.38148388344765 -8.8327934424656 532
PANX2 PANX2 black 10.6970762892057 0.548313504208383 10.1487627849973 -9.60044928078891 533
ZMYND8 ZMYND8 black 10.7650506231088 0.544666366216904 10.2203842568919 -9.67571789067501 534
LINC00997 LINC00997 black 10.504870866369 0.544292683205377 9.96057818316361 -9.41628549995824 535
AL008582.1 AL008582.1 black 9.50366362616722 0.54266296911695 8.96100065705027 -8.41833768793332 536
AC109454.2 AC109454.2 black 9.40062983963501 0.539742369798448 8.86088746983657 -8.32114510003812 537
DTX2P1-UPK3BP1-PMS2P11 DTX2P1-UPK3BP1-PMS2P11 black 11.0982132796096 0.536843203828705 10.5613700757809 -10.0245268719522 538
IGLV1-51 IGLV1-51 black 9.9214420087308 0.535621439346934 9.38582056938387 -8.85019913003694 539
LAMB1 LAMB1 black 10.7398296748361 0.532344878692347 10.2074847961438 -9.6751399174514 540
SNHG15 SNHG15 black 9.92557276654692 0.527918078156057 9.39765468839086 -8.86973661023481 541
AC018638.1 AC018638.1 black 10.0269345779552 0.525307216085449 9.50162736186972 -8.97632014578427 542
BLVRA BLVRA black 10.307468857473 0.522674961882853 9.78479389559013 -9.26211893370728 543
AC091812.2 AC091812.2 black 9.23552709874341 0.521532925411327 8.71399417333209 -8.19246124792076 544
AC074351.1 AC074351.1 black 9.80878781196088 0.519340691490468 9.28944712047041 -8.77010642897994 545
UFSP1 UFSP1 black 10.644028943339 0.517873667428876 10.1261552759101 -9.60828160848122 546
ZC3H6 ZC3H6 black 10.609376699591 0.517196876053347 10.0921798235377 -9.5749829474843 547
CDC42P2 CDC42P2 black 11.5826353452625 0.516708816380516 11.065926528882 -10.5492177125015 548
ZBTB40 ZBTB40 black 10.2483405756428 0.515853965689634 9.73248660995321 -9.21663264426358 549
SH3BP5-AS1 SH3BP5-AS1 black 10.8492815554887 0.514640174575898 10.3346413809128 -9.82000120633688 550
VPS37D VPS37D black 11.508759494355 0.513884606025463 10.9948748883296 -10.4809902823041 551
GAS7 GAS7 black 10.3211229734752 0.513463528441651 9.80765944503359 -9.29419591659194 552
EXOC3-AS1 EXOC3-AS1 black 10.2795920141801 0.512864670419135 9.76672734376099 -9.25386267334186 553
EGFR EGFR black 10.3733685978419 0.504793977612266 9.86857462022967 -9.3637806426174 554
CDK6 CDK6 black 10.3069008735129 0.504351560587645 9.80254931292527 -9.29819775233762 555
AC096992.1 AC096992.1 black 9.60241797575885 0.50270264484547 9.09971533091338 -8.59701268606791 556
PON2 PON2 black 10.5784925116047 0.502011492157183 10.0764810194475 -9.57446952729036 557
ELDR ELDR black 9.52332991271285 0.499629250864796 9.02370066184805 -8.52407141098326 558
AC117569.1 AC117569.1 black 10.6665766901452 0.499050185543002 10.1675265046022 -9.66847631905921 559
AC116614.1 AC116614.1 black 10.0300134416105 0.498116209427612 9.5318972321829 -9.03378102275529 560
PSMG3-AS1 PSMG3-AS1 black 10.3893843128725 0.496763947501161 9.89262036537137 -9.39585641787021 561
CYP2D8P CYP2D8P black 9.6440034639989 0.491904742203738 9.15209872179516 -8.66019397959143 562
SELENOM SELENOM black 10.5110084333425 0.491593551643665 10.0194148816988 -9.52782133005514 563
AP000802.1 AP000802.1 black 10.1741527402058 0.489291386638551 9.68486135356729 -9.19556996692874 564
TEX14 TEX14 black 10.5198676312404 0.488854582253977 10.0310130489864 -9.54215846673241 565
CHADL CHADL black 10.7871626676639 0.486977566114555 10.3001851015493 -9.81320753543476 566
SCARF2 SCARF2 black 11.1252359294064 0.486479966448575 10.6387559629578 -10.1522759965093 567
STK17A STK17A black 10.1753675178841 0.485398467026383 9.68996905085777 -9.20457058383139 568
USP51 USP51 black 9.62922171185215 0.483630350594224 9.14559136125793 -8.6619610106637 569
AL138899.2 AL138899.2 black 9.93716261539796 0.482538295142876 9.45462432025508 -8.97208602511221 570
AC093627.5 AC093627.5 black 10.5387548639636 0.481945728213902 10.0568091357497 -9.57486340753578 571
AC018638.7 AC018638.7 black 9.94974359495818 0.481868747766628 9.46787484719155 -8.98600609942492 572
AC004947.1 AC004947.1 black 9.88735887825552 0.480815046402404 9.40654383185311 -8.92572878545071 573
WBP2NL WBP2NL black 9.72294435272321 0.480498452972174 9.24244589975104 -8.76194744677887 574
SFMBT2 SFMBT2 black 10.6456267737737 0.479363265733518 10.1662635080402 -9.68690024230669 575
LINC01315 LINC01315 black 9.77401854442036 0.476140359677369 9.29787818474299 -8.82173782506563 576
GTF2IP23 GTF2IP23 black 10.4606294310257 0.472696276674605 9.98793315435105 -9.51523687767644 577
LAMA5 LAMA5 black 10.3002037210019 0.470002599081627 9.83020112192025 -9.36019852283862 578
AC005156.1 AC005156.1 black 10.8273350074559 0.469509514211534 10.3578254932443 -9.8883159790328 579
AC018638.3 AC018638.3 black 9.24700004277819 0.469222083986707 8.77777795879148 -8.30855587480477 580
NOD1 NOD1 black 10.6117871458182 0.466548950765716 10.1452381950525 -9.67868924428676 581
YDJC YDJC black 10.4575212569419 0.464943180471499 9.99257807647044 -9.52763489599894 582
DOCK4 DOCK4 black 10.4184996871259 0.464387893363028 9.95411179376287 -9.48972390039985 583
C7orf25 C7orf25 black 9.51659095062068 0.462510570495586 9.05408038012509 -8.59156980962951 584
FOXF1 FOXF1 black 9.89735198876381 0.459487049634217 9.4378649391296 -8.97837788949538 585
PKD1 PKD1 black 10.5584649076335 0.458950124893328 10.0995147827401 -9.64056465784681 586
DDTL DDTL black 9.83445364643087 0.45792319352758 9.37653045290329 -8.91860725937572 587
PGAP1 PGAP1 black 10.2846313887081 0.452238743650722 9.8323926450574 -9.38015390140668 588
ZDHHC4 ZDHHC4 black 10.4032810299547 0.450510888184187 9.95277014177048 -9.5022592535863 589
AIM2 AIM2 black 11.4129305361945 0.449250072900246 10.9636804632943 -10.514430390394 590
AC002467.1 AC002467.1 black 9.80238053112846 0.44846901737534 9.35391151375312 -8.90544249637778 591
TMEM132E TMEM132E black 9.20534564340007 0.447266281997744 8.75807936140233 -8.31081307940458 592
EEF1A1P28 EEF1A1P28 black 10.6844471167003 0.44688163067196 10.2375654860283 -9.79068385535638 593
C7orf31 C7orf31 black 10.3765970070591 0.44411642193452 9.93248058512459 -9.48836416319007 594
AC004471.1 AC004471.1 black 9.56665629239755 0.443039288852238 9.12361700354531 -8.68057771469307 595
AC004130.1 AC004130.1 black 9.8186306628138 0.441241158819307 9.37738950399449 -8.93614834517519 596
FENDRR FENDRR black 10.3921864461458 0.43982016894215 9.95236627720367 -9.51254610826152 597
AC002127.2 AC002127.2 black 11.8100605842169 0.43860189028244 11.3714586939344 -10.932856803652 598
BARX1 BARX1 black 10.2661317290146 0.437687711829592 9.82844401718499 -9.39075630535539 599
NFE2L3 NFE2L3 black 10.309388018481 0.43747104592964 9.87191697255141 -9.43444592662177 600
ADCK2 ADCK2 black 10.535133331444 0.435292757876504 10.0998405735675 -9.66454781569104 601
ZDHHC8P1 ZDHHC8P1 black 9.95074350457839 0.435027172177115 9.51571633240128 -9.08068916022416 602
SEC14L6 SEC14L6 black 9.99588330985492 0.434714922345261 9.56116838750966 -9.1264534651644 603
RCSD1 RCSD1 black 11.0441333263184 0.434105703387006 10.6100276229314 -10.1759219195444 604
FYB1 FYB1 black 10.7395599994786 0.431564604553594 10.307995394925 -9.87643079037138 605
FP236383.3 FP236383.3 black 11.0392906002773 0.430670491266509 10.6086201090108 -10.1779496177443 606
AC126755.1 AC126755.1 black 10.0818270524566 0.430514910191873 9.65131214226468 -9.22079723207281 607
PYY2 PYY2 black 10.2319880453852 0.429902746710788 9.8020852986744 -9.37218255196361 608
AC138932.1 AC138932.1 black 10.1447262551725 0.429574411315074 9.71515184385738 -9.28557743254231 609
DPY19L1P2 DPY19L1P2 black 10.365466268257 0.425961860304892 9.93950440795212 -9.51354254764723 610
PIK3IP1 PIK3IP1 black 9.87786702833299 0.425376616735826 9.45249041159716 -9.02711379486134 611
AC068338.2 AC068338.2 black 9.91721622453071 0.424528542598636 9.49268768193208 -9.06815913933344 612
GSDME GSDME black 10.1696807843216 0.42034872719068 9.74933205713096 -9.32898332994028 613
SH3BP1 SH3BP1 black 10.0725094338496 0.418771874881393 9.65373755896821 -9.23496568408682 614
C2orf66 C2orf66 black 10.8653493936854 0.41482025886766 10.4505291348177 -10.0357088759501 615
WNT5A WNT5A black 10.341211245914 0.411653487442742 9.92955775847125 -9.51790427102851 616
GSAP GSAP black 10.5880018035466 0.408792585402974 10.1792092181436 -9.77041663274061 617
AC103736.1 AC103736.1 black 9.55915035507853 0.408417095979274 9.15073325909925 -8.74231616311998 618
TIFA TIFA black 10.5748455928628 0.408213587297655 10.1666320055651 -9.75841841826744 619
GTF2IP14 GTF2IP14 black 10.6246990390508 0.405828845806687 10.2188701932441 -9.81304134743744 620
AC243965.2 AC243965.2 black 10.5371550919306 0.404054609490123 10.1331004824404 -9.72904587295032 621
FAM107A FAM107A black 10.4488381885969 0.403983461297645 10.0448547272993 -9.64087126600163 622
AC016588.2 AC016588.2 black 10.5980079742122 0.40378236725444 10.1942256069577 -9.7904432397033 623
AC215217.1 AC215217.1 black 9.75701688832829 0.401749876413969 9.35526701191432 -8.95351713550035 624
LINC02556 LINC02556 black 9.763317339414 0.400816619641789 9.36250071977221 -8.96168410013042 625
LINC01372 LINC01372 black 9.57347552851209 0.399933374604308 9.17354215390778 -8.77360877930347 626
FAH FAH black 10.8097977153831 0.398946541885205 10.4108511734979 -10.0119046316126 627
C17orf102 C17orf102 black 9.23710078174675 0.397961190522252 8.8391395912245 -8.44117840070225 628
AC012441.2 AC012441.2 black 9.89492608867902 0.395195303836006 9.49973078484302 -9.10453548100701 629
FIGNL1 FIGNL1 black 10.3720187391531 0.394496200487854 9.97752253866525 -9.5830263381774 630
AC093458.1 AC093458.1 black 9.9586477651358 0.393445764841638 9.56520200029416 -9.17175623545252 631
PHKG1 PHKG1 black 9.86508474215828 0.392643651004689 9.47244109115359 -9.0797974401489 632
IGHVIII-47-1 IGHVIII-47-1 black 11.2023838301643 0.392334519682139 10.8100493104821 -10.4177147908 633
LINC01128 LINC01128 black 9.72927540781539 0.386821989392258 9.34245341842313 -8.95563142903087 634
AL513314.2 AL513314.2 black 10.0114936698869 0.384270385674861 9.62722328421204 -9.24295289853718 635
ZNF618 ZNF618 black 10.9920408320767 0.38360382670105 10.6084370053756 -10.2248331786746 636
ZNF586 ZNF586 black 10.3760583334244 0.383496870474046 9.99256146295037 -9.60906459247632 637
SEC61G SEC61G black 9.74565531411589 0.382457233494616 9.36319808062128 -8.98074084712666 638
AL139125.2 AL139125.2 black 10.3549688798925 0.379111466365106 9.97585741352738 -9.59674594716228 639
MAGEH1 MAGEH1 black 9.52060811112978 0.377106012563296 9.14350209856649 -8.76639608600319 640
PRR34 PRR34 black 9.6582219801641 0.376982617114427 9.28123936304967 -8.90425674593525 641
AC243836.1 AC243836.1 black 9.6375809272923 0.376100994029021 9.26147993326328 -8.88537893923426 642
PER3 PER3 black 10.6515455978982 0.37488898694492 10.2766566109533 -9.90176762400834 643
IRS3P IRS3P black 9.70378225006113 0.371508313688087 9.33227393637304 -8.96076562268495 644
AOC1 AOC1 black 11.5997449829218 0.369210310722208 11.2305346721996 -10.8613243614773 645
GNG12 GNG12 black 9.9761551797555 0.367526346552759 9.60862883320274 -9.24110248664998 646
BX324167.1 BX324167.1 black 9.97332192740182 0.366832609497346 9.60648931790447 -9.23965670840713 647
AC007325.2 AC007325.2 black 9.64664093315452 0.365555111124457 9.28108582203006 -8.91553071090561 648
AC254562.2 AC254562.2 black 9.28844081502915 0.364827379918714 8.92361343511044 -8.55878605519172 649
FOXA1 FOXA1 black 10.217545852152 0.363261847253397 9.8542840048986 -9.4910221576452 650
ALPK1 ALPK1 black 10.2684951768362 0.360941974252117 9.90755320258413 -9.54661122833201 651
LINC01134 LINC01134 black 10.3714582611301 0.359616391878987 10.0118418692511 -9.65222547737216 652
AC006012.1 AC006012.1 black 9.70682428681878 0.359495501782297 9.34732878503649 -8.98783328325419 653
TRAPPC13P1 TRAPPC13P1 black 10.5687934447717 0.356941233224091 10.2118522115477 -9.85491097832357 654
EPHB2 EPHB2 black 10.5272776469065 0.356108584709868 10.1711690621966 -9.81506047748672 655
RPS15AP38 RPS15AP38 black 9.46193020658942 0.35406220108735 9.10786800550207 -8.75380580441472 656
VN1R42P VN1R42P black 9.0380828019043 0.353596820299423 8.68448598160487 -8.33088916130545 657
UPK2 UPK2 black 10.1198734739297 0.352987535723683 9.76688593820598 -9.4138984024823 658
HDAC10 HDAC10 black 9.97607281339718 0.351837081978157 9.62423573141903 -9.27239864944087 659
CIART CIART black 9.88357428477766 0.351711099464408 9.53186318531325 -9.18015208584884 660
CHD1L CHD1L black 11.0277778723481 0.347038524755291 10.6807393475928 -10.3337008228375 661
FAM118A FAM118A black 9.54901017695061 0.343050873271862 9.20595930367875 -8.86290843040689 662
NR1D2 NR1D2 black 10.3114551559826 0.342466825686985 9.96898833029563 -9.62652150460865 663
SH3BGRL SH3BGRL black 10.5654453627242 0.341197191313192 10.224248171411 -9.88305098009781 664
GTF2IP20 GTF2IP20 black 9.93792902967318 0.336697258501461 9.60123177117172 -9.26453451267026 665
FAR2P2 FAR2P2 black 10.2122480951532 0.334115671252953 9.8781324239002 -9.54401675264725 666
CD37 CD37 black 9.77212795823011 0.333888229364067 9.43823972886604 -9.10435149950198 667
AC245060.6 AC245060.6 black 9.77369033822981 0.333078251259945 9.44061208696987 -9.10753383570992 668
ADPRH ADPRH black 9.75158801836064 0.332879667878082 9.41870835048256 -9.08582868260447 669
AC006480.2 AC006480.2 black 9.19594136835533 0.330585477507701 8.86535589084762 -8.53477041333992 670
AL008718.2 AL008718.2 black 9.25987731863728 0.329825397833684 8.9300519208036 -8.60022652296991 671
DLG1-AS1 DLG1-AS1 black 11.578713715521 0.328200989219795 11.2505127263012 -10.9223117370814 672
VN1R67P VN1R67P black 9.39627416272961 0.325429260724285 9.07084490200532 -8.74541564128104 673
METTL27 METTL27 black 9.69918470343578 0.324892138305434 9.37429256513034 -9.04940042682491 674
HNRNPA1P12 HNRNPA1P12 black 9.06303432520548 0.323982742994736 8.73905158221075 -8.41506883921601 675
AC134503.1 AC134503.1 black 9.42188443741438 0.323932957369197 9.09795148004518 -8.77401852267599 676
DBP DBP black 10.9131219142949 0.322435686785474 10.5906862275094 -10.268250540724 677
RPL23AP7 RPL23AP7 black 9.69319913205562 0.320165526982466 9.37303360507316 -9.05286807809069 678
PHLDA2 PHLDA2 black 9.85534173624854 0.319895677878246 9.5354460583703 -9.21555038049205 679
AC008736.2 AC008736.2 black 9.84573521119542 0.318208355588176 9.52752685560724 -9.20931850001907 680
POLN POLN black 10.6267144266947 0.316919858119335 10.3097945685753 -9.99287471045599 681
FBXO2 FBXO2 black 10.055349373021 0.313867031609614 9.74148234141136 -9.42761530980175 682
CALM1P2 CALM1P2 black 10.7514946477841 0.313766351104891 10.4377282966792 -10.1239619455743 683
AC007325.4 AC007325.4 black 9.29895138051954 0.311415901955972 8.98753547856357 -8.6761195766076 684
GRB10 GRB10 black 9.82817143908343 0.307711958930852 9.52045948015258 -9.21274752122173 685
PPIC PPIC black 10.340306505998 0.307177325059795 10.0331291809382 -9.72595185587842 686
PTPN18 PTPN18 black 9.93724718643354 0.306028470422 9.63121871601154 -9.32519024558954 687
VPREB3 VPREB3 black 9.31530076301972 0.305007945023006 9.01029281799671 -8.70528487297371 688
AC006971.1 AC006971.1 black 10.1521977656497 0.303127693496448 9.8490700721533 -9.54594237865685 689
AC096649.1 AC096649.1 black 10.4842259380563 0.300572168697079 10.1836537693592 -9.88308160066213 690
AC109347.2 AC109347.2 black 9.51768051659017 0.300197061800645 9.21748345478952 -8.91728639298888 691
IMPDH1P8 IMPDH1P8 black 9.55652392975579 0.297168180947478 9.25935574880831 -8.96218756786083 692
MADCAM1 MADCAM1 black 9.67250120426172 0.29019933911428 9.38230186514744 -9.09210252603316 693
AC087699.1 AC087699.1 black 10.4604351831315 0.289202829654533 10.171232353477 -9.88202952382248 694
RNA5SP508 RNA5SP508 black 9.75374515913494 0.289022075171619 9.46472308396332 -9.17570100879171 695
CNFN CNFN black 10.0618307119852 0.283433094716343 9.77839761726882 -9.49496452255248 696
HMGN1P26 HMGN1P26 black 9.28472380801574 0.281821122963085 9.00290268505266 -8.72108156208957 697
NPIPA1 NPIPA1 black 9.79510637150103 0.27925420819062 9.51585216331041 -9.23659795511979 698
NUPR2 NUPR2 black 10.167505697839 0.277152702119502 9.89035299571954 -9.61320029360004 699
FFAR4 FFAR4 black 9.97486274444687 0.275323723812794 9.69953902063408 -9.42421529682128 700
AC023824.6 AC023824.6 black 10.1538721680676 0.271753367691503 9.88211880037605 -9.61036543268455 701
USP41 USP41 black 10.1787789697836 0.271557868839539 9.90722110094411 -9.63566323210457 702
RN7SL3 RN7SL3 black 9.92112571953792 0.269012465375996 9.65211325416193 -9.38310078878593 703
RCVRN RCVRN black 10.1832829542344 0.267897917478397 9.91538503675596 -9.64748711927756 704
PLXDC2 PLXDC2 black 10.3021975634587 0.264238065370652 10.0379594980881 -9.77372143271744 705
AC095031.1 AC095031.1 black 9.28372333599972 0.261396226968467 9.02232710903125 -8.76093088206279 706
FAM43A FAM43A black 9.33473834660432 0.258634449109864 9.07610389749445 -8.81746944838459 707
EPHX2 EPHX2 black 10.5529368068067 0.256751891411986 10.2961849153947 -10.0394330239827 708
AC073133.2 AC073133.2 black 10.946108967558 0.256683529515473 10.6894254380425 -10.432741908527 709
AC009812.2 AC009812.2 black 9.34576996499112 0.255142372095711 9.09062759289541 -8.83548522079969 710
TOMM22P2 TOMM22P2 black 9.31513496333968 0.253995711945262 9.06113925139442 -8.80714353944916 711
AC106052.1 AC106052.1 black 9.15498996198391 0.253720556689437 8.90126940529447 -8.64754884860503 712
AL359711.2 AL359711.2 black 9.2874696451213 0.248254161070531 9.03921548405077 -8.79096132298024 713
RPL23AP53 RPL23AP53 black 10.9242278636476 0.237908051251436 10.6863198123962 -10.4484117611447 714
AL603650.1 AL603650.1 black 10.2276030547925 0.236125293544905 9.99147776124759 -9.75535246770269 715
IGHV3OR16-12 IGHV3OR16-12 black 9.87907698442839 0.232286837407877 9.64679014702052 -9.41450330961264 716
NR1D1 NR1D1 black 9.97370006123682 0.227826237205931 9.74587382403089 -9.51804758682496 717
EFCAB14P1 EFCAB14P1 black 10.2007396513491 0.217526851668405 9.9832127996807 -9.7656859480123 718
AL009176.1 AL009176.1 black 9.78334927957706 0.212611073776719 9.57073820580034 -9.35812713202362 719
AC136428.2 AC136428.2 black 9.66832728013783 0.210166648415965 9.45816063172187 -9.2479939833059 720
DDX11L2 DDX11L2 black 9.28057778931458 0.200465979197541 9.08011181011704 -8.8796458309195 721
PGM2L1 PGM2L1 black 9.56083247700331 0.187707552858081 9.37312492414523 -9.18541737128715 722
KIF26B KIF26B black 10.8770982468039 0.185385211935734 10.6917130348682 -10.5063278229324 723
DPYSL5 DPYSL5 black 9.84849344308598 0.168463479878754 9.68002996320722 -9.51156648332847 724
