PSID Gene Module kTotal kWithin kOut kDiff rank
LINCMD1 LINCMD1 HuAgeGBsplit_14 22.051869832095 12.6063979684507 9.44547186364427 3.16092610480644 1
AL049836.2 AL049836.2 HuAgeGBsplit_14 21.826136555808 12.4537914578757 9.37234509793233 3.08144635994333 2
MYL1 MYL1 HuAgeGBsplit_14 20.2149093587329 10.4117707439464 9.80313861478644 0.608632129159997 3
TRIM51 TRIM51 HuAgeGBsplit_14 19.7975033782836 10.1228866527434 9.67461672554018 0.448269927203263 4
MYL10 MYL10 HuAgeGBsplit_14 19.765506120036 9.31347375827586 10.4520323617602 -1.13855860348431 5
OR9M1P OR9M1P HuAgeGBsplit_14 17.7033456212623 8.51274047062243 9.19060515063989 -0.677864680017457 6
TNNI1 TNNI1 HuAgeGBsplit_14 17.714302796795 8.29231871104519 9.42198408574983 -1.12966537470464 7
LINC02152 LINC02152 HuAgeGBsplit_14 18.0733435872776 7.71369590794172 10.3596476793358 -2.64595177139412 8
MYMK MYMK HuAgeGBsplit_14 17.4380754417588 7.65750491390587 9.78057052785296 -2.12306561394708 9
CHRND CHRND HuAgeGBsplit_14 17.1679820213068 7.43290521595203 9.73507680535474 -2.30217158940271 10
CELA3A CELA3A HuAgeGBsplit_14 17.1047948529951 7.28816130352639 9.81663354946868 -2.52847224594229 11
CHRNG CHRNG HuAgeGBsplit_14 16.7884797154308 7.09162545918907 9.69685425624172 -2.60522879705264 12
A2MP1 A2MP1 HuAgeGBsplit_14 16.1444562753139 6.92972309520789 9.21473318010599 -2.2850100848981 13
RPL7P3 RPL7P3 HuAgeGBsplit_14 16.0401838923226 6.70873849230248 9.33144540002015 -2.62270690771767 14
CKM CKM HuAgeGBsplit_14 15.4408081665062 6.34977273428369 9.09103543222254 -2.74126269793885 15
RRM2 RRM2 HuAgeGBsplit_14 15.2307320140477 5.67453206741859 9.55619994662914 -3.88166787921055 16
UNC45B UNC45B HuAgeGBsplit_14 16.2550386694141 5.65857279501254 10.5964658744016 -4.93789307938905 17
PRMT8 PRMT8 HuAgeGBsplit_14 14.9770246534525 5.64125373220242 9.33577092125004 -3.69451718904762 18
MYMX MYMX HuAgeGBsplit_14 14.0379610378926 5.03511532316999 9.00284571472263 -3.96773039155264 19
MYOG MYOG HuAgeGBsplit_14 13.9741147848593 4.75222845366922 9.22188633119006 -4.46965787752084 20
GGTLC1 GGTLC1 HuAgeGBsplit_14 13.8249300943138 4.72774838714578 9.09718170716801 -4.36943332002223 21
KLRD1 KLRD1 HuAgeGBsplit_14 14.6593056524163 4.52703906599087 10.1322665864255 -5.6052275204346 22
MYL4 MYL4 HuAgeGBsplit_14 13.9183381275463 4.32910193456213 9.58923619298418 -5.26013425842205 23
TRIM55 TRIM55 HuAgeGBsplit_14 17.7948213858109 4.29509069926776 13.4997306865432 -9.2046399872754 24
DWORF DWORF HuAgeGBsplit_14 13.57862986976 4.1710598005106 9.40757006924935 -5.23651026873875 25
AC104794.1 AC104794.1 HuAgeGBsplit_14 13.7297716893111 4.05228309775299 9.67748859155814 -5.62520549380515 26
SRL SRL HuAgeGBsplit_14 13.1130650827521 4.01626990235047 9.09679518040165 -5.08052527805118 27
MYLPF MYLPF HuAgeGBsplit_14 13.9374359256844 3.81550834224819 10.1219275834362 -6.30641924118798 28
HFE2 HFE2 HuAgeGBsplit_14 13.9865697329678 3.70771027642316 10.2788594565446 -6.57114918012145 29
NMRK2 NMRK2 HuAgeGBsplit_14 13.1980853661921 3.66962691048852 9.52845845570353 -5.85883154521501 30
SMYD1 SMYD1 HuAgeGBsplit_14 12.6910514578816 3.62248480409569 9.06856665378594 -5.44608184969025 31
IGF1R IGF1R HuAgeGBsplit_14 13.1954514761778 3.46669238613175 9.72875909004609 -6.26206670391434 32
TNNT3 TNNT3 HuAgeGBsplit_14 14.8839061949811 3.462532819474 11.4213733755071 -7.95884055603307 33
MYCNOS MYCNOS HuAgeGBsplit_14 12.852629237981 3.33372693324727 9.51890230473372 -6.18517537148645 34
RAPSN RAPSN HuAgeGBsplit_14 12.1640202968341 3.30926773832061 8.85475255851346 -5.54548482019286 35
RPS3 RPS3 HuAgeGBsplit_14 12.9402816496643 3.19075198674066 9.7495296629236 -6.55877767618294 36
TNNC2 TNNC2 HuAgeGBsplit_14 12.5884832277485 3.16720378817161 9.42127943957693 -6.25407565140532 37
KRT40 KRT40 HuAgeGBsplit_14 12.3871763748149 2.96260317759652 9.42457319721835 -6.46197001962183 38
DRC3 DRC3 HuAgeGBsplit_14 12.4662185290218 2.87887279033049 9.58734573869127 -6.70847294836077 39
LINC01475 LINC01475 HuAgeGBsplit_14 12.3726220140793 2.84043753910243 9.53218447497688 -6.69174693587445 40
BX640514.1 BX640514.1 HuAgeGBsplit_14 12.8403804116154 2.83944595797873 10.0009344536366 -7.16148849565791 41
LAD1 LAD1 HuAgeGBsplit_14 14.7168504933478 2.67610337046993 12.0407471228779 -9.36464375240794 42
C10orf71 C10orf71 HuAgeGBsplit_14 18.2429219290002 2.46628453157558 15.7766373974246 -13.310352865849 43
RDH14 RDH14 HuAgeGBsplit_14 12.1959192986281 2.41591878808747 9.78000051054065 -7.36408172245318 44
RNU6-627P RNU6-627P HuAgeGBsplit_14 12.7623866527345 2.40617293778022 10.3562137149542 -7.95004077717402 45
AL590483.2 AL590483.2 HuAgeGBsplit_14 14.3142366124186 2.29382338805067 12.0204132243679 -9.72658983631723 46
COX6CP12 COX6CP12 HuAgeGBsplit_14 11.1714553628245 2.1880653135001 8.9833900493244 -6.7953247358243 47
MRLN MRLN HuAgeGBsplit_14 15.4790006153316 2.17762623110884 13.3013743842227 -11.1237481531139 48
FAM60CP FAM60CP HuAgeGBsplit_14 12.1676670565569 2.14516428288106 10.0225027736759 -7.87733849079481 49
PYROXD1 PYROXD1 HuAgeGBsplit_14 11.9100231420305 2.11810348942952 9.79191965260096 -7.67381616317144 50
AC114801.1 AC114801.1 HuAgeGBsplit_14 10.9677704378885 2.06752988447479 8.90024055341366 -6.83271066893887 51
RPL39P39 RPL39P39 HuAgeGBsplit_14 11.6190237225188 1.97679149563042 9.6422322268884 -7.66544073125799 52
AC018953.1 AC018953.1 HuAgeGBsplit_14 13.5455406713066 1.94262090801758 11.6029197632891 -9.66029885527149 53
IGF2BP1 IGF2BP1 HuAgeGBsplit_14 12.5987562695831 1.94218609656177 10.6565701730213 -8.71438407645953 54
KLHL40 KLHL40 HuAgeGBsplit_14 11.9472170726153 1.89236030077518 10.0548567718401 -8.16249647106492 55
AC130710.1 AC130710.1 HuAgeGBsplit_14 11.1233227240457 1.68317746180711 9.44014526223856 -7.75696780043145 56
UNCX UNCX HuAgeGBsplit_14 11.8255600071677 1.66965544334502 10.1559045638227 -8.48624912047765 57
TNNT2 TNNT2 HuAgeGBsplit_14 11.2520998364121 1.64606363995816 9.60603619645395 -7.95997255649579 58
TNNI2 TNNI2 HuAgeGBsplit_14 11.9725571025403 1.61737189204152 10.3551852104988 -8.73781331845724 59
NKAPD1 NKAPD1 HuAgeGBsplit_14 11.275549318029 1.54181074306329 9.73373857496569 -8.1919278319024 60
RNF214 RNF214 HuAgeGBsplit_14 11.1018701589753 1.53994371451862 9.5619264444567 -8.02198272993808 61
PCNX3 PCNX3 HuAgeGBsplit_14 12.0009853095645 1.5167411182317 10.4842441913328 -8.96750307310107 62
AC083902.2 AC083902.2 HuAgeGBsplit_14 12.0069885794937 1.50137144216508 10.5056171373286 -9.00424569516356 63
LINC02251 LINC02251 HuAgeGBsplit_14 11.0107683752692 1.48562571859904 9.52514265667013 -8.03951693807109 64
NOL10 NOL10 HuAgeGBsplit_14 12.1145540607353 1.47948693996373 10.6350671207716 -9.15558018080783 65
AC024940.6 AC024940.6 HuAgeGBsplit_14 11.1546645350143 1.45767319715712 9.69699133785719 -8.23931814070007 66
DPF2 DPF2 HuAgeGBsplit_14 12.2785193451136 1.42184909284323 10.8566702522704 -9.43482115942715 67
GACAT3 GACAT3 HuAgeGBsplit_14 11.5016999754905 1.40296144472397 10.0987385307666 -8.69577708604258 68
ARCN1 ARCN1 HuAgeGBsplit_14 11.7100581964719 1.38045745922545 10.3296007372465 -8.94914327802105 69
AL355300.1 AL355300.1 HuAgeGBsplit_14 10.8573557551543 1.37897352948487 9.47838222566942 -8.09940869618455 70
SCYL1 SCYL1 HuAgeGBsplit_14 12.792484177606 1.36985343640193 11.4226307412041 -10.0527773048022 71
TIGAR TIGAR HuAgeGBsplit_14 11.7164023053842 1.35686355181722 10.3595387535669 -9.00267520174972 72
HECTD2 HECTD2 HuAgeGBsplit_14 10.9372725089122 1.33756145541424 9.59971105349791 -8.26214959808368 73
SPATA19 SPATA19 HuAgeGBsplit_14 11.6721055224909 1.3347379043421 10.3373676181488 -9.00262971380668 74
BANF1 BANF1 HuAgeGBsplit_14 12.02522946903 1.27731520144019 10.7479142675898 -9.47059906614957 75
VPS26B VPS26B HuAgeGBsplit_14 11.4667188053405 1.26543100166595 10.2012878036745 -8.93585680200857 76
MYH3 MYH3 HuAgeGBsplit_14 11.1554983055619 1.24909875269225 9.9063995528696 -8.65730080017735 77
SINHCAF SINHCAF HuAgeGBsplit_14 10.8767738313969 1.24523145276368 9.6315423786332 -8.38631092586952 78
OTUB1 OTUB1 HuAgeGBsplit_14 11.3197451545105 1.22906705568847 10.0906780988221 -8.86161104313359 79
CPSF7 CPSF7 HuAgeGBsplit_14 11.6150030105329 1.22570342640191 10.389299584131 -9.16359615772909 80
EVX1 EVX1 HuAgeGBsplit_14 10.1776855049541 1.22039619781795 8.95728930713612 -7.73689310931816 81
AC091979.2 AC091979.2 HuAgeGBsplit_14 12.0500006013575 1.21969749786692 10.8303031034906 -9.61060560562371 82
MB MB HuAgeGBsplit_14 10.2355039970283 1.2132341875306 9.0222698094977 -7.80903562196711 83
ATP2A1 ATP2A1 HuAgeGBsplit_14 11.141984046475 1.19440512462991 9.94757892184509 -8.75317379721518 84
MSANTD2 MSANTD2 HuAgeGBsplit_14 11.3174380206225 1.19059501144154 10.126843009181 -8.93624799773942 85
FITM1 FITM1 HuAgeGBsplit_14 10.2769764876053 1.14281450817542 9.13416197942985 -7.99134747125443 86
PAFAH1B2 PAFAH1B2 HuAgeGBsplit_14 11.0913440714471 1.1329207582175 9.95842331322958 -8.82550255501208 87
RAD51AP2 RAD51AP2 HuAgeGBsplit_14 11.4299069464098 1.12588375063504 10.3040231957748 -9.17813944513976 88
NDUFS8 NDUFS8 HuAgeGBsplit_14 11.2543499473909 1.11344691902469 10.1409030283662 -9.02745610934152 89
SYVN1 SYVN1 HuAgeGBsplit_14 12.7396828730052 1.11191994913355 11.6277629238716 -10.5158429747381 90
PPP6R3 PPP6R3 HuAgeGBsplit_14 11.6388270537951 1.10885309863567 10.5299739551594 -9.42112085652371 91
MEN1 MEN1 HuAgeGBsplit_14 11.2643603064001 1.08080916409026 10.1835511423099 -9.10274197821959 92
RPUSD4 RPUSD4 HuAgeGBsplit_14 10.4972756564923 1.05938974612764 9.43788591036467 -8.37849616423703 93
SF3B2 SF3B2 HuAgeGBsplit_14 11.8254471967783 1.05931889602221 10.7661283007561 -9.70680940473387 94
EIF1AD EIF1AD HuAgeGBsplit_14 11.4792028034168 1.05654513604348 10.4226576673733 -9.36611253132986 95
DDB1 DDB1 HuAgeGBsplit_14 11.4411328366293 1.05128190308315 10.3898509335462 -9.33856903046303 96
AC008750.6 AC008750.6 HuAgeGBsplit_14 11.7242760835485 1.05056733841574 10.6737087451328 -9.62314140671702 97
LMOD2 LMOD2 HuAgeGBsplit_14 10.4101569477516 1.04919611086997 9.36096083688167 -8.3117647260117 98
ATP5MG ATP5MG HuAgeGBsplit_14 11.3203960247164 1.03217216850914 10.2882238562072 -9.25605168769811 99
TRMT112 TRMT112 HuAgeGBsplit_14 11.2176809754229 1.02496610937025 10.1927148660526 -9.16774875668238 100
SART1 SART1 HuAgeGBsplit_14 10.980959884295 1.02033028128581 9.96062960300924 -8.94029932172343 101
BUD13 BUD13 HuAgeGBsplit_14 11.5448638289506 1.0143396221663 10.5305242067843 -9.51618458461803 102
NAA40 NAA40 HuAgeGBsplit_14 11.4005368481172 1.00561275560902 10.3949240925081 -9.38931133689911 103
RELA RELA HuAgeGBsplit_14 12.017380316069 1.00446136537546 11.0129189506936 -10.0084575853181 104
LINC01115 LINC01115 HuAgeGBsplit_14 10.5697223917723 1.00150780897129 9.56821458280105 -8.56670677382976 105
RN7SL50P RN7SL50P HuAgeGBsplit_14 12.5120282151298 1.00072314388618 11.5113050712436 -10.5105819273574 106
CTTN CTTN HuAgeGBsplit_14 12.3864339381395 0.989095157420126 11.3973387807193 -10.4082436232992 107
ZNF202 ZNF202 HuAgeGBsplit_14 11.0001669907494 0.988628350287089 10.0115386404623 -9.02291029017521 108
HINFP HINFP HuAgeGBsplit_14 10.507726078494 0.984512382195742 9.52321369629827 -8.53870131410252 109
MARK2 MARK2 HuAgeGBsplit_14 10.9124798237102 0.973582029069735 9.93889779464044 -8.96531576557071 110
STIP1 STIP1 HuAgeGBsplit_14 11.8257588276004 0.969982975581944 10.8557758520185 -9.88579287643654 111
VPS11 VPS11 HuAgeGBsplit_14 11.3441184423411 0.969733753346163 10.374384688995 -9.40465093564882 112
EVX1-AS EVX1-AS HuAgeGBsplit_14 10.7992811581332 0.968969740128558 9.8303114180046 -8.86134167787604 113
IFT46 IFT46 HuAgeGBsplit_14 11.4671279053673 0.967937483554355 10.4991904218129 -9.53125293825859 114
KMT5B KMT5B HuAgeGBsplit_14 11.4191966526664 0.967133572114479 10.4520630805519 -9.48492950843739 115
FOXRED1 FOXRED1 HuAgeGBsplit_14 10.5119816592461 0.966477749072414 9.54550391017364 -8.57902616110123 116
CWC15 CWC15 HuAgeGBsplit_14 12.2055312573386 0.964907045502498 11.2406242118361 -10.2757171663336 117
GPR137 GPR137 HuAgeGBsplit_14 11.2774113797364 0.963320711479754 10.3140906682567 -9.35076995677692 118
LIN28B LIN28B HuAgeGBsplit_14 12.5804298257878 0.963142685653333 11.6172871401344 -10.6541444544811 119
DPAGT1 DPAGT1 HuAgeGBsplit_14 10.9861463869959 0.961468617892918 10.024677769103 -9.06320915121007 120
TTC9C TTC9C HuAgeGBsplit_14 11.4616570900073 0.956346346185594 10.5053107438217 -9.54896439763609 121
ZPR1 ZPR1 HuAgeGBsplit_14 11.5132506477492 0.954072196428262 10.5591784513209 -9.60510625489269 122
THYN1 THYN1 HuAgeGBsplit_14 11.0678924015373 0.953935448889607 10.1139569526477 -9.16002150375812 123
C11orf68 C11orf68 HuAgeGBsplit_14 11.3709343357762 0.950294681030797 10.4206396547454 -9.47034497371459 124
CUL5 CUL5 HuAgeGBsplit_14 11.3173688284192 0.948325987186653 10.3690428412325 -9.42071685404586 125
GANAB GANAB HuAgeGBsplit_14 11.3848320614127 0.944926014536257 10.4399060468765 -9.49498003234022 126
AC138965.3 AC138965.3 HuAgeGBsplit_14 10.5870166671592 0.944718588771184 9.64229807838804 -8.69757948961686 127
SRPRA SRPRA HuAgeGBsplit_14 11.1030901035695 0.943184711403067 10.1599053921664 -9.21672068076334 128
MUS81 MUS81 HuAgeGBsplit_14 11.8240139812971 0.941336087923061 10.882677893374 -9.94134180545097 129
THAP12 THAP12 HuAgeGBsplit_14 10.9239520002157 0.93772404650972 9.986227953706 -9.04850390719628 130
AC098828.2 AC098828.2 HuAgeGBsplit_14 10.2644165799794 0.934986501081573 9.32943007889779 -8.39444357781622 131
NDUFV1 NDUFV1 HuAgeGBsplit_14 11.719305541328 0.9272095461502 10.7920959951778 -9.86488644902758 132
STT3A STT3A HuAgeGBsplit_14 11.7878725574457 0.920150274070456 10.8677222833752 -9.94757200930476 133
AL121912.1 AL121912.1 HuAgeGBsplit_14 10.3151876225562 0.910783607352572 9.40440401520362 -8.49362040785105 134
FAM118B FAM118B HuAgeGBsplit_14 11.356632010599 0.905774258060305 10.4508577525387 -9.54508349447837 135
SPCS2 SPCS2 HuAgeGBsplit_14 11.0048328627529 0.90439404557331 10.1004388171796 -9.19604477160629 136
AC174048.1 AC174048.1 HuAgeGBsplit_14 11.1294803657353 0.903093705579896 10.2263866601554 -9.32329295457552 137
ACAT1 ACAT1 HuAgeGBsplit_14 10.9143415528949 0.9021484518324 10.0121931010625 -9.11004464923008 138
NCAPD3 NCAPD3 HuAgeGBsplit_14 11.1827662274058 0.898969744488781 10.283796482917 -9.38482673842821 139
TIMM8B TIMM8B HuAgeGBsplit_14 10.7947381189067 0.896785937391148 9.89795218151556 -9.00116624412441 140
DLAT DLAT HuAgeGBsplit_14 10.6696032661031 0.892251790317868 9.77735147578527 -8.8850996854674 141
LMOD3 LMOD3 HuAgeGBsplit_14 10.6503252548125 0.889544344260535 9.76078091055195 -8.87123656629141 142
HMBS HMBS HuAgeGBsplit_14 11.1717990537569 0.884527674536604 10.2872713792203 -9.40274370468367 143
ANKRD13D ANKRD13D HuAgeGBsplit_14 11.5396138575395 0.87360294562913 10.6660109119104 -9.79240796628124 144
TRPT1 TRPT1 HuAgeGBsplit_14 11.6040775513337 0.867529997908869 10.7365475534249 -9.86901755551599 145
RDX RDX HuAgeGBsplit_14 11.4098311490128 0.86675445213185 10.5430766968809 -9.67632224474909 146
USP28 USP28 HuAgeGBsplit_14 11.4511770115529 0.866674435172395 10.5845025763805 -9.71782814120814 147
OSBP OSBP HuAgeGBsplit_14 11.6982158115117 0.866536230657714 10.831679580854 -9.96514335019627 148
KLC2 KLC2 HuAgeGBsplit_14 11.4088692976935 0.866406564568561 10.5424627331249 -9.67605616855639 149
CEP164 CEP164 HuAgeGBsplit_14 11.4000706453063 0.855854762160361 10.544215883146 -9.68836112098563 150
CEP57 CEP57 HuAgeGBsplit_14 11.1640560907695 0.854136988956169 10.3099191018134 -9.45578211285721 151
PPP1CA PPP1CA HuAgeGBsplit_14 11.1138696783748 0.853809350970631 10.2600603274041 -9.40625097643351 152
ZNHIT2 ZNHIT2 HuAgeGBsplit_14 11.5300322125669 0.845278777763328 10.6847534348036 -9.83947465704025 153
PRPF19 PRPF19 HuAgeGBsplit_14 11.3299128734328 0.844116359270195 10.4857965141626 -9.64168015489241 154
B3GAT3 B3GAT3 HuAgeGBsplit_14 11.037110889526 0.841448162195788 10.1956627273302 -9.3542145651344 155
JAM3 JAM3 HuAgeGBsplit_14 11.4356261565855 0.837453716419456 10.5981724401661 -9.76071872374663 156
CLNS1A CLNS1A HuAgeGBsplit_14 11.0947061058275 0.830509035030768 10.2641970707968 -9.433688035766 157
FDX1 FDX1 HuAgeGBsplit_14 11.1258212935198 0.830129467993844 10.2956918255259 -9.46556235753206 158
SSSCA1 SSSCA1 HuAgeGBsplit_14 10.5110497697372 0.829823785033998 9.68122598470317 -8.85140219966917 159
FIBP FIBP HuAgeGBsplit_14 11.4554451588071 0.828606945159907 10.6268382136472 -9.7982312684873 160
TMEM126B TMEM126B HuAgeGBsplit_14 10.8207425245048 0.828046773955415 9.99269575054942 -9.16464897659401 161
AL024507.1 AL024507.1 HuAgeGBsplit_14 11.8670836956081 0.821920069253239 11.0451636263549 -10.2232435571016 162
EMSY EMSY HuAgeGBsplit_14 11.7541021346956 0.820812039800207 10.9332900948954 -10.1124780550952 163
AC004080.1 AC004080.1 HuAgeGBsplit_14 10.2161212663306 0.817254717349799 9.3988665489808 -8.581611831631 164
SYT8 SYT8 HuAgeGBsplit_14 11.4919514372124 0.815533185849817 10.6764182513626 -9.86088506551279 165
RAD51C RAD51C HuAgeGBsplit_14 10.4469088954476 0.811581014392201 9.63532788105542 -8.82374686666322 166
ACAD8 ACAD8 HuAgeGBsplit_14 10.8756507274618 0.810263362269271 10.0653873651925 -9.25512400292326 167
MTMR2 MTMR2 HuAgeGBsplit_14 10.7810236925078 0.80772360928312 9.97330008322465 -9.16557647394152 168
ZW10 ZW10 HuAgeGBsplit_14 11.0211882925957 0.802370076135915 10.2188182164598 -9.41644814032388 169
RTN3 RTN3 HuAgeGBsplit_14 10.9958881431087 0.799702796215388 10.1961853468933 -9.39648255067792 170
ACTA1 ACTA1 HuAgeGBsplit_14 9.90254807363185 0.799387337719406 9.10316073591244 -8.30377339819304 171
AC024651.1 AC024651.1 HuAgeGBsplit_14 9.94586067509823 0.798432799644741 9.14742787545349 -8.34899507580875 172
CCDC82 CCDC82 HuAgeGBsplit_14 10.8933818772329 0.793628593932727 10.0997532833001 -9.30612468936742 173
YIF1A YIF1A HuAgeGBsplit_14 11.4155275309088 0.792298510664357 10.6232290202444 -9.83093050958009 174
RNF121 RNF121 HuAgeGBsplit_14 10.6348148965323 0.78837310430048 9.84644179223186 -9.05806868793138 175
SDC1 SDC1 HuAgeGBsplit_14 10.4362135622592 0.786434646361568 9.6497789158976 -8.86334426953603 176
ROBO3 ROBO3 HuAgeGBsplit_14 10.6851724770349 0.780800977048354 9.90437149998659 -9.12357052293823 177
C2CD2L C2CD2L HuAgeGBsplit_14 10.5693256837016 0.778970588757601 9.79035509494403 -9.01138450618643 178
NFRKB NFRKB HuAgeGBsplit_14 10.580708852839 0.776836649244009 9.80387220359497 -9.02703555435096 179
TRAPPC4 TRAPPC4 HuAgeGBsplit_14 10.9556458441585 0.776404862673643 10.1792409814848 -9.40283611881118 180
FAM76B FAM76B HuAgeGBsplit_14 11.3752073719377 0.772658447186705 10.602548924751 -9.82989047756429 181
TMEM138 TMEM138 HuAgeGBsplit_14 11.3939443484746 0.769637375779406 10.6243069726952 -9.85466959691576 182
DOK7 DOK7 HuAgeGBsplit_14 11.4764607642961 0.76801028949916 10.708450474797 -9.94044018529783 183
TMEM25 TMEM25 HuAgeGBsplit_14 11.1943079958365 0.766241970668755 10.4280660251677 -9.66182405449894 184
POLR2G POLR2G HuAgeGBsplit_14 12.6202273819 0.758359756695626 11.8618676252044 -11.1035078685087 185
DCUN1D5 DCUN1D5 HuAgeGBsplit_14 10.2675478112845 0.754740337589371 9.51280747369517 -8.7580671361058 186
TMEM126A TMEM126A HuAgeGBsplit_14 10.3938589918595 0.754469757328425 9.63938923453104 -8.88491947720262 187
COA4 COA4 HuAgeGBsplit_14 11.3781317018945 0.754058540663064 10.6240731612314 -9.87001462056835 188
TRAV21 TRAV21 HuAgeGBsplit_14 10.2636931511827 0.753163512580938 9.51052963860173 -8.75736612602079 189
TNNT1 TNNT1 HuAgeGBsplit_14 11.0398525337103 0.751824229150342 10.28802830456 -9.53620407540966 190
BRMS1 BRMS1 HuAgeGBsplit_14 10.9434049659187 0.750002782113826 10.1934021838049 -9.44339940169103 191
JSRP1 JSRP1 HuAgeGBsplit_14 11.1036081318988 0.74268027695076 10.360927854948 -9.61824757799728 192
PCSK7 PCSK7 HuAgeGBsplit_14 10.9429734465462 0.741608584902075 10.2013648616441 -9.45975627674205 193
FEZ1 FEZ1 HuAgeGBsplit_14 10.8335894237043 0.737455051437985 10.0961343722663 -9.35867932082831 194
BIRC2 BIRC2 HuAgeGBsplit_14 11.3217991366073 0.736425966849723 10.5853731697575 -9.84894720290782 195
RSF1 RSF1 HuAgeGBsplit_14 11.1082773941628 0.724992039664585 10.3832853544982 -9.65829331483361 196
IGHMBP2 IGHMBP2 HuAgeGBsplit_14 10.586536098806 0.722306493435273 9.86422960537077 -9.1419231119355 197
BACE1 BACE1 HuAgeGBsplit_14 11.3785064278614 0.721308788311726 10.6571976395497 -9.93588885123794 198
MYLK4 MYLK4 HuAgeGBsplit_14 11.3966286845522 0.721228305103281 10.6754003794489 -9.95417207434564 199
H2AFX H2AFX HuAgeGBsplit_14 11.767786578124 0.718828378163111 11.0489581999609 -10.3301298217978 200
AC009531.1 AC009531.1 HuAgeGBsplit_14 10.7254846361193 0.717551585977258 10.0079330501421 -9.2903814641648 201
VPS37C VPS37C HuAgeGBsplit_14 10.5595637302182 0.717210972695072 9.84235275752312 -9.12514178482805 202
RNASEH2C RNASEH2C HuAgeGBsplit_14 10.3899229818708 0.714278415124565 9.6756445667462 -8.96136615162164 203
RBM4B RBM4B HuAgeGBsplit_14 11.1676298769109 0.714178905936758 10.4534509709742 -9.73927206503741 204
STX5 STX5 HuAgeGBsplit_14 11.0689063111628 0.713062493257942 10.3558438179048 -9.64278132464689 205
MSANTD4 MSANTD4 HuAgeGBsplit_14 10.5082745970723 0.71168711720486 9.79658747986745 -9.08490036266259 206
UBXN1 UBXN1 HuAgeGBsplit_14 11.9765258782614 0.711178107947978 11.2653477703134 -10.5541696623655 207
B4GAT1 B4GAT1 HuAgeGBsplit_14 11.0986435218875 0.70872133452911 10.3899221873584 -9.68120085282927 208
FKBP2 FKBP2 HuAgeGBsplit_14 10.7878956204788 0.707315091219372 10.0805805292595 -9.37326543804011 209
CORO1B CORO1B HuAgeGBsplit_14 12.6109178459172 0.706198771125152 11.904719074792 -11.1985203036669 210
CDK2AP2 CDK2AP2 HuAgeGBsplit_14 11.2481644904974 0.705806930072288 10.5423575604252 -9.83655063035287 211
PACS1 PACS1 HuAgeGBsplit_14 11.8533867000895 0.701864079574996 11.1515226205146 -10.4496585409396 212
HIKESHI HIKESHI HuAgeGBsplit_14 10.5769785732315 0.693218395679489 9.88376017755205 -9.19054178187256 213
DCPS DCPS HuAgeGBsplit_14 10.4017249519776 0.691732348679366 9.70999260329822 -9.01826025461885 214
INTS5 INTS5 HuAgeGBsplit_14 10.7861425030577 0.691425298167247 10.0947172048904 -9.40329190672318 215
LINC00930 LINC00930 HuAgeGBsplit_14 10.5450700861788 0.690895746535762 9.85417433964303 -9.16327859310727 216
HOXB2 HOXB2 HuAgeGBsplit_14 10.7980606776316 0.687538870343999 10.1105218072876 -9.42298293694357 217
TMEM134 TMEM134 HuAgeGBsplit_14 12.3062776746199 0.687350769629917 11.61892690499 -10.9315761353601 218
ZDHHC24 ZDHHC24 HuAgeGBsplit_14 11.2311562473112 0.687090763891155 10.54406548342 -9.85697471952887 219
TMEM218 TMEM218 HuAgeGBsplit_14 11.2364529067099 0.684840452403101 10.5516124543068 -9.86677200190374 220
HOXB-AS1 HOXB-AS1 HuAgeGBsplit_14 10.7717018982045 0.684104143810841 10.0875977543936 -9.40349361058278 221
NPAT NPAT HuAgeGBsplit_14 11.8017841630736 0.683584083393268 11.1182000796803 -10.434615996287 222
WDR74 WDR74 HuAgeGBsplit_14 11.0650340535276 0.681477352028661 10.383556701499 -9.7020793494703 223
SNX19 SNX19 HuAgeGBsplit_14 10.340456550776 0.680818924339902 9.65963762643607 -8.97881870209616 224
PPP1R3C PPP1R3C HuAgeGBsplit_14 10.2106370374284 0.68081178059465 9.52982525683377 -8.84901347623912 225
MTA2 MTA2 HuAgeGBsplit_14 11.5513651606694 0.678383571529557 10.8729815891398 -10.1945980176103 226
SF1 SF1 HuAgeGBsplit_14 11.6771438426669 0.677807798962319 10.9993360437046 -10.3215282447423 227
ORAOV1 ORAOV1 HuAgeGBsplit_14 10.7380883639624 0.677012879347257 10.0610754846151 -9.38406260526789 228
ADIG ADIG HuAgeGBsplit_14 11.6853119450432 0.676973790714728 11.0083381543285 -10.3313643636138 229
PC PC HuAgeGBsplit_14 10.5723854727549 0.675618418773397 9.89676705398155 -9.22114863520815 230
SPINDOC SPINDOC HuAgeGBsplit_14 11.5928039481287 0.67413644781308 10.9186675003156 -10.2445310525026 231
ZBTB44 ZBTB44 HuAgeGBsplit_14 10.7085146986312 0.66465742963572 10.0438572689954 -9.37919983935971 232
IGHVII-30-1 IGHVII-30-1 HuAgeGBsplit_14 11.7934217032875 0.660164517321057 11.1332571859664 -10.4730926686453 233
REXO2 REXO2 HuAgeGBsplit_14 10.8555634817328 0.65679645691363 10.1987670248192 -9.54197056790553 234
VEGFB VEGFB HuAgeGBsplit_14 10.4890538572809 0.656193517129832 9.83286034015111 -9.17666682302128 235
PRDX5 PRDX5 HuAgeGBsplit_14 11.5058809458819 0.652657052186282 10.8532238936956 -10.2005668415093 236
DDX10 DDX10 HuAgeGBsplit_14 10.9099702133522 0.649539900979119 10.2604303123731 -9.610890411394 237
VPS51 VPS51 HuAgeGBsplit_14 10.7128658994191 0.64511446701162 10.0677514324075 -9.42263696539583 238
DRAP1 DRAP1 HuAgeGBsplit_14 11.2019960491676 0.64443955555972 10.5575564936079 -9.91311693804818 239
AIP AIP HuAgeGBsplit_14 10.9328746781051 0.642836743289257 10.2900379348158 -9.64720119152654 240
MRE11 MRE11 HuAgeGBsplit_14 11.2676677028525 0.641104713220991 10.6265629896315 -9.98545827641052 241
CLPB CLPB HuAgeGBsplit_14 10.4891819738853 0.638962974171238 9.85021899971411 -9.21125602554287 242
TNNC1 TNNC1 HuAgeGBsplit_14 10.070590983639 0.638027186840522 9.43256379679849 -8.79453660995796 243
ACER3 ACER3 HuAgeGBsplit_14 11.169345030998 0.627450664016137 10.5418943669819 -9.91444370296577 244
POLA2 POLA2 HuAgeGBsplit_14 10.6972333036803 0.620392076736499 10.0768412269438 -9.45644915020732 245
AC209005.1 AC209005.1 HuAgeGBsplit_14 12.292452013421 0.617125996072386 11.6753260173486 -11.0582000212762 246
EBF3 EBF3 HuAgeGBsplit_14 10.1245166847138 0.614681937733847 9.50983474697991 -8.89515280924606 247
ALG9 ALG9 HuAgeGBsplit_14 10.7024241747961 0.61455813090069 10.0878660438954 -9.47330791299475 248
APLP2 APLP2 HuAgeGBsplit_14 11.1458847529809 0.606623605045117 10.5392611479358 -9.93263754289066 249
ANKRD49 ANKRD49 HuAgeGBsplit_14 10.8938733807506 0.604611052220443 10.2892623285301 -9.68465127630969 250
GAL3ST3 GAL3ST3 HuAgeGBsplit_14 11.1290650647661 0.60132793560274 10.5277371291634 -9.92640919356066 251
NCAM1 NCAM1 HuAgeGBsplit_14 10.2851601667547 0.601079799899252 9.68408036685541 -9.08300056695616 252
CCND2-AS1 CCND2-AS1 HuAgeGBsplit_14 10.337262750919 0.596974642595395 9.74028810832357 -9.14331346572818 253
RAD9A RAD9A HuAgeGBsplit_14 11.2384456230861 0.594713348899787 10.6437322741863 -10.0490189252866 254
PRDM10 PRDM10 HuAgeGBsplit_14 12.1527649743432 0.593439360524641 11.5593256138185 -10.9658862532939 255
CBL CBL HuAgeGBsplit_14 11.0830169310242 0.590992189023321 10.4920247420009 -9.90103255297759 256
CEP295 CEP295 HuAgeGBsplit_14 11.6685148055754 0.589934132532123 11.0785806730433 -10.4886465405112 257
ALKBH8 ALKBH8 HuAgeGBsplit_14 11.0463591509322 0.589475163097879 10.4568839878344 -9.86740882473648 258
AC024940.3 AC024940.3 HuAgeGBsplit_14 9.59990431695709 0.589112768988569 9.01079154796852 -8.42167877897995 259
MRPL11 MRPL11 HuAgeGBsplit_14 10.942739798046 0.587273640662998 10.355466157383 -9.76819251672005 260
CCDC84 CCDC84 HuAgeGBsplit_14 10.9416442132673 0.585716471367441 10.3559277418999 -9.77021127053243 261
C2CD3 C2CD3 HuAgeGBsplit_14 11.7725984822964 0.584602519916728 11.1879959623796 -10.6033934424629 262
MIR1-1HG-AS1 MIR1-1HG-AS1 HuAgeGBsplit_14 10.772887430205 0.580547854982397 10.1923395752226 -9.61179172024018 263
CCDC90B CCDC90B HuAgeGBsplit_14 10.642514834779 0.576029202909237 10.0664856318698 -9.49045642896052 264
FO538757.1 FO538757.1 HuAgeGBsplit_14 9.71105805358782 0.573919634813691 9.13713841877413 -8.56321878396044 265
C14orf39 C14orf39 HuAgeGBsplit_14 11.7997378860533 0.572430113080979 11.2273077729723 -10.6548776598914 266
ARRDC4 ARRDC4 HuAgeGBsplit_14 10.3446165224614 0.572051425123113 9.77256509733831 -9.20051367221519 267
BCL9L BCL9L HuAgeGBsplit_14 10.6796024342674 0.569265361367565 10.1103370728998 -9.54107171153226 268
SIDT2 SIDT2 HuAgeGBsplit_14 10.3854355919069 0.562746421867737 9.82268917003912 -9.25994274817138 269
DPP3 DPP3 HuAgeGBsplit_14 10.8772919437716 0.561897154442693 10.3153947893289 -9.75349763488617 270
RCE1 RCE1 HuAgeGBsplit_14 10.4929100891786 0.560991663182497 9.9319184259961 -9.37092676281361 271
ENDOD1 ENDOD1 HuAgeGBsplit_14 10.5946769685012 0.560498198679271 10.0341787698219 -9.47368057114263 272
TAF1D TAF1D HuAgeGBsplit_14 10.9290562493405 0.559401223575475 10.369655025765 -9.81025380218955 273
MRPL16 MRPL16 HuAgeGBsplit_14 10.9596704411589 0.559139235196234 10.4005312059627 -9.84139197076647 274
CHORDC1 CHORDC1 HuAgeGBsplit_14 10.4960130087347 0.555613250972869 9.94039975776181 -9.38478650678894 275
MRPL48 MRPL48 HuAgeGBsplit_14 11.074728342977 0.552068716363888 10.5226596266131 -9.97059091024918 276
TM7SF2 TM7SF2 HuAgeGBsplit_14 10.721714572028 0.551788922342867 10.1699256496851 -9.61813672734224 277
SRSF8 SRSF8 HuAgeGBsplit_14 10.8578141671204 0.549465819135811 10.3083483479846 -9.75888252884881 278
CEP126 CEP126 HuAgeGBsplit_14 10.2952454389978 0.549452677855235 9.74579276114253 -9.19634008328729 279
ARHGEF12 ARHGEF12 HuAgeGBsplit_14 10.4603959217639 0.549399741181006 9.91099618058294 -9.36159643940193 280
TRAV20 TRAV20 HuAgeGBsplit_14 9.32016645847163 0.5485374420073 8.77162901646433 -8.22309157445703 281
OR11H13P OR11H13P HuAgeGBsplit_14 10.3269152906801 0.546629279323549 9.78028601135658 -9.23365673203303 282
CTBP2P4 CTBP2P4 HuAgeGBsplit_14 10.749603257747 0.546595160609379 10.2030080971377 -9.65641293652827 283
EED EED HuAgeGBsplit_14 10.7374173081781 0.544916246161615 10.1925010620165 -9.64758481585489 284
AC087650.1 AC087650.1 HuAgeGBsplit_14 10.1667042800716 0.541864706411654 9.62483957365991 -9.08297486724826 285
PPP2R1B PPP2R1B HuAgeGBsplit_14 10.4496872343375 0.539528316456477 9.91015891788104 -9.37063060142456 286
NEB NEB HuAgeGBsplit_14 10.8433848140092 0.537661248227454 10.3057235657818 -9.7680623175543 287
WASH6P WASH6P HuAgeGBsplit_14 10.3146706073575 0.536294941526646 9.77837566583087 -9.24208072430422 288
JRKL JRKL HuAgeGBsplit_14 10.7086619924973 0.535739882398323 10.1729221100989 -9.63718222770062 289
KRT5 KRT5 HuAgeGBsplit_14 10.4371467134258 0.53502218492504 9.9021245285008 -9.36710234357576 290
PPP1R14B PPP1R14B HuAgeGBsplit_14 11.1633242575805 0.534044130758072 10.6292801268224 -10.0952359960643 291
AL133466.1 AL133466.1 HuAgeGBsplit_14 9.72598776452906 0.533186878763099 9.19280088576596 -8.65961400700286 292
TMEM223 TMEM223 HuAgeGBsplit_14 10.9563171561434 0.532534371572282 10.4237827845711 -9.89124841299883 293
EML3 EML3 HuAgeGBsplit_14 11.4388564581546 0.530166535793418 10.9086899223612 -10.3785233865678 294
CHEK1 CHEK1 HuAgeGBsplit_14 10.6673436126915 0.524242260316153 10.1431013523753 -9.61885909205915 295
HEPACAM HEPACAM HuAgeGBsplit_14 10.3458960261417 0.522278154652008 9.82361787148973 -9.30133971683773 296
PATL1 PATL1 HuAgeGBsplit_14 11.6656883612847 0.521953547948109 11.1437348133365 -10.6217812653884 297
RNU6-336P RNU6-336P HuAgeGBsplit_14 11.2201025981149 0.521703232225248 10.6983993658896 -10.1766961336644 298
AC079148.1 AC079148.1 HuAgeGBsplit_14 9.67477812553209 0.521371268808624 9.15340685672347 -8.63203558791485 299
MAP3K11 MAP3K11 HuAgeGBsplit_14 10.8714982468294 0.521248842197405 10.350249404632 -9.82900056243458 300
INPPL1 INPPL1 HuAgeGBsplit_14 10.9283456863246 0.518283143061404 10.4100625432632 -9.8917794002018 301
GVQW3 GVQW3 HuAgeGBsplit_14 10.3065207363925 0.518092837883745 9.78842789850875 -9.27033506062501 302
PTS PTS HuAgeGBsplit_14 10.868689134044 0.516079475641048 10.352609658403 -9.83653018276194 303
SLC25A18P1 SLC25A18P1 HuAgeGBsplit_14 10.0028628167347 0.515977817765106 9.48688499896956 -8.97090718120446 304
AP001458.2 AP001458.2 HuAgeGBsplit_14 9.92700396162969 0.514676505951261 9.41232745567843 -8.89765094972717 305
AP001318.2 AP001318.2 HuAgeGBsplit_14 10.7437022982546 0.514060545059932 10.2296417531947 -9.71558120813476 306
NADSYN1 NADSYN1 HuAgeGBsplit_14 10.9906408264682 0.513366967893084 10.4772738585751 -9.96390689068205 307
AP003486.1 AP003486.1 HuAgeGBsplit_14 10.391518930593 0.512393515221293 9.87912541537168 -9.36673190015039 308
KAT5 KAT5 HuAgeGBsplit_14 11.3337287364544 0.511946521262823 10.8217822151916 -10.3098356939288 309
TKFC TKFC HuAgeGBsplit_14 10.7140823447901 0.509967251085814 10.2041150937043 -9.69414784261847 310
AASDHPPT AASDHPPT HuAgeGBsplit_14 10.7479220646128 0.509418004427734 10.2385040601851 -9.72908605575732 311
PAAF1 PAAF1 HuAgeGBsplit_14 10.7084259119428 0.507031385435301 10.2013945265075 -9.69436314107222 312
C11orf1 C11orf1 HuAgeGBsplit_14 10.4546256894269 0.506674248631913 9.94795144079497 -9.44127719216305 313
NUDT22 NUDT22 HuAgeGBsplit_14 9.94660724360999 0.503023453534338 9.44358379007565 -8.94056033654132 314
SLC36A4 SLC36A4 HuAgeGBsplit_14 10.2369088988965 0.50158574043755 9.73532315845895 -9.2337374180214 315
RAB6A RAB6A HuAgeGBsplit_14 10.0515937878332 0.500947795474577 9.55064599235865 -9.04969819688407 316
FAM168A FAM168A HuAgeGBsplit_14 10.6169249798823 0.499066890261245 10.1178580896211 -9.61879119935985 317
AL161629.1 AL161629.1 HuAgeGBsplit_14 11.166368666244 0.497151873174902 10.6692167930691 -10.1720649198942 318
AC015722.2 AC015722.2 HuAgeGBsplit_14 9.574618592278 0.494582030509573 9.08003656176842 -8.58545453125885 319
TMEM136 TMEM136 HuAgeGBsplit_14 10.5223164739468 0.492363111642939 10.0299533623038 -9.53759025066088 320
BAD BAD HuAgeGBsplit_14 10.8448256209641 0.491264323551374 10.3535612974127 -9.86229697386133 321
PIH1D2 PIH1D2 HuAgeGBsplit_14 10.4664994892849 0.490646376071112 9.97585311321379 -9.48520673714268 322
POLD3 POLD3 HuAgeGBsplit_14 10.984606415087 0.484464632556145 10.5001417825309 -10.0156771499747 323
C11orf71 C11orf71 HuAgeGBsplit_14 10.3376948811286 0.483910194171992 9.85378468695666 -9.36987449278467 324
GSEC GSEC HuAgeGBsplit_14 10.7365818455562 0.482248163514307 10.2543336820419 -9.77208551852757 325
MYOD1 MYOD1 HuAgeGBsplit_14 9.23778494118087 0.47980487786992 8.75798006331095 -8.27817518544103 326
CCDC15 CCDC15 HuAgeGBsplit_14 11.1080665436831 0.478755259030824 10.6293112846523 -10.1505560256215 327
NUMA1 NUMA1 HuAgeGBsplit_14 10.4863547315319 0.474403838558201 10.0119508929737 -9.53754705441547 328
SIK2 SIK2 HuAgeGBsplit_14 10.2817117957623 0.471633925890428 9.81007786987186 -9.33844394398144 329
RF00593 RF00593 HuAgeGBsplit_14 9.62135306179038 0.471073271615161 9.15027979017522 -8.67920651856006 330
PPP2R5B PPP2R5B HuAgeGBsplit_14 10.938536211485 0.470448898172391 10.4680873133126 -9.99763841514025 331
TIRAP TIRAP HuAgeGBsplit_14 10.8278887177626 0.465083496828458 10.3628052209341 -9.89772172410565 332
RPL35AP33 RPL35AP33 HuAgeGBsplit_14 10.3105643562251 0.461902079152731 9.84866227707241 -9.38676019791968 333
AC118658.1 AC118658.1 HuAgeGBsplit_14 9.77495298811048 0.458895540983809 9.31605744712667 -8.85716190614286 334
PLIN5 PLIN5 HuAgeGBsplit_14 9.82990543618472 0.458772301296022 9.3711331348887 -8.91236083359268 335
USP35 USP35 HuAgeGBsplit_14 10.8048077111788 0.456399639909747 10.348408071269 -9.89200843135926 336
AC090136.1 AC090136.1 HuAgeGBsplit_14 10.0281481577872 0.454773693840302 9.57337446394694 -9.11860077010664 337
MRPL21 MRPL21 HuAgeGBsplit_14 10.6264785113832 0.452245082201458 10.1742334291818 -9.72198834698033 338
SYNPO2L SYNPO2L HuAgeGBsplit_14 9.53305255487598 0.451248934831698 9.08180362004428 -8.63055468521259 339
AAMDC AAMDC HuAgeGBsplit_14 10.2501388343168 0.450739717195986 9.79939911712078 -9.34865939992479 340
GSTP1 GSTP1 HuAgeGBsplit_14 10.5089592298741 0.449690769799326 10.0592684600748 -9.60957769027545 341
LINC01983 LINC01983 HuAgeGBsplit_14 10.3605004629158 0.449306101576061 9.91119436133972 -9.46188825976366 342
TMEM258 TMEM258 HuAgeGBsplit_14 10.8050619605747 0.447165092713918 10.3578968678608 -9.91073177514684 343
SIK3 SIK3 HuAgeGBsplit_14 11.0491071629042 0.446588043175643 10.6025191197286 -10.1559310765529 344
AC019176.1 AC019176.1 HuAgeGBsplit_14 10.5289692282857 0.439281758289094 10.0896874699966 -9.65040571170753 345
RNU5E-9P RNU5E-9P HuAgeGBsplit_14 9.13990270197099 0.437847007065304 8.70205569490569 -8.26420868784039 346
INCENP INCENP HuAgeGBsplit_14 10.6646897683638 0.437643052837106 10.2270467155267 -9.78940366268961 347
ZNF556 ZNF556 HuAgeGBsplit_14 10.8237810525951 0.436716649999622 10.3870644025954 -9.95034775259582 348
RBM24 RBM24 HuAgeGBsplit_14 10.4777127588614 0.42645510477235 10.0512576540891 -9.62480254931673 349
MYCN MYCN HuAgeGBsplit_14 9.98321186294569 0.425754707203924 9.55745715574177 -9.13170244853784 350
SLC25A47P1 SLC25A47P1 HuAgeGBsplit_14 9.50992924704784 0.424944820272405 9.08498442677543 -8.66003960650303 351
CCDC58P2 CCDC58P2 HuAgeGBsplit_14 10.990695234761 0.42434800306383 10.5663472316971 -10.1419992286333 352
RPS19P1 RPS19P1 HuAgeGBsplit_14 9.66025108653392 0.422329042039484 9.23792204449444 -8.81559300245496 353
PPME1 PPME1 HuAgeGBsplit_14 10.4173492269863 0.421481648946591 9.99586757803968 -9.57438592909309 354
AL359198.2 AL359198.2 HuAgeGBsplit_14 10.6570304540973 0.41728763440102 10.2397428196962 -9.82245518529522 355
TMEM216 TMEM216 HuAgeGBsplit_14 10.3419917648633 0.414649511260163 9.92734225360317 -9.512692742343 356
CADM1 CADM1 HuAgeGBsplit_14 10.5059165564411 0.409450446553455 10.0964661098877 -9.68701566333424 357
NHLH2 NHLH2 HuAgeGBsplit_14 10.0954226919209 0.407751459930465 9.68767123199041 -9.27991977205995 358
SIAE SIAE HuAgeGBsplit_14 9.77484493218681 0.406211463222735 9.36863346896408 -8.96242200574134 359
LRRC37A13P LRRC37A13P HuAgeGBsplit_14 9.10807777465711 0.40600066295182 8.70207711170529 -8.29607644875347 360
GAPDHP1 GAPDHP1 HuAgeGBsplit_14 9.84178735367985 0.404751056462408 9.43703629721744 -9.03228524075503 361
MYL2 MYL2 HuAgeGBsplit_14 9.72692015667936 0.398980255095092 9.32793990158427 -8.92895964648917 362
AC006372.4 AC006372.4 HuAgeGBsplit_14 10.261307815354 0.395784622305049 9.86552319304894 -9.46973857074389 363
AC131235.1 AC131235.1 HuAgeGBsplit_14 9.23682174488823 0.395512845749934 8.84130889913829 -8.44579605338836 364
SNHG1 SNHG1 HuAgeGBsplit_14 11.5823665494587 0.394878660535085 11.1874878889236 -10.7926092283885 365
DRG2 DRG2 HuAgeGBsplit_14 9.99672474803031 0.394392268880007 9.6023324791503 -9.20794021027029 366
FGF21 FGF21 HuAgeGBsplit_14 11.136525599765 0.392180647400629 10.7443449523644 -10.3521643049638 367
AC004832.6 AC004832.6 HuAgeGBsplit_14 9.62689417529487 0.39179462668671 9.23509954860816 -8.84330492192145 368
FAM89B FAM89B HuAgeGBsplit_14 10.3070122671801 0.390708022961616 9.91630424421851 -9.52559622125689 369
ZFPL1 ZFPL1 HuAgeGBsplit_14 10.1564018990985 0.389905447868635 9.76649645122988 -9.37659100336125 370
ARHGAP32 ARHGAP32 HuAgeGBsplit_14 10.399072745402 0.388353483259172 10.0107192621429 -9.6223657788837 371
RPLP0P1 RPLP0P1 HuAgeGBsplit_14 9.75024010365294 0.386790863158176 9.36344924049476 -8.97665837733659 372
WASH2P WASH2P HuAgeGBsplit_14 10.1794585770985 0.383460892529386 9.79599768456914 -9.41253679203975 373
AL356095.1 AL356095.1 HuAgeGBsplit_14 9.21868652590369 0.381784580271459 8.83690194563223 -8.45511736536077 374
HRC HRC HuAgeGBsplit_14 9.91889839857373 0.380185735542319 9.53871266303141 -9.1585269274891 375
ACAD9 ACAD9 HuAgeGBsplit_14 10.0101445202026 0.377672059632056 9.63247246057059 -9.25480040093854 376
ROM1 ROM1 HuAgeGBsplit_14 10.9141530787744 0.376776531337112 10.5373765474373 -10.1606000161002 377
PLIN4 PLIN4 HuAgeGBsplit_14 10.2710910134299 0.376149576280134 9.89494143714977 -9.51879186086963 378
APOL5 APOL5 HuAgeGBsplit_14 10.0145549434152 0.375314824209977 9.63924011920525 -9.26392529499527 379
ACRV1 ACRV1 HuAgeGBsplit_14 10.1543149561485 0.374788228542554 9.77952672760596 -9.4047384990634 380
BUD13P1 BUD13P1 HuAgeGBsplit_14 10.5018045353701 0.374752583597669 10.1270519517724 -9.75229936817476 381
DIXDC1 DIXDC1 HuAgeGBsplit_14 10.019697728435 0.374673354835841 9.64502437359921 -9.27035101876336 382
ST3GAL4 ST3GAL4 HuAgeGBsplit_14 11.3262437967108 0.373169889948379 10.9530739067624 -10.579904016814 383
ZNF80 ZNF80 HuAgeGBsplit_14 9.64286881581177 0.370151207248475 9.2727176085633 -8.90256640131483 384
AC007547.2 AC007547.2 HuAgeGBsplit_14 9.69825289737721 0.369083066795843 9.32916983058136 -8.96008676378552 385
AL512343.1 AL512343.1 HuAgeGBsplit_14 10.9826714674902 0.365604745353097 10.6170667221371 -10.251461976784 386
YY1P2 YY1P2 HuAgeGBsplit_14 9.31641548424449 0.365475423685107 8.95094006055938 -8.58546463687427 387
SPA17 SPA17 HuAgeGBsplit_14 11.14682914793 0.364076401303458 10.7827527466266 -10.4186763453231 388
AP000842.3 AP000842.3 HuAgeGBsplit_14 9.95898148626144 0.364070436681089 9.59491104958035 -9.23084061289926 389
NHLH1 NHLH1 HuAgeGBsplit_14 9.5961296839084 0.363149870743424 9.23297981316497 -8.86982994242155 390
CWF19L2 CWF19L2 HuAgeGBsplit_14 10.815283267743 0.361635961720165 10.4536473060228 -10.0920113443027 391
EIF5AL1 EIF5AL1 HuAgeGBsplit_14 9.44744439848008 0.361134604507031 9.08630979397305 -8.72517518946602 392
CYS1 CYS1 HuAgeGBsplit_14 10.5355927795944 0.360722046971069 10.1748707326234 -9.8141486856523 393
ADGRG5 ADGRG5 HuAgeGBsplit_14 10.7963512098758 0.360066104957796 10.436285104918 -10.0762189999602 394
TWIST1 TWIST1 HuAgeGBsplit_14 10.5053801776125 0.359688401386721 10.1456917762258 -9.7860033748391 395
OXT OXT HuAgeGBsplit_14 10.3325949321795 0.358741929694703 9.97385300248475 -9.61511107279005 396
AP002748.3 AP002748.3 HuAgeGBsplit_14 9.98161543411449 0.357856655473143 9.62375877864135 -9.2659021231682 397
RPL5P34 RPL5P34 HuAgeGBsplit_14 9.88993859498927 0.357816683428497 9.53212191156078 -9.17430522813228 398
IGHJ3P IGHJ3P HuAgeGBsplit_14 9.61615175619668 0.354989832795337 9.26116192340134 -8.906172090606 399
KBTBD3 KBTBD3 HuAgeGBsplit_14 9.78455860586277 0.353335949178367 9.4312226566844 -9.07788670750604 400
AC008429.2 AC008429.2 HuAgeGBsplit_14 11.8030786279904 0.352169782934367 11.4509088450561 -11.0987390621217 401
EMC10 EMC10 HuAgeGBsplit_14 10.2928370940685 0.351409585901034 9.94142750816749 -9.59001792226645 402
EIF4A1P5 EIF4A1P5 HuAgeGBsplit_14 10.3466238454915 0.350829367892906 9.99579447759861 -9.6449651097057 403
ARL17A ARL17A HuAgeGBsplit_14 9.94175822367319 0.345803604853299 9.59595461881989 -9.2501510139666 404
HOXB7 HOXB7 HuAgeGBsplit_14 9.64780888146525 0.344328227838675 9.30348065362657 -8.9591524257879 405
AP000593.2 AP000593.2 HuAgeGBsplit_14 9.64699113985628 0.336804236547037 9.31018690330924 -8.97338266676221 406
CTSF CTSF HuAgeGBsplit_14 9.91149025741853 0.336548324548921 9.57494193286961 -9.23839360832069 407
PATE2 PATE2 HuAgeGBsplit_14 10.055906863521 0.329474593562964 9.72643226995801 -9.39695767639505 408
AL592504.1 AL592504.1 HuAgeGBsplit_14 9.67870701080981 0.329007017821109 9.3496999929887 -9.02069297516759 409
PLCB3 PLCB3 HuAgeGBsplit_14 10.4793415618101 0.329004302011629 10.1503372597985 -9.82133295778689 410
MAP4K2 MAP4K2 HuAgeGBsplit_14 11.1540137150689 0.32857854398218 10.8254351710867 -10.4968566271045 411
KLHL35 KLHL35 HuAgeGBsplit_14 9.9551726022399 0.324387244943801 9.6307853572961 -9.3063981123523 412
FGFR4 FGFR4 HuAgeGBsplit_14 10.2554861363096 0.32416752966352 9.93131860664606 -9.60715107698254 413
VGLL2 VGLL2 HuAgeGBsplit_14 11.1340896124841 0.323642295560795 10.8104473169233 -10.4868050213625 414
KIF19 KIF19 HuAgeGBsplit_14 9.9592455396169 0.316588408430175 9.64265713118673 -9.32606872275655 415
AC003986.3 AC003986.3 HuAgeGBsplit_14 10.6255809923764 0.316100711798447 10.309480280578 -9.99337956877954 416
RN7SL824P RN7SL824P HuAgeGBsplit_14 9.25861018374124 0.310578278731117 8.94803190501012 -8.637453626279 417
UCP3 UCP3 HuAgeGBsplit_14 10.5803029750348 0.308404864533664 10.2718981105011 -9.96349324596747 418
AC008982.1 AC008982.1 HuAgeGBsplit_14 10.6800826910468 0.305611258843831 10.374471432203 -10.0688601733592 419
ITGB1BP2 ITGB1BP2 HuAgeGBsplit_14 9.29424563876961 0.304924630113759 8.98932100865585 -8.68439637854209 420
AC125232.1 AC125232.1 HuAgeGBsplit_14 9.80419067696996 0.304795573471458 9.49939510349851 -9.19459953002705 421
AP001267.2 AP001267.2 HuAgeGBsplit_14 9.29479748328301 0.303953094008357 8.99084438927465 -8.68689129526629 422
AC107027.1 AC107027.1 HuAgeGBsplit_14 9.41575991535777 0.302374887274925 9.11338502808285 -8.81101014080792 423
KLHL13 KLHL13 HuAgeGBsplit_14 9.61111554461976 0.298469530789777 9.31264601382998 -9.01417648304021 424
COX6A2 COX6A2 HuAgeGBsplit_14 9.39549519852139 0.298197113081476 9.09729808543992 -8.79910097235844 425
UQCC3 UQCC3 HuAgeGBsplit_14 9.64595089813281 0.297164410721926 9.34878648741088 -9.05162207668896 426
FIRRE FIRRE HuAgeGBsplit_14 10.0048818186442 0.297018168023278 9.70786365062092 -9.41084548259764 427
AC091132.5 AC091132.5 HuAgeGBsplit_14 9.43646078160514 0.295418840871187 9.14104194073396 -8.84562309986277 428
CACNA2D1 CACNA2D1 HuAgeGBsplit_14 9.50216909793825 0.293698977252464 9.20847012068579 -8.91477114343333 429
NDUFB4P8 NDUFB4P8 HuAgeGBsplit_14 9.97153245986605 0.292666619802466 9.67886584006358 -9.38619922026111 430
AL109615.1 AL109615.1 HuAgeGBsplit_14 9.64047800368692 0.289979821928794 9.35049818175812 -9.06051835982933 431
RNU6-562P RNU6-562P HuAgeGBsplit_14 8.79612543771997 0.289311491625003 8.50681394609497 -8.21750245446996 432
AP000787.2 AP000787.2 HuAgeGBsplit_14 9.63191095495702 0.287943108770093 9.34396784618692 -9.05602473741683 433
TNNI3 TNNI3 HuAgeGBsplit_14 10.5245174798409 0.286513720734977 10.238003759106 -9.95149003837098 434
AL161669.2 AL161669.2 HuAgeGBsplit_14 9.19845895329842 0.283601746427539 8.91485720687088 -8.63125546044335 435
SUV39H1 SUV39H1 HuAgeGBsplit_14 9.94588064084669 0.282257192192454 9.66362344865423 -9.38136625646178 436
AL049873.1 AL049873.1 HuAgeGBsplit_14 9.22787621647468 0.280188904950635 8.94768731152404 -8.66749840657341 437
AL157884.1 AL157884.1 HuAgeGBsplit_14 10.1976568812742 0.277370141058952 9.92028674021525 -9.6429165991563 438
AC073941.2 AC073941.2 HuAgeGBsplit_14 10.3019026928459 0.276765128222412 10.0251375646235 -9.74837243640109 439
ATRX ATRX HuAgeGBsplit_14 9.53161954199604 0.276741596720424 9.25487794527562 -8.97813634855519 440
SLC49A3 SLC49A3 HuAgeGBsplit_14 9.2524391124953 0.276654296796346 8.97578481569896 -8.69913051890261 441
RNU2-15P RNU2-15P HuAgeGBsplit_14 8.91867543840537 0.276137803767958 8.64253763463742 -8.36639983086946 442
KRT18P34 KRT18P34 HuAgeGBsplit_14 9.4073010877808 0.27573358060623 9.13156750717457 -8.85583392656834 443
WASH3P WASH3P HuAgeGBsplit_14 10.6013324343473 0.275195008084279 10.326137426263 -10.0509424181788 444
AC006963.1 AC006963.1 HuAgeGBsplit_14 9.07173635027961 0.274039488460839 8.79769686181877 -8.52365737335793 445
RPL7AP28 RPL7AP28 HuAgeGBsplit_14 8.79562266052678 0.272226537974646 8.52339612255213 -8.25116958457749 446
RN7SL687P RN7SL687P HuAgeGBsplit_14 9.1916362861093 0.271474042827692 8.9201622432816 -8.64868820045391 447
AC016583.1 AC016583.1 HuAgeGBsplit_14 9.77733951810914 0.266224054878804 9.51111546323034 -9.24489140835153 448
AL513423.1 AL513423.1 HuAgeGBsplit_14 9.4633791686317 0.264783255577156 9.19859591305454 -8.93381265747738 449
AC093107.1 AC093107.1 HuAgeGBsplit_14 9.84121954177032 0.26400562514379 9.57721391662653 -9.31320829148274 450
PELI3 PELI3 HuAgeGBsplit_14 10.5220589674439 0.263703150193537 10.2583558172504 -9.99465266705682 451
WASH5P WASH5P HuAgeGBsplit_14 10.859855846084 0.263047124025748 10.5968087220583 -10.3337615980325 452
LINC00240 LINC00240 HuAgeGBsplit_14 9.91639134100115 0.261447559813414 9.65494378118774 -9.39349622137433 453
DTX4 DTX4 HuAgeGBsplit_14 11.2126770398519 0.260913127123983 10.9517639127279 -10.6908507856039 454
AC098818.1 AC098818.1 HuAgeGBsplit_14 9.52736351436919 0.254818157938086 9.2725453564311 -9.01772719849302 455
AC245036.4 AC245036.4 HuAgeGBsplit_14 10.8347621361498 0.253326618346437 10.5814355178033 -10.3281088994569 456
CAP2 CAP2 HuAgeGBsplit_14 10.1042989536737 0.253225953413437 9.85107300026024 -9.59784704684681 457
AC007386.1 AC007386.1 HuAgeGBsplit_14 9.97003965746616 0.251633050375744 9.71840660709042 -9.46677355671467 458
DAGLA DAGLA HuAgeGBsplit_14 10.3816340561194 0.250258797249474 10.1313752588699 -9.88111646162047 459
TRAF1 TRAF1 HuAgeGBsplit_14 9.75654669722528 0.249757774698875 9.50678892252641 -9.25703114782753 460
AC018475.1 AC018475.1 HuAgeGBsplit_14 9.51293300637693 0.249063081133045 9.26386992524389 -9.01480684411084 461
YIPF1 YIPF1 HuAgeGBsplit_14 10.7082513835935 0.248332049872264 10.4599193337212 -10.211587283849 462
SEPT7P3 SEPT7P3 HuAgeGBsplit_14 9.41108815858317 0.248297562260871 9.1627905963223 -8.91449303406143 463
WASH7P WASH7P HuAgeGBsplit_14 9.53755652059912 0.245872782324251 9.29168373827487 -9.04581095595062 464
IFNA20P IFNA20P HuAgeGBsplit_14 9.73171167718258 0.243678366970687 9.48803331021189 -9.24435494324121 465
RF00265 RF00265 HuAgeGBsplit_14 9.15799099201664 0.241655096045396 8.91633589597124 -8.67468079992585 466
ATP5MC1P4 ATP5MC1P4 HuAgeGBsplit_14 9.96425657600546 0.241628890769839 9.72262768523562 -9.48099879446578 467
FMR1-AS1 FMR1-AS1 HuAgeGBsplit_14 9.75355469364642 0.238886174851581 9.51466851879484 -9.27578234394326 468
PRDM13 PRDM13 HuAgeGBsplit_14 10.7132338388371 0.238857237328244 10.4743766015089 -10.2355193641806 469
BHLHE41 BHLHE41 HuAgeGBsplit_14 9.66281370428462 0.235354545542949 9.42745915874167 -9.19210461319872 470
ARHGAP40 ARHGAP40 HuAgeGBsplit_14 12.99589895165 0.232352051488124 12.7635469001618 -12.5311948486737 471
ADCYAP1 ADCYAP1 HuAgeGBsplit_14 9.35413033173496 0.231825979222518 9.12230435251244 -8.89047837328993 472
NSFP1 NSFP1 HuAgeGBsplit_14 10.0040678350648 0.231066413366054 9.77300142169872 -9.54193500833266 473
AC093392.2 AC093392.2 HuAgeGBsplit_14 9.25698708409413 0.226321365175119 9.03066571891901 -8.80434435374389 474
MAP1LC3A MAP1LC3A HuAgeGBsplit_14 9.80871812121804 0.221359702933741 9.5873584182843 -9.36599871535056 475
AC135977.1 AC135977.1 HuAgeGBsplit_14 9.34399905655562 0.215881258178087 9.12811779837753 -8.91223654019945 476
NEUROD4 NEUROD4 HuAgeGBsplit_14 9.99492996075615 0.21560915335536 9.77932080740079 -9.56371165404543 477
CCDC102A CCDC102A HuAgeGBsplit_14 11.0129349974292 0.209708388618416 10.8032266088107 -10.5935182201923 478
AC004556.1 AC004556.1 HuAgeGBsplit_14 9.26319180678156 0.207417271268086 9.05577453551347 -8.84835726424539 479
AC104411.1 AC104411.1 HuAgeGBsplit_14 10.0571593525764 0.204755339760034 9.85240401281639 -9.64764867305636 480
AC092651.2 AC092651.2 HuAgeGBsplit_14 10.0737812923671 0.201782010387366 9.87199928197978 -9.67021727159242 481
ANKRD1 ANKRD1 HuAgeGBsplit_14 10.4869113644245 0.201739809565082 10.2851715548594 -10.0834317452943 482
PPM1K PPM1K HuAgeGBsplit_14 9.92833573713223 0.199090027263638 9.72924570986859 -9.53015568260495 483
AF196972.1 AF196972.1 HuAgeGBsplit_14 9.53590573698351 0.196430565477964 9.33947517150554 -9.14304460602758 484
RND3 RND3 HuAgeGBsplit_14 10.067871619576 0.189989760143578 9.87788185943247 -9.68789209928889 485
AC092159.1 AC092159.1 HuAgeGBsplit_14 12.0255605213441 0.185149627217934 11.8404108941261 -11.6552612669082 486
CHRNA3 CHRNA3 HuAgeGBsplit_14 9.66957691407702 0.183274603285362 9.48630231079165 -9.30302770750629 487
LINC01094 LINC01094 HuAgeGBsplit_14 9.76960178409715 0.182978876774819 9.58662290732234 -9.40364403054752 488
FAM71E1 FAM71E1 HuAgeGBsplit_14 9.99922377397889 0.178296371807885 9.820927402171 -9.64263103036312 489
TRBV4-2 TRBV4-2 HuAgeGBsplit_14 9.77244977457325 0.159208852932797 9.61324092164045 -9.45403206870766 490
AL161669.3 AL161669.3 HuAgeGBsplit_14 9.71582658009389 0.15268785634609 9.56313872374779 -9.4104508674017 491
TTLL7 TTLL7 HuAgeGBsplit_14 9.8491497289387 0.150515065642679 9.69863466329602 -9.54811959765334 492
