PSID Gene Module kTotal kWithin kOut kDiff rank
C12orf77 C12orf77 lightyellow 15.13876665706 5.2349751086058 9.90379154845424 -4.66881643984844 1
AL138889.1 AL138889.1 lightyellow 13.8649291755039 4.17511184430366 9.68981733120027 -5.51470548689661 2
EIF2S3B EIF2S3B lightyellow 14.5417840271413 4.07967286226532 10.4621111648759 -6.38243830261062 3
SCFD2 SCFD2 lightyellow 12.9824389494829 3.19953343392948 9.78290551555339 -6.58337208162391 4
OR4A16 OR4A16 lightyellow 12.351011332679 3.10478819446314 9.24622313821583 -6.14143494375268 5
CSNK2A1 CSNK2A1 lightyellow 13.1167570934655 2.93852577932529 10.1782313141402 -7.23970553481496 6
OR4A11P OR4A11P lightyellow 12.9119472722884 2.91737632112645 9.99457095116194 -7.07719463003548 7
AP005597.3 AP005597.3 lightyellow 13.0993709204643 2.86572214796801 10.2336487724963 -7.36792662452832 8
FIP1L1 FIP1L1 lightyellow 12.4139032253175 2.79037046088636 9.62353276443111 -6.83316230354475 9
AC135584.1 AC135584.1 lightyellow 12.1209406063337 2.76505255799249 9.35588804834118 -6.59083549034869 10
PSMF1 PSMF1 lightyellow 13.3350341557965 2.70811889999473 10.6269152558018 -7.91879635580709 11
RN7SL804P RN7SL804P lightyellow 12.3696771900716 2.68070869162891 9.68896849844274 -7.00825980681383 12
CLOCK CLOCK lightyellow 12.6950855299798 2.60515852450526 10.0899270054746 -7.48476848096933 13
NSFL1C NSFL1C lightyellow 13.0123720108327 2.57143207542539 10.4409399354073 -7.86950785998196 14
AC087241.3 AC087241.3 lightyellow 11.7250294242497 2.50864535266188 9.21638407158777 -6.70773871892589 15
DCUN1D4 DCUN1D4 lightyellow 11.8356738166996 2.46967561207389 9.36599820462575 -6.89632259255186 16
RALGAPB RALGAPB lightyellow 13.1227189782206 2.46369439363382 10.6590245845868 -8.19533019095294 17
CEP135 CEP135 lightyellow 12.267783016858 2.45433939538574 9.81344362147222 -7.35910422608647 18
MYO1A MYO1A lightyellow 11.7521546426668 2.38481164648577 9.36734299618105 -6.98253134969528 19
TBC1D20 TBC1D20 lightyellow 13.4246266205086 2.35939587662054 11.065230743888 -8.70583486726747 20
AC023796.1 AC023796.1 lightyellow 12.4387408156046 2.3353897412098 10.1033510743948 -7.76796133318499 21
IDH3B IDH3B lightyellow 12.7296218830153 2.33232348236238 10.397298400653 -8.06497491829058 22
PTPRA PTPRA lightyellow 13.2651093865983 2.31939088343242 10.9457185031659 -8.62632761973346 23
MKKS MKKS lightyellow 12.8213741494013 2.18520111825204 10.6361730311492 -8.45097191289718 24
DDX54 DDX54 lightyellow 11.91214006765 2.18236907107265 9.72977099657734 -7.54740192550469 25
TRIM53CP TRIM53CP lightyellow 11.8360431341078 2.1175106775905 9.71853245651725 -7.60102177892675 26
EXOC1 EXOC1 lightyellow 11.7875308835116 2.1141105664818 9.67342031702983 -7.55930975054803 27
STAU1 STAU1 lightyellow 13.3400918434364 2.09710466801445 11.2429871754219 -9.14588250740749 28
PIGU PIGU lightyellow 13.6592856068311 2.08911707076368 11.5701685360675 -9.48105146530378 29
CSE1L CSE1L lightyellow 13.3630415716229 2.04544714019064 11.3175944314323 -9.27214729124166 30
CTNNBL1 CTNNBL1 lightyellow 13.5709331473576 2.04543024174294 11.5255029056147 -9.48007266387172 31
VPS16 VPS16 lightyellow 12.3470291909699 2.03733618331319 10.3096930076567 -8.27235682434353 32
AASDH AASDH lightyellow 11.4285245972654 2.0182419350964 9.41028266216897 -7.39204072707258 33
ATRN ATRN lightyellow 12.5569756335628 2.01681796405867 10.5401576695041 -8.52333970544543 34
IFT81 IFT81 lightyellow 11.5290880891347 2.01089278881477 9.5181953003199 -7.50730251150513 35
DHX35 DHX35 lightyellow 12.8766982658734 1.99944252222227 10.8772557436511 -8.87781322142881 36
DDX27 DDX27 lightyellow 12.7242615734614 1.97331318742878 10.7509483860326 -8.77763519860384 37
VPS29 VPS29 lightyellow 11.7403910147389 1.94428173146824 9.79610928327065 -7.85182755180242 38
GGT4P GGT4P lightyellow 12.3671043909062 1.93483271443805 10.4322716764681 -8.49743896203009 39
SRD5A3 SRD5A3 lightyellow 11.688273537289 1.91355239142393 9.77472114586509 -7.86116875444116 40
KCNC2 KCNC2 lightyellow 11.8064856667905 1.91085212503062 9.89563354175985 -7.98478141672923 41
USP46 USP46 lightyellow 11.7804857348135 1.908190651181 9.87229508363247 -7.96410443245146 42
MANBAL MANBAL lightyellow 12.4896409981207 1.90604561166405 10.5835953864567 -8.6775497747926 43
PPAT PPAT lightyellow 11.4276685024268 1.90259761454426 9.52507088788258 -7.62247327333832 44
CDK5RAP1 CDK5RAP1 lightyellow 12.2803714556217 1.90123848194706 10.3791329736746 -8.47789449172756 45
ADNP ADNP lightyellow 13.3161140428433 1.90048485720711 11.4156291856362 -9.5151443284291 46
LINC01618 LINC01618 lightyellow 12.0056546238692 1.87118333179786 10.1344712920714 -8.26328796027352 47
TRMT6 TRMT6 lightyellow 13.101378861212 1.85809172139188 11.2432871398201 -9.38519541842821 48
PCED1A PCED1A lightyellow 12.2714572262391 1.8428384871943 10.4286187390448 -8.58578025185053 49
RPN2 RPN2 lightyellow 13.7747108621821 1.80036373424464 11.9743471279375 -10.1739833936928 50
TTI1 TTI1 lightyellow 11.7017513416121 1.77790501106101 9.92384633055106 -8.14594131949005 51
NOP56 NOP56 lightyellow 12.14261186867 1.72929101656536 10.4133208521047 -8.68402983553932 52
RPRD1B RPRD1B lightyellow 13.0142384259656 1.71435488595342 11.2998835400122 -9.58552865405878 53
TMEM230 TMEM230 lightyellow 12.8488954014439 1.7054020433689 11.143493358075 -9.43809131470609 54
RNF114 RNF114 lightyellow 12.3474530339616 1.70236498358514 10.6450880503765 -8.94272306679134 55
TMEM165 TMEM165 lightyellow 11.3167198357693 1.69408740250441 9.62263243326486 -7.92854503076045 56
LRRC66 LRRC66 lightyellow 11.6856238507177 1.65674640806633 10.0288774426514 -8.37213103458502 57
SGCB SGCB lightyellow 10.9330525273429 1.62532777489261 9.30772475245025 -7.68239697755764 58
NCOA6 NCOA6 lightyellow 13.0924718993724 1.6244385430662 11.4680333563062 -9.84359481323998 59
RAE1 RAE1 lightyellow 12.3810826855843 1.5934670842538 10.7876156013305 -9.19414851707671 60
CSTF1 CSTF1 lightyellow 12.1213853789159 1.57983837716137 10.5415470017545 -8.96170862459317 61
XRN2 XRN2 lightyellow 11.8730552620974 1.57114013965951 10.3019151224379 -8.73077498277839 62
YEATS4 YEATS4 lightyellow 11.1179714956172 1.56171985525229 9.55625164036489 -7.99453178511259 63
UQCC1 UQCC1 lightyellow 12.0495396341166 1.55273466841769 10.4968049656989 -8.94407029728119 64
SRP72 SRP72 lightyellow 11.7484037031592 1.54435651175406 10.2040471914051 -8.65969067965108 65
AC020656.2 AC020656.2 lightyellow 10.9488902662806 1.53710686884963 9.41178339743099 -7.87467652858136 66
DANCR DANCR lightyellow 11.2421404650997 1.51074232065589 9.73139814444382 -8.22065582378793 67
ITCH ITCH lightyellow 11.6124469013842 1.50896836215269 10.1034785392315 -8.59451017707879 68
MRPS26 MRPS26 lightyellow 12.5104414196439 1.49873453080022 11.0117068888437 -9.51297235804345 69
IFT52 IFT52 lightyellow 12.5915019198575 1.4954969526279 11.0960049672296 -9.60050801460167 70
TRPC4AP TRPC4AP lightyellow 12.7300323652196 1.49254356808427 11.2374887971354 -9.7449452290511 71
FITM2 FITM2 lightyellow 12.3921043092561 1.47898956990576 10.9131147393504 -9.43412516944461 72
MAVS MAVS lightyellow 12.0471880129305 1.46656727097961 10.5806207419509 -9.11405347097129 73
RITA1 RITA1 lightyellow 10.7282185039517 1.45392582032872 9.27429268362296 -7.82036686329424 74
STK35 STK35 lightyellow 11.6893145276812 1.4501533616251 10.2391611660561 -8.789007804431 75
KAT14 KAT14 lightyellow 11.4224961974737 1.42917767395684 9.99331852351682 -8.56414084955997 76
ITPA ITPA lightyellow 11.5895804803143 1.42876837412243 10.1608121061919 -8.73204373206947 77
RTF2 RTF2 lightyellow 12.138945946411 1.42362976512327 10.7153161812878 -9.29168641616452 78
SRD5A3-AS1 SRD5A3-AS1 lightyellow 11.3871431933417 1.40929984605712 9.97784334728458 -8.56854350122746 79
DYNLRB1 DYNLRB1 lightyellow 12.433512406605 1.40193268098566 11.0315797256193 -9.62964704463365 80
AAR2 AAR2 lightyellow 12.4132026215165 1.39636957535364 11.0168330461628 -9.62046347080921 81
DDRGK1 DDRGK1 lightyellow 11.6271115169195 1.37434685769271 10.2527646592268 -8.87841780153409 82
BLCAP BLCAP lightyellow 11.9230649423736 1.37032492163388 10.5527400207397 -9.18241509910583 83
PANK2 PANK2 lightyellow 11.2549740525057 1.36286163448616 9.89211241801953 -8.52925078353337 84
EIF6 EIF6 lightyellow 12.6780661556003 1.3396562592337 11.3384098963666 -9.99875363713292 85
DNTTIP1 DNTTIP1 lightyellow 11.9622512057313 1.33218902693691 10.6300621787944 -9.29787315185745 86
GZF1 GZF1 lightyellow 11.8543916450805 1.32817413607795 10.5262175090025 -9.19804337292457 87
RAB22A RAB22A lightyellow 12.204472977373 1.32291630642191 10.8815566709511 -9.55864036452919 88
NMU NMU lightyellow 11.1802730740858 1.31802004460333 9.86225302948247 -8.54423298487914 89
AP5S1 AP5S1 lightyellow 11.5403429240395 1.31691994617268 10.2234229778668 -8.9065030316941 90
SERINC3 SERINC3 lightyellow 12.7924424432074 1.3005767344706 11.4918657087368 -10.1912889742662 91
STK4 STK4 lightyellow 11.4101209752416 1.29764430679035 10.1124766684513 -8.81483236166094 92
SEC23B SEC23B lightyellow 11.6697724849974 1.28163896393301 10.3881335210644 -9.10649455713134 93
SPATA2 SPATA2 lightyellow 11.6903781116548 1.27596515821858 10.4144129534362 -9.13844779521764 94
OSBPL2 OSBPL2 lightyellow 12.4050698591352 1.27294010552135 11.1321297536138 -9.85918964809247 95
RBCK1 RBCK1 lightyellow 11.6466575452236 1.26893549810127 10.3777220471223 -9.10878654902108 96
ACOT8 ACOT8 lightyellow 11.5792814940934 1.26598391288248 10.3132975812109 -9.04731366832845 97
NDUFAF5 NDUFAF5 lightyellow 11.9651452026935 1.26004674178059 10.7050984609129 -9.44505171913231 98
POLR3F POLR3F lightyellow 11.1310557400581 1.24057113370768 9.89048460635046 -8.64991347264279 99
RALY RALY lightyellow 12.7786384291784 1.23964415836216 11.5389942708162 -10.2993501124541 100
SNX5 SNX5 lightyellow 12.0772831958871 1.23900393035059 10.8382792655365 -9.59927533518589 101
CHMP4B CHMP4B lightyellow 12.0536041559081 1.23249247218936 10.8211116837187 -9.58861921152934 102
ZFP64 ZFP64 lightyellow 12.2886887352493 1.23102060572413 11.0576681295252 -9.82664752380108 103
OSER1-AS1 OSER1-AS1 lightyellow 11.1873365994144 1.2173701636099 9.9699664358045 -8.7525962721946 104
ZCCHC3 ZCCHC3 lightyellow 11.5186382104031 1.21542827140955 10.3032099389936 -9.08778166758403 105
LRRC34P1 LRRC34P1 lightyellow 12.3780306589475 1.20717132237544 11.1708593365721 -9.96368801419664 106
TTPAL TTPAL lightyellow 11.6930152398681 1.19696313321917 10.496052106649 -9.2990889734298 107
GID8 GID8 lightyellow 11.4056972256589 1.19490392307938 10.2107933025795 -9.01588937950011 108
CDS2 CDS2 lightyellow 11.2387134518489 1.1865760373128 10.0521374145361 -8.86556137722327 109
SLC9A8 SLC9A8 lightyellow 11.8482510053793 1.18092718486923 10.6673238205101 -9.48639663564087 110
C20orf196 C20orf196 lightyellow 11.9108279509103 1.15973505216322 10.7510928987471 -9.59135784658389 111
MTG2 MTG2 lightyellow 11.2933978421189 1.15720588750125 10.1361919546176 -8.97898606711636 112
PAICS PAICS lightyellow 10.9907971646232 1.15006907367684 9.84072809094635 -8.69065901726952 113
SNRPB2 SNRPB2 lightyellow 11.6008966324124 1.14811860251034 10.4527780299021 -9.30465942739173 114
NDRG3 NDRG3 lightyellow 12.2905316708842 1.14368430900427 11.14684736188 -10.0031630528757 115
RNF24 RNF24 lightyellow 11.2684842108792 1.14338390319936 10.1251003076798 -8.98171640448044 116
RBL1 RBL1 lightyellow 12.2633869943551 1.13783155114479 11.1255554432103 -9.98772389206553 117
YWHAB YWHAB lightyellow 11.2554804694504 1.13157562790641 10.123904841544 -8.99232921363754 118
CRNKL1 CRNKL1 lightyellow 11.1943341655501 1.12727705789893 10.0670571076512 -8.93978004975227 119
RBBP9 RBBP9 lightyellow 11.7256234309651 1.12125832853534 10.6043651024297 -9.48310677389438 120
TAF4 TAF4 lightyellow 12.0066670562209 1.1185484490818 10.8881186071391 -9.76957015805725 121
MCM8-AS1 MCM8-AS1 lightyellow 11.5965933781758 1.116747438249 10.4798459399268 -9.36309850167776 122
LSM14B LSM14B lightyellow 11.78278212321 1.11453170350917 10.6682504197008 -9.55371871619162 123
OSER1 OSER1 lightyellow 11.5703007476929 1.10319512192213 10.4671056257707 -9.36391050384859 124
MCM8 MCM8 lightyellow 11.5550196520436 1.10019151260907 10.4548281394345 -9.35463662682542 125
VAPB VAPB lightyellow 11.5171148091825 1.07428789870931 10.4428269104732 -9.36853901176391 126
NRSN2 NRSN2 lightyellow 11.1182986507931 1.05995467933436 10.0583439714588 -8.9983892921244 127
CBFA2T2 CBFA2T2 lightyellow 11.5684101920864 1.05603912683362 10.5123710652528 -9.45633193841918 128
SS18L1 SS18L1 lightyellow 11.5390974014397 1.05426352948514 10.4848338719545 -9.4305703424694 129
NELFCD NELFCD lightyellow 12.0357796489354 1.05319872923074 10.9825809197047 -9.92938219047395 130
PHF20 PHF20 lightyellow 11.5311724757286 1.05085762163736 10.4803148540912 -9.42945723245386 131
HM13 HM13 lightyellow 11.9368976736318 1.04954847595237 10.8873491976794 -9.83780072172706 132
PFDN4 PFDN4 lightyellow 12.3448463648809 1.04726227542979 11.2975840894511 -10.2503218140213 133
GPR139 GPR139 lightyellow 11.6340647504675 1.04076571792431 10.5932990325432 -9.5525333146189 134
RAD9B RAD9B lightyellow 10.8025600258019 1.0186680903128 9.78389193548906 -8.76522384517626 135
SLX4IP SLX4IP lightyellow 12.3475544786951 1.01498219231543 11.3325722863797 -10.3175900940643 136
TP53RK TP53RK lightyellow 11.6020961627111 1.01061540869333 10.5914807540177 -9.5808653453244 137
NFS1 NFS1 lightyellow 11.3514821895461 1.00562065629107 10.345861533255 -9.34024087696394 138
MOCS3 MOCS3 lightyellow 11.2431469867919 1.00524742395653 10.2378995628353 -9.2326521388788 139
ARFRP1 ARFRP1 lightyellow 10.8932354805599 1.0008079750062 9.89242750555368 -8.89161953054748 140
ERGIC3 ERGIC3 lightyellow 11.5518321914654 0.979784035632686 10.5720481558327 -9.59226412020005 141
ETNK1 ETNK1 lightyellow 10.3962026797768 0.9670176848786 9.42918499489824 -8.46216731001964 142
PCNA PCNA lightyellow 11.8130077024184 0.954920339558172 10.8580873628602 -9.90316702330206 143
RNU6-1252P RNU6-1252P lightyellow 12.393374117515 0.946303283501824 11.4470708340132 -10.5007675505114 144
CCDC91 CCDC91 lightyellow 11.0043512762287 0.937874962739493 10.0664763134892 -9.12860135074972 145
ARFGAP1 ARFGAP1 lightyellow 12.2809610975854 0.934552234132862 11.3464088634525 -10.4118566293197 146
SNRPB SNRPB lightyellow 10.8163521833548 0.932941915109313 9.88341026824546 -8.95046835313615 147
DPM1 DPM1 lightyellow 11.3228302040399 0.926529936338238 10.3963002677017 -9.46977033136344 148
AC058822.1 AC058822.1 lightyellow 11.3195183236206 0.925438404138072 10.3940799194825 -9.46864151534446 149
CPNE1 CPNE1 lightyellow 10.6690421305582 0.92258803234999 9.74645409820822 -8.82386606585823 150
PIGT PIGT lightyellow 12.0280246700297 0.91297127954728 11.1150533904824 -10.2020821109351 151
ZSWIM1 ZSWIM1 lightyellow 11.2914624953831 0.900697634501554 10.3907648608815 -9.49006722637995 152
CHD6 CHD6 lightyellow 12.2260918425912 0.896441762306436 11.3296500802847 -10.4332083179783 153
EBF4 EBF4 lightyellow 12.1469192766255 0.890695728978424 11.2562235476471 -10.3655278186687 154
ZNF133 ZNF133 lightyellow 10.7696327578508 0.888156298773009 9.88147645907778 -8.99332016030477 155
RILPL2 RILPL2 lightyellow 10.161026512864 0.87599649424398 9.28503001862002 -8.40903352437604 156
DIDO1 DIDO1 lightyellow 11.3117895342246 0.861900874339428 10.4498886598851 -9.58798778554571 157
EDEM2 EDEM2 lightyellow 12.2446987408703 0.859668147297514 11.3850305935728 -10.5253624462753 158
ARFGEF2 ARFGEF2 lightyellow 11.1738113797862 0.857411766601809 10.3163996131844 -9.45898784658256 159
SLC35C2 SLC35C2 lightyellow 11.6596296522512 0.840187208154821 10.8194424440963 -9.97925523594151 160
IQCD IQCD lightyellow 10.4966418133433 0.833812674130041 9.66282913921323 -8.82901646508319 161
NCOA5 NCOA5 lightyellow 12.3101453494758 0.83327072972864 11.4768746197471 -10.6436038900185 162
NAA20 NAA20 lightyellow 11.0902087112012 0.822406897270566 10.2678018139306 -9.44539491666005 163
OR5D2P OR5D2P lightyellow 11.2805465914277 0.821396371989294 10.4591502194384 -9.63775384744913 164
PTPN1 PTPN1 lightyellow 11.3094734935375 0.815481051095939 10.4939924424416 -9.67851139134563 165
AC087241.2 AC087241.2 lightyellow 9.82159465789964 0.814983738860063 9.00661091903957 -8.19162718017951 166
AVPR1A AVPR1A lightyellow 10.3836246496207 0.809941962323106 9.57368268729757 -8.76374072497446 167
CTSA CTSA lightyellow 11.8142734494213 0.808971572740906 11.0053018766804 -10.1963303039395 168
C20orf194 C20orf194 lightyellow 11.1481465732419 0.806787388838116 10.3413591844038 -9.5345717955657 169
AC023050.1 AC023050.1 lightyellow 10.7547071915551 0.799100579946446 9.95560661160867 -9.15650603166222 170
COL2A1 COL2A1 lightyellow 10.8000533292435 0.798322575339695 10.0017307539038 -9.20340817856407 171
PSMA7 PSMA7 lightyellow 11.1877928007347 0.797312569107971 10.3904802316267 -9.59316766251873 172
AC104784.1 AC104784.1 lightyellow 10.1073118175031 0.796965664387428 9.31034615311572 -8.51338048872829 173
GNAS GNAS lightyellow 11.2570862607661 0.790356816910328 10.4667294438558 -9.67637262694547 174
ATP5F1E ATP5F1E lightyellow 12.5196386704896 0.773733646330847 11.7459050241587 -10.9721713778279 175
ADRM1 ADRM1 lightyellow 12.5776126404511 0.77103531870133 11.8065773217498 -11.0355420030485 176
PPP4R1L PPP4R1L lightyellow 11.4978719017145 0.764547875578617 10.7333240261359 -9.96877615055726 177
SIRPA SIRPA lightyellow 10.8463461257445 0.76357680395161 10.0827693217928 -9.31919251784124 178
DZANK1 DZANK1 lightyellow 11.2514167771261 0.760319477870712 10.4910972992553 -9.73077782138463 179
CABLES2 CABLES2 lightyellow 10.7832355249362 0.758451258752975 10.0247842661833 -9.26633300743029 180
NXT1 NXT1 lightyellow 11.5399275172097 0.751394397686665 10.7885331195231 -10.0371387218364 181
B4GALT5 B4GALT5 lightyellow 10.6661671007021 0.741343316989134 9.92482378371299 -9.18348046672386 182
CENPB CENPB lightyellow 11.1671320056392 0.729445948139429 10.4376860574997 -9.7082401093603 183
UCKL1 UCKL1 lightyellow 10.8091573132399 0.720725340899798 10.0884319723401 -9.36770663144031 184
MAPRE1 MAPRE1 lightyellow 11.2709634128316 0.718591439049286 10.5523719737824 -9.83378053473308 185
MRGBP MRGBP lightyellow 10.700522227946 0.714671865253548 9.98585036269249 -9.27117849743894 186
ZNF335 ZNF335 lightyellow 11.6889510905763 0.712146389775275 10.9768047008011 -10.2646583110258 187
USP46-AS1 USP46-AS1 lightyellow 10.3235492594742 0.708926947895892 9.61462231157829 -8.9056953636824 188
PRNP PRNP lightyellow 11.2163498592616 0.7082445165922 10.5081053426694 -9.79986082607722 189
DSTN DSTN lightyellow 10.6578871599464 0.700613158825882 9.95727400112047 -9.25666084229459 190
TMX4 TMX4 lightyellow 10.8800320766822 0.690882176037083 10.1891499006451 -9.49826772460806 191
RBM39 RBM39 lightyellow 11.4875338368613 0.686266446825658 10.8012673900357 -10.11500094321 192
ZFAS1 ZFAS1 lightyellow 11.2155841868494 0.684085083711187 10.5314991031382 -9.84741401942702 193
GMEB2 GMEB2 lightyellow 10.91944274901 0.682118287558679 10.2373244614513 -9.55520617389266 194
KIAA1211 KIAA1211 lightyellow 10.850791158718 0.680641216455842 10.1701499422622 -9.48950872580637 195
C20orf96 C20orf96 lightyellow 10.6400074608574 0.679881383086688 9.9601260777707 -9.28024469468401 196
SLC23A2 SLC23A2 lightyellow 11.1218560792072 0.674165473434963 10.4476906057722 -9.77352513233724 197
AF254982.1 AF254982.1 lightyellow 11.0833871120624 0.673976072846899 10.4094110392155 -9.73543496636859 198
AL049650.1 AL049650.1 lightyellow 10.2255710747577 0.672709153820757 9.55286192093693 -8.88015276711617 199
LINC02283 LINC02283 lightyellow 10.1416005834009 0.670880120112411 9.47072046328846 -8.79984034317605 200
CDC25B CDC25B lightyellow 10.7650849838202 0.668573883471727 10.0965111003485 -9.42793721687678 201
PLCG1 PLCG1 lightyellow 10.8382023029685 0.666631075253106 10.1715712277154 -9.50494015246225 202
ZSWIM3 ZSWIM3 lightyellow 11.6659868400832 0.662624154312564 11.0033626857707 -10.3407385314581 203
SOX5 SOX5 lightyellow 11.0373647632593 0.659675239756414 10.3776895235029 -9.71801428374649 204
BCL2L1 BCL2L1 lightyellow 11.20304193968 0.659500549068658 10.5435413906113 -9.88404084154269 205
ACTR5 ACTR5 lightyellow 11.2168970742177 0.654575573739591 10.5623215004782 -9.90774592673857 206
BCAT1 BCAT1 lightyellow 10.1331430481326 0.645964140571571 9.48717890756103 -8.84121476698946 207
DSN1 DSN1 lightyellow 10.7911116417436 0.643569948269794 10.1475416934738 -9.50397174520399 208
CRLS1 CRLS1 lightyellow 11.0561415711505 0.642809124127149 10.4133324470234 -9.77052332289623 209
NORAD NORAD lightyellow 10.7223591893776 0.62774856537726 10.0946106240004 -9.46686205862311 210
AC098868.1 AC098868.1 lightyellow 10.1479763946913 0.625911086439424 9.52206530825191 -8.89615422181249 211
ATP9A ATP9A lightyellow 10.4958060307912 0.615738272048583 9.88006775874263 -9.26432948669405 212
AC098587.1 AC098587.1 lightyellow 10.0599608307925 0.611816491441714 9.44814433935076 -8.83632784790904 213
NCOA3 NCOA3 lightyellow 10.9985469184166 0.609549149051965 10.3889977693646 -9.77944862031265 214
AC012414.2 AC012414.2 lightyellow 10.808175912848 0.60561018066127 10.2025657321868 -9.59695555152549 215
LCE1E LCE1E lightyellow 10.1708161871291 0.601935412385702 9.56888077474341 -8.96694536235771 216
DNMT3B DNMT3B lightyellow 10.9163683214244 0.600951661219113 10.3154166602053 -9.71446499898617 217
ZHX3 ZHX3 lightyellow 10.7888649353229 0.593071753069406 10.1957931822535 -9.60272142918413 218
CEP250 CEP250 lightyellow 11.0137942708206 0.589865753674564 10.4239285171461 -9.8340627634715 219
AC104066.1 AC104066.1 lightyellow 9.80758658540673 0.587561735476215 9.22002484993052 -8.6324631144543 220
OGFR OGFR lightyellow 10.4715958227982 0.583544500614424 9.88805132218373 -9.30450682156931 221
KIF16B KIF16B lightyellow 11.6438169166097 0.582885808810442 11.0609311077993 -10.4780452989889 222
YTHDF1 YTHDF1 lightyellow 10.3238307867066 0.582109445585864 9.7417213411207 -9.15961189553483 223
DLGAP4 DLGAP4 lightyellow 11.5119320423472 0.574227412521113 10.9377046298261 -10.3634772173049 224
NANP NANP lightyellow 10.3279808382502 0.57375763526261 9.75422320298754 -9.18046556772493 225
PRPF6 PRPF6 lightyellow 10.8912971057835 0.573335776536658 10.3179613292469 -9.74462555271023 226
DNAJC5 DNAJC5 lightyellow 10.630459723643 0.567856224925969 10.062603498717 -9.49474727379107 227
ENTPD6 ENTPD6 lightyellow 10.4159237918471 0.56403946475199 9.85188432709509 -9.2878448623431 228
AC104066.2 AC104066.2 lightyellow 12.0380671796397 0.562598503558604 11.4754686760811 -10.9128701725225 229
SCAND1 SCAND1 lightyellow 11.5267564027129 0.555417886570216 10.9713385161427 -10.4159206295725 230
GNAS-AS1 GNAS-AS1 lightyellow 10.9534728617654 0.554235879390264 10.3992369823752 -9.8450011029849 231
AL117335.1 AL117335.1 lightyellow 10.1067476679168 0.552978699527011 9.55376896838981 -9.0007902688628 232
NRSN2-AS1 NRSN2-AS1 lightyellow 10.5523741448466 0.551121616399015 10.0012525284475 -9.45013091204853 233
PABPC1L PABPC1L lightyellow 10.9210154091445 0.541006247342195 10.3800091618023 -9.83900291446007 234
PRELID3B PRELID3B lightyellow 10.1677767301461 0.539633995488299 9.62814273465785 -9.08850873916955 235
SOGA1 SOGA1 lightyellow 10.6972662701689 0.525561006739458 10.1717052634294 -9.64614425668996 236
RNFT2 RNFT2 lightyellow 10.8898933014727 0.525051567181301 10.3648417342914 -9.83979016711008 237
AL356585.10 AL356585.10 lightyellow 9.91437567610114 0.522406319768005 9.39196935633314 -8.86956303656513 238
ZNF337 ZNF337 lightyellow 10.2854380523251 0.51971612633046 9.76572192599468 -9.24600579966422 239
DTD1 DTD1 lightyellow 11.1745962514135 0.517946446531816 10.6566498048817 -10.1387033583499 240
NECAB3 NECAB3 lightyellow 10.590385892714 0.514852642332292 10.0755332503817 -9.56068060804941 241
AL133342.1 AL133342.1 lightyellow 11.6124848828403 0.513002307021954 11.0994825758183 -10.5864802687964 242
AHCY AHCY lightyellow 10.6110334226919 0.511405506294803 10.0996279163971 -9.58822241010231 243
LCE1D LCE1D lightyellow 10.1458671618412 0.508847835723698 9.63701932611749 -9.12817149039379 244
AL035563.1 AL035563.1 lightyellow 10.007827651867 0.505212088972828 9.50261556289422 -8.99740347392139 245
SRC SRC lightyellow 11.3694858628669 0.503269033756377 10.8662168291105 -10.3629477953541 246
LZTS3 LZTS3 lightyellow 10.9576915930193 0.503026415806008 10.4546651772133 -9.9516387614073 247
ELMO2 ELMO2 lightyellow 10.9821111569579 0.499796950787151 10.4823142061708 -9.98251725538364 248
TCEA2 TCEA2 lightyellow 10.4706923881366 0.499241644742505 9.97145074339408 -9.47220909865157 249
GPR39 GPR39 lightyellow 11.5446545130377 0.49908631519688 11.0455681978408 -10.5464818826439 250
TPD52L2 TPD52L2 lightyellow 11.1643621627118 0.487943091972052 10.6764190707397 -10.1884759787677 251
SMOX SMOX lightyellow 10.4943906122404 0.487796143128151 10.0065944691123 -9.51879832598412 252
RRBP1 RRBP1 lightyellow 11.5726468356655 0.48704938667339 11.0855974489921 -10.5985480623187 253
APMAP APMAP lightyellow 11.833216897272 0.483407049419887 11.3498098478521 -10.8664027984322 254
SNX21 SNX21 lightyellow 10.5243690840699 0.475083800126785 10.0492852839431 -9.57420148381631 255
PCIF1 PCIF1 lightyellow 11.7797504340941 0.474421188670504 11.3053292454236 -10.830908056753 256
PPDPF PPDPF lightyellow 11.6690637583122 0.473123694974348 11.1959400633379 -10.7228163683635 257
ABHD12 ABHD12 lightyellow 10.9948677574648 0.472251325872236 10.5226164315926 -10.0503651057203 258
AL121760.1 AL121760.1 lightyellow 9.90561287591466 0.460794542174053 9.44481833374061 -8.98402379156656 259
LYPD1 LYPD1 lightyellow 11.1620875359884 0.458073768040268 10.7040137679481 -10.2459399999078 260
AC138761.1 AC138761.1 lightyellow 9.86366847986038 0.458036585469826 9.40563189439056 -8.94759530892073 261
ZGPAT ZGPAT lightyellow 10.6610623554874 0.455527474448222 10.2055348810392 -9.75000740659098 262
SULF2 SULF2 lightyellow 11.004103222006 0.452672867864375 10.5514303541416 -10.0987574862772 263
ZNF512B ZNF512B lightyellow 10.6802100320829 0.445444308030186 10.2347657240528 -9.78932141602257 264
FAM217B FAM217B lightyellow 10.7345796679757 0.444594711178639 10.2899849567971 -9.84539024561846 265
PTK6 PTK6 lightyellow 10.355622057757 0.440941078256872 9.91468097950014 -9.47373990124327 266
ERVMER34-1 ERVMER34-1 lightyellow 11.9414200022474 0.440905988329111 11.5005140139183 -11.0596080255892 267
PREX1 PREX1 lightyellow 10.3494477711424 0.432979626512321 9.91646814463008 -9.48348851811776 268
AL121761.1 AL121761.1 lightyellow 11.2328364634814 0.4276751225487 10.8051613409327 -10.377486218384 269
SMCP SMCP lightyellow 10.2023092078317 0.426140772109827 9.77616843572185 -9.35002766361202 270
SRSF6 SRSF6 lightyellow 11.7553537630966 0.424649566818028 11.3307041962786 -10.9060546294605 271
RIMS4 RIMS4 lightyellow 9.80204464533818 0.423156084202603 9.37888856113558 -8.95573247693298 272
TSN TSN lightyellow 10.4280697929622 0.420936403871019 10.0071333890911 -9.58619698522012 273
RIN2 RIN2 lightyellow 10.3867946064426 0.41987373918398 9.96692086725859 -9.54704712807461 274
AC024243.1 AC024243.1 lightyellow 9.21215287856678 0.415648032823777 8.79650484574301 -8.38085681291923 275
RNU6-1227P RNU6-1227P lightyellow 9.89642226679261 0.400075128347995 9.49634713844461 -9.09627201009662 276
AC068620.1 AC068620.1 lightyellow 9.36882064882104 0.394782268391991 8.97403838042904 -8.57925611203705 277
AL109809.1 AL109809.1 lightyellow 10.3981078392531 0.394606737327186 10.003501101926 -9.60889436459877 278
SLC13A3 SLC13A3 lightyellow 11.7286557447335 0.382998048789909 11.3456576959436 -10.9626596471537 279
SRMS SRMS lightyellow 10.4670661010255 0.381978156950036 10.0850879440754 -9.70310978712541 280
SALL4 SALL4 lightyellow 10.9937278485957 0.380461670193147 10.6132661784025 -10.2328045082094 281
EPB41L1 EPB41L1 lightyellow 10.1232271100627 0.379113422076401 9.74411368798626 -9.36500026590986 282
RASSF2 RASSF2 lightyellow 10.8528564668955 0.376086147571067 10.4767703193245 -10.1006841717534 283
SAXO2 SAXO2 lightyellow 10.5154759266393 0.368375700572482 10.1471002260668 -9.77872452549436 284
PLCG1-AS1 PLCG1-AS1 lightyellow 10.4159108475069 0.358332671159988 10.0575781763469 -9.69924550518696 285
SLC2A4RG SLC2A4RG lightyellow 10.4905530091569 0.356763071056259 10.1337899381006 -9.77702686704437 286
SPATA25 SPATA25 lightyellow 9.8945011025093 0.356521881644655 9.53797922086464 -9.18145733921999 287
SNPH SNPH lightyellow 11.4955665969796 0.353880270304535 11.1416863266751 -10.7878060563706 288
L3MBTL1 L3MBTL1 lightyellow 11.0646706599 0.352928984156124 10.7117416757439 -10.3588126915878 289
AL121890.4 AL121890.4 lightyellow 9.51131735201369 0.348340594652579 9.16297675736111 -8.81463616270853 290
CST3 CST3 lightyellow 10.2767445017698 0.347681329219466 9.92906317255036 -9.5813818433309 291
ZNF337-AS1 ZNF337-AS1 lightyellow 10.5658871211716 0.347238556999773 10.2186485641718 -9.87141000717204 292
BMP2 BMP2 lightyellow 10.6444516100432 0.3460794679175 10.2983721421257 -9.95229267420818 293
SH3KBP1 SH3KBP1 lightyellow 10.5088184572623 0.342832625324015 10.1659858319383 -9.82315320661426 294
PYGB PYGB lightyellow 10.7135659415263 0.342342700586779 10.3712232409395 -10.0288805403527 295
SDCBP2 SDCBP2 lightyellow 10.3208540808559 0.339906760118237 9.98094732073765 -9.64104056061941 296
PXMP4 PXMP4 lightyellow 10.3801948149781 0.331460648126043 10.048734166852 -9.71727351872597 297
ZNF341 ZNF341 lightyellow 10.7278553198847 0.330912743619126 10.3969425762656 -10.0660298326465 298
FGD6 FGD6 lightyellow 11.0140043520061 0.329489288861887 10.6845150631442 -10.3550257742823 299
ZNF433-AS1 ZNF433-AS1 lightyellow 10.6127418660422 0.329357485461393 10.2833843805808 -9.95402689511939 300
SAMD10 SAMD10 lightyellow 10.9258680236275 0.325879307418754 10.5999887162087 -10.27410940879 301
EYA2 EYA2 lightyellow 10.4988514458922 0.319389683969728 10.1794617619225 -9.86007207795278 302
NEURL2 NEURL2 lightyellow 9.8357460607343 0.318885651779576 9.51686040895473 -9.19797475717515 303
SNHG17 SNHG17 lightyellow 10.115813237635 0.317041254328483 9.79877198330655 -9.48173072897807 304
GPX4 GPX4 lightyellow 11.6262548050776 0.310706977933525 11.3155478271441 -11.0048408492105 305
AC027271.1 AC027271.1 lightyellow 9.88234132237221 0.298828056559378 9.58351326581283 -9.28468520925345 306
IVL IVL lightyellow 10.2389707520075 0.298707613243178 9.94026313876427 -9.6415555255211 307
PCMTD2 PCMTD2 lightyellow 9.75104949808054 0.295013771255028 9.45603572682551 -9.16102195557048 308
LINC00574 LINC00574 lightyellow 9.22395231715787 0.28944941175423 8.93450290540364 -8.64505349364941 309
UCHL1 UCHL1 lightyellow 10.5054523913399 0.288101643735093 10.2173507476048 -9.92924910386975 310
PPARGC1A PPARGC1A lightyellow 10.756736859054 0.284537659427065 10.4721991996269 -10.1876615401998 311
WISP1 WISP1 lightyellow 10.1618386588851 0.282002808333808 9.87983585055132 -9.59783304221751 312
SLC26A7 SLC26A7 lightyellow 11.7247148944886 0.281557798343249 11.4431570961454 -11.1615992978021 313
A1BG A1BG lightyellow 10.3539020250183 0.278394045199842 10.0755079798185 -9.79711393461864 314
ZNF285B ZNF285B lightyellow 10.0015262324614 0.278282030803521 9.72324420165788 -9.44496217085436 315
METRNL METRNL lightyellow 11.0331422682244 0.276560540678636 10.7565817275458 -10.4800211868671 316
AL353194.1 AL353194.1 lightyellow 9.1107925758548 0.276467879219999 8.83432469663481 -8.55785681741481 317
VN1R108P VN1R108P lightyellow 9.64508223706419 0.27589193415677 9.36919030290742 -9.09329836875065 318
LINC01433 LINC01433 lightyellow 9.81106853618001 0.273828941036718 9.53723959514329 -9.26341065410657 319
AL049612.1 AL049612.1 lightyellow 9.46486931685955 0.270487429747159 9.19438188711239 -8.92389445736523 320
MRPL15 MRPL15 lightyellow 10.8558267884494 0.269625611337705 10.5862011771117 -10.316575565774 321
NXF5 NXF5 lightyellow 10.9266752385145 0.265766191433747 10.6609090470807 -10.395142855647 322
AL023803.1 AL023803.1 lightyellow 9.55781609648955 0.264865372204908 9.29295072428464 -9.02808535207974 323
AL117332.1 AL117332.1 lightyellow 9.54644511737516 0.262183069556432 9.28426204781872 -9.02207897826229 324
AL391095.3 AL391095.3 lightyellow 10.0280556779276 0.258488762763635 9.76956691516397 -9.51107815240034 325
AL160270.2 AL160270.2 lightyellow 9.81795433048248 0.258432601337643 9.55952172914483 -9.30108912780719 326
NINL NINL lightyellow 10.6727475666321 0.255984505221847 10.4167630614103 -10.1607785561884 327
STX16 STX16 lightyellow 10.9600374361146 0.255563143881746 10.7044742922329 -10.4489111483511 328
GABBR1 GABBR1 lightyellow 11.187743243326 0.25436149103742 10.9333817522886 -10.6790202612512 329
NETO2 NETO2 lightyellow 9.59886807072201 0.250865452040235 9.34800261868177 -9.09713716664153 330
SIRPB3P SIRPB3P lightyellow 10.1608266366174 0.250291169071755 9.91053546754561 -9.66024429847385 331
RASL11B RASL11B lightyellow 9.49039494015409 0.244816053462737 9.24557888669136 -9.00076283322862 332
AL391095.1 AL391095.1 lightyellow 9.56742248215853 0.240339382528988 9.32708309962954 -9.08674371710055 333
AL121906.2 AL121906.2 lightyellow 9.71527825230321 0.232354730141635 9.48292352216158 -9.25056879201994 334
F5 F5 lightyellow 9.69946708284198 0.230929707294371 9.46853737554761 -9.23760766825324 335
KCNJ16 KCNJ16 lightyellow 10.5939909022868 0.229399240801752 10.3645916614851 -10.1351924206833 336
AC064807.4 AC064807.4 lightyellow 9.58570458558805 0.228976570015011 9.35672801557304 -9.12775144555803 337
DAO DAO lightyellow 10.7947405598604 0.227485206261647 10.5672553535988 -10.3397701473371 338
FOLH1B FOLH1B lightyellow 9.28947689746933 0.226556430985602 9.06292046648373 -8.83636403549812 339
TEX45 TEX45 lightyellow 9.5263710937721 0.225361669091758 9.30100942468034 -9.07564775558859 340
KATNAL2 KATNAL2 lightyellow 11.1661343075109 0.225000765663451 10.9411335418474 -10.716132776184 341
ZNF555 ZNF555 lightyellow 10.2893045954077 0.224628356421166 10.0646762389866 -9.84004788256541 342
AL390198.1 AL390198.1 lightyellow 9.34852874105383 0.222628019940684 9.12590072111315 -8.90327270117246 343
UBL4A UBL4A lightyellow 9.448155195576 0.218974777417388 9.22918041815861 -9.01020564074122 344
CETN2 CETN2 lightyellow 10.1186308616195 0.217555339789733 9.90107552182974 -9.68352018204 345
AC144831.1 AC144831.1 lightyellow 10.6796652295708 0.216600306520501 10.4630649230503 -10.2464646165298 346
AURKC AURKC lightyellow 9.44840488242976 0.21578314808903 9.23262173434074 -9.01683858625171 347
AL132655.2 AL132655.2 lightyellow 9.49366349680277 0.215435104618053 9.27822839218471 -9.06279328756666 348
ISYNA1 ISYNA1 lightyellow 10.1342117322931 0.213897159295769 9.92031457299738 -9.70641741370161 349
ACTR1B ACTR1B lightyellow 10.4986002997629 0.209046151469542 10.2895541482933 -10.0805079968238 350
AC091905.4 AC091905.4 lightyellow 9.16802494881724 0.208517797324152 8.95950715149309 -8.75098935416893 351
TANK TANK lightyellow 10.5998152646801 0.207834425717179 10.3919808389629 -10.1841464132457 352
AC027307.3 AC027307.3 lightyellow 10.1449436232087 0.207315012206541 9.93762861100219 -9.73031359879565 353
SEC14L1 SEC14L1 lightyellow 10.6670589612593 0.204873241240836 10.4621857200185 -10.2573124787777 354
KIFC3 KIFC3 lightyellow 11.2509169636461 0.198854861214463 11.0520621024317 -10.8532072412172 355
RN7SL477P RN7SL477P lightyellow 9.89839724461325 0.198340121922076 9.70005712269117 -9.5017170007691 356
LGALS4 LGALS4 lightyellow 10.2267198824661 0.197562897057789 10.0291569854083 -9.83159408835053 357
ISCU ISCU lightyellow 11.4912140359752 0.196799595882939 11.2944144400923 -11.0976148442093 358
APOBEC3H APOBEC3H lightyellow 10.397573308624 0.196377756031703 10.2011955525923 -10.0048177965606 359
FAM180B FAM180B lightyellow 10.0076048485039 0.19495864138108 9.81264620712278 -9.6176875657417 360
ACSBG1 ACSBG1 lightyellow 10.3291420345965 0.193002002036361 10.1361400325601 -9.94313803052374 361
NXF1 NXF1 lightyellow 10.5283773177182 0.192116995686807 10.3362603220314 -10.1441433263446 362
NOG NOG lightyellow 9.2544544464467 0.191319620548459 9.06313482589825 -8.87181520534979 363
AL136298.3 AL136298.3 lightyellow 9.47149715896035 0.187595810579729 9.28390134838062 -9.09630553780089 364
SLC25A39P2 SLC25A39P2 lightyellow 8.87880563247273 0.183281781909106 8.69552385056362 -8.51224206865452 365
AC130371.2 AC130371.2 lightyellow 10.3617114746526 0.1823335455776 10.179377929075 -9.99704438349738 366
RNU5E-1 RNU5E-1 lightyellow 9.51529012074506 0.178183814665741 9.33710630607932 -9.15892249141358 367
C1QTNF4 C1QTNF4 lightyellow 11.367343316353 0.177038116965217 11.1903051993877 -11.0132670824225 368
TRPM3 TRPM3 lightyellow 11.245358190507 0.176897314118268 11.0684608763888 -10.8915635622705 369
HMGN2 HMGN2 lightyellow 10.9902486759216 0.174050037122578 10.816198638799 -10.6421486016764 370
RDH16 RDH16 lightyellow 10.653784866172 0.171125159047192 10.4826597071248 -10.3115345480776 371
AL133353.1 AL133353.1 lightyellow 9.94003027554259 0.170649417105554 9.76938085843704 -9.59873144133148 372
TBC1D16 TBC1D16 lightyellow 11.1267253935 0.167635944702924 10.9590894487971 -10.7914535040942 373
AC064807.1 AC064807.1 lightyellow 10.3955930880075 0.164540373494095 10.2310527145134 -10.0665123410193 374
NDRG2 NDRG2 lightyellow 10.5500572004794 0.1640788195097 10.3859783809697 -10.22189956146 375
LCE1C LCE1C lightyellow 10.1583667064673 0.161802311995296 9.99656439447205 -9.83476208247675 376
SNHG11 SNHG11 lightyellow 9.40744522228685 0.161521627460546 9.2459235948263 -9.08440196736576 377
MAOA MAOA lightyellow 9.72694297140052 0.158598390104643 9.56834458129588 -9.40974619119124 378
AL109809.4 AL109809.4 lightyellow 9.66521136538972 0.155890157009697 9.50932120838002 -9.35343105137032 379
ESRRA ESRRA lightyellow 10.6714688488433 0.155347445552476 10.5161214032908 -10.3607739577383 380
AC004801.6 AC004801.6 lightyellow 9.58162490991338 0.154200240350359 9.42742466956302 -9.27322442921266 381
ALDH1A1 ALDH1A1 lightyellow 10.7448356648551 0.153478610196283 10.5913570546588 -10.4378784444625 382
SLC44A2 SLC44A2 lightyellow 10.312993829837 0.148493347398757 10.1645004824383 -10.0160071350395 383
ODC1 ODC1 lightyellow 10.2098577294644 0.14740978993619 10.0624479395282 -9.91503814959201 384
AC079305.3 AC079305.3 lightyellow 10.4917622567241 0.145985432620349 10.3457768241038 -10.1997913914834 385
SHC1 SHC1 lightyellow 10.7066822833481 0.145733342521497 10.5609489408266 -10.4152155983051 386
AL109809.2 AL109809.2 lightyellow 9.54562229853781 0.144986949921624 9.40063534861618 -9.25564839869456 387
SLC25A18 SLC25A18 lightyellow 9.78479493644944 0.143578491994048 9.6412164444554 -9.49763795246135 388
SPRY1 SPRY1 lightyellow 9.91173365712738 0.14046990335904 9.77126375376834 -9.6307938504093 389
AL121895.2 AL121895.2 lightyellow 9.15560107011388 0.13987348752875 9.01572758258513 -8.87585409505638 390
ZSCAN12 ZSCAN12 lightyellow 9.92720233634863 0.137640283706508 9.78956205264212 -9.65192176893561 391
AC007249.2 AC007249.2 lightyellow 9.8252407841534 0.136673079913507 9.6885677042399 -9.55189462432639 392
RN7SL76P RN7SL76P lightyellow 9.9397539070822 0.134681501175773 9.80507240590643 -9.67039090473065 393
ELMO3 ELMO3 lightyellow 10.0023604088232 0.110138430076422 9.89222197874675 -9.78208354867033 394
