PSID Gene Module kTotal kWithin kOut kDiff rank
MMS19 MMS19 HuAgeGBsplit_15 14.1868463856025 3.83933405060009 10.3475123350025 -6.50817828440237 1
MCMBP MCMBP HuAgeGBsplit_15 14.2002218225108 3.71504216618514 10.4851796563257 -6.77013749014057 2
ACTR1A ACTR1A HuAgeGBsplit_15 13.5180898225141 3.48846250277621 10.0296273197379 -6.54116481696171 3
TIAL1 TIAL1 HuAgeGBsplit_15 13.5613007760157 3.46355052730184 10.0977502487138 -6.63419972141197 4
CUEDC2 CUEDC2 HuAgeGBsplit_15 12.6245031788994 3.21466597155406 9.40983720734531 -6.19517123579126 5
HIF1AN HIF1AN HuAgeGBsplit_15 12.8895435735821 2.94390696156234 9.94563661201972 -7.00172965045738 6
SLF2 SLF2 HuAgeGBsplit_15 13.5404822805987 2.94210794990928 10.5983743306894 -7.65626638078015 7
SUFU SUFU HuAgeGBsplit_15 13.4290786308086 2.86132870846457 10.567749922344 -7.70642121387947 8
ABRAXAS2 ABRAXAS2 HuAgeGBsplit_15 12.6504885580498 2.81176119075731 9.83872736729246 -7.02696617653514 9
TM9SF3 TM9SF3 HuAgeGBsplit_15 12.4258153874322 2.72167204938307 9.7041433380491 -6.98247128866603 10
TNKS2 TNKS2 HuAgeGBsplit_15 13.0055437193529 2.70805899976169 10.2974847195912 -7.58942571982955 11
PPP2R2D PPP2R2D HuAgeGBsplit_15 12.8370797222774 2.6987439029899 10.1383358192876 -7.43959191629765 12
SHOC2 SHOC2 HuAgeGBsplit_15 12.7823957329205 2.66615663999495 10.1162390929255 -7.4500824529306 13
CHUK CHUK HuAgeGBsplit_15 12.79853061148 2.65769070856109 10.1408399029189 -7.48314919435778 14
C10orf76 C10orf76 HuAgeGBsplit_15 12.6197962909056 2.64077369006388 9.97902260084175 -7.33824891077787 15
ZDHHC6 ZDHHC6 HuAgeGBsplit_15 12.9927089743395 2.6407298796213 10.3519790947182 -7.71124921509687 16
GBF1 GBF1 HuAgeGBsplit_15 12.6470126032369 2.62779800325429 10.0192145999826 -7.39141659672832 17
FAM204A FAM204A HuAgeGBsplit_15 13.0938273868542 2.61810900665144 10.4757183802028 -7.85760937355133 18
CDC123 CDC123 HuAgeGBsplit_15 12.8265366940117 2.61641068135579 10.2101260126559 -7.59371533130013 19
RPP30 RPP30 HuAgeGBsplit_15 12.1103757944356 2.59224992127017 9.51812587316546 -6.92587595189529 20
WBP1L WBP1L HuAgeGBsplit_15 12.5670365719335 2.56997294654321 9.99706362539033 -7.42709067884712 21
FAM160B1 FAM160B1 HuAgeGBsplit_15 12.7300534408562 2.56721763296544 10.1628358078907 -7.59561817492531 22
WAPL WAPL HuAgeGBsplit_15 12.6626319578125 2.55687004864495 10.1057619091675 -7.5488918605226 23
HSPA14 HSPA14 HuAgeGBsplit_15 12.5256394984149 2.54765403133858 9.97798546707627 -7.43033143573769 24
ERLIN1 ERLIN1 HuAgeGBsplit_15 12.2722678094932 2.53400382860155 9.73826398089166 -7.2042601522901 25
MRPL43 MRPL43 HuAgeGBsplit_15 12.9672012739575 2.52118200979754 10.44601926416 -7.92483725436244 26
ZFYVE27 ZFYVE27 HuAgeGBsplit_15 12.3010290248949 2.4694849313642 9.83154409353069 -7.36205916216649 27
SMC3 SMC3 HuAgeGBsplit_15 13.1078196225906 2.44096327029439 10.6668563522962 -8.22589308200179 28
CWF19L1 CWF19L1 HuAgeGBsplit_15 11.9008472775267 2.42128091230005 9.47956636522666 -7.05828545292662 29
CACUL1 CACUL1 HuAgeGBsplit_15 12.0684985866811 2.41368069877519 9.65481788790595 -7.24113718913076 30
BTRC BTRC HuAgeGBsplit_15 12.723457783487 2.40388749028927 10.3195702931977 -7.91568280290844 31
ZDHHC16 ZDHHC16 HuAgeGBsplit_15 12.7010208014636 2.3959271707548 10.3050936307088 -7.90916645995397 32
PDCD11 PDCD11 HuAgeGBsplit_15 12.2994370157657 2.38924345316769 9.91019356259804 -7.52095010943035 33
FBXO18 FBXO18 HuAgeGBsplit_15 12.7625337236164 2.34776568386855 10.4147680397479 -8.06700235587934 34
GDI2 GDI2 HuAgeGBsplit_15 12.3194344958471 2.33970988948041 9.97972460636667 -7.64001471688626 35
DPCD DPCD HuAgeGBsplit_15 12.2447009792724 2.3231341099552 9.9215668693172 -7.598432759362 36
SLC25A28 SLC25A28 HuAgeGBsplit_15 12.8260717200417 2.31923608496243 10.5068356350792 -8.18759955011681 37
ALDH18A1 ALDH18A1 HuAgeGBsplit_15 12.4877763665976 2.30463086617892 10.1831455004187 -7.87851463423979 38
ATP5F1C ATP5F1C HuAgeGBsplit_15 12.7457702791449 2.2899176009682 10.4558526781767 -8.16593507720846 39
ATE1 ATE1 HuAgeGBsplit_15 12.5340228824459 2.28620966689164 10.2478132155542 -7.9616035486626 40
CUTC CUTC HuAgeGBsplit_15 11.6102453165149 2.25155726235652 9.35868805415841 -7.10713079180188 41
LZTS2 LZTS2 HuAgeGBsplit_15 12.1569477701454 2.24362132639231 9.91332644375308 -7.66970511736077 42
SEC23IP SEC23IP HuAgeGBsplit_15 12.3414229363915 2.23530429509711 10.1061186412944 -7.8708143461973 43
R3HCC1L R3HCC1L HuAgeGBsplit_15 12.367926148958 2.23443279470789 10.1334933542501 -7.89906055954226 44
MARCH5 MARCH5 HuAgeGBsplit_15 12.3066532576694 2.2209281493677 10.0857251083017 -7.864796958934 45
FAM45A FAM45A HuAgeGBsplit_15 12.9133080896022 2.17646582722522 10.736842262377 -8.56037643515175 46
KIN KIN HuAgeGBsplit_15 12.6474310456765 2.17540117598084 10.4720298696957 -8.29662869371486 47
EIF3A EIF3A HuAgeGBsplit_15 12.3041540172244 2.17519317793145 10.128960839293 -7.95376766136153 48
PDZD8 PDZD8 HuAgeGBsplit_15 12.4057187386155 2.1698943760621 10.2358243625534 -8.06592998649129 49
BLOC1S2 BLOC1S2 HuAgeGBsplit_15 11.9179124409278 2.15140191456656 9.76651052636127 -7.61510861179471 50
RBM17 RBM17 HuAgeGBsplit_15 12.8898674733592 2.12412154961017 10.765745923749 -8.64162437413883 51
LRRC27 LRRC27 HuAgeGBsplit_15 12.2451634484548 2.09462238679255 10.1505410616622 -8.05591867486969 52
NOLC1 NOLC1 HuAgeGBsplit_15 11.7100053910372 2.08384522319899 9.62616016783818 -7.54231494463919 53
EXOSC1 EXOSC1 HuAgeGBsplit_15 11.7951405254697 2.05919277061172 9.73594775485796 -7.67675498424623 54
NSMCE4A NSMCE4A HuAgeGBsplit_15 12.6610517627213 2.04658136417517 10.6144703985461 -8.56788903437094 55
GTPBP4 GTPBP4 HuAgeGBsplit_15 12.2923666307054 2.04563205813374 10.2467345725717 -8.20110251443791 56
HPS6 HPS6 HuAgeGBsplit_15 12.1770420530765 2.01614978431844 10.1608922687581 -8.14474248443962 57
DCLRE1A DCLRE1A HuAgeGBsplit_15 12.5004849571729 2.01453081491399 10.4859541422589 -8.4714233273449 58
TCTN3 TCTN3 HuAgeGBsplit_15 12.4478395767848 2.01209675970819 10.4357428170766 -8.4236460573684 59
LARP4B LARP4B HuAgeGBsplit_15 12.0521219594558 2.00516743927453 10.0469545201813 -8.04178708090674 60
GLRX3 GLRX3 HuAgeGBsplit_15 11.4019566403254 2.00165907191655 9.40029756840884 -7.39863849649229 61
SLK SLK HuAgeGBsplit_15 12.5268928333838 1.99610991893508 10.5307829144487 -8.53467299551364 62
PCGF6 PCGF6 HuAgeGBsplit_15 12.2691713181198 1.98365774837105 10.2855135697487 -8.30185582137767 63
NHLRC2 NHLRC2 HuAgeGBsplit_15 11.9355352903567 1.9664201193262 9.96911517103046 -8.00269505170427 64
IDE IDE HuAgeGBsplit_15 12.6687487917898 1.95630424228377 10.7124445495061 -8.75614030722229 65
BUB3 BUB3 HuAgeGBsplit_15 11.3711670173556 1.95510500298017 9.41606201437541 -7.46095701139524 66
NOC3L NOC3L HuAgeGBsplit_15 12.1831737487094 1.94973495113284 10.2334387975766 -8.28370384644373 67
PPRC1 PPRC1 HuAgeGBsplit_15 11.7161508009564 1.94029915045236 9.775851650504 -7.83555250005164 68
NUDT5 NUDT5 HuAgeGBsplit_15 12.1851119883385 1.90470319324053 10.280408795098 -8.37570560185748 69
SEPHS1 SEPHS1 HuAgeGBsplit_15 12.2436273133982 1.88619368127113 10.357433632127 -8.47123995085592 70
XPNPEP1 XPNPEP1 HuAgeGBsplit_15 11.4122729171356 1.88482440149893 9.52744851563672 -7.64262411413779 71
RRP12 RRP12 HuAgeGBsplit_15 11.556719486165 1.84149225104479 9.71522723512025 -7.87373498407546 72
ARL3 ARL3 HuAgeGBsplit_15 11.6357270270187 1.81433002728663 9.82139699973204 -8.00706697244541 73
RAB11FIP2 RAB11FIP2 HuAgeGBsplit_15 11.2808236552621 1.78617841411556 9.49464524114657 -7.70846682703101 74
MINDY3 MINDY3 HuAgeGBsplit_15 11.7326425582888 1.78163323428657 9.95100932400219 -8.16937608971562 75
MGEA5 MGEA5 HuAgeGBsplit_15 11.4123893006445 1.77526795685467 9.6371213437898 -7.86185338693513 76
EXOC6 EXOC6 HuAgeGBsplit_15 12.1015091977673 1.74668183344007 10.3548273643272 -8.60814553088712 77
LCOR LCOR HuAgeGBsplit_15 11.7977162779291 1.71953285830722 10.0781834196219 -8.35865056131464 78
BCCIP BCCIP HuAgeGBsplit_15 11.7471604107935 1.70880093955718 10.0383594712363 -8.32955853167909 79
TRUB1 TRUB1 HuAgeGBsplit_15 11.4005571969146 1.69595733466236 9.70459986225227 -8.00864252758991 80
AP3M1 AP3M1 HuAgeGBsplit_15 12.5449340868211 1.69469410063042 10.8502399861907 -9.15554588556025 81
ANKRD16 ANKRD16 HuAgeGBsplit_15 12.3283980647576 1.68710150859664 10.641296556161 -8.95419504756431 82
UPF2 UPF2 HuAgeGBsplit_15 12.077514574684 1.66179787116363 10.4157167035204 -8.75391883235675 83
FRA10AC1 FRA10AC1 HuAgeGBsplit_15 11.2128343067527 1.65907961862894 9.55375468812381 -7.89467506949487 84
DDX50 DDX50 HuAgeGBsplit_15 11.7883861949903 1.64833651392849 10.1400496810618 -8.4917131671333 85
DIP2C DIP2C HuAgeGBsplit_15 12.2141059703901 1.63461745567253 10.5794885147175 -8.94487105904498 86
DCLRE1C DCLRE1C HuAgeGBsplit_15 12.1802686127093 1.62528446906541 10.5549841436439 -8.92969967457853 87
VPS26A VPS26A HuAgeGBsplit_15 11.9364471776679 1.62139305399679 10.3150541236711 -8.6936610696743 88
ACADSB ACADSB HuAgeGBsplit_15 12.1125021324967 1.60676635534706 10.5057357771497 -8.89896942180259 89
SAR1A SAR1A HuAgeGBsplit_15 11.823556744952 1.59561320578315 10.2279435391688 -8.63233033338568 90
STAM STAM HuAgeGBsplit_15 11.7093431491471 1.58934206358654 10.1200010855605 -8.530659021974 91
PLCE1 PLCE1 HuAgeGBsplit_15 11.5113233188462 1.58471902801897 9.92660429082727 -8.3418852628083 92
ZRANB1 ZRANB1 HuAgeGBsplit_15 11.9830197737873 1.5844714764935 10.3985482972938 -8.81407682080032 93
BEND7 BEND7 HuAgeGBsplit_15 12.299245417448 1.56718834898337 10.7320570684646 -9.16486871948127 94
UBTD1 UBTD1 HuAgeGBsplit_15 11.2996194959768 1.56443565541928 9.73518384055756 -8.17074818513828 95
SMNDC1 SMNDC1 HuAgeGBsplit_15 10.9459982274214 1.55377254993969 9.39222567748167 -7.83845312754198 96
PGAM1 PGAM1 HuAgeGBsplit_15 11.9052628980359 1.55217152405835 10.3530913739776 -8.80091984991921 97
MXI1 MXI1 HuAgeGBsplit_15 11.6838122391187 1.54606356325335 10.1377486758653 -8.59168511261198 98
ZNF518A ZNF518A HuAgeGBsplit_15 11.5502789284272 1.53397887795197 10.0163000504753 -8.48232117252328 99
POLR3A POLR3A HuAgeGBsplit_15 11.0028488363773 1.52669591066301 9.47615292571431 -7.94945701505131 100
PI4K2A PI4K2A HuAgeGBsplit_15 11.4767278994517 1.50623945842853 9.97048844102315 -8.46424898259462 101
PPP3CB PPP3CB HuAgeGBsplit_15 11.9735283571652 1.50334045442836 10.4701879027368 -8.96684744830847 102
ECHS1 ECHS1 HuAgeGBsplit_15 11.0981799115313 1.4920601425524 9.60611976897894 -8.11405962642655 103
DNAJB12 DNAJB12 HuAgeGBsplit_15 12.2216537152519 1.47633577987387 10.745317935378 -9.26898215550417 104
LDB1 LDB1 HuAgeGBsplit_15 11.7260025614397 1.45852726371539 10.2674752977243 -8.80894803400895 105
KIF1BP KIF1BP HuAgeGBsplit_15 12.1499247363399 1.4462088911512 10.7037158451887 -9.25750695403753 106
TUBGCP2 TUBGCP2 HuAgeGBsplit_15 11.0482868445033 1.43639922512422 9.61188761937908 -8.17548839425486 107
TRIM8 TRIM8 HuAgeGBsplit_15 11.7171286361521 1.42191142139562 10.2952172147564 -8.87330579336082 108
ZMYND11 ZMYND11 HuAgeGBsplit_15 11.950984659814 1.39542123379638 10.5555634260176 -9.16014219222124 109
YME1L1 YME1L1 HuAgeGBsplit_15 11.5502635487201 1.38550635007241 10.1647571986477 -8.77925084857532 110
SFR1 SFR1 HuAgeGBsplit_15 11.4554862077105 1.37672209439497 10.0787641133155 -8.70204201892057 111
SGPL1 SGPL1 HuAgeGBsplit_15 12.1781148981404 1.37318539306845 10.804929505072 -9.43174411200353 112
SAMD8 SAMD8 HuAgeGBsplit_15 12.2510489044452 1.36791056743178 10.8831383370134 -9.51522776958167 113
DHX32 DHX32 HuAgeGBsplit_15 11.9212728961127 1.3407198007096 10.5805530954031 -9.23983329469348 114
HERC4 HERC4 HuAgeGBsplit_15 11.1294101094691 1.33699001589127 9.79242009357787 -8.45543007768659 115
NSUN6 NSUN6 HuAgeGBsplit_15 11.5422403897502 1.33321807275913 10.2090223169911 -8.87580424423195 116
WDR11 WDR11 HuAgeGBsplit_15 12.0051414179601 1.33056551121951 10.6745759067406 -9.34401039552108 117
NFKB2 NFKB2 HuAgeGBsplit_15 11.8419917660373 1.33016189837149 10.5118298676658 -9.1816679692943 118
FBXL15 FBXL15 HuAgeGBsplit_15 11.9970230618951 1.32745948024575 10.6695635816493 -9.34210410140357 119
ANXA7 ANXA7 HuAgeGBsplit_15 11.6752805994083 1.32594066560684 10.3493399338014 -9.02339926819461 120
GSTO1 GSTO1 HuAgeGBsplit_15 10.9894210958049 1.32320505984462 9.66621603596025 -8.34301097611563 121
EDRF1 EDRF1 HuAgeGBsplit_15 11.2749072896427 1.32185887936833 9.95304841027436 -8.63118953090603 122
CNNM2 CNNM2 HuAgeGBsplit_15 11.2054532604917 1.31713478738804 9.88831847310363 -8.5711836857156 123
UROS UROS HuAgeGBsplit_15 11.3276628169001 1.31014962512169 10.0175131917784 -8.70736356665669 124
VDAC2 VDAC2 HuAgeGBsplit_15 11.4580764691588 1.28446293215485 10.1736135370039 -8.88915060484907 125
VTI1A VTI1A HuAgeGBsplit_15 11.525757715043 1.28334074607237 10.2424169689706 -8.95907622289828 126
MICU1 MICU1 HuAgeGBsplit_15 11.7161539265102 1.27597436133962 10.4401795651706 -9.16420520383096 127
DHTKD1 DHTKD1 HuAgeGBsplit_15 12.0014460604394 1.26561470967402 10.7358313507654 -9.47021664109134 128
CCSER2 CCSER2 HuAgeGBsplit_15 11.4864023340962 1.26356714181277 10.2228351922835 -8.95926805047069 129
BBIP1 BBIP1 HuAgeGBsplit_15 11.6004685168117 1.26027677951207 10.3401917372996 -9.07991495778751 130
SUV39H2 SUV39H2 HuAgeGBsplit_15 11.3234353222837 1.25588050070952 10.0675548215742 -8.81167432086466 131
SFXN3 SFXN3 HuAgeGBsplit_15 11.4340663279585 1.23980176765541 10.1942645603031 -8.95446279264768 132
ANKRD26 ANKRD26 HuAgeGBsplit_15 11.6158502491621 1.23369960951263 10.3821506396495 -9.14845103013685 133
CTBP2 CTBP2 HuAgeGBsplit_15 11.2538130761325 1.23082832430093 10.0229847518316 -8.79215642753067 134
TAF3 TAF3 HuAgeGBsplit_15 11.2459487855042 1.22524322929604 10.0207055562081 -8.7954623269121 135
CHCHD1 CHCHD1 HuAgeGBsplit_15 10.9832726699499 1.2244935745824 9.75877909536754 -8.53428552078515 136
NT5C2 NT5C2 HuAgeGBsplit_15 11.1100069304576 1.21601295831291 9.89399397214465 -8.67798101383175 137
RUFY2 RUFY2 HuAgeGBsplit_15 11.8466783964733 1.21390252884193 10.6327758676313 -9.41887333878941 138
WDR37 WDR37 HuAgeGBsplit_15 10.9123337563047 1.21204266612391 9.7002910901808 -8.48824842405689 139
ARHGAP21 ARHGAP21 HuAgeGBsplit_15 11.7724839287637 1.20137256255385 10.5711113662099 -9.36973880365604 140
MLLT10 MLLT10 HuAgeGBsplit_15 11.3328018723871 1.19845631481974 10.1343455575674 -8.93588924274763 141
OAT OAT HuAgeGBsplit_15 11.0587045436885 1.18194411961897 9.87676042406951 -8.69481630445054 142
PRDX3 PRDX3 HuAgeGBsplit_15 11.1208192053538 1.18182515261751 9.93899405273628 -8.75716890011877 143
RSU1 RSU1 HuAgeGBsplit_15 11.5652968173423 1.1605312911965 10.4047655261458 -9.24423423494932 144
C10orf88 C10orf88 HuAgeGBsplit_15 10.3971467746806 1.15954716571131 9.23759960896924 -8.07805244325793 145
CUL2 CUL2 HuAgeGBsplit_15 10.9815082345006 1.15952379389579 9.82198444060482 -8.66246064670902 146
ECD ECD HuAgeGBsplit_15 11.6819239065647 1.14916356837196 10.5327603381928 -9.38359676982081 147
SEC24C SEC24C HuAgeGBsplit_15 11.6620545391416 1.13765637662644 10.5243981625152 -9.38674178588873 148
FAM35A FAM35A HuAgeGBsplit_15 12.0230338975925 1.12955770131369 10.8934761962788 -9.76391849496508 149
USP6NL USP6NL HuAgeGBsplit_15 10.9866904328743 1.12810824206489 9.85858219080939 -8.7304739487445 150
GHITM GHITM HuAgeGBsplit_15 11.0387861791615 1.12163684250878 9.91714933665269 -8.79551249414391 151
SLC35G1 SLC35G1 HuAgeGBsplit_15 11.931801655749 1.11848864296714 10.8133130127818 -9.6948243698147 152
TMEM254 TMEM254 HuAgeGBsplit_15 11.9058196476021 1.11065339924224 10.7951662483599 -9.68451284911763 153
AC068775.1 AC068775.1 HuAgeGBsplit_15 11.6118036934591 1.10285423887946 10.5089494545796 -9.40609521570013 154
DOCK1 DOCK1 HuAgeGBsplit_15 12.0585746749181 1.09119330978479 10.9673813651333 -9.87618805534855 155
ASCC1 ASCC1 HuAgeGBsplit_15 11.1237864868761 1.08739144411677 10.0363950427593 -8.94900359864257 156
NUTM2D NUTM2D HuAgeGBsplit_15 10.8084031451081 1.08655689092538 9.72184625418267 -8.63528936325729 157
ATP5MD ATP5MD HuAgeGBsplit_15 10.6974009272305 1.07240832623046 9.624992601 -8.55258427476954 158
TWNK TWNK HuAgeGBsplit_15 10.84037487381 1.06833387268791 9.77204100112205 -8.70370712843414 159
SUPV3L1 SUPV3L1 HuAgeGBsplit_15 11.2658260409049 1.068011677136 10.1978143637689 -9.12980268663292 160
MCU MCU HuAgeGBsplit_15 13.1881838293608 1.0664453931107 12.1217384362501 -11.0552930431394 161
EIF4EBP2 EIF4EBP2 HuAgeGBsplit_15 11.5704599792611 1.06300297688801 10.5074570023731 -9.44445402548509 162
DLG5 DLG5 HuAgeGBsplit_15 11.8375343008016 1.02986194759077 10.8076723532109 -9.7778104056201 163
DNMBP DNMBP HuAgeGBsplit_15 10.9511201142557 1.02443484182184 9.9266852724339 -8.90225043061206 164
STK32C STK32C HuAgeGBsplit_15 10.9395204448762 1.0176414768244 9.92187896805179 -8.90423749122739 165
HELLS HELLS HuAgeGBsplit_15 11.6868161069912 1.01218432591483 10.6746317810764 -9.66244745516157 166
RPARP-AS1 RPARP-AS1 HuAgeGBsplit_15 10.0306955925433 0.992986489793534 9.03770910274981 -8.04472261295627 167
FAM208B FAM208B HuAgeGBsplit_15 11.5289985138292 0.95247216486604 10.5765263489632 -9.62405418409713 168
DNAJC9 DNAJC9 HuAgeGBsplit_15 10.9922062773771 0.941390135240265 10.0508161421369 -9.1094260068966 169
ADGRA1 ADGRA1 HuAgeGBsplit_15 11.3727818790716 0.935413309446206 10.4373685696254 -9.50195526017915 170
SIRT1 SIRT1 HuAgeGBsplit_15 11.3502494152048 0.934587418574898 10.4156619966299 -9.48107457805498 171
ANAPC16 ANAPC16 HuAgeGBsplit_15 11.3269299781629 0.931014940718649 10.3959150374443 -9.46490009672564 172
TRDMT1 TRDMT1 HuAgeGBsplit_15 11.7480727974455 0.93082243559873 10.8172503618468 -9.88642792624804 173
DDX21 DDX21 HuAgeGBsplit_15 11.0904377999063 0.926884785205727 10.1635530147005 -9.2366682294948 174
RAB18 RAB18 HuAgeGBsplit_15 11.0569713630163 0.92349126122622 10.13348010179 -9.20998884056382 175
BTAF1 BTAF1 HuAgeGBsplit_15 10.9586429846993 0.920413463173021 10.0382295215263 -9.11781605835329 176
SORBS1 SORBS1 HuAgeGBsplit_15 10.8738597211895 0.91946461580749 9.95439510538204 -9.03493048957455 177
LINC00863 LINC00863 HuAgeGBsplit_15 10.5354299390023 0.917639178342586 9.61779076065973 -8.70015158231714 178
ACBD5 ACBD5 HuAgeGBsplit_15 11.4152127057612 0.910836140613593 10.5043765651476 -9.59354042453405 179
ADK ADK HuAgeGBsplit_15 12.2197041809343 0.903809934929013 11.3158942460052 -10.4120843110762 180
OPTN OPTN HuAgeGBsplit_15 10.9008068941761 0.895485840741547 10.0053210534345 -9.10983521269299 181
AL109807.1 AL109807.1 HuAgeGBsplit_15 11.7777680051217 0.893772919168294 10.8839950859534 -9.9902221667851 182
CCDC186 CCDC186 HuAgeGBsplit_15 11.1281159745179 0.892058331969711 10.2360576425482 -9.34399931057849 183
ZSWIM8 ZSWIM8 HuAgeGBsplit_15 11.5904218461475 0.891408089029663 10.6990137571178 -9.80760566808817 184
WAC-AS1 WAC-AS1 HuAgeGBsplit_15 10.9948125809977 0.888025212210465 10.1067873687873 -9.21876215657679 185
WAC WAC HuAgeGBsplit_15 11.4678700096217 0.885241631694476 10.5826283779272 -9.69738674623271 186
KLRC2 KLRC2 HuAgeGBsplit_15 10.8188025149176 0.88331378148911 9.93548873342853 -9.05217495193942 187
LRRC20 LRRC20 HuAgeGBsplit_15 10.8286895528401 0.879552522295328 9.94913703054477 -9.06958450824944 188
ARL5B ARL5B HuAgeGBsplit_15 10.894175359994 0.87466493928374 10.0195104207102 -9.14484548142651 189
PWWP2B PWWP2B HuAgeGBsplit_15 11.3223100645091 0.857710583853656 10.4645994806555 -9.6068888968018 190
SEC61A2 SEC61A2 HuAgeGBsplit_15 11.7738101486501 0.856991896772534 10.9168182518775 -10.059826355105 191
ENKUR ENKUR HuAgeGBsplit_15 11.4456072931323 0.856508366314733 10.5890989268175 -9.73259056050281 192
AL158212.3 AL158212.3 HuAgeGBsplit_15 10.7576133817093 0.843092408095545 9.91452097361374 -9.07142856551819 193
MSRB2 MSRB2 HuAgeGBsplit_15 11.2399016112267 0.842722939373532 10.3971786718531 -9.55445573247961 194
ASB13 ASB13 HuAgeGBsplit_15 10.5168223934721 0.835210337571322 9.68161205590076 -8.84640171832944 195
NUTM2A-AS1 NUTM2A-AS1 HuAgeGBsplit_15 10.1965474958551 0.831669104271413 9.36487839158367 -8.53320928731226 196
TACC2 TACC2 HuAgeGBsplit_15 11.1986497979252 0.830761529887917 10.3678882680373 -9.53712673814939 197
MASTL MASTL HuAgeGBsplit_15 10.7311037941829 0.824683317775732 9.90642047640719 -9.08173715863146 198
AC009902.2 AC009902.2 HuAgeGBsplit_15 9.99943770865811 0.822046125696056 9.17739158296205 -8.355345457266 199
PDSS1 PDSS1 HuAgeGBsplit_15 10.8637991090797 0.806654929790186 10.0571441792895 -9.25048924949928 200
KAT6B KAT6B HuAgeGBsplit_15 11.4366761345075 0.798463886849588 10.6382122476579 -9.83974836080835 201
ZNF25 ZNF25 HuAgeGBsplit_15 11.7500737532823 0.798298398443396 10.9517753548389 -10.1534769563955 202
DNA2 DNA2 HuAgeGBsplit_15 10.6149492994725 0.797346137239272 9.81760316223319 -9.02025702499391 203
PDCD4 PDCD4 HuAgeGBsplit_15 10.8935798373709 0.796554650798242 10.0970251865727 -9.30047053577444 204
ADD3 ADD3 HuAgeGBsplit_15 11.5020930439312 0.790093000297316 10.7120000436339 -9.92190704333662 205
AL391684.1 AL391684.1 HuAgeGBsplit_15 10.2806118131518 0.785623074158542 9.49498873899321 -8.70936566483467 206
AC067750.1 AC067750.1 HuAgeGBsplit_15 10.3658025541792 0.781327904819277 9.58447464935995 -8.80314674454067 207
GOT1 GOT1 HuAgeGBsplit_15 10.8725050196001 0.780648178265391 10.0918568413347 -9.31120866306929 208
FRAT2 FRAT2 HuAgeGBsplit_15 9.93627832428364 0.778378669900836 9.1578996543828 -8.37952098448196 209
INPP5F INPP5F HuAgeGBsplit_15 11.2550243578499 0.765222187048376 10.4898021708015 -9.72457998375315 210
CCDC6 CCDC6 HuAgeGBsplit_15 10.7603819186858 0.763241333977233 9.9971405847086 -9.23389925073137 211
ENTPD7 ENTPD7 HuAgeGBsplit_15 10.7877068249003 0.762748732982842 10.0249580919174 -9.26220935893459 212
SPRN SPRN HuAgeGBsplit_15 10.5136680023331 0.758688084840666 9.75497991749242 -8.99629183265175 213
AC009902.3 AC009902.3 HuAgeGBsplit_15 9.96034525587428 0.756369911829759 9.20397534404452 -8.44760543221476 214
SOX21 SOX21 HuAgeGBsplit_15 10.5481976673794 0.753123030100185 9.79507463727922 -9.04195160717904 215
WASHC2A WASHC2A HuAgeGBsplit_15 11.1054667911632 0.749835713177018 10.3556310779862 -9.6057953648092 216
HK1 HK1 HuAgeGBsplit_15 10.3510965780276 0.747233020969379 9.60386355705826 -8.85663053608888 217
TAF5 TAF5 HuAgeGBsplit_15 10.6600169373241 0.747187273389296 9.91282966393478 -9.16564239054548 218
NPM3 NPM3 HuAgeGBsplit_15 10.6327127828186 0.739486634803075 9.89322614801552 -9.15373951321244 219
SEC31B SEC31B HuAgeGBsplit_15 10.8178083009079 0.737441991598484 10.0803663093094 -9.34292431771095 220
LINC02294 LINC02294 HuAgeGBsplit_15 11.3284889798863 0.736975949483302 10.591513030403 -9.85453708091969 221
MTPAP MTPAP HuAgeGBsplit_15 10.6597499050049 0.73607016971795 9.92367973528693 -9.18760956556898 222
PFKP PFKP HuAgeGBsplit_15 10.9178637695783 0.733929440318279 10.1839343292601 -9.45000488894178 223
TET1 TET1 HuAgeGBsplit_15 11.4395317521072 0.730374879238551 10.7091568728687 -9.97878199363011 224
MARCH8 MARCH8 HuAgeGBsplit_15 11.1617584380795 0.727593779325348 10.4341646587542 -9.70657087942881 225
AC022075.1 AC022075.1 HuAgeGBsplit_15 11.1138158521053 0.727210386367584 10.3866054657377 -9.65939507937009 226
AL359878.1 AL359878.1 HuAgeGBsplit_15 10.9374633388338 0.70883150760008 10.2286318312337 -9.51980032363367 227
ABLIM1 ABLIM1 HuAgeGBsplit_15 10.4651118170768 0.700539444786797 9.76457237228999 -9.06403292750319 228
TYSND1 TYSND1 HuAgeGBsplit_15 10.722080425643 0.70004464570131 10.0220357799417 -9.3219911342404 229
MINPP1 MINPP1 HuAgeGBsplit_15 10.4606813140351 0.694328148931006 9.76635316510414 -9.07202501617313 230
AC022075.3 AC022075.3 HuAgeGBsplit_15 11.4703417030467 0.693973539951175 10.7763681630955 -10.0823946231443 231
FAM171A1 FAM171A1 HuAgeGBsplit_15 10.1703356672346 0.682857441635121 9.4874782255995 -8.80462078396438 232
SOX21-AS1 SOX21-AS1 HuAgeGBsplit_15 10.7833964626347 0.680703919879322 10.1026925427554 -9.42198862287605 233
PARG PARG HuAgeGBsplit_15 10.4728674898443 0.678524535755132 9.79434295408918 -9.11581841833405 234
ABI1 ABI1 HuAgeGBsplit_15 10.6279669691047 0.676889114584732 9.95107785452 -9.27418873993527 235
IKZF5 IKZF5 HuAgeGBsplit_15 10.3375672916556 0.670089590189103 9.6674777014665 -8.9973881112774 236
LINC02293 LINC02293 HuAgeGBsplit_15 11.4085117581354 0.655042126060912 10.7534696320745 -10.0984275060136 237
PANK1 PANK1 HuAgeGBsplit_15 10.7607256106595 0.652193301190478 10.108532309469 -9.45633900827853 238
GLUD1P3 GLUD1P3 HuAgeGBsplit_15 10.1710056104316 0.649920158396471 9.52108545203517 -8.8711652936387 239
WASHC2C WASHC2C HuAgeGBsplit_15 11.7313433740474 0.646817794201558 11.0845255798458 -10.4377077856442 240
AIFM2 AIFM2 HuAgeGBsplit_15 10.5958558851276 0.646391560415373 9.94946432471218 -9.30307276429681 241
RHOBTB1 RHOBTB1 HuAgeGBsplit_15 11.7384186790185 0.639884777312553 11.098533901706 -10.4586491243934 242
CAMK1D CAMK1D HuAgeGBsplit_15 10.307997105343 0.63796141331079 9.67003569203226 -9.03207427872147 243
PTEN PTEN HuAgeGBsplit_15 11.1157226915102 0.632975408521323 10.4827472829889 -9.84977187446757 244
FBXW4 FBXW4 HuAgeGBsplit_15 10.3483028302126 0.632925057633957 9.71537777257865 -9.0824527149447 245
CUZD1 CUZD1 HuAgeGBsplit_15 10.655143080215 0.63175149353623 10.0233915866788 -9.39164009314256 246
REEP3 REEP3 HuAgeGBsplit_15 11.5343333666318 0.630078877298061 10.9042544893337 -10.2741756120357 247
CCAR1 CCAR1 HuAgeGBsplit_15 10.8595995820256 0.62923936862473 10.2303602134009 -9.60112084477613 248
KLRC4-KLRK1 KLRC4-KLRK1 HuAgeGBsplit_15 10.9471885509282 0.619603356470037 10.3275851944582 -9.70798183798815 249
PTPRE PTPRE HuAgeGBsplit_15 10.9382465028705 0.618806438270684 10.3194400645998 -9.70063362632912 250
TCF7L2 TCF7L2 HuAgeGBsplit_15 10.4104481557153 0.616896202833528 9.7935519528818 -9.17665575004827 251
JMJD1C JMJD1C HuAgeGBsplit_15 11.9851971032677 0.61572761956142 11.3694694837063 -10.7537418641449 252
EPC1 EPC1 HuAgeGBsplit_15 11.5973957770184 0.613741170031456 10.9836546069869 -10.3699134369555 253
NCOA4 NCOA4 HuAgeGBsplit_15 11.0680483494303 0.611706170016142 10.4563421794142 -9.84463600939801 254
AL731569.1 AL731569.1 HuAgeGBsplit_15 9.61867899248655 0.611258601877065 9.00742039060948 -8.39616178873242 255
ZEB1-AS1 ZEB1-AS1 HuAgeGBsplit_15 10.254187519807 0.610376424686908 9.6438110951201 -9.03343467043319 256
SLC25A16 SLC25A16 HuAgeGBsplit_15 11.4015715982564 0.605104735997296 10.7964668622592 -10.1913621262619 257
PRTFDC1 PRTFDC1 HuAgeGBsplit_15 10.6915267064812 0.603586191475366 10.0879405150059 -9.48435432353049 258
AL137145.2 AL137145.2 HuAgeGBsplit_15 10.7180899836079 0.600356638648221 10.1177333449596 -9.51737670631141 259
PSAP PSAP HuAgeGBsplit_15 11.7706205567608 0.59836553308003 11.1722550236808 -10.5738894906008 260
SNHG26 SNHG26 HuAgeGBsplit_15 10.4561886233942 0.59765744559695 9.85853117779722 -9.26087373220027 261
AC022075.2 AC022075.2 HuAgeGBsplit_15 10.1878514884277 0.597504340012654 9.59034714841509 -8.99284280840244 262
IPMK IPMK HuAgeGBsplit_15 11.0513385457493 0.597459090235797 10.4538794555135 -9.8564203652777 263
BMPR1A BMPR1A HuAgeGBsplit_15 10.6488643819862 0.595420382660482 10.0534439993257 -9.45802361666519 264
PCGF5 PCGF5 HuAgeGBsplit_15 10.1156599011808 0.595128467609624 9.52053143357116 -8.92540296596153 265
UBE2D1 UBE2D1 HuAgeGBsplit_15 11.7066301228605 0.59416249567674 11.1124676271837 -10.518305131507 266
CALHM2 CALHM2 HuAgeGBsplit_15 10.0773298539386 0.593267652409833 9.48406220152873 -8.89079454911889 267
STN1 STN1 HuAgeGBsplit_15 10.1769258110616 0.592701648915097 9.58422416214654 -8.99152251323144 268
AC073389.2 AC073389.2 HuAgeGBsplit_15 11.0740474570186 0.592691650830507 10.4813558061881 -9.88866415535755 269
PDZD7 PDZD7 HuAgeGBsplit_15 10.863892735296 0.592333208947 10.271559526349 -9.67922631740196 270
RPP38 RPP38 HuAgeGBsplit_15 10.3253588743812 0.591719180965375 9.73363969341583 -9.14192051245045 271
HPS1 HPS1 HuAgeGBsplit_15 10.4111045168339 0.589401126267534 9.82170339056638 -9.23230226429885 272
FRAT1 FRAT1 HuAgeGBsplit_15 10.5412084972921 0.578777226128235 9.96243127116389 -9.38365404503565 273
CCNY CCNY HuAgeGBsplit_15 11.1016488873446 0.578645313459717 10.5230035738849 -9.94435826042516 274
ONECUT3 ONECUT3 HuAgeGBsplit_15 10.6574005377731 0.572895188633204 10.0845053491399 -9.51161016050665 275
SEPT7P9 SEPT7P9 HuAgeGBsplit_15 10.5430159002489 0.566129805831813 9.97688609441709 -9.41075628858528 276
SFXN4 SFXN4 HuAgeGBsplit_15 10.0378902937653 0.565948295245762 9.47194199851956 -8.9059937032738 277
FUT11 FUT11 HuAgeGBsplit_15 10.4458022360597 0.565843523890491 9.87995871216919 -9.3141151882787 278
GPAM GPAM HuAgeGBsplit_15 11.3145476198553 0.560929498981064 10.7536181208742 -10.1926886218932 279
CDNF CDNF HuAgeGBsplit_15 10.8247121221081 0.559967421116397 10.2647447009917 -9.70477727987526 280
MAPK8 MAPK8 HuAgeGBsplit_15 10.8327405864372 0.556208158633676 10.2765324278035 -9.72032426916983 281
CASC10 CASC10 HuAgeGBsplit_15 10.0082231043739 0.556185120934629 9.45203798343926 -8.89585286250463 282
PLEKHA1 PLEKHA1 HuAgeGBsplit_15 9.92782264410074 0.553963471205929 9.37385917289481 -8.81989570168889 283
HNRNPF HNRNPF HuAgeGBsplit_15 10.5525141883291 0.553525379925258 9.99898880840387 -9.44546342847861 284
ARHGAP12 ARHGAP12 HuAgeGBsplit_15 10.5398530249149 0.553258567244068 9.98659445767082 -9.43333589042675 285
MYOF MYOF HuAgeGBsplit_15 10.9861133794935 0.551384614948009 10.4347287645455 -9.8833441495975 286
CELF2 CELF2 HuAgeGBsplit_15 10.0874897517208 0.550749794416786 9.53673995730403 -8.98599016288724 287
PDE6C PDE6C HuAgeGBsplit_15 11.1146381196965 0.545673440708231 10.5689646789883 -10.0232912382801 288
PHYH PHYH HuAgeGBsplit_15 10.6029699086143 0.534966076080472 10.0680038325338 -9.53303775645336 289
PSTK PSTK HuAgeGBsplit_15 10.5863774218872 0.525339000255675 10.0610384216315 -9.53569942137587 290
NUTM2B-AS1 NUTM2B-AS1 HuAgeGBsplit_15 10.6778538663493 0.525188651671067 10.1526652146782 -9.62747656300713 291
NRBF2 NRBF2 HuAgeGBsplit_15 10.0863261944251 0.524276831483095 9.56204936294204 -9.03777253145894 292
SKIDA1 SKIDA1 HuAgeGBsplit_15 10.2828232647473 0.523722516856871 9.75910074789038 -9.23537823103351 293
MARVELD1 MARVELD1 HuAgeGBsplit_15 9.87482692773541 0.522983454923085 9.35184347281233 -8.82886001788924 294
CASC2 CASC2 HuAgeGBsplit_15 10.8241834734016 0.519371926075752 10.3048115473259 -9.78543962125011 295
NMT2 NMT2 HuAgeGBsplit_15 10.8393354718625 0.519106522923518 10.320228948939 -9.80112242601547 296
PITRM1 PITRM1 HuAgeGBsplit_15 10.2020509298225 0.517525408354898 9.68452552146764 -9.16700011311275 297
ZNF33A ZNF33A HuAgeGBsplit_15 10.8072409145616 0.515818882318468 10.2914220322432 -9.77560314992469 298
TFAM TFAM HuAgeGBsplit_15 9.87118900232316 0.513760701840453 9.35742830048271 -8.84366759864225 299
ZNF37BP ZNF37BP HuAgeGBsplit_15 10.5527863083748 0.513399269670021 10.0393870387048 -9.52598776903477 300
CDHR1 CDHR1 HuAgeGBsplit_15 10.3020567577709 0.512369871520748 9.78968688625017 -9.27731701472942 301
ATAD1 ATAD1 HuAgeGBsplit_15 9.94702107519475 0.509950715439777 9.43707035975498 -8.9271196443152 302
AC073585.1 AC073585.1 HuAgeGBsplit_15 11.4241370058466 0.509840545244584 10.914296460602 -10.4044559153575 303
DPYSL4 DPYSL4 HuAgeGBsplit_15 10.7496506830023 0.508697063509359 10.2409536194929 -9.73225655598358 304
VCL VCL HuAgeGBsplit_15 10.6734371300867 0.506930646626794 10.1665064834599 -9.65957583683307 305
DLG5-AS1 DLG5-AS1 HuAgeGBsplit_15 10.6339449156335 0.501364980551976 10.1325799350815 -9.63121495452956 306
AL731533.2 AL731533.2 HuAgeGBsplit_15 10.3153117643963 0.498931577619814 9.81638018677648 -9.31744860915667 307
CHST15 CHST15 HuAgeGBsplit_15 9.9640732132933 0.494083894450589 9.46998931884271 -8.97590542439212 308
FAM24B FAM24B HuAgeGBsplit_15 9.71132604455161 0.492699776592045 9.21862626795956 -8.72592649136752 309
ZNF487 ZNF487 HuAgeGBsplit_15 10.2556829742889 0.490462332052831 9.76522064223604 -9.27475831018321 310
AL137145.1 AL137145.1 HuAgeGBsplit_15 10.9371497149722 0.48980097958142 10.4473487353908 -9.9575477558094 311
KAZALD1 KAZALD1 HuAgeGBsplit_15 10.2010366890333 0.48346790486761 9.71756878416572 -9.23410087929811 312
TNKS2-AS1 TNKS2-AS1 HuAgeGBsplit_15 10.0807676037881 0.477763978615441 9.60300362517265 -9.12523964655721 313
AGAP6 AGAP6 HuAgeGBsplit_15 10.8590581066141 0.473880446450128 10.385177660164 -9.91129721371388 314
AL138762.1 AL138762.1 HuAgeGBsplit_15 10.1980749487365 0.473572564395552 9.72450238434094 -9.25092981994539 315
AVPI1 AVPI1 HuAgeGBsplit_15 10.0248678791371 0.472532691045413 9.55233518809169 -9.07980249704628 316
AL359878.2 AL359878.2 HuAgeGBsplit_15 11.082473076876 0.465603668192698 10.6168694086833 -10.1512657404906 317
AL133215.2 AL133215.2 HuAgeGBsplit_15 10.1482990804761 0.465512369643451 9.6827867108327 -9.21727434118925 318
FAM107B FAM107B HuAgeGBsplit_15 11.9719471316286 0.459494708741809 11.5124524228868 -11.052957714145 319
KLLN KLLN HuAgeGBsplit_15 9.73292587884617 0.456136019695329 9.27678985915085 -8.82065383945552 320
TIMM23 TIMM23 HuAgeGBsplit_15 11.0927747063122 0.454552868268004 10.6382218380442 -10.1836689697762 321
BMS1 BMS1 HuAgeGBsplit_15 10.5573588835175 0.453325137345127 10.1040337461724 -9.65070860882726 322
CASP7 CASP7 HuAgeGBsplit_15 10.2790762522735 0.448102810803441 9.83097344147005 -9.38287063066661 323
ZNF485 ZNF485 HuAgeGBsplit_15 10.3126802483881 0.447689402147488 9.86499084624059 -9.4173014440931 324
ADO ADO HuAgeGBsplit_15 10.1743969859115 0.443330291986703 9.73106669392483 -9.28773640193813 325
ZNF248 ZNF248 HuAgeGBsplit_15 10.2195749817302 0.442764984461761 9.77680999726843 -9.33404501280667 326
COMTD1 COMTD1 HuAgeGBsplit_15 10.7925871921883 0.441227941513059 10.3513592506752 -9.91013130916219 327
FABP5 FABP5 HuAgeGBsplit_15 10.1970649546386 0.433296386103376 9.76376856853525 -9.33047218243188 328
KIF5B KIF5B HuAgeGBsplit_15 10.5840997904664 0.428453041553431 10.155646748913 -9.72719370735953 329
DNAJC1 DNAJC1 HuAgeGBsplit_15 10.952921416832 0.428176329902921 10.5247450869291 -10.0965687570262 330
ANXA11 ANXA11 HuAgeGBsplit_15 10.3897853069354 0.425529362032474 9.96425594490294 -9.53872658287047 331
RASGEF1A RASGEF1A HuAgeGBsplit_15 9.64268544084174 0.424435839030841 9.2182496018109 -8.79381376278006 332
AL133355.1 AL133355.1 HuAgeGBsplit_15 10.5277271024995 0.423435620666724 10.1042914818327 -9.68085586116602 333
STAM-AS1 STAM-AS1 HuAgeGBsplit_15 9.9319116169303 0.416972654769236 9.51493896216106 -9.09796630739183 334
PCBD1 PCBD1 HuAgeGBsplit_15 9.99316446404171 0.416929264459749 9.57623519958196 -9.15930593512221 335
TP53 TP53 HuAgeGBsplit_15 10.4836494031094 0.411973543661879 10.0716758594476 -9.65970231578567 336
MAST2 MAST2 HuAgeGBsplit_15 11.9201732821302 0.405285482353225 11.514887799777 -11.1096023174238 337
NANOS1 NANOS1 HuAgeGBsplit_15 9.98521495669807 0.402497254009513 9.58271770268856 -9.18022044867905 338
LRIT2 LRIT2 HuAgeGBsplit_15 9.8555440427871 0.395917956048254 9.45962608673884 -9.06370813069059 339
KLRC1 KLRC1 HuAgeGBsplit_15 10.4233439130548 0.394642162919116 10.0287017501357 -9.6340595872166 340
INHA INHA HuAgeGBsplit_15 10.3844996586332 0.391957580440895 9.99254207819231 -9.60058449775142 341
AC103746.1 AC103746.1 HuAgeGBsplit_15 10.4055572450198 0.389714387640288 10.0158428573796 -9.62612846973927 342
PFKFB3 PFKFB3 HuAgeGBsplit_15 9.97288882053965 0.386114064621449 9.5867747559182 -9.20066069129675 343
ZNF438 ZNF438 HuAgeGBsplit_15 10.5550792574652 0.379445486450884 10.1756337710143 -9.79618828456339 344
AC005682.1 AC005682.1 HuAgeGBsplit_15 10.7249123891128 0.379064012314289 10.3458483767985 -9.96678436448417 345
HSD17B7P2 HSD17B7P2 HuAgeGBsplit_15 9.98756489005588 0.378592791295816 9.60897209876006 -9.23037930746424 346
ZNF22 ZNF22 HuAgeGBsplit_15 10.2737852594148 0.377952878983105 9.89583238043165 -9.51787950144855 347
ZEB1 ZEB1 HuAgeGBsplit_15 10.8707923582298 0.373779399444782 10.497012958785 -10.1232335593402 348
NR2F2 NR2F2 HuAgeGBsplit_15 10.0403536365428 0.370944637389969 9.66940899915286 -9.29846436176289 349
KNDC1 KNDC1 HuAgeGBsplit_15 10.5720676001404 0.370753969391495 10.2013136307489 -9.83055966135741 350
FAM86C1 FAM86C1 HuAgeGBsplit_15 9.90739400903578 0.370441037191006 9.53695297184477 -9.16651193465377 351
RGR RGR HuAgeGBsplit_15 9.23989389993962 0.368904206761095 8.87098969317853 -8.50208548641743 352
AL133216.2 AL133216.2 HuAgeGBsplit_15 10.4003311942109 0.368057976739934 10.032273217471 -9.66421524073108 353
RAB3D RAB3D HuAgeGBsplit_15 9.50886320450953 0.367272518012292 9.14159068649723 -8.77431816848494 354
TEAD3 TEAD3 HuAgeGBsplit_15 10.809535505726 0.366336583500936 10.4431989222251 -10.0768623387241 355
ZNF239 ZNF239 HuAgeGBsplit_15 9.87679877706067 0.363982875564944 9.51281590149573 -9.14883302593078 356
LHPP LHPP HuAgeGBsplit_15 9.96953098215173 0.363787345812743 9.60574363633898 -9.24195629052624 357
MSS51 MSS51 HuAgeGBsplit_15 10.3617807718774 0.362043526799481 9.99973724507788 -9.6376937182784 358
CEP170B CEP170B HuAgeGBsplit_15 10.9317577068475 0.358774573272008 10.5729831335755 -10.2142085603035 359
ITGB1 ITGB1 HuAgeGBsplit_15 10.9609518852587 0.358009282620683 10.602942602638 -10.2449333200173 360
AL592071.1 AL592071.1 HuAgeGBsplit_15 9.42191272374474 0.35588760956517 9.06602511417957 -8.7101375046144 361
ABCA3 ABCA3 HuAgeGBsplit_15 10.4948385424344 0.355777850716276 10.1390606917181 -9.78328284100181 362
AL731577.2 AL731577.2 HuAgeGBsplit_15 10.2840232873485 0.354837677908834 9.92918560943972 -9.57434793153088 363
SYNPO SYNPO HuAgeGBsplit_15 10.3208585622856 0.35282977689771 9.96802878538785 -9.61519900849014 364
GPR45 GPR45 HuAgeGBsplit_15 9.8985278520689 0.352513387277808 9.54601446479109 -9.19350107751328 365
AC068473.1 AC068473.1 HuAgeGBsplit_15 10.3397766829846 0.351920190326036 9.98785649265858 -9.63593630233255 366
AL353796.1 AL353796.1 HuAgeGBsplit_15 9.99706538632451 0.349890199552327 9.64717518677219 -9.29728498721986 367
AL157888.1 AL157888.1 HuAgeGBsplit_15 9.96541584292484 0.34884393624235 9.61657190668249 -9.26772797044014 368
NOXA1 NOXA1 HuAgeGBsplit_15 10.1456541208936 0.337460402429032 9.80819371846454 -9.4707333160355 369
AC009163.5 AC009163.5 HuAgeGBsplit_15 10.9686675945844 0.33603611422763 10.6326314803567 -10.2965953661291 370
BACH1 BACH1 HuAgeGBsplit_15 11.2731385987168 0.335218058745583 10.9379205399713 -10.6027024812257 371
ACTRT3 ACTRT3 HuAgeGBsplit_15 9.8290927838141 0.332950997851738 9.49614178596236 -9.16319078811062 372
FNDC10 FNDC10 HuAgeGBsplit_15 10.0660269688987 0.33026588094549 9.73576108795322 -9.40549520700773 373
MIR4530 MIR4530 HuAgeGBsplit_15 9.47729584348975 0.33006115010346 9.14723469338629 -8.81717354328283 374
AL355355.1 AL355355.1 HuAgeGBsplit_15 9.78826235854191 0.329778511890689 9.45848384665122 -9.12870533476053 375
AC092720.2 AC092720.2 HuAgeGBsplit_15 9.91919837905176 0.329018234851653 9.59018014420011 -9.26116190934845 376
RNU6-391P RNU6-391P HuAgeGBsplit_15 11.0406016258475 0.326580240802363 10.7140213850452 -10.3874411442428 377
SLIT1 SLIT1 HuAgeGBsplit_15 10.0245809378572 0.322608412894069 9.70197252496318 -9.37936411206911 378
AL731563.3 AL731563.3 HuAgeGBsplit_15 9.88492743484861 0.32078019405032 9.56414724079829 -9.24336704674797 379
MIR4739 MIR4739 HuAgeGBsplit_15 10.6910676964942 0.31919206991502 10.3718756265792 -10.0526835566642 380
P2RX5-TAX1BP3 P2RX5-TAX1BP3 HuAgeGBsplit_15 10.4177238309975 0.318568420887176 10.0991554101103 -9.78058698922316 381
AL135925.1 AL135925.1 HuAgeGBsplit_15 10.4134026292997 0.317441234145878 10.0959613951538 -9.77852016100792 382
ACOT4 ACOT4 HuAgeGBsplit_15 9.90909810572513 0.313231851034024 9.5958662546911 -9.28263440365708 383
AFAP1L2 AFAP1L2 HuAgeGBsplit_15 9.51429843575195 0.31219812392218 9.20210031182977 -8.88990218790759 384
PRICKLE3 PRICKLE3 HuAgeGBsplit_15 10.4690181024854 0.309316755494262 10.1597013469911 -9.85038459149689 385
BMPR1APS2 BMPR1APS2 HuAgeGBsplit_15 9.48987400790175 0.309253991017677 9.18062001688408 -8.8713660258664 386
ZNF33B ZNF33B HuAgeGBsplit_15 10.061624002005 0.308773041857389 9.75285096014759 -9.4440779182902 387
AL136307.1 AL136307.1 HuAgeGBsplit_15 12.773932339777 0.30699519875416 12.4669371410228 -12.1599419422687 388
CYP17A1 CYP17A1 HuAgeGBsplit_15 10.1156876623785 0.306925544806438 9.80876211757205 -9.50183657276561 389
AC078802.1 AC078802.1 HuAgeGBsplit_15 9.98327085717024 0.303889156092933 9.6793817010773 -9.37549254498437 390
ABO ABO HuAgeGBsplit_15 10.6166987001304 0.303855662784767 10.3128430373456 -10.0089873745609 391
NHLRC1 NHLRC1 HuAgeGBsplit_15 9.47323487945804 0.303366243422359 9.16986863603568 -8.86650239261332 392
AC068870.2 AC068870.2 HuAgeGBsplit_15 10.0586671063347 0.299856776671642 9.75881032966307 -9.45895355299142 393
ACTN1 ACTN1 HuAgeGBsplit_15 9.88655510752763 0.29961707456563 9.586938032962 -9.28732095839637 394
AL133216.1 AL133216.1 HuAgeGBsplit_15 10.8587866848521 0.299516254483137 10.5592704303689 -10.2597541758858 395
WWP2 WWP2 HuAgeGBsplit_15 9.69484422156562 0.298724335822444 9.39611988574318 -9.09739554992073 396
DUX4L9 DUX4L9 HuAgeGBsplit_15 10.2543743934065 0.295340939792487 9.95903345361399 -9.6636925138215 397
AL355490.1 AL355490.1 HuAgeGBsplit_15 9.60231387125061 0.29196995940638 9.31034391184423 -9.01837395243785 398
AL683842.1 AL683842.1 HuAgeGBsplit_15 9.53547073061699 0.291799025485965 9.24367170513102 -8.95187267964506 399
ACOT9 ACOT9 HuAgeGBsplit_15 9.37110695760699 0.29085278925821 9.08025416834878 -8.78940137909057 400
MFAP2 MFAP2 HuAgeGBsplit_15 9.79041979489796 0.288979608550012 9.50144018634795 -9.21246057779794 401
STBD1 STBD1 HuAgeGBsplit_15 9.53818792028963 0.287810487508452 9.25037743278118 -8.96256694527273 402
ATL3 ATL3 HuAgeGBsplit_15 10.2326786637141 0.287313816467634 9.94536484724644 -9.6580510307788 403
PPIAP19 PPIAP19 HuAgeGBsplit_15 9.5611472588558 0.286410162020683 9.27473709683512 -8.98832693481444 404
TLL2 TLL2 HuAgeGBsplit_15 10.800224678967 0.282600043253016 10.517624635714 -10.235024592461 405
FABP5P3 FABP5P3 HuAgeGBsplit_15 11.0815111900168 0.281256929351318 10.8002542606655 -10.5189973313141 406
PRKAR1B PRKAR1B HuAgeGBsplit_15 10.4487119644175 0.279697038429376 10.1690149259882 -9.88931788755879 407
CABCOCO1 CABCOCO1 HuAgeGBsplit_15 10.2234951016082 0.278650914004082 9.94484418760408 -9.6661932736 408
LRRC3C LRRC3C HuAgeGBsplit_15 9.82573002762001 0.277712365556637 9.54801766206337 -9.27030529650674 409
PLAC9 PLAC9 HuAgeGBsplit_15 9.52089140704572 0.273859153206025 9.24703225383969 -8.97317310063367 410
MAP3K7CL MAP3K7CL HuAgeGBsplit_15 11.0364865932989 0.270612231157357 10.7658743621415 -10.4952621309842 411
H2AFJ H2AFJ HuAgeGBsplit_15 9.88991756175198 0.269300460039529 9.62061710171245 -9.35131664167292 412
AHNAK2 AHNAK2 HuAgeGBsplit_15 10.4313867963083 0.267941688866074 10.1634451074423 -9.89550341857619 413
SLC39A4 SLC39A4 HuAgeGBsplit_15 9.79499147586105 0.267448725814211 9.52754275004684 -9.26009402423263 414
SERPINB6 SERPINB6 HuAgeGBsplit_15 9.92931463115051 0.267247833124164 9.66206679802634 -9.39481896490218 415
MIR4482 MIR4482 HuAgeGBsplit_15 9.06614386864669 0.267123997278696 8.79901987136799 -8.5318958740893 416
TUBB7P TUBB7P HuAgeGBsplit_15 10.893920249872 0.266780527298512 10.6271397225735 -10.360359195275 417
FAAH FAAH HuAgeGBsplit_15 11.1676154672314 0.263532339630153 10.9040831276013 -10.6405507879711 418
KLHL26 KLHL26 HuAgeGBsplit_15 9.82407103802198 0.263495954990686 9.56057508303129 -9.29707912804061 419
CA14 CA14 HuAgeGBsplit_15 10.2249323458221 0.261182784527126 9.96374956129496 -9.70256677676783 420
AC131097.4 AC131097.4 HuAgeGBsplit_15 10.0322339433639 0.25977915383477 9.77245478952913 -9.51267563569436 421
PYROXD2 PYROXD2 HuAgeGBsplit_15 10.5324203769811 0.259605254511899 10.2728151224692 -10.0132098679573 422
BAMBI BAMBI HuAgeGBsplit_15 10.1601899976097 0.259018318270139 9.90117167933959 -9.64215336106945 423
CHST6 CHST6 HuAgeGBsplit_15 10.1573523573898 0.258997640101102 9.89835471728866 -9.63935707718755 424
IDI2 IDI2 HuAgeGBsplit_15 11.0529658472037 0.258957184063916 10.7940086631398 -10.5350514790759 425
POU3F2 POU3F2 HuAgeGBsplit_15 9.94030963099841 0.25803152812707 9.68227810287134 -9.42424657474427 426
ZFAND4 ZFAND4 HuAgeGBsplit_15 9.86277514324264 0.257520628064591 9.60525451517805 -9.34773388711346 427
RAB11FIP5 RAB11FIP5 HuAgeGBsplit_15 10.3274732553799 0.255204614174607 10.0722686412053 -9.81706402703068 428
AC147651.1 AC147651.1 HuAgeGBsplit_15 9.59357068758013 0.254812972718853 9.33875771486127 -9.08394474214242 429
AL049874.1 AL049874.1 HuAgeGBsplit_15 10.2495865661291 0.252449104789049 9.99713746134003 -9.74468835655098 430
ZC3HAV1L ZC3HAV1L HuAgeGBsplit_15 10.0575045137475 0.251873757784582 9.80563075596289 -9.55375699817831 431
AC008592.3 AC008592.3 HuAgeGBsplit_15 9.62301436137286 0.251617976784359 9.3713963845885 -9.11977840780414 432
AL590677.1 AL590677.1 HuAgeGBsplit_15 9.83326138152425 0.249653022482178 9.58360835904207 -9.3339553365599 433
ADD3-AS1 ADD3-AS1 HuAgeGBsplit_15 9.88267517774573 0.248476889936901 9.63419828780883 -9.38572139787193 434
ARHGEF6 ARHGEF6 HuAgeGBsplit_15 10.2573689273283 0.246591466720662 10.0107774606077 -9.76418599388699 435
STOM STOM HuAgeGBsplit_15 9.76290922777715 0.244573281978739 9.51833594579842 -9.27376266381968 436
NEMP2 NEMP2 HuAgeGBsplit_15 10.3918841371067 0.243887502692448 10.1479966344143 -9.90410913172185 437
AL390728.3 AL390728.3 HuAgeGBsplit_15 10.06513343601 0.243072643042555 9.82206079296748 -9.57898814992492 438
RN7SL753P RN7SL753P HuAgeGBsplit_15 10.1974827122519 0.242645184642685 9.95483752760918 -9.7121923429665 439
AC138304.1 AC138304.1 HuAgeGBsplit_15 9.95423624102867 0.241886058892811 9.71235018213586 -9.47046412324305 440
MIR4514 MIR4514 HuAgeGBsplit_15 9.4556328926759 0.240643347907318 9.21498954476859 -8.97434619686127 441
BX539320.1 BX539320.1 HuAgeGBsplit_15 10.0791361052851 0.238859090579822 9.84027701470531 -9.60141792412549 442
NUDT9P1 NUDT9P1 HuAgeGBsplit_15 9.35308870664679 0.23737161497528 9.1157170916715 -8.87834547669622 443
AL137798.1 AL137798.1 HuAgeGBsplit_15 10.1047669352126 0.234840795381124 9.86992613983151 -9.63508534445038 444
LINC02116 LINC02116 HuAgeGBsplit_15 10.9539210115279 0.234820184094497 10.7191008274334 -10.4842806433389 445
TFAMP1 TFAMP1 HuAgeGBsplit_15 9.83603641072724 0.232687749473503 9.60334866125373 -9.37066091178023 446
ALG1L9P ALG1L9P HuAgeGBsplit_15 9.93528894283319 0.232501432187048 9.70278751064614 -9.47028607845909 447
CLDN23 CLDN23 HuAgeGBsplit_15 9.88723542590919 0.227086839347417 9.66014858656178 -9.43306174721436 448
SVIL SVIL HuAgeGBsplit_15 10.3542704370351 0.226950565352803 10.1273198716823 -9.90036930632949 449
AC087072.2 AC087072.2 HuAgeGBsplit_15 10.7314530907104 0.22671716661804 10.5047359240924 -10.2780187574743 450
KRT8P26 KRT8P26 HuAgeGBsplit_15 9.82321664041882 0.226328994579374 9.59688764583944 -9.37055865126007 451
RPL23AP15 RPL23AP15 HuAgeGBsplit_15 9.93646530006869 0.225117335134267 9.71134796493442 -9.48623062980016 452
RPL12P10 RPL12P10 HuAgeGBsplit_15 10.124353912938 0.219639820130616 9.90471409280735 -9.68507427267673 453
AL390728.2 AL390728.2 HuAgeGBsplit_15 10.3604288094164 0.219473371581796 10.1409554378346 -9.92148206625284 454
CPA5 CPA5 HuAgeGBsplit_15 10.3354822779015 0.218609146706837 10.1168731311947 -9.89826398448783 455
BCL11A BCL11A HuAgeGBsplit_15 10.7564940976097 0.212884309120637 10.5436097884891 -10.3307254793685 456
AC007249.1 AC007249.1 HuAgeGBsplit_15 10.1115516810673 0.212798844554383 9.8987528365129 -9.68595399195852 457
AC073534.1 AC073534.1 HuAgeGBsplit_15 9.49644526204697 0.212007012674341 9.28443824937263 -9.07243123669829 458
AL161935.1 AL161935.1 HuAgeGBsplit_15 9.29976906832411 0.209531209670748 9.09023785865336 -8.88070664898261 459
SCGB3A1 SCGB3A1 HuAgeGBsplit_15 8.93999209998559 0.207876920053976 8.73211517993161 -8.52423825987764 460
LUZP1 LUZP1 HuAgeGBsplit_15 9.9489492129844 0.207151496213251 9.74179771677115 -9.5346462205579 461
AC016575.1 AC016575.1 HuAgeGBsplit_15 9.41811322772658 0.206728966913309 9.21138426081327 -9.00465529389996 462
AC000067.1 AC000067.1 HuAgeGBsplit_15 9.99329163928306 0.204493214502109 9.78879842478095 -9.58430521027884 463
FAM83H FAM83H HuAgeGBsplit_15 9.63779615661078 0.201584804574378 9.4362113520364 -9.23462654746202 464
AC242988.1 AC242988.1 HuAgeGBsplit_15 9.79916817173381 0.201027264010717 9.59814090772309 -9.39711364371237 465
RF00287 RF00287 HuAgeGBsplit_15 9.24679689248076 0.200794682617606 9.04600220986315 -8.84520752724555 466
AC091849.2 AC091849.2 HuAgeGBsplit_15 10.2532033910741 0.200670261861794 10.0525331292123 -9.85186286735052 467
AC009041.1 AC009041.1 HuAgeGBsplit_15 9.87448607365386 0.199120866780263 9.6753652068736 -9.47624434009333 468
CPA4 CPA4 HuAgeGBsplit_15 10.2099036578247 0.196733412777087 10.0131702450476 -9.81643683227055 469
AC114956.1 AC114956.1 HuAgeGBsplit_15 10.6497439670156 0.194999193581373 10.4547447734342 -10.2597455798529 470
CENPVL3 CENPVL3 HuAgeGBsplit_15 9.85144774813788 0.19282537074794 9.65862237738994 -9.465797006642 471
MIR1302-3 MIR1302-3 HuAgeGBsplit_15 9.80972861906275 0.190859459248951 9.6188691598138 -9.42800970056485 472
JPH3 JPH3 HuAgeGBsplit_15 9.91542717596017 0.189688307028943 9.72573886893123 -9.53605056190229 473
AL163051.1 AL163051.1 HuAgeGBsplit_15 10.3010730891418 0.187970903953435 10.1131021851884 -9.92513128123497 474
AC026422.1 AC026422.1 HuAgeGBsplit_15 10.2178791952557 0.186978293270034 10.0309009019856 -9.84392260871559 475
HEBP1 HEBP1 HuAgeGBsplit_15 10.2448769147495 0.186387650119207 10.0584892646303 -9.87210161451109 476
AL121890.3 AL121890.3 HuAgeGBsplit_15 9.45156074693941 0.184330927373731 9.26722981956568 -9.08289889219195 477
FKBP1C FKBP1C HuAgeGBsplit_15 9.45707187985059 0.184261019101952 9.27281086074864 -9.08854984164669 478
RN7SL567P RN7SL567P HuAgeGBsplit_15 9.64816168888237 0.183708533891226 9.46445315499115 -9.28074462109992 479
LRIG1 LRIG1 HuAgeGBsplit_15 9.93366340257412 0.182711859700041 9.75095154287407 -9.56823968317403 480
AL357054.4 AL357054.4 HuAgeGBsplit_15 9.28967057142165 0.179131759077505 9.11053881234414 -8.93140705326664 481
AL121890.2 AL121890.2 HuAgeGBsplit_15 9.36825962102166 0.172807400354405 9.19545222066725 -9.02264482031285 482
AL589826.2 AL589826.2 HuAgeGBsplit_15 9.89763542220036 0.172734851219646 9.72490057098071 -9.55216571976106 483
PDGFA PDGFA HuAgeGBsplit_15 9.94429297883317 0.164108235017206 9.78018474381596 -9.61607650879876 484
RBMXP4 RBMXP4 HuAgeGBsplit_15 10.4013265025915 0.155221200482744 10.2461053021087 -10.090884101626 485
RNU6ATAC26P RNU6ATAC26P HuAgeGBsplit_15 9.80248678870002 0.151564529607766 9.65092225909226 -9.49935772948449 486
HSPB7 HSPB7 HuAgeGBsplit_15 10.0005005158853 0.150675586228275 9.84982492965699 -9.69914934342872 487
AC107081.1 AC107081.1 HuAgeGBsplit_15 9.88816461557148 0.135412876839915 9.75275173873156 -9.61733886189165 488
