PSID Gene Module kTotal kWithin kOut kDiff rank
PAGE1 PAGE1 HuAgeGBsplit_25 20.9055298447443 7.2181242720625 13.6874055726818 -6.4692813006193 1
USP26 USP26 HuAgeGBsplit_25 20.5441100878606 7.17208999883958 13.372020089021 -6.19993009018146 2
MARCOL MARCOL HuAgeGBsplit_25 18.9798874817144 6.68148696769691 12.2984005140175 -5.61691354632062 3
AC026785.3 AC026785.3 HuAgeGBsplit_25 18.8695213984965 6.00100451686412 12.8685168816324 -6.86751236476826 4
ADGRG4 ADGRG4 HuAgeGBsplit_25 19.5211901447362 5.67351044651205 13.8476796982241 -8.17416925171209 5
FGFBP1 FGFBP1 HuAgeGBsplit_25 15.9430586010225 5.18152934021984 10.7615292608027 -5.57999992058282 6
AL121956.1 AL121956.1 HuAgeGBsplit_25 17.4511227954461 4.7242504060062 12.7268723894399 -8.00262198343374 7
MROH2B MROH2B HuAgeGBsplit_25 19.5864816339533 4.4326249986477 15.1538566353056 -10.7212316366579 8
PSG4 PSG4 HuAgeGBsplit_25 17.068731075567 4.09092522591616 12.9778058496508 -8.88688062373467 9
CGA CGA HuAgeGBsplit_25 14.7821603006648 3.88870981058265 10.8934504900821 -7.00474067949949 10
CXorf66 CXorf66 HuAgeGBsplit_25 18.4574778966126 3.82101480526241 14.6364630913502 -10.8154482860878 11
OR2J3 OR2J3 HuAgeGBsplit_25 19.0998380444863 3.81676656021008 15.2830714842763 -11.4663049240662 12
OR10Z1 OR10Z1 HuAgeGBsplit_25 14.983028843901 3.70548455687516 11.2775442870258 -7.57205973015068 13
USP29 USP29 HuAgeGBsplit_25 16.8673446716448 3.67301442942078 13.194330242224 -9.52131581280326 14
ALPP ALPP HuAgeGBsplit_25 15.5962310686416 3.64151418513626 11.9547168835053 -8.31320269836909 15
KRT8 KRT8 HuAgeGBsplit_25 15.0366752257083 3.50459977876591 11.5320754469424 -8.02747566817648 16
INSL4 INSL4 HuAgeGBsplit_25 16.1043882194428 3.14051747361485 12.9638707458279 -9.8233532722131 17
ALPI ALPI HuAgeGBsplit_25 13.0159186856661 2.98577090590964 10.0301477797565 -7.04437687384681 18
DEFB116 DEFB116 HuAgeGBsplit_25 15.3948381932714 2.91923635041231 12.4756018428591 -9.55636549244679 19
MAGEB4 MAGEB4 HuAgeGBsplit_25 13.3914499397791 2.78992357678581 10.6015263629933 -7.81160278620749 20
UGT3A1 UGT3A1 HuAgeGBsplit_25 22.5764522687639 2.70072556365984 19.8757267051041 -17.1750011414443 21
OR9Q2 OR9Q2 HuAgeGBsplit_25 14.9795200304798 2.69898804566404 12.2805319848158 -9.58154393915171 22
MRRFP1 MRRFP1 HuAgeGBsplit_25 13.3917903430437 2.69117293678808 10.7006174062556 -8.00944446946754 23
BEND2 BEND2 HuAgeGBsplit_25 18.3954346820366 2.64506939793774 15.7503652840989 -13.1052958861611 24
MAGEB3 MAGEB3 HuAgeGBsplit_25 15.7577681950415 2.5439836235083 13.2137845715332 -10.6698009480249 25
SAGE3P SAGE3P HuAgeGBsplit_25 14.5478090131188 2.4758574070799 12.0719516060389 -9.59609419895896 26
DCAF8L1 DCAF8L1 HuAgeGBsplit_25 13.5394830873457 2.44705206749462 11.0924310198511 -8.64537895235647 27
KIAA1210 KIAA1210 HuAgeGBsplit_25 17.1179030540288 2.40324317001142 14.7146598840173 -12.3114167140059 28
OR2V1 OR2V1 HuAgeGBsplit_25 13.821418790101 2.33128069907465 11.4901380910264 -9.15885739195173 29
AL359263.1 AL359263.1 HuAgeGBsplit_25 13.3766425994919 2.30113041182258 11.0755121876694 -8.77438177584679 30
C8B C8B HuAgeGBsplit_25 21.4418552430239 2.25819299281757 19.1836622502063 -16.9254692573888 31
MBD3L2B MBD3L2B HuAgeGBsplit_25 13.3888687809375 2.25602340294581 11.1328453779917 -8.87682197504588 32
RNU1-15P RNU1-15P HuAgeGBsplit_25 14.4191801685662 2.24825745434231 12.1709227142239 -9.92266525988159 33
ACTR3P2 ACTR3P2 HuAgeGBsplit_25 12.8877535830022 2.13011138551183 10.7576421974904 -8.62753081197852 34
OR11H4 OR11H4 HuAgeGBsplit_25 13.8411016882374 2.10410519385732 11.7369964943801 -9.63289130052276 35
SPANXN5 SPANXN5 HuAgeGBsplit_25 13.8262383066341 2.01584996219881 11.8103883444352 -9.79453838223643 36
TRIML2 TRIML2 HuAgeGBsplit_25 13.2357392089228 2.00794189853499 11.2277973103878 -9.21985541185281 37
FSCB FSCB HuAgeGBsplit_25 12.9699333182273 1.98013490534722 10.9897984128801 -9.0096635075329 38
OR10H4 OR10H4 HuAgeGBsplit_25 15.5995430304155 1.96739761823596 13.6321454121795 -11.6647477939436 39
DUXA DUXA HuAgeGBsplit_25 15.7170440160232 1.96047246506444 13.7565715509587 -11.7960990858943 40
SLC17A4 SLC17A4 HuAgeGBsplit_25 16.5908356627753 1.95479761978582 14.6360380429894 -12.6812404232036 41
AL354685.2 AL354685.2 HuAgeGBsplit_25 13.1952109768784 1.90169916462341 11.293511812255 -9.39181264763162 42
AL355482.2 AL355482.2 HuAgeGBsplit_25 15.0442193508556 1.82617940537973 13.2180399454758 -11.3918605400961 43
MAGEB16 MAGEB16 HuAgeGBsplit_25 13.4386526106836 1.81004060780376 11.6286120028798 -9.81857139507608 44
OR13C8 OR13C8 HuAgeGBsplit_25 13.0246183189552 1.78305461272962 11.2415637062256 -9.45850909349594 45
ETF1P3 ETF1P3 HuAgeGBsplit_25 12.7753225419971 1.77580865602656 10.9995138859706 -9.22370522994402 46
PABPC1P2 PABPC1P2 HuAgeGBsplit_25 12.1294840162752 1.77082099360964 10.3586630226656 -8.58784202905595 47
OR4K17 OR4K17 HuAgeGBsplit_25 17.2116221770196 1.73293896510736 15.4786832119122 -13.7457442468049 48
AC003685.2 AC003685.2 HuAgeGBsplit_25 12.5329507347747 1.69824762527422 10.8347031095005 -9.13645548422627 49
TPMTP4 TPMTP4 HuAgeGBsplit_25 13.4874459813248 1.68204860233166 11.8053973789932 -10.1233487766615 50
RPL24P7 RPL24P7 HuAgeGBsplit_25 13.2263292329143 1.66633268902422 11.5599965438901 -9.89366385486588 51
OR6P1 OR6P1 HuAgeGBsplit_25 16.5979633389953 1.60334505965036 14.9946182793449 -13.3912732196946 52
REG4 REG4 HuAgeGBsplit_25 18.4309204139634 1.58206210777729 16.8488583061861 -15.2667961984088 53
RNU6-694P RNU6-694P HuAgeGBsplit_25 11.7396092097648 1.58041961427024 10.1591895954946 -8.57876998122433 54
ARL14 ARL14 HuAgeGBsplit_25 13.3983402555473 1.57138263590641 11.8269576196409 -10.2555749837345 55
OR10D3 OR10D3 HuAgeGBsplit_25 14.5007799383291 1.54849577731561 12.9522841610135 -11.4037883836979 56
OR2H1 OR2H1 HuAgeGBsplit_25 13.1579529151674 1.51049196365046 11.647460951517 -10.1369689878665 57
OR4D2 OR4D2 HuAgeGBsplit_25 11.9201283055026 1.49104528864709 10.4290830168555 -8.93803772820839 58
TRHR TRHR HuAgeGBsplit_25 14.0245483493498 1.48043733466366 12.5441110146861 -11.0636736800224 59
AC092952.1 AC092952.1 HuAgeGBsplit_25 12.592944882808 1.45014447681616 11.1428004059919 -9.69265592917573 60
DEFB133 DEFB133 HuAgeGBsplit_25 14.0557353632722 1.41378598151046 12.6419493817618 -11.2281634002513 61
PPP4R3C PPP4R3C HuAgeGBsplit_25 12.1008903361996 1.34933628943359 10.751554046766 -9.40221775733243 62
OR8K1 OR8K1 HuAgeGBsplit_25 12.8792875055436 1.33487755952283 11.5444099460207 -10.2095323864979 63
OR8A2P OR8A2P HuAgeGBsplit_25 14.8403835134738 1.33257892954313 13.5078045839307 -12.1752256543876 64
OR4K5 OR4K5 HuAgeGBsplit_25 13.0247006859333 1.3158437488442 11.7088569370891 -10.3930131882449 65
AC245028.2 AC245028.2 HuAgeGBsplit_25 11.4226106816284 1.31523690573815 10.1073737758903 -8.79213687015213 66
HMGB3P30 HMGB3P30 HuAgeGBsplit_25 13.0956815464638 1.31371427914043 11.7819672673233 -10.4682529881829 67
ADGRF4 ADGRF4 HuAgeGBsplit_25 13.9191002177351 1.30839714794282 12.6107030697923 -11.3023059218495 68
LINC00942 LINC00942 HuAgeGBsplit_25 12.2684912880639 1.29197992209652 10.9765113659674 -9.68453144387086 69
OR56A3 OR56A3 HuAgeGBsplit_25 15.4773922292161 1.27690579713945 14.2004864320766 -12.9235806349372 70
EIF4A2P4 EIF4A2P4 HuAgeGBsplit_25 13.5716276008576 1.27271433160916 12.2989132692484 -11.0261989376393 71
AL356310.1 AL356310.1 HuAgeGBsplit_25 12.4483704445458 1.27131679879239 11.1770536457534 -9.90573684696104 72
AC108120.2 AC108120.2 HuAgeGBsplit_25 12.1481453688667 1.26303658712945 10.8851087817373 -9.62207219460784 73
HNRNPH1P2 HNRNPH1P2 HuAgeGBsplit_25 11.4690233416509 1.25651136436081 10.2125119772901 -8.9560006129293 74
TMEM105 TMEM105 HuAgeGBsplit_25 11.6355661315745 1.23749386864093 10.3980722629335 -9.16057839429262 75
AL024493.1 AL024493.1 HuAgeGBsplit_25 11.3698391795267 1.23118640702758 10.1386527724991 -8.90746636547157 76
RPL21P66 RPL21P66 HuAgeGBsplit_25 13.0348018049549 1.22031158837139 11.8144902165835 -10.5941786282121 77
AC073055.1 AC073055.1 HuAgeGBsplit_25 16.2803223698887 1.21945733357254 15.0608650363162 -13.8414077027436 78
NANOGP9 NANOGP9 HuAgeGBsplit_25 12.0717224187191 1.21279678495311 10.858925633766 -9.64612884881289 79
LINP1 LINP1 HuAgeGBsplit_25 12.8468507588459 1.19311421812872 11.6537365407172 -10.4606223225885 80
TEX19 TEX19 HuAgeGBsplit_25 12.3540653135795 1.18349593365202 11.1705693799275 -9.98707344627547 81
Z95327.1 Z95327.1 HuAgeGBsplit_25 11.9108657395208 1.17796733302585 10.732898406495 -9.55493107346915 82
STIP1P3 STIP1P3 HuAgeGBsplit_25 12.0279529527302 1.16391827583592 10.8640346768943 -9.70011640105833 83
OR7D4 OR7D4 HuAgeGBsplit_25 14.3860368254449 1.14103709413065 13.2449997313143 -12.1039626371836 84
Z98259.1 Z98259.1 HuAgeGBsplit_25 11.4240075753661 1.12429181825132 10.2997157571148 -9.17542393886343 85
OR11G1P OR11G1P HuAgeGBsplit_25 12.0555899803252 1.08687071247789 10.9687192678473 -9.88184855536942 86
OR2J2 OR2J2 HuAgeGBsplit_25 14.0024313680124 1.0826896606944 12.919741707318 -11.8370520466236 87
AL158053.1 AL158053.1 HuAgeGBsplit_25 11.6200076833155 1.08117466616614 10.5388330171493 -9.45765835098318 88
AL161431.1 AL161431.1 HuAgeGBsplit_25 11.5058332398148 1.07279080314547 10.4330424366693 -9.36025163352388 89
ASNSP4 ASNSP4 HuAgeGBsplit_25 11.9840164253306 1.05762943136525 10.9263869939653 -9.8687575626001 90
AL357562.1 AL357562.1 HuAgeGBsplit_25 11.5308576604921 1.03565082686675 10.4952068336253 -9.45955600675857 91
KRT18 KRT18 HuAgeGBsplit_25 11.2592783461576 1.02976346548855 10.229514880669 -9.19975141518048 92
AL354872.1 AL354872.1 HuAgeGBsplit_25 11.4718700084838 1.0294242882882 10.4424457201956 -9.41302143190744 93
FCRL4 FCRL4 HuAgeGBsplit_25 15.7510326241375 1.02896553337543 14.7220670907621 -13.6931015573867 94
HYAL1 HYAL1 HuAgeGBsplit_25 11.2498930085456 1.02366605986801 10.2262269486776 -9.20256088880961 95
SAGE1 SAGE1 HuAgeGBsplit_25 11.6290853977111 1.0142869136291 10.614798484082 -9.60051157045294 96
NLRP10 NLRP10 HuAgeGBsplit_25 13.1178327127445 1.00023403810469 12.1175986746398 -11.1173646365351 97
AC112492.2 AC112492.2 HuAgeGBsplit_25 10.9370815845078 0.999170498323887 9.93791108618389 -8.93874058786 98
OR52J3 OR52J3 HuAgeGBsplit_25 11.6202733905628 0.994982790762962 10.6252905997998 -9.63030780903685 99
SERPINB12 SERPINB12 HuAgeGBsplit_25 13.479386779929 0.985693815473379 12.4936929644556 -11.5079991489822 100
MAGEB6 MAGEB6 HuAgeGBsplit_25 11.190847424893 0.978132017583906 10.2127154073091 -9.23458338972518 101
OR6B1 OR6B1 HuAgeGBsplit_25 11.5966292851348 0.974717516513735 10.6219117686211 -9.64719425210733 102
FMO6P FMO6P HuAgeGBsplit_25 14.7549851420967 0.959557914801595 13.7954272272951 -12.8358693124935 103
TPSAB1 TPSAB1 HuAgeGBsplit_25 10.7142943752295 0.956061552884104 9.75823282234544 -8.80217126946133 104
H2BFWT H2BFWT HuAgeGBsplit_25 11.0987370631454 0.949779927310326 10.1489571358351 -9.19917720852475 105
AC015911.4 AC015911.4 HuAgeGBsplit_25 11.3278697218205 0.93458691308679 10.3932828087337 -9.45869589564692 106
OR5L2 OR5L2 HuAgeGBsplit_25 12.2500928507523 0.93305447562246 11.3170383751298 -10.3839838995074 107
AL121723.1 AL121723.1 HuAgeGBsplit_25 11.7296676973767 0.922367090924831 10.8073006064519 -9.88493351552708 108
MIR891B MIR891B HuAgeGBsplit_25 10.7219706675836 0.918746026307984 9.80322464127559 -8.8844786149676 109
RBM22P7 RBM22P7 HuAgeGBsplit_25 11.8990786288663 0.915704548919951 10.9833740799463 -10.0676695310264 110
OR2J4P OR2J4P HuAgeGBsplit_25 12.7348075070553 0.913246228142832 11.8215612789125 -10.9083150507697 111
BCLAF1P1 BCLAF1P1 HuAgeGBsplit_25 12.3090070655248 0.891595046259083 11.4174120192658 -10.5258169730067 112
UGT2B15 UGT2B15 HuAgeGBsplit_25 15.2110396259471 0.883084771361978 14.3279548545851 -13.4448700832231 113
AC103702.2 AC103702.2 HuAgeGBsplit_25 11.5610229933669 0.872659220143203 10.6883637732237 -9.8157045530805 114
RHOV RHOV HuAgeGBsplit_25 10.9086991029758 0.865736461052356 10.0429626419234 -9.17722618087107 115
OR2W5 OR2W5 HuAgeGBsplit_25 13.8902448653156 0.862914484511592 13.027330380804 -12.1644158962924 116
CR2 CR2 HuAgeGBsplit_25 18.0082202511051 0.862189498362036 17.1460307527431 -16.283841254381 117
AC092104.1 AC092104.1 HuAgeGBsplit_25 12.4953640375034 0.859362046052606 11.6360019914508 -10.7766399453982 118
AL109615.3 AL109615.3 HuAgeGBsplit_25 11.4876363062176 0.857203654461729 10.6304326517559 -9.77322899729419 119
KRTAP21-4P KRTAP21-4P HuAgeGBsplit_25 11.6447671963377 0.847810269365136 10.7969569269725 -9.94914665760738 120
AC233290.1 AC233290.1 HuAgeGBsplit_25 11.412303864486 0.842909760666294 10.5693941038197 -9.72648434315339 121
TPSB2 TPSB2 HuAgeGBsplit_25 10.4065100712743 0.840353726517068 9.56615634475719 -8.72580261824012 122
AL122034.1 AL122034.1 HuAgeGBsplit_25 10.2191903441038 0.815988039132564 9.40320230497123 -8.58721426583867 123
C4BPB C4BPB HuAgeGBsplit_25 11.713948985757 0.808308970059541 10.9056400156975 -10.0973310456379 124
RNMTL1P2 RNMTL1P2 HuAgeGBsplit_25 11.4702366386837 0.803310191517107 10.6669264471666 -9.86361625564954 125
AC233728.2 AC233728.2 HuAgeGBsplit_25 13.1061498401218 0.79277891391135 12.3133709262105 -11.5205920122991 126
LINC00659 LINC00659 HuAgeGBsplit_25 11.8340485966695 0.790047169904314 11.0440014267652 -10.2539542568609 127
PCNAP3 PCNAP3 HuAgeGBsplit_25 10.8928770770601 0.789670822937861 10.1032062541223 -9.31353543118442 128
CCT5P2 CCT5P2 HuAgeGBsplit_25 12.330656855665 0.783586386212542 11.5470704694524 -10.7634840832399 129
ZNF519P3 ZNF519P3 HuAgeGBsplit_25 14.224877887222 0.781006025289161 13.4438718619328 -12.6628658366437 130
AL079352.1 AL079352.1 HuAgeGBsplit_25 10.6060294112399 0.765871778889253 9.84015763235068 -9.07428585346143 131
AC092266.1 AC092266.1 HuAgeGBsplit_25 11.0375200762516 0.756263571977874 10.2812565042737 -9.52499293229581 132
DEFB118 DEFB118 HuAgeGBsplit_25 14.5675918928265 0.756218453008581 13.8113734398179 -13.0551549868093 133
CLDN8 CLDN8 HuAgeGBsplit_25 10.4869937098401 0.753784709155063 9.73320900068507 -8.97942429153 134
AL135924.2 AL135924.2 HuAgeGBsplit_25 10.1420440509415 0.747240401583944 9.39480364935751 -8.64756324777356 135
CLDN34 CLDN34 HuAgeGBsplit_25 10.4507486869682 0.740502341180144 9.71024634578807 -8.96974400460793 136
KRTAP20-4 KRTAP20-4 HuAgeGBsplit_25 10.9007323355477 0.735827577792869 10.1649047577548 -9.42907717996194 137
KRT8P17 KRT8P17 HuAgeGBsplit_25 12.3729523708789 0.735389299246695 11.6375630716323 -10.9021737723856 138
OR51D1 OR51D1 HuAgeGBsplit_25 12.037100243596 0.735102695088424 11.3019975485075 -10.5668948534191 139
MAGEB6B MAGEB6B HuAgeGBsplit_25 10.4191013444039 0.719946865401954 9.69915447900191 -8.97920761359996 140
CYCSP43 CYCSP43 HuAgeGBsplit_25 11.4445164672767 0.712361073538648 10.732155393738 -10.0197943201994 141
OR11H6 OR11H6 HuAgeGBsplit_25 10.8422499282907 0.711863841385732 10.130386086905 -9.41852224551928 142
TMEM92 TMEM92 HuAgeGBsplit_25 11.668124156472 0.705347574196323 10.9627765822757 -10.2574290080794 143
AC233289.1 AC233289.1 HuAgeGBsplit_25 10.831264860356 0.704255850096549 10.1270090102595 -9.42275316016291 144
LINC02177 LINC02177 HuAgeGBsplit_25 11.837286149816 0.697113951870767 11.1401721979453 -10.4430582460745 145
KRTAP13-4 KRTAP13-4 HuAgeGBsplit_25 12.7165150452069 0.68845306158443 12.0280619836225 -11.3396089220381 146
AC016925.1 AC016925.1 HuAgeGBsplit_25 10.5032056829977 0.684913404559666 9.81829227843799 -9.13337887387833 147
TSEN2P1 TSEN2P1 HuAgeGBsplit_25 13.3473796999738 0.677276678645781 12.670103021328 -11.9928263426823 148
AC079834.1 AC079834.1 HuAgeGBsplit_25 11.4346138901239 0.671587616227963 10.763026273896 -10.091438657668 149
OR5J1P OR5J1P HuAgeGBsplit_25 12.8948132603425 0.671518111112066 12.2232951492304 -11.5517770381183 150
CD55 CD55 HuAgeGBsplit_25 11.6589122872498 0.671089522818217 10.9878227644316 -10.3167332416134 151
AC124276.1 AC124276.1 HuAgeGBsplit_25 12.4822862247444 0.665958086106622 11.8163281386378 -11.1503700525312 152
SOX5P1 SOX5P1 HuAgeGBsplit_25 12.1509667192851 0.663809160930346 11.4871575583547 -10.8233483974244 153
TPT1P14 TPT1P14 HuAgeGBsplit_25 10.8726109118033 0.656332751469921 10.2162781603334 -9.5599454088635 154
SERPINB13 SERPINB13 HuAgeGBsplit_25 12.0317752475469 0.653382976811854 11.3783922707351 -10.7250092939232 155
CCT5P1 CCT5P1 HuAgeGBsplit_25 11.3008031752072 0.645846024722959 10.6549571504843 -10.0091111257613 156
TPD52L3 TPD52L3 HuAgeGBsplit_25 11.9998739878609 0.641706751510371 11.3581672363505 -10.7164604848402 157
AL359839.1 AL359839.1 HuAgeGBsplit_25 10.8929516981465 0.639446583440045 10.2535051147065 -9.61405853126643 158
HSP90AB6P HSP90AB6P HuAgeGBsplit_25 11.6661955826898 0.632898283324146 11.0332972993656 -10.4003990160415 159
EXOGP1 EXOGP1 HuAgeGBsplit_25 11.9445732351079 0.632125363696514 11.3124478714114 -10.6803225077149 160
MS4A2 MS4A2 HuAgeGBsplit_25 10.9814407911149 0.631871335527304 10.3495694555876 -9.71769812006027 161
EI24P2 EI24P2 HuAgeGBsplit_25 13.5701087694599 0.624505038302181 12.9456037311577 -12.3210986928556 162
KRTAP7-1 KRTAP7-1 HuAgeGBsplit_25 11.2690588007524 0.620861903632801 10.6481968971196 -10.0273349934868 163
LYPD3 LYPD3 HuAgeGBsplit_25 11.1674531648941 0.613238612627219 10.5542145522669 -9.94097593963964 164
AC112653.1 AC112653.1 HuAgeGBsplit_25 11.058942725347 0.596401596604853 10.4625411287421 -9.86613953213728 165
OR5BS1P OR5BS1P HuAgeGBsplit_25 12.3642635850886 0.595819475904211 11.7684441091844 -11.1726246332802 166
RNASE9 RNASE9 HuAgeGBsplit_25 12.031665882649 0.589354625897573 11.4423112567515 -10.8529566308539 167
CD40LG CD40LG HuAgeGBsplit_25 10.355486083196 0.584412772976953 9.77107331021901 -9.18666053724206 168
HIST1H2AA HIST1H2AA HuAgeGBsplit_25 10.6803640842909 0.583538700445345 10.0968253838456 -9.51328668340023 169
TRAJ46 TRAJ46 HuAgeGBsplit_25 11.2456729753391 0.581558770643159 10.664114204696 -10.0825554340528 170
PRDM14 PRDM14 HuAgeGBsplit_25 13.3570166177316 0.578352332393615 12.7786642853379 -12.2003119529443 171
AL023773.1 AL023773.1 HuAgeGBsplit_25 10.96769362129 0.570949326754142 10.3967442945359 -9.82579496778172 172
AC006210.1 AC006210.1 HuAgeGBsplit_25 11.2615773691535 0.569853855839321 10.6917235133141 -10.1218696574748 173
DEFB126 DEFB126 HuAgeGBsplit_25 12.7483969386922 0.568608048082881 12.1797888906093 -11.6111808425264 174
BIN2P2 BIN2P2 HuAgeGBsplit_25 11.776848800112 0.568210658460061 11.208638141652 -10.6404274831919 175
AC103563.1 AC103563.1 HuAgeGBsplit_25 10.5745188570139 0.565599064741305 10.0089197922726 -9.44332072753129 176
IGLV3-31 IGLV3-31 HuAgeGBsplit_25 11.8338240252272 0.557284933950999 11.2765390912762 -10.7192541573252 177
RPL21P13 RPL21P13 HuAgeGBsplit_25 11.105682531685 0.552599262124683 10.5530832695603 -10.0004840074356 178
TRAJ50 TRAJ50 HuAgeGBsplit_25 11.6561363547739 0.5511583238384 11.1049780309355 -10.5538197070971 179
IMPG2 IMPG2 HuAgeGBsplit_25 11.9568061111653 0.545755395215032 11.4110507159503 -10.8652953207353 180
LINC00322 LINC00322 HuAgeGBsplit_25 10.5603591885582 0.537787163697636 10.0225720248606 -9.48478486116294 181
BRS3 BRS3 HuAgeGBsplit_25 11.2252832282977 0.5337762625223 10.6915069657754 -10.1577307032531 182
HAUS4P1 HAUS4P1 HuAgeGBsplit_25 10.3306316852651 0.530858516916418 9.79977316834866 -9.26891465143224 183
MYLKP1 MYLKP1 HuAgeGBsplit_25 11.3117888282769 0.514056486286586 10.7977323419903 -10.2836758557037 184
AC244157.1 AC244157.1 HuAgeGBsplit_25 10.362513366793 0.512588608384341 9.84992475840867 -9.33733615002433 185
NANOGNB NANOGNB HuAgeGBsplit_25 12.0670420792639 0.50306879556724 11.5639732836967 -11.0609044881294 186
OR10H3 OR10H3 HuAgeGBsplit_25 10.5174681873261 0.502092996318397 10.0153751910077 -9.51328219468932 187
SERPINA2 SERPINA2 HuAgeGBsplit_25 10.4182219110379 0.496671986299982 9.92154992473791 -9.42487793843792 188
KRTAP13-5P KRTAP13-5P HuAgeGBsplit_25 10.793936191051 0.493486777234969 10.3004494138161 -9.80696263658111 189
AC004832.2 AC004832.2 HuAgeGBsplit_25 10.5926822786644 0.492113695241577 10.1005685834228 -9.60845488818121 190
LY6K LY6K HuAgeGBsplit_25 10.4570733780528 0.491297060778036 9.96577631727481 -9.47447925649677 191
AC107934.1 AC107934.1 HuAgeGBsplit_25 11.0780057014676 0.491200987480767 10.5868047139868 -10.095603726506 192
TPMTP1 TPMTP1 HuAgeGBsplit_25 10.1179598728337 0.489320094780402 9.62863977805328 -9.13931968327288 193
SKA2P1 SKA2P1 HuAgeGBsplit_25 10.8779459666758 0.486476302627671 10.3914696640481 -9.90499336142044 194
AC015871.1 AC015871.1 HuAgeGBsplit_25 11.6014891867146 0.485774363446639 11.1157148232679 -10.6299404598213 195
OR2T34 OR2T34 HuAgeGBsplit_25 10.2876803951353 0.476131069517272 9.811549325618 -9.33541825610073 196
AL450472.2 AL450472.2 HuAgeGBsplit_25 12.8818713524808 0.47581023576969 12.4060611167111 -11.9302508809415 197
PIGPP3 PIGPP3 HuAgeGBsplit_25 10.1976757983206 0.47420765524879 9.72346814307182 -9.24926048782303 198
PRAMEF12 PRAMEF12 HuAgeGBsplit_25 11.5327100170861 0.473772743041831 11.0589372740443 -10.5851645310025 199
SUMO2P6 SUMO2P6 HuAgeGBsplit_25 10.9069551497026 0.470886806724783 10.4360683429778 -9.96518153625305 200
ZSCAN4 ZSCAN4 HuAgeGBsplit_25 11.611012527524 0.470445021976754 11.1405675055473 -10.6701224835705 201
HAUS1P2 HAUS1P2 HuAgeGBsplit_25 10.2943390045954 0.467519219051901 9.82681978554351 -9.35930056649161 202
AL109618.1 AL109618.1 HuAgeGBsplit_25 9.92501583781245 0.467287679391157 9.4577281584213 -8.99044047903014 203
PPIAP62 PPIAP62 HuAgeGBsplit_25 9.36064814754552 0.46411034480765 8.89653780273787 -8.43242745793022 204
OR4C49P OR4C49P HuAgeGBsplit_25 10.8653855644539 0.4599964684234 10.4053890960305 -9.94539262760711 205
DPRXP7 DPRXP7 HuAgeGBsplit_25 11.2668806766863 0.459685554418604 10.8071951222677 -10.3475095678491 206
AL359736.2 AL359736.2 HuAgeGBsplit_25 10.2906672034099 0.448497751432749 9.84216945197713 -9.39367170054439 207
YTHDF2P1 YTHDF2P1 HuAgeGBsplit_25 11.4793412872539 0.447920225459526 11.0314210617944 -10.5835008363349 208
IGLV3-16 IGLV3-16 HuAgeGBsplit_25 10.7360621420158 0.447739830252253 10.2883223117636 -9.84058248151131 209
MIR892C MIR892C HuAgeGBsplit_25 10.4082565234987 0.445226357005664 9.96303016649302 -9.51780380948736 210
RPS27P26 RPS27P26 HuAgeGBsplit_25 11.3232860926938 0.444374037976299 10.8789120547175 -10.4345380167412 211
MIR3668 MIR3668 HuAgeGBsplit_25 10.2125725390702 0.442962796127479 9.76960974294274 -9.32664694681526 212
IGLV3-4 IGLV3-4 HuAgeGBsplit_25 10.6207505458231 0.44220629203617 10.1785442537869 -9.73633796175073 213
OR5F1 OR5F1 HuAgeGBsplit_25 11.0898404356561 0.436278490643962 10.6535619450122 -10.2172834543682 214
AC012075.1 AC012075.1 HuAgeGBsplit_25 10.746212540161 0.428551759970613 10.3176607801903 -9.88910902021972 215
MIR891A MIR891A HuAgeGBsplit_25 10.1432288257523 0.426339569052272 9.71688925670005 -9.29054968764777 216
TNFRSF10A TNFRSF10A HuAgeGBsplit_25 10.7742128704086 0.425867736297742 10.3483451341109 -9.92247739781313 217
OR7H1P OR7H1P HuAgeGBsplit_25 11.7428582327284 0.423338833899267 11.3195193988291 -10.8961805649298 218
MIR4275 MIR4275 HuAgeGBsplit_25 10.5961537266251 0.414229690544626 10.1819240360804 -9.76769434553582 219
KRT25 KRT25 HuAgeGBsplit_25 11.4985973898382 0.413512877059771 11.0850845127785 -10.6715716357187 220
AL162632.2 AL162632.2 HuAgeGBsplit_25 10.8940180949522 0.408288625508815 10.4857294694434 -10.0774408439345 221
AL772284.2 AL772284.2 HuAgeGBsplit_25 13.1830777036103 0.405871907046108 12.7772057965642 -12.3713338895181 222
RHEX RHEX HuAgeGBsplit_25 12.1912850233457 0.402401854008961 11.7888831693367 -11.3864813153277 223
MIR520F MIR520F HuAgeGBsplit_25 10.6740203578094 0.40106855485853 10.2729518029509 -9.87188324809235 224
OR2A2 OR2A2 HuAgeGBsplit_25 10.6696894585662 0.399994835160087 10.2696946234061 -9.86969978824605 225
GEMIN6 GEMIN6 HuAgeGBsplit_25 10.816934955761 0.398556402177532 10.4183785535835 -10.019822151406 226
AL035467.1 AL035467.1 HuAgeGBsplit_25 12.6321694996237 0.397420861010619 12.2347486386131 -11.8373277776025 227
AKR1D1P1 AKR1D1P1 HuAgeGBsplit_25 10.5144717107153 0.396427095809006 10.1180446149063 -9.72161751909733 228
NACA2 NACA2 HuAgeGBsplit_25 10.2973685178552 0.396149429369552 9.90121908848564 -9.50506965911609 229
IGLV2-33 IGLV2-33 HuAgeGBsplit_25 10.9380136091516 0.393988143214365 10.5440254659372 -10.1500373227229 230
EI24P3 EI24P3 HuAgeGBsplit_25 12.724272643536 0.392942909152091 12.331329734384 -11.9383868252319 231
AC112656.1 AC112656.1 HuAgeGBsplit_25 9.82951525319691 0.392294831459201 9.43722042173771 -9.04492559027851 232
AL121936.2 AL121936.2 HuAgeGBsplit_25 12.3737247787257 0.390313690859686 11.983411087866 -11.5930973970064 233
RPS4XP23 RPS4XP23 HuAgeGBsplit_25 10.2570500363003 0.389511774682856 9.86753826161742 -9.47802648693456 234
OR4D9 OR4D9 HuAgeGBsplit_25 12.4513384153304 0.387606013263797 12.0637324020666 -11.6761263888028 235
AL772284.1 AL772284.1 HuAgeGBsplit_25 10.5435039627276 0.382114463811595 10.161389498916 -9.77927503510439 236
TRAV35 TRAV35 HuAgeGBsplit_25 11.4715154574327 0.381517790397607 11.0899976670351 -10.7084798766375 237
AC016925.2 AC016925.2 HuAgeGBsplit_25 10.1285465356618 0.378627951161739 9.74991858450006 -9.37129063333832 238
Z75741.2 Z75741.2 HuAgeGBsplit_25 11.8889452354502 0.378375877797672 11.5105693576525 -11.1321934798549 239
AC092474.1 AC092474.1 HuAgeGBsplit_25 10.4509649856308 0.373550895297703 10.0774140903331 -9.70386319503539 240
PCAT14 PCAT14 HuAgeGBsplit_25 10.0194825502223 0.365711360721516 9.6537711895008 -9.28805982877929 241
SAR1AP1 SAR1AP1 HuAgeGBsplit_25 10.7446543107045 0.358846791291589 10.3858075194129 -10.0269607281213 242
TRAJ34 TRAJ34 HuAgeGBsplit_25 9.93253101499126 0.350279663038513 9.58225135195275 -9.23197168891423 243
LINC00165 LINC00165 HuAgeGBsplit_25 10.44685017688 0.345848899227827 10.1010012776522 -9.75515237842436 244
BUB3P1 BUB3P1 HuAgeGBsplit_25 10.7602934881123 0.345724308853489 10.4145691792588 -10.0688448704053 245
MRPL35P4 MRPL35P4 HuAgeGBsplit_25 11.4896417745361 0.344123486835517 11.1455182877006 -10.8013948008651 246
AC245505.3 AC245505.3 HuAgeGBsplit_25 11.4515810997375 0.338638550201944 11.1129425495356 -10.7743039993336 247
GCNT2P GCNT2P HuAgeGBsplit_25 10.5033003706795 0.336490872038164 10.1668094986413 -9.83031862660315 248
HSP90B3P HSP90B3P HuAgeGBsplit_25 11.0110323942001 0.331086474562934 10.6799459196371 -10.3488594450742 249
OR8A3P OR8A3P HuAgeGBsplit_25 10.7757544832703 0.328123655859429 10.4476308274109 -10.1195071715515 250
KRTAP21-1 KRTAP21-1 HuAgeGBsplit_25 10.0991496170064 0.326198771034896 9.77295084597146 -9.44675207493656 251
KRTAP19-6 KRTAP19-6 HuAgeGBsplit_25 9.83931158481252 0.326125281680532 9.51318630313199 -9.18706102145145 252
OR4F14P OR4F14P HuAgeGBsplit_25 11.0746055947922 0.321490155839111 10.7531154389531 -10.4316252831139 253
AC078991.1 AC078991.1 HuAgeGBsplit_25 11.0152081568315 0.318300725046039 10.6969074317855 -10.3786067067395 254
AQP10 AQP10 HuAgeGBsplit_25 11.0414059024176 0.315763619626729 10.7256422827909 -10.4098786631642 255
TUBB4BP3 TUBB4BP3 HuAgeGBsplit_25 9.9725295965241 0.315392366551366 9.65713722997273 -9.34174486342136 256
MKI67P1 MKI67P1 HuAgeGBsplit_25 10.8603963904449 0.314113870186048 10.5462825202589 -10.2321686500728 257
KRTAP13-1 KRTAP13-1 HuAgeGBsplit_25 10.8929761675775 0.308842813069792 10.5841333545077 -10.2752905414379 258
TAS2R40 TAS2R40 HuAgeGBsplit_25 9.95960081028938 0.305547257040961 9.65405355324842 -9.34850629620746 259
AC017083.4 AC017083.4 HuAgeGBsplit_25 9.63419740815651 0.303866268664376 9.33033113949214 -9.02646487082776 260
RNU4ATAC9P RNU4ATAC9P HuAgeGBsplit_25 8.98038324587214 0.30169475639721 8.67868848947493 -8.37699373307772 261
AC112482.1 AC112482.1 HuAgeGBsplit_25 11.268102944994 0.301117124502115 10.9669858204919 -10.6658686959898 262
OR2M7 OR2M7 HuAgeGBsplit_25 10.388608844157 0.298681404771833 10.0899274393851 -9.79124603461329 263
FAM205BP FAM205BP HuAgeGBsplit_25 11.2544883228279 0.287781229218545 10.9667070936094 -10.6789258643908 264
BLOC1S2P1 BLOC1S2P1 HuAgeGBsplit_25 9.88397653571358 0.28554167490231 9.59843486081127 -9.31289318590896 265
TRMT10C TRMT10C HuAgeGBsplit_25 10.0913781132804 0.276377336746809 9.81500077653362 -9.53862343978682 266
CTSG CTSG HuAgeGBsplit_25 10.808019894919 0.269857774310953 10.538162120608 -10.2683043462971 267
NXF3 NXF3 HuAgeGBsplit_25 9.97701507442018 0.265389473784767 9.71162560063541 -9.44623612685064 268
TRAJ30 TRAJ30 HuAgeGBsplit_25 10.0907661862929 0.261597479302684 9.82916870699024 -9.56757122768755 269
HOMER2P2 HOMER2P2 HuAgeGBsplit_25 10.5430250618379 0.261317402773505 10.2817076590644 -10.0203902562909 270
AL355862.1 AL355862.1 HuAgeGBsplit_25 10.7767992703304 0.261156770293074 10.5156425000374 -10.2544857297443 271
MIR4455 MIR4455 HuAgeGBsplit_25 9.76655606815455 0.257893073201795 9.50866299495276 -9.25076992175096 272
FAM136BP FAM136BP HuAgeGBsplit_25 10.4199885592436 0.257884528662472 10.1621040305811 -9.90421950191864 273
OR4A21P OR4A21P HuAgeGBsplit_25 10.6687331125388 0.254609788726532 10.4141233238123 -10.1595135350857 274
GSTO3P GSTO3P HuAgeGBsplit_25 9.90036468534953 0.247155880994534 9.65320880435499 -9.40605292336046 275
IGLV3-2 IGLV3-2 HuAgeGBsplit_25 10.2429238381778 0.236999122636475 10.0059247155413 -9.76892559290482 276
ITLN1 ITLN1 HuAgeGBsplit_25 10.4636647656196 0.235877892266476 10.2277868733531 -9.99190898108667 277
ATG4AP1 ATG4AP1 HuAgeGBsplit_25 12.4326552220782 0.233112230519399 12.1995429915588 -11.9664307610394 278
RNU6-1096P RNU6-1096P HuAgeGBsplit_25 10.2870851391428 0.231044291570405 10.0560408475724 -9.82499655600203 279
AC243960.4 AC243960.4 HuAgeGBsplit_25 10.8630470508845 0.228941007079905 10.6341060438046 -10.4051650367247 280
MIR520E MIR520E HuAgeGBsplit_25 9.92110676917401 0.228625258397717 9.69248151077629 -9.46385625237857 281
RPS26P43 RPS26P43 HuAgeGBsplit_25 10.2277697376813 0.221577578246784 10.0061921594345 -9.78461458118773 282
AC084752.1 AC084752.1 HuAgeGBsplit_25 9.98884195922415 0.216941060854129 9.77190089837002 -9.55495983751589 283
SELENOWP1 SELENOWP1 HuAgeGBsplit_25 11.4897828405841 0.215480008214651 11.2743028323694 -11.0588228241548 284
TRAJ41 TRAJ41 HuAgeGBsplit_25 9.33872011064595 0.206641587358008 9.13207852328794 -8.92543693592994 285
CETN1 CETN1 HuAgeGBsplit_25 11.3491580416275 0.20322672213751 11.14593131949 -10.9427045973525 286
TRAJ20 TRAJ20 HuAgeGBsplit_25 9.73818107745536 0.203086414448134 9.53509466300722 -9.33200824855909 287
IGLVI-20 IGLVI-20 HuAgeGBsplit_25 12.1470783851867 0.196917062943238 11.9501613222435 -11.7532442593003 288
OR10G2 OR10G2 HuAgeGBsplit_25 9.46355427005817 0.191399444724651 9.27215482533352 -9.08075538060887 289
AP003108.2 AP003108.2 HuAgeGBsplit_25 11.0435102921384 0.188160194856752 10.8553500972817 -10.6671899024249 290
AC023078.4 AC023078.4 HuAgeGBsplit_25 9.76990896659812 0.187329623063681 9.58257934353444 -9.39524972047076 291
ZBTB45 ZBTB45 HuAgeGBsplit_25 10.7408824453495 0.1854478982821 10.5554345470674 -10.3699866487853 292
SALL4P6 SALL4P6 HuAgeGBsplit_25 9.07282573089913 0.184821216132953 8.88800451476618 -8.70318329863323 293
IFNA7 IFNA7 HuAgeGBsplit_25 10.9932818672152 0.182951184926254 10.810330682289 -10.6273794973627 294
PPIAP1 PPIAP1 HuAgeGBsplit_25 9.90353348431972 0.17539671492985 9.72813676938987 -9.55274005446002 295
RC3H1 RC3H1 HuAgeGBsplit_25 11.1107237948099 0.165369873612674 10.9453539211972 -10.7799840475846 296
AP001184.1 AP001184.1 HuAgeGBsplit_25 11.1886116606809 0.151901462542729 11.0367101981382 -10.8848087355954 297
MIR3937 MIR3937 HuAgeGBsplit_25 9.57824105325227 0.146106817132666 9.4321342361196 -9.28602741898694 298
ACTL7A ACTL7A HuAgeGBsplit_25 10.0501109871738 0.141187556714527 9.90892343045924 -9.76773587374471 299
MIR518C MIR518C HuAgeGBsplit_25 10.5461243227011 0.122630642181889 10.4234936805192 -10.3008630383373 300
ELOBP2 ELOBP2 HuAgeGBsplit_25 11.1380190284716 0.117525741280059 11.0204932871915 -10.9029675459115 301
TPSD1 TPSD1 HuAgeGBsplit_25 8.98694122640412 0.116172467409278 8.87076875899484 -8.75459629158557 302
AC034105.2 AC034105.2 HuAgeGBsplit_25 10.8802198163006 0.115122411116939 10.7650974051836 -10.6499749940667 303
FAM213B FAM213B HuAgeGBsplit_25 9.84303099728707 0.102276139685449 9.74075485760162 -9.63847871791617 304
MET MET HuAgeGBsplit_25 9.51521497950563 0.0960547871227898 9.41916019238284 -9.32310540526005 305
