PSID Gene Module kTotal kWithin kOut kDiff rank
GYG2P1 GYG2P1 darkturquoise 18.6947527300033 7.06411285223109 11.6306398777722 -4.5665270255411 1
AL078624.2 AL078624.2 darkturquoise 19.4215013943754 6.89562487461827 12.5258765197571 -5.63025164513882 2
SAMD3 SAMD3 darkturquoise 19.2595630138196 6.33472288144591 12.9248401323737 -6.59011725092776 3
AL591424.1 AL591424.1 darkturquoise 17.7937543130352 5.52159323194644 12.2721610810888 -6.75056784914234 4
TTTY14 TTTY14 darkturquoise 16.8211179151117 5.34215415885623 11.4789637562554 -6.13680959739922 5
LINC02346 LINC02346 darkturquoise 18.3075516781712 5.27074358504543 13.0368080931258 -7.76606450808033 6
AL591424.3 AL591424.3 darkturquoise 16.7692096027092 5.21629407820786 11.5529155245014 -6.3366214462935 7
SMIM36 SMIM36 darkturquoise 19.6747423134054 5.18414020218982 14.4906021112155 -9.30646190902573 8
ANOS2P ANOS2P darkturquoise 15.9111450852625 5.03215600503008 10.8789890802324 -5.84683307520232 9
UTY UTY darkturquoise 15.6511844762445 4.89864719917807 10.7525372770665 -5.85389007788838 10
USP9Y USP9Y darkturquoise 15.3376290607298 4.52780254960088 10.8098265111289 -6.28202396152807 11
NLGN4Y NLGN4Y darkturquoise 15.5805354772316 4.5061332549205 11.0744022223111 -6.56826896739063 12
CRYM-AS1 CRYM-AS1 darkturquoise 16.9030179300637 4.26918426610091 12.6338336639628 -8.36464939786191 13
ARSEP1 ARSEP1 darkturquoise 15.3144358165492 4.19374252201872 11.1206932945304 -6.92695077251171 14
CCBE1 CCBE1 darkturquoise 20.1486606523714 4.16298510967934 15.985675542692 -11.8226904330127 15
DDX3Y DDX3Y darkturquoise 14.7566162736465 4.13654361945956 10.6200726541869 -6.48352903472737 16
KDM5D KDM5D darkturquoise 15.3147827903253 4.04641183434354 11.2683709559817 -7.22195912163819 17
AC079098.1 AC079098.1 darkturquoise 19.364319179697 3.94059728964867 15.4237218900484 -11.4831246003997 18
PCDH11Y PCDH11Y darkturquoise 14.300910460535 3.92422100732901 10.376689453206 -6.45246844587702 19
TTTY10 TTTY10 darkturquoise 14.9223660958633 3.91873185916541 11.0036342366979 -7.08490237753252 20
USP17L14P USP17L14P darkturquoise 16.0131028631313 3.90433893190491 12.1087639312264 -8.20442499932149 21
PWRN4 PWRN4 darkturquoise 15.9999224114242 3.87671827206007 12.1232041393642 -8.24648586730409 22
AC092546.1 AC092546.1 darkturquoise 20.197159968392 3.84941105920448 16.3477489091875 -12.498337849983 23
ZFY ZFY darkturquoise 14.3047464388415 3.73664710731316 10.5680993315283 -6.83145222421516 24
KDM5DP1 KDM5DP1 darkturquoise 14.0528481942915 3.64797419821501 10.4048739960764 -6.75689979786143 25
RNU1-131P RNU1-131P darkturquoise 14.8522344966198 3.60977440105511 11.2424600955647 -7.63268569450961 26
TTTY15 TTTY15 darkturquoise 14.5208990842343 3.59790135279774 10.9229977314366 -7.32509637863881 27
MTND3P4 MTND3P4 darkturquoise 14.3304817064747 3.51879953668089 10.8116821697938 -7.29288263311291 28
AC100860.1 AC100860.1 darkturquoise 15.0364681976245 3.51363668825338 11.5228315093711 -8.00919482111775 29
LINC00456 LINC00456 darkturquoise 16.6475700640566 3.43826978538032 13.2093002786763 -9.771030493296 30
ASS1P8 ASS1P8 darkturquoise 15.0819544464884 3.38587975169431 11.6960746947941 -8.31019494309982 31
CCNT2-AS1 CCNT2-AS1 darkturquoise 19.132318683687 3.29878786160612 15.8335308220808 -12.5347429604747 32
AL359854.1 AL359854.1 darkturquoise 14.2402115326918 3.27384638935452 10.9663651433373 -7.69251875398279 33
RPS4Y1 RPS4Y1 darkturquoise 13.9268617096332 3.24138142353235 10.6854802861008 -7.44409886256846 34
EIF1AY EIF1AY darkturquoise 13.7924997522633 3.22676040547698 10.5657393467863 -7.33897894130932 35
AL365222.1 AL365222.1 darkturquoise 13.2575070438733 3.1880716047882 10.0694354390851 -6.88136383429695 36
TXLNGY TXLNGY darkturquoise 14.0781524850645 3.11875975830303 10.9593927267614 -7.84063296845839 37
FAM8A4P FAM8A4P darkturquoise 13.6388497042399 3.0092182353856 10.6296314688543 -7.62041323346873 38
MTCYBP2 MTCYBP2 darkturquoise 13.3459993296846 2.99859534667133 10.3474039830133 -7.34880863634196 39
RPL5P21 RPL5P21 darkturquoise 14.3790509184688 2.95760739468493 11.4214435237838 -8.4638361290989 40
TMSB4Y TMSB4Y darkturquoise 13.6602989062671 2.89394877803024 10.7663501282369 -7.87240135020665 41
RNU6-1236P RNU6-1236P darkturquoise 18.3881068355152 2.83526462181229 15.5528422137029 -12.7175775918906 42
KRT18P44 KRT18P44 darkturquoise 15.1585111475569 2.81088630100315 12.3476248465538 -9.53673854555061 43
GPRC5D-AS1 GPRC5D-AS1 darkturquoise 15.6677703986966 2.71592542398578 12.9518449747108 -10.235919550725 44
AL451046.1 AL451046.1 darkturquoise 14.8940412672582 2.70084242709956 12.1931988401586 -9.49235641305908 45
AP005212.4 AP005212.4 darkturquoise 14.3577385259746 2.62169446496388 11.7360440610107 -9.11434959604681 46
BPIFB5P BPIFB5P darkturquoise 15.846830127373 2.59950648066504 13.247323646708 -10.6478171660429 47
CALM2P4 CALM2P4 darkturquoise 14.1230837663498 2.57841434211346 11.5446694242363 -8.96625508212284 48
AC113420.1 AC113420.1 darkturquoise 15.1606864940423 2.55637170787228 12.6043147861701 -10.0479430782978 49
LINC01865 LINC01865 darkturquoise 14.0847101243344 2.50716927679145 11.5775408475429 -9.0703715707515 50
AC008164.1 AC008164.1 darkturquoise 20.5493183473292 2.50127142861307 18.0480469187161 -15.546775490103 51
RN7SL564P RN7SL564P darkturquoise 13.0973998302597 2.47130228500497 10.6260975452548 -8.15479526024979 52
AC011474.1 AC011474.1 darkturquoise 15.079685031318 2.40632507433574 12.6733599569823 -10.2670348826466 53
AC005307.1 AC005307.1 darkturquoise 17.6670064530196 2.37864622841843 15.2883602246012 -12.9097139961828 54
TUBBP5 TUBBP5 darkturquoise 14.2519146727911 2.35163266761383 11.9002820051773 -9.54864933756347 55
AC113346.2 AC113346.2 darkturquoise 16.171839985293 2.30541688723917 13.8664230980538 -11.5610062108146 56
LINC02071 LINC02071 darkturquoise 17.8165853927586 2.22522967130958 15.591355721449 -13.3661260501395 57
RNA5SP510 RNA5SP510 darkturquoise 14.4688020829205 2.17328879930777 12.2955132836127 -10.1222244843049 58
AL160290.2 AL160290.2 darkturquoise 18.5893361135008 2.14009603974096 16.4492400737599 -14.3091440340189 59
CAPN8 CAPN8 darkturquoise 14.1279906458309 2.08688659600002 12.0411040498309 -9.95421745383091 60
RPL7AP72 RPL7AP72 darkturquoise 13.1594674610826 2.0819851641635 11.0774822969191 -8.99549713275555 61
AL117190.1 AL117190.1 darkturquoise 13.7466683321463 2.03362479645086 11.7130435356955 -9.67941873924462 62
MIR381HG MIR381HG darkturquoise 15.3317544978106 2.02341633306817 13.3083381647424 -11.2849218316742 63
AC100818.1 AC100818.1 darkturquoise 13.8025049789853 2.0073535207793 11.795151458206 -9.78779793742674 64
AC096922.1 AC096922.1 darkturquoise 14.5647747749123 2.00668335873013 12.5580914161821 -10.551408057452 65
RNU6-27P RNU6-27P darkturquoise 12.8960193569096 1.98826873680562 10.907750620104 -8.91948188329841 66
AL033381.1 AL033381.1 darkturquoise 13.2807156347514 1.98393753540235 11.296778099349 -9.31284056394666 67
NPM1P12 NPM1P12 darkturquoise 15.3942447831593 1.98023471050798 13.4140100726513 -11.4337753621434 68
RN7SL97P RN7SL97P darkturquoise 17.5523575310276 1.97929116797983 15.5730663630478 -13.593775195068 69
LINC02136 LINC02136 darkturquoise 17.1532316412133 1.96341650403813 15.1898151371751 -13.226398633137 70
RNU4-69P RNU4-69P darkturquoise 13.5683857926569 1.95699562317522 11.6113901694817 -9.65439454630645 71
AC019235.1 AC019235.1 darkturquoise 13.6930760605727 1.95466809178215 11.7384079687905 -9.78373987700838 72
KSR1P1 KSR1P1 darkturquoise 12.1990358250675 1.93088755207976 10.2681482729877 -8.33726072090797 73
NCBP2L NCBP2L darkturquoise 14.0865988890579 1.91644315270696 12.1701557363509 -10.253712583644 74
KLHL2P1 KLHL2P1 darkturquoise 15.6422647717439 1.90906611683849 13.7331986549054 -11.8241325380669 75
HSPA8P6 HSPA8P6 darkturquoise 17.5409254705084 1.87561264585708 15.6653128246513 -13.7897001787942 76
AC005077.2 AC005077.2 darkturquoise 13.6636123616476 1.85545146986093 11.8081608917867 -9.95270942192576 77
NUS1P4 NUS1P4 darkturquoise 13.7089090178896 1.81743393518373 11.8914750827059 -10.0740411475222 78
RNU6-604P RNU6-604P darkturquoise 11.4139057039826 1.75742337739155 9.65648232659105 -7.8990589491995 79
AC016229.2 AC016229.2 darkturquoise 16.0379274764068 1.75537643681214 14.2825510395946 -12.5271746027825 80
AL450426.1 AL450426.1 darkturquoise 15.9857726280876 1.71449805913171 14.2712745689559 -12.5567765098242 81
SNX29P1 SNX29P1 darkturquoise 14.4025559906751 1.71185438956694 12.6907016011082 -10.9788472115412 82
RN7SKP297 RN7SKP297 darkturquoise 12.6876634052333 1.70055674801102 10.9871066572223 -9.28654990921126 83
AL353604.1 AL353604.1 darkturquoise 20.078345377573 1.68408842126385 18.3942569563091 -16.7101685350453 84
AC021439.1 AC021439.1 darkturquoise 12.648173885835 1.63386699265239 11.0143068931826 -9.38043990053025 85
PTGER3 PTGER3 darkturquoise 12.3727702624592 1.6258374949009 10.7469327675583 -9.12109527265738 86
CLNS1AP1 CLNS1AP1 darkturquoise 13.40061430667 1.62492488295588 11.7756894237142 -10.1507645407583 87
OR13I1P OR13I1P darkturquoise 13.2310524489385 1.61420318973615 11.6168492592024 -10.0026460694662 88
RNU6-635P RNU6-635P darkturquoise 11.6435091034926 1.61240429902345 10.0311048044692 -8.41870050544572 89
TMED11P TMED11P darkturquoise 14.4502602603709 1.59238708933789 12.857873171033 -11.2654860816951 90
AC093283.1 AC093283.1 darkturquoise 12.5281945403945 1.55268135852461 10.9755131818699 -9.42283182334526 91
LINC01046 LINC01046 darkturquoise 12.2154534985029 1.54837058017927 10.6670829183236 -9.11871233814436 92
SPDYE15P SPDYE15P darkturquoise 11.4681279264241 1.53818436908314 9.92994355734096 -8.39175918825782 93
GMDS GMDS darkturquoise 16.739464158027 1.51773748445761 15.2217266735694 -13.7039891891118 94
ZNF831 ZNF831 darkturquoise 13.3825947677537 1.50429204657098 11.8783027211827 -10.3740106746117 95
RF00100 RF00100 darkturquoise 13.0920707719164 1.46989153082418 11.6221792410922 -10.1522877102681 96
AC233701.1 AC233701.1 darkturquoise 13.7294107097474 1.45418401187583 12.2752266978716 -10.8210426859957 97
LINC02188 LINC02188 darkturquoise 15.4049648630496 1.4489837146529 13.9559811483967 -12.5069974337438 98
MTND4LP32 MTND4LP32 darkturquoise 12.5955449911177 1.37778175742996 11.2177632336877 -9.83998147625775 99
RPL7P27 RPL7P27 darkturquoise 13.4964328944 1.37657111099552 12.1198617834045 -10.743290672409 100
MTND1P35 MTND1P35 darkturquoise 11.8301560214496 1.37149878274718 10.4586572387024 -9.08715845595525 101
AC010889.1 AC010889.1 darkturquoise 11.8411268482765 1.36677281811455 10.4743540301619 -9.10758121204738 102
AC068675.1 AC068675.1 darkturquoise 13.4610622476516 1.36483377049217 12.0962284771594 -10.7313947066673 103
AC083906.2 AC083906.2 darkturquoise 12.5614798369352 1.36039591861988 11.2010839183153 -9.84068799969543 104
AC008740.2 AC008740.2 darkturquoise 11.864260203357 1.35466727799596 10.5095929253611 -9.15492564736512 105
FSHB FSHB darkturquoise 11.7123599300502 1.35293205412643 10.3594278759238 -9.00649582179737 106
GTF2IP7 GTF2IP7 darkturquoise 11.7847863634599 1.30999512772938 10.4747912357305 -9.16479610800113 107
AC126365.1 AC126365.1 darkturquoise 11.5709824921642 1.30482535096923 10.266157141195 -8.96133179022577 108
RHBDF1P1 RHBDF1P1 darkturquoise 12.7409619341181 1.27101051720909 11.469951416909 -10.1989408996999 109
HNRNPA1P31 HNRNPA1P31 darkturquoise 11.9264484016079 1.24756384503466 10.6788845565732 -9.43132071153853 110
PM20D1 PM20D1 darkturquoise 11.4709874620219 1.23774644079436 10.2332410212276 -8.99549458043321 111
AC152010.1 AC152010.1 darkturquoise 11.0631897272518 1.22648268354965 9.83670704370216 -8.61022436015251 112
NLRP3P1 NLRP3P1 darkturquoise 12.8749997140332 1.22307690525538 11.6519228087778 -10.4288459035224 113
LINC01262 LINC01262 darkturquoise 11.7466669166753 1.21460180616004 10.5320651105152 -9.3174633043552 114
ARSFP1 ARSFP1 darkturquoise 11.7305003945317 1.20340446554758 10.5270959289841 -9.32369146343652 115
RNU6-1135P RNU6-1135P darkturquoise 10.2995743603549 1.19943594284415 9.10013841751071 -7.90070247466655 116
CUX2P1 CUX2P1 darkturquoise 10.5433845373185 1.18349537375301 9.35988916356545 -8.17639378981243 117
AC005225.2 AC005225.2 darkturquoise 13.3552781704494 1.16765197850607 12.1876261919433 -11.0199742134372 118
AP006245.1 AP006245.1 darkturquoise 11.5151769737797 1.15647753367962 10.3586994401001 -9.20222190642045 119
NDUFS6P1 NDUFS6P1 darkturquoise 12.0434013134432 1.13572074274756 10.9076805706956 -9.77195982794806 120
AL590095.1 AL590095.1 darkturquoise 12.9927635072127 1.13271084420199 11.8600526630107 -10.7273418188087 121
AC005296.1 AC005296.1 darkturquoise 12.0864409741154 1.13251803118899 10.9539229429265 -9.82140491173747 122
LINC00279 LINC00279 darkturquoise 11.0501009055974 1.12920823411129 9.92089267148611 -8.79168443737482 123
RN7SL361P RN7SL361P darkturquoise 11.9138055930137 1.11834631247302 10.7954592805407 -9.67711296806769 124
MTND2P8 MTND2P8 darkturquoise 11.9524243474682 1.09330906960876 10.8591152778594 -9.76580620825064 125
AL031121.1 AL031121.1 darkturquoise 11.3038979976403 1.09153365697482 10.2123643406654 -9.12083068369061 126
NDUFB5P1 NDUFB5P1 darkturquoise 11.8361414494994 1.08291664701875 10.7532248024806 -9.67030815546188 127
AC091905.2 AC091905.2 darkturquoise 13.0212036599461 1.06592232038461 11.9552813395615 -10.8893590191769 128
AC091544.5 AC091544.5 darkturquoise 12.3544351282979 1.0575270952541 11.2969080330438 -10.2393809377897 129
AL392086.1 AL392086.1 darkturquoise 12.9725935573473 1.04814867585855 11.9244448814887 -10.8762962056302 130
HSPA8P5 HSPA8P5 darkturquoise 11.9782783375821 1.03620250537657 10.9420758322055 -9.90587332682897 131
LINC01699 LINC01699 darkturquoise 11.4483509130134 1.03195479650138 10.416396116512 -9.3844413200106 132
AC005162.3 AC005162.3 darkturquoise 12.4686954070551 1.03068571582803 11.438009691227 -10.407323975399 133
RN7SL618P RN7SL618P darkturquoise 11.4486429357117 1.00799296663698 10.4406499690747 -9.43265700243777 134
PRKY PRKY darkturquoise 11.3960752447357 0.989273430141044 10.4068018145946 -9.41752838445359 135
AL513164.1 AL513164.1 darkturquoise 17.0603968199385 0.987327652677955 16.0730691672605 -15.0857415145825 136
RN7SL836P RN7SL836P darkturquoise 10.3016780720747 0.978130923739309 9.32354714833538 -8.34541622459607 137
AC009690.3 AC009690.3 darkturquoise 12.0718196079526 0.974450046850289 11.0973695611024 -10.1229195142521 138
RNU6-329P RNU6-329P darkturquoise 12.4534117989457 0.972479761424919 11.4809320375208 -10.5084522760959 139
AC011330.1 AC011330.1 darkturquoise 11.2965476241061 0.968054476221545 10.3284931478846 -9.36043867166304 140
ACTBP6 ACTBP6 darkturquoise 11.9002947515927 0.962735219879365 10.9375595317134 -9.97482431183401 141
OR6L1P OR6L1P darkturquoise 11.124732040114 0.953347909978745 10.1713841301352 -9.21803622015647 142
Z93929.1 Z93929.1 darkturquoise 12.5683704775129 0.952282062910804 11.6160884146021 -10.6638063516913 143
DLEC1P1 DLEC1P1 darkturquoise 11.3936226979255 0.938453269599824 10.4551694283257 -9.5167161587259 144
SSU72P1 SSU72P1 darkturquoise 11.8424557965171 0.93420735733197 10.9082484391852 -9.97404108185319 145
AC006157.1 AC006157.1 darkturquoise 10.9832749899265 0.931538067299367 10.0517369226271 -9.12019885532777 146
GNAI2P2 GNAI2P2 darkturquoise 11.0259109258488 0.928305071909098 10.0976058539397 -9.16930078203062 147
AL023284.1 AL023284.1 darkturquoise 11.0038439920107 0.927697900496809 10.0761460915139 -9.14844819101705 148
RNU7-164P RNU7-164P darkturquoise 10.8611022928812 0.925106299650716 9.93599599323045 -9.01088969357973 149
AP003716.1 AP003716.1 darkturquoise 12.7082528312739 0.92212983680175 11.7861229944721 -10.8639931576704 150
KRT18P51 KRT18P51 darkturquoise 12.2738958719232 0.917220534249949 11.3566753376733 -10.4394548034233 151
AC005785.1 AC005785.1 darkturquoise 12.6583498109433 0.912726237614791 11.7456235733285 -10.8328973357137 152
SPRY4-AS1 SPRY4-AS1 darkturquoise 13.8600536871442 0.905157726554519 12.9548959605897 -12.0497382340351 153
RN7SL211P RN7SL211P darkturquoise 12.1830966965536 0.904411602799933 11.2786850937537 -10.3742734909538 154
AP001972.3 AP001972.3 darkturquoise 12.4286351866335 0.894941473750546 11.533693712883 -10.6387522391324 155
RPL34P19 RPL34P19 darkturquoise 11.9098042762362 0.893530757689596 11.0162735185466 -10.1227427608571 156
AC009365.2 AC009365.2 darkturquoise 13.1224835004901 0.888127661186395 12.2343558393037 -11.3462281781173 157
DAP3P1 DAP3P1 darkturquoise 11.6308215565444 0.878908227926255 10.7519133286182 -9.87300510069193 158
AC022167.5 AC022167.5 darkturquoise 10.9349346917435 0.864405389310929 10.0705293024325 -9.20612391312162 159
AL445523.1 AL445523.1 darkturquoise 13.7505163734322 0.857672224895738 12.8928441485364 -12.0351719236407 160
RPS17P11 RPS17P11 darkturquoise 10.8428980538742 0.853943989948245 9.98895406392592 -9.13501007397768 161
AL591424.2 AL591424.2 darkturquoise 10.9935053649079 0.842770536508814 10.150734828399 -9.30796429189023 162
RN7SL259P RN7SL259P darkturquoise 11.3712046443898 0.84173535651809 10.5294692878717 -9.68773393135359 163
AL365394.1 AL365394.1 darkturquoise 12.5131817480685 0.836087085821049 11.6770946622474 -10.8410075764264 164
DPH3P2 DPH3P2 darkturquoise 10.8714397744273 0.834734008280557 10.0367057661468 -9.20197175786621 165
RPL26P20 RPL26P20 darkturquoise 11.7980014459773 0.834525596381398 10.9634758495959 -10.1289502532145 166
RN7SKP226 RN7SKP226 darkturquoise 13.0158812114926 0.832894760314665 12.182986451178 -11.3500916908633 167
MIR6131 MIR6131 darkturquoise 11.0637601444048 0.82771894339448 10.2360412010103 -9.40832225761584 168
AL136309.3 AL136309.3 darkturquoise 10.8862603262141 0.822899197741623 10.0633611284725 -9.24046193073088 169
RN7SKP65 RN7SKP65 darkturquoise 12.6423125095034 0.813449307059299 11.8288632024441 -11.0154138953848 170
AC011479.1 AC011479.1 darkturquoise 12.6252084670648 0.812302063888558 11.8129064031762 -11.0006043392877 171
LINC01085 LINC01085 darkturquoise 11.8797449551855 0.812176578481553 11.0675683767039 -10.2553917982224 172
FAM90A24P FAM90A24P darkturquoise 11.4797409222048 0.812015017319796 10.667725904885 -9.85571088756522 173
AL359845.1 AL359845.1 darkturquoise 11.7601295844902 0.811853219240001 10.9482763652502 -10.1364231460102 174
AC011602.1 AC011602.1 darkturquoise 12.3283113482196 0.81163433180546 11.5166770164142 -10.7050426846087 175
UPP2 UPP2 darkturquoise 13.0120068346914 0.809165717124801 12.2028411175666 -11.3936754004418 176
LINC01034 LINC01034 darkturquoise 11.7591950844849 0.806465794305782 10.9527292901791 -10.1462634958733 177
COL24A1 COL24A1 darkturquoise 12.3073874795315 0.80570116065588 11.5016863188756 -10.6959851582197 178
LINC02191 LINC02191 darkturquoise 13.8849524321795 0.797523425114601 13.0874290070649 -12.2899055819503 179
OR10D4P OR10D4P darkturquoise 11.0441187952621 0.796651119836387 10.2474676754257 -9.45081655558929 180
AC128677.1 AC128677.1 darkturquoise 11.8255415286053 0.786364014640098 11.0391775139652 -10.2528134993251 181
RN7SL596P RN7SL596P darkturquoise 12.051316188233 0.785657525930702 11.2656586623023 -10.4800011363716 182
AC063976.1 AC063976.1 darkturquoise 11.899022786777 0.784559684827864 11.1144631019492 -10.3299034171213 183
RPL35AP22 RPL35AP22 darkturquoise 12.8032405390019 0.780876956271155 12.0223635827307 -11.2414866264596 184
MIR1185-1 MIR1185-1 darkturquoise 11.2131047716513 0.776168043541208 10.4369367281101 -9.66076868456889 185
GAPDHP16 GAPDHP16 darkturquoise 11.4500170555413 0.775834663508636 10.6741823920326 -9.898347728524 186
TXNP1 TXNP1 darkturquoise 11.1830994997138 0.767211891088769 10.415887608625 -9.64867571753624 187
MTATP6P20 MTATP6P20 darkturquoise 11.3501844031443 0.766226271849985 10.5839581312943 -9.81773185944433 188
AC148477.6 AC148477.6 darkturquoise 10.5690405329971 0.758085879966957 9.81095465303014 -9.05286877306319 189
COL25A1 COL25A1 darkturquoise 11.6146706328241 0.754927789550085 10.859742843274 -10.1048150537239 190
TPT1P1 TPT1P1 darkturquoise 13.2149977472166 0.752534857470696 12.4624628897459 -11.7099280322752 191
RPL15P4 RPL15P4 darkturquoise 10.5029576181506 0.752363930096545 9.75059368805405 -8.99822975795751 192
NDE1P2 NDE1P2 darkturquoise 10.6365505296417 0.751135718545035 9.88541481109666 -9.13427909255162 193
AC073912.3 AC073912.3 darkturquoise 13.002750332713 0.749840502478297 12.2529098302347 -11.5030693277564 194
RNU4-72P RNU4-72P darkturquoise 11.1953871086704 0.748214173693415 10.4471729349769 -9.69895876128353 195
MIR300 MIR300 darkturquoise 10.2337767656554 0.744231963167745 9.48954480248769 -8.74531283931995 196
AL954642.1 AL954642.1 darkturquoise 11.1154916876554 0.742829960237685 10.3726617274177 -9.62983176718005 197
KRT18P6 KRT18P6 darkturquoise 11.2730003560379 0.73547460760638 10.5375257484316 -9.80205114082518 198
AL389895.1 AL389895.1 darkturquoise 11.5330962497741 0.722271115236919 10.8108251345372 -10.0885540193003 199
AL031316.1 AL031316.1 darkturquoise 14.1595280059824 0.721581943826934 13.4379460621554 -12.7163641183285 200
MIR1202 MIR1202 darkturquoise 10.4107087443016 0.719575643709595 9.69113310059205 -8.97155745688245 201
AP005019.2 AP005019.2 darkturquoise 10.3893635381423 0.715405015412764 9.67395852272949 -8.95855350731672 202
ZNF890P ZNF890P darkturquoise 10.902464777027 0.712625466732823 10.1898393102942 -9.47721384356138 203
KRT18P52 KRT18P52 darkturquoise 11.4113443776472 0.709706098930463 10.7016382787168 -9.99193217978631 204
AC096949.1 AC096949.1 darkturquoise 11.8610175921376 0.709167653848544 11.151849938289 -10.4426822844405 205
RNU6-1013P RNU6-1013P darkturquoise 10.4602039538072 0.700447340625691 9.75975661318152 -9.05930927255582 206
OR2W2P OR2W2P darkturquoise 11.5169783906766 0.70006856378693 10.8169098268897 -10.1168412631027 207
MARK2P6 MARK2P6 darkturquoise 11.0974113688836 0.686849852318619 10.410561516565 -9.72371166424638 208
IFNWP5 IFNWP5 darkturquoise 11.0057580714781 0.684564654860557 10.3211934166175 -9.63662876175694 209
AC105393.2 AC105393.2 darkturquoise 11.5168029355911 0.68429511461541 10.8325078209757 -10.1482127063603 210
AP005019.3 AP005019.3 darkturquoise 10.9316718308714 0.68336042638174 10.2483114044897 -9.56495097810793 211
AC079768.1 AC079768.1 darkturquoise 10.7059056584215 0.68219545655084 10.0237102018706 -9.34151474531978 212
DPPA2P1 DPPA2P1 darkturquoise 10.8169815308327 0.672392562453248 10.1445889683795 -9.47219640592622 213
MRPS5P4 MRPS5P4 darkturquoise 10.354022350353 0.669783920879277 9.68423842947371 -9.01445450859443 214
AC005224.2 AC005224.2 darkturquoise 10.3466457054294 0.668215359568689 9.67843034586067 -9.01021498629198 215
AC004408.1 AC004408.1 darkturquoise 10.1869813947185 0.661441498962152 9.52553989575634 -8.86409839679419 216
RPLP2P1 RPLP2P1 darkturquoise 11.5540818143219 0.660169996046697 10.8939118182752 -10.2337418222285 217
AL133387.3 AL133387.3 darkturquoise 10.8008927749452 0.644815923646461 10.1560768512987 -9.51126092765229 218
PPIAP87 PPIAP87 darkturquoise 10.714858285065 0.643604174800436 10.0712541102646 -9.42764993546415 219
AC023449.1 AC023449.1 darkturquoise 10.7801068106826 0.639971183547941 10.1401356271347 -9.50016444358675 220
AC098680.1 AC098680.1 darkturquoise 10.3943364841285 0.639472634369547 9.75486384975897 -9.11539121538943 221
AC099654.12 AC099654.12 darkturquoise 10.2722098989226 0.639042841891753 9.63316705703087 -8.99412421513911 222
AC015689.1 AC015689.1 darkturquoise 10.9720229209255 0.638655305322845 10.3333676156027 -9.69471231027983 223
MS4A8 MS4A8 darkturquoise 10.5639795670883 0.622040414631213 9.94193915245713 -9.31989873782591 224
PRR5 PRR5 darkturquoise 11.5690879719327 0.615553299106877 10.9535346728258 -10.3379813737189 225
AL512635.1 AL512635.1 darkturquoise 11.6629816084195 0.613860859130635 11.0491207492889 -10.4352598901583 226
RPS3AP41 RPS3AP41 darkturquoise 11.6055503579442 0.610743269727619 10.9948070882166 -10.384063818489 227
AL109910.1 AL109910.1 darkturquoise 11.2549586118013 0.608092558944685 10.6468660528566 -10.0387734939119 228
PPIAP56 PPIAP56 darkturquoise 10.4195630352369 0.606071893679228 9.81349114155765 -9.20741924787842 229
RBMX2P2 RBMX2P2 darkturquoise 13.7818491541365 0.59353517900752 13.188313975129 -12.5947787961214 230
NXPE2P1 NXPE2P1 darkturquoise 10.9825823183091 0.592280296007884 10.3903020223012 -9.79802172629335 231
RNU6-616P RNU6-616P darkturquoise 10.2004731411336 0.587567361228992 9.61290577990461 -9.02533841867562 232
AL500527.2 AL500527.2 darkturquoise 10.2726984404946 0.586074224642432 9.68662421585219 -9.10054999120976 233
SLC22A9 SLC22A9 darkturquoise 13.8822408238223 0.583117489710497 13.2991233341118 -12.7160058444013 234
MOGAT2 MOGAT2 darkturquoise 11.6331178946997 0.567208084230799 11.0659098104689 -10.4987017262381 235
U73023.1 U73023.1 darkturquoise 10.4214219941298 0.566653149024586 9.85476884510522 -9.28811569608063 236
Z97988.1 Z97988.1 darkturquoise 10.6523838666115 0.562891811174999 10.0894920554365 -9.52660024426148 237
ZCCHC23 ZCCHC23 darkturquoise 11.3744979768601 0.562511503100102 10.81198647376 -10.2494749706599 238
CENPP CENPP darkturquoise 11.6154311285892 0.561322950064097 11.0541081785251 -10.492785228461 239
AL356274.1 AL356274.1 darkturquoise 10.3240900064483 0.560005810673358 9.76408419577495 -9.20407838510159 240
AC009084.1 AC009084.1 darkturquoise 10.6484718856309 0.555963617427335 10.0925082682036 -9.53654465077627 241
AC079790.1 AC079790.1 darkturquoise 11.2691768059795 0.552500343612681 10.7166764623668 -10.1641761187542 242
CEACAMP7 CEACAMP7 darkturquoise 13.0244729023542 0.549776724185876 12.4746961781683 -11.9249194539824 243
MIR376A2 MIR376A2 darkturquoise 10.1224937801836 0.544869191183119 9.57762458900051 -9.03275539781739 244
MIR5681A MIR5681A darkturquoise 10.3199412603391 0.540897969122472 9.77904329121667 -9.2381453220942 245
CRAMP1 CRAMP1 darkturquoise 11.7175863089058 0.54071244568388 11.176873863222 -10.6361614175381 246
AC092989.1 AC092989.1 darkturquoise 9.97924274074902 0.539105515397001 9.44013722535202 -8.90103170995502 247
PLG PLG darkturquoise 11.3849570630586 0.537153388231429 10.8478036748272 -10.3106502865958 248
CDKL4 CDKL4 darkturquoise 12.4157128818442 0.535509078754089 11.8802038030901 -11.344694724336 249
AC010683.1 AC010683.1 darkturquoise 10.1576588912158 0.534660036331578 9.6229988548842 -9.08833881855262 250
ABCA17P ABCA17P darkturquoise 10.5956643910441 0.530028670367228 10.0656357206769 -9.53560705030965 251
RPL31P13 RPL31P13 darkturquoise 11.2590463881221 0.519463424531887 10.7395829635903 -10.2201195390584 252
COX6B1P6 COX6B1P6 darkturquoise 10.5717187981765 0.513653450080344 10.0580653480961 -9.54441189801578 253
AL359741.1 AL359741.1 darkturquoise 11.4133945202628 0.511511474984449 10.9018830452784 -10.3903715702939 254
RNU6-560P RNU6-560P darkturquoise 9.5421466264014 0.496102371999282 9.04604425440212 -8.54994188240284 255
AC091544.2 AC091544.2 darkturquoise 11.4957809636033 0.495749038376179 11.0000319252271 -10.5042828868509 256
BRDTP1 BRDTP1 darkturquoise 10.5621696077151 0.490031372294526 10.0721382354206 -9.58210686312608 257
AC121334.1 AC121334.1 darkturquoise 10.6366900238067 0.489855939179656 10.146834084627 -9.65697814544735 258
KRT18P19 KRT18P19 darkturquoise 11.9656161162756 0.484774061816989 11.4808420544586 -10.9960679926416 259
AC006511.1 AC006511.1 darkturquoise 10.7866520057775 0.482869364118436 10.3037826416591 -9.82091327754067 260
AC067942.2 AC067942.2 darkturquoise 11.2569349439988 0.481127783735152 10.7758071602637 -10.2946793765285 261
GPR148 GPR148 darkturquoise 10.2196411932529 0.480372185106206 9.73926900814668 -9.25889682304047 262
RNA5SP240 RNA5SP240 darkturquoise 10.8699447302912 0.479800834000833 10.3901438962904 -9.91034306228957 263
ZMIZ1-AS1 ZMIZ1-AS1 darkturquoise 11.2187677640017 0.476283352698255 10.7424844113034 -10.2662010586052 264
CLDN17 CLDN17 darkturquoise 9.82646801128951 0.473768041317988 9.35269996997152 -8.87893192865354 265
AL358613.1 AL358613.1 darkturquoise 11.738241956981 0.471830347621907 11.2664116093591 -10.7945812617372 266
AC068733.3 AC068733.3 darkturquoise 9.67023864796407 0.469673231036523 9.20056541692754 -8.73089218589102 267
RPS26P39 RPS26P39 darkturquoise 10.4967403266748 0.467483801957331 10.0292565247175 -9.56177272276019 268
TRAJ22 TRAJ22 darkturquoise 10.0647649793939 0.460380920159527 9.6043840592344 -9.14400313907487 269
RNU6-1077P RNU6-1077P darkturquoise 10.1801326926251 0.458623472368346 9.72150922025672 -9.26288574788838 270
AC013643.1 AC013643.1 darkturquoise 10.6326617457432 0.454867284623529 10.1777944611197 -9.72292717649618 271
AL031985.4 AL031985.4 darkturquoise 10.8563491332962 0.454120137708417 10.4022289955878 -9.94810885787934 272
AC093281.1 AC093281.1 darkturquoise 10.0138742415388 0.449470906320141 9.5644033352187 -9.11493242889856 273
RNU6-1017P RNU6-1017P darkturquoise 9.84717929031545 0.447519006742407 9.39966028357304 -8.95214127683064 274
RN7SL825P RN7SL825P darkturquoise 9.95361053264777 0.447295224156373 9.50631530849139 -9.05902008433502 275
AP3B2 AP3B2 darkturquoise 10.1565853027745 0.443956376810301 9.71262892596424 -9.26867254915394 276
C8orf59P1 C8orf59P1 darkturquoise 10.4815592832246 0.442922768955578 10.038636514269 -9.59571374531341 277
RNU6ATAC6P RNU6ATAC6P darkturquoise 9.73894297064584 0.437060649605006 9.30188232104083 -8.86482167143582 278
AL591926.4 AL591926.4 darkturquoise 10.5686423770355 0.4370448359334 10.1315975411021 -9.69455270516868 279
RPL7P35 RPL7P35 darkturquoise 10.1872031433877 0.434598965619115 9.75260417776863 -9.31800521214951 280
LINC01990 LINC01990 darkturquoise 11.4611375135964 0.432316557446259 11.0288209561502 -10.5965043987039 281
SNX18P14 SNX18P14 darkturquoise 10.4523968191045 0.430760017118216 10.0216368019863 -9.59087678486808 282
AC132154.1 AC132154.1 darkturquoise 10.9734807298798 0.426867825326255 10.5466129045536 -10.1197450792273 283
RNA5SP128 RNA5SP128 darkturquoise 10.445003217773 0.424962878785734 10.0200403389873 -9.59507746020158 284
RN7SL100P RN7SL100P darkturquoise 10.1467024511586 0.421394529787464 9.72530792137109 -9.30391339158363 285
OR52M2P OR52M2P darkturquoise 11.8572343272228 0.414425716969937 11.4428086102529 -11.0283828932829 286
AL358972.1 AL358972.1 darkturquoise 10.5082581509072 0.413671701619355 10.0945864492879 -9.6809147476685 287
AP001357.2 AP001357.2 darkturquoise 10.2531594477346 0.409004044767754 9.84415540296685 -9.43515135819909 288
NXNL2 NXNL2 darkturquoise 10.5733748712266 0.404832819091995 10.1685420521346 -9.7637092330426 289
AC004923.1 AC004923.1 darkturquoise 11.2665394339184 0.403906133586029 10.8626333003324 -10.4587271667463 290
AC098826.3 AC098826.3 darkturquoise 9.02458707869397 0.402540701374218 8.62204637731976 -8.21950567594554 291
YWHAZP5 YWHAZP5 darkturquoise 9.65194629154406 0.399754188849001 9.25219210269506 -8.85243791384605 292
YBX2P1 YBX2P1 darkturquoise 9.83056421525451 0.39568975255069 9.43487446270382 -9.03918471015313 293
RPL7AP14 RPL7AP14 darkturquoise 10.5042880464334 0.389932512667924 10.1143555337655 -9.72442302109757 294
SZRD1 SZRD1 darkturquoise 12.3119291176259 0.38930857295941 11.9226205446665 -11.5333119717071 295
ENPP7P7 ENPP7P7 darkturquoise 10.8546527618035 0.386701850328071 10.4679509114754 -10.0812490611473 296
HIGD1C HIGD1C darkturquoise 11.1030646942777 0.38586168944699 10.7172030048307 -10.3313413153837 297
AL049651.2 AL049651.2 darkturquoise 9.80115746772573 0.38214596614765 9.41901150157808 -9.03686553543043 298
GAPDHP37 GAPDHP37 darkturquoise 9.82719853621326 0.381846012978128 9.44535252323513 -9.063506510257 299
TRAJ6 TRAJ6 darkturquoise 9.79020482791512 0.38111759592969 9.40908723198543 -9.02796963605574 300
MIR1208 MIR1208 darkturquoise 9.74622006638195 0.37732136775612 9.36889869862583 -8.99157733086972 301
AL136968.2 AL136968.2 darkturquoise 11.1116234556821 0.374962928757408 10.7366605269246 -10.3616975981672 302
AC015910.1 AC015910.1 darkturquoise 10.448849703137 0.372277366794205 10.0765723363428 -9.70429496954857 303
RPL5P28 RPL5P28 darkturquoise 10.0386987670765 0.358944152466966 9.67975461460956 -9.3208104621426 304
AC015849.1 AC015849.1 darkturquoise 10.7245466031069 0.35619976476069 10.3683468383462 -10.0121470735856 305
RNU6-176P RNU6-176P darkturquoise 9.71665055141773 0.348888254732198 9.36776229668553 -9.01887404195333 306
EDDM3DP EDDM3DP darkturquoise 10.1205160246833 0.345525766930572 9.77499025775277 -9.42946449082219 307
AL513325.1 AL513325.1 darkturquoise 10.6031212372504 0.33896786994917 10.2641533673012 -9.92518549735203 308
SPDYE21P SPDYE21P darkturquoise 10.1182450699411 0.328915302146878 9.78932976779419 -9.46041446564731 309
SHANK2 SHANK2 darkturquoise 10.6704260764661 0.328356702226987 10.3420693742391 -10.0137126720121 310
RN7SL769P RN7SL769P darkturquoise 12.3307030638242 0.320974736056904 12.0097283277673 -11.6887535917104 311
NFU1P2 NFU1P2 darkturquoise 9.36611871713654 0.310975221417342 9.05514349571919 -8.74416827430185 312
LINC01844 LINC01844 darkturquoise 11.4506852488214 0.30068460362859 11.1500006451928 -10.8493160415642 313
AL031726.1 AL031726.1 darkturquoise 10.4393176728719 0.298785230273005 10.1405324425989 -9.84174721232586 314
VN1R96P VN1R96P darkturquoise 9.3751794685481 0.297866957286774 9.07731251126132 -8.77944555397455 315
AC022795.1 AC022795.1 darkturquoise 10.0352075482513 0.29084500994661 9.74436253830473 -9.45351752835812 316
AL451069.2 AL451069.2 darkturquoise 10.3768205977721 0.289364611650618 10.0874559861215 -9.79809137447089 317
AL109933.4 AL109933.4 darkturquoise 10.698784860559 0.283925226070321 10.4148596344886 -10.1309344084183 318
AC136604.3 AC136604.3 darkturquoise 10.1514824386876 0.232047285674438 9.91943515301314 -9.68738786733871 319
AC005592.1 AC005592.1 darkturquoise 10.4090248404102 0.196669580658314 10.2123552597519 -10.0156856790936 320
RNU6-582P RNU6-582P darkturquoise 9.37068386532072 0.11890236265053 9.25178150267019 -9.13287914001966 321
