PSID Gene Module kTotal kWithin kOut kDiff rank
LINC01738 LINC01738 greenyellow 18.8975626062241 7.65784088150492 11.2397217247192 -3.58188084321424 1
AC073987.1 AC073987.1 greenyellow 18.8391599649676 7.0325858587282 11.8065741062394 -4.77398824751118 2
RNA5SP482 RNA5SP482 greenyellow 16.7086369754181 6.29191589578804 10.4167210796301 -4.12480518384202 3
AP000439.2 AP000439.2 greenyellow 16.8189246515414 5.92156923661897 10.8973554149225 -4.97578617830351 4
FGF19 FGF19 greenyellow 16.461547742662 5.37064948913004 11.090898253532 -5.72024876440195 5
SLC9A4 SLC9A4 greenyellow 15.2848483976108 4.09408527432416 11.1907631232866 -7.09667784896248 6
LINC02378 LINC02378 greenyellow 14.9769202409954 4.06458557672516 10.9123346642702 -6.84774908754504 7
TM9SF4 TM9SF4 greenyellow 14.2646946599492 3.94396444387516 10.320730216074 -6.37676577219887 8
HMGB3P1 HMGB3P1 greenyellow 14.5998942381866 3.81860498269251 10.7812892554941 -6.96268427280162 9
AC092666.1 AC092666.1 greenyellow 14.9051924165924 3.60728062356222 11.2979117930302 -7.690631169468 10
NXF4 NXF4 greenyellow 14.4650805884141 3.59221230177111 10.872868286643 -7.2806559848719 11
HORMAD2 HORMAD2 greenyellow 15.8724477683567 3.56792944544523 12.3045183229115 -8.73658887746622 12
AC005863.1 AC005863.1 greenyellow 14.7603586530287 3.53681272058925 11.2235459324395 -7.68673321185021 13
MIR202HG MIR202HG greenyellow 13.1110216557738 3.40230578187706 9.70871587389678 -6.30641009201972 14
GCGR GCGR greenyellow 13.8444230067827 3.40023878104472 10.444184225738 -7.04394544469324 15
POFUT1 POFUT1 greenyellow 13.9772467902083 3.3425981724313 10.634648617777 -7.29205044534573 16
AL606807.1 AL606807.1 greenyellow 13.5821036870106 3.2990705449193 10.2830331420913 -6.98396259717201 17
TLR8-AS1 TLR8-AS1 greenyellow 13.518779791236 3.17374346999062 10.3450363212454 -7.17129285125478 18
C10orf91 C10orf91 greenyellow 13.8055848580951 3.11015960094973 10.6954252571454 -7.58526565619568 19
GSS GSS greenyellow 13.5936686255278 2.91211783256916 10.6815507929587 -7.76943296038951 20
IRX4 IRX4 greenyellow 13.8411616193281 2.59569087299251 11.2454707463356 -8.64977987334311 21
UTF1 UTF1 greenyellow 12.4624912444607 2.54887887292377 9.91361237153695 -7.36473349861318 22
SLC6A3 SLC6A3 greenyellow 14.1559314814139 2.35184521753528 11.8040862638787 -9.45224104634339 23
GH2 GH2 greenyellow 13.138665834337 2.3043040616058 10.8343617727312 -8.5300577111254 24
CYP2W1 CYP2W1 greenyellow 13.3979121859351 2.26243635664185 11.1354758292933 -8.87303947265144 25
COIL COIL greenyellow 13.3941590744589 2.24477790649886 11.1493811679601 -8.90460326146122 26
AC113391.2 AC113391.2 greenyellow 13.9399544133593 2.24022916773189 11.6997252456274 -9.45949607789548 27
APPBP2 APPBP2 greenyellow 13.2440800633478 2.19086891820435 11.0532111451434 -8.86234222693909 28
DLX2-AS1 DLX2-AS1 greenyellow 13.2260912642034 2.11031952683575 11.1157717373677 -9.0054522105319 29
NKX2-3 NKX2-3 greenyellow 12.830103313974 2.10473731339432 10.7253660005797 -8.62062868718538 30
INTS2 INTS2 greenyellow 12.4306076032281 2.04072346666439 10.3898841365637 -8.34916066989928 31
HCK HCK greenyellow 12.3282000279355 2.0389342974108 10.2892657305247 -8.25033143311392 32
LINC02106 LINC02106 greenyellow 13.0215365477033 2.03244612983921 10.989090417864 -8.95664428802484 33
ISL1 ISL1 greenyellow 12.6644536525154 2.02081488447447 10.6436387680409 -8.62282388356647 34
MED13 MED13 greenyellow 13.0753061663424 1.98014287349041 11.095163292852 -9.11502041936156 35
AC010478.1 AC010478.1 greenyellow 12.1190093173913 1.94541044284569 10.1735988745456 -8.22818843169992 36
MBTD1 MBTD1 greenyellow 12.9713252376884 1.9338432050085 11.0374820326799 -9.10363882767137 37
AC090079.1 AC090079.1 greenyellow 12.842643963457 1.90406751550308 10.9385764479539 -9.03450893245084 38
LINC01173 LINC01173 greenyellow 14.6762564076048 1.89428755151563 12.7819688560891 -10.8876813045735 39
TLK2 TLK2 greenyellow 12.9740267621403 1.83071097617125 11.143315785969 -9.31260480979777 40
PLAGL2 PLAGL2 greenyellow 12.2342649031091 1.80205484586557 10.4322100572435 -8.63015521137793 41
RPS6KB1 RPS6KB1 greenyellow 12.5827308626321 1.80082841904808 10.781902443584 -8.98107402453595 42
SYNRG SYNRG greenyellow 11.9242074435079 1.7840092447049 10.140198198803 -8.35618895409807 43
ACSS2 ACSS2 greenyellow 13.1899023522308 1.7587656745158 11.431136677715 -9.6723710031992 44
AC007040.1 AC007040.1 greenyellow 11.8213388577659 1.74956634756579 10.0717725102001 -8.32220616263428 45
PDRG1 PDRG1 greenyellow 11.7532252305886 1.73892676759445 10.0142984629942 -8.27537169539973 46
TTLL9 TTLL9 greenyellow 12.0497097899652 1.72277321374172 10.3269365762235 -8.6041633624818 47
KIF3B KIF3B greenyellow 12.1879461022045 1.71280905707147 10.475137045133 -8.76232798806157 48
HEATR6 HEATR6 greenyellow 12.7756733065829 1.69924939580024 11.0764239107827 -9.37717451498246 49
NPLOC4 NPLOC4 greenyellow 12.6168625649488 1.69700709127263 10.9198554736762 -9.22284838240356 50
CROCC2 CROCC2 greenyellow 13.8318314236435 1.68159775106741 12.1502336725761 -10.4686359215087 51
AL157414.1 AL157414.1 greenyellow 13.3954914741811 1.67037242128332 11.7251190528978 -10.0547466316145 52
LINC01101 LINC01101 greenyellow 11.2426847486263 1.63876933270953 9.60391541591674 -7.9651460832072 53
PCK1 PCK1 greenyellow 11.5760753374802 1.62942367960281 9.94665165787738 -8.31722797827457 54
GPS1 GPS1 greenyellow 12.4612257848607 1.62060827674385 10.8406175081168 -9.22000923137298 55
MRPL27 MRPL27 greenyellow 12.1849806794991 1.61047669773663 10.5745039817625 -8.96402728402583 56
AHRR AHRR greenyellow 12.1166959219603 1.61006524999869 10.5066306719616 -8.89656542196295 57
DCAF7 DCAF7 greenyellow 12.6462472834826 1.59994891616831 11.0462983673143 -9.44634945114596 58
STXBP4 STXBP4 greenyellow 12.3937525659606 1.57172113404713 10.8220314319135 -9.25031029786634 59
MED1 MED1 greenyellow 12.3219841873922 1.57007359991704 10.7519105874752 -9.18183698755812 60
TTLL10 TTLL10 greenyellow 13.0244806490332 1.56830285515382 11.4561777938794 -9.88787493872555 61
PSMB3 PSMB3 greenyellow 12.4846576404186 1.55499227617049 10.9296653642481 -9.37467308807758 62
BPTF BPTF greenyellow 13.6303535379297 1.5450419379249 12.0853116000048 -10.5402696620798 63
MRPS23 MRPS23 greenyellow 12.8537985501537 1.51969350486481 11.3341050452889 -9.81441154042408 64
USP32 USP32 greenyellow 12.6549640188083 1.51035221591068 11.1446118028976 -9.63425958698691 65
PSMC5 PSMC5 greenyellow 11.9883310823473 1.50386936309991 10.4844617192474 -8.98059235614747 66
PSMD3 PSMD3 greenyellow 12.4469671970326 1.49661688262324 10.9503503144094 -9.45373343178615 67
PIP4K2B PIP4K2B greenyellow 11.9541694347671 1.49526275494821 10.4589066798189 -8.96364392487073 68
TACO1 TACO1 greenyellow 12.161502199195 1.49072784085696 10.6707743583381 -9.18004651748112 69
DDX5 DDX5 greenyellow 14.0042138079633 1.48319591732868 12.5210178906346 -11.0378219733059 70
BRIP1 BRIP1 greenyellow 13.2025804668383 1.47423917026034 11.7283412965779 -10.2541021263176 71
SOCS7 SOCS7 greenyellow 12.11145815004 1.46576573577788 10.6456924142621 -9.17992667848423 72
MKS1 MKS1 greenyellow 12.010052326664 1.46099092104547 10.5490614056185 -9.08807048457306 73
AC008808.2 AC008808.2 greenyellow 12.5637272047514 1.45786207657251 11.1058651281789 -9.64800305160642 74
UTP18 UTP18 greenyellow 11.3061043290251 1.44928606436453 9.85681826466061 -8.40753220029608 75
MRPS7 MRPS7 greenyellow 12.0158538667676 1.4491216908897 10.5667321758779 -9.11761048498822 76
GGA3 GGA3 greenyellow 11.9872721324204 1.43940807131072 10.5478640611097 -9.10845598979898 77
GGT7 GGT7 greenyellow 11.4194074239336 1.43462754823406 9.98477987569956 -8.5501523274655 78
CDK12 CDK12 greenyellow 12.2929006814654 1.43275915473307 10.8601415267323 -9.42738237199927 79
GPATCH8 GPATCH8 greenyellow 12.6008198675579 1.43008019140999 11.1707396761479 -9.7406594847379 80
SMURF2 SMURF2 greenyellow 12.8624369942787 1.42303576262852 11.4394012316501 -10.0163654690216 81
DHX40 DHX40 greenyellow 12.4563137337901 1.41869041933791 11.0376233144522 -9.61893289511425 82
DDX42 DDX42 greenyellow 12.788182889601 1.41067564652981 11.3775072430712 -9.96683159654142 83
SRP68 SRP68 greenyellow 11.7299569826124 1.40946948412054 10.3204874984919 -8.91101801437132 84
XYLT2 XYLT2 greenyellow 12.0246642814304 1.40353919969296 10.6211250817374 -9.21758588204446 85
NBR1 NBR1 greenyellow 12.738352007851 1.39780862039281 11.3405433874582 -9.94273476706543 86
ORMDL3 ORMDL3 greenyellow 12.2544196372621 1.38995646359239 10.8644631736697 -9.47450671007728 87
RUNDC1 RUNDC1 greenyellow 11.7661278490634 1.37102734111107 10.3951005079524 -9.02407316684129 88
VPS25 VPS25 greenyellow 12.7042094413838 1.35302744811956 11.3511819932642 -9.99815454514469 89
C17orf80 C17orf80 greenyellow 12.1587340564143 1.35188309901844 10.8068509573958 -9.45496785837738 90
MTMR4 MTMR4 greenyellow 12.0555794596245 1.35100429857716 10.7045751610473 -9.35357086247017 91
PSMD12 PSMD12 greenyellow 12.1319512003736 1.35099522598497 10.7809559743886 -9.42996074840367 92
TADA2A TADA2A greenyellow 11.9954188807353 1.34248988624621 10.6529289944891 -9.31043910824292 93
SUZ12 SUZ12 greenyellow 11.6085951515957 1.33685890491875 10.2717362466769 -8.93487734175817 94
RSAD1 RSAD1 greenyellow 12.3468054874111 1.33594790880366 11.0108575786074 -9.67490966980376 95
DUSP15 DUSP15 greenyellow 11.6245755758894 1.32422858800905 10.3003469878803 -8.97611839987128 96
SLC35B1 SLC35B1 greenyellow 13.0696578134684 1.3220152388103 11.7476425746581 -10.4256273358478 97
AC005052.1 AC005052.1 greenyellow 11.617575941167 1.32092047883705 10.29665546233 -8.97573498349293 98
KCTD2 KCTD2 greenyellow 12.1273250857103 1.30958132155818 10.8177437641521 -9.50816244259392 99
AC245047.4 AC245047.4 greenyellow 13.3902710402132 1.30495310678671 12.0853179334265 -10.7803648266397 100
TRIM37 TRIM37 greenyellow 12.0752600338562 1.30285751918348 10.7724025146728 -9.46954499548928 101
AC006372.3 AC006372.3 greenyellow 13.4572086322038 1.29744559491422 12.1597630372896 -10.8623174423754 102
LRRC59 LRRC59 greenyellow 12.3226823040117 1.29652966660311 11.0261526374086 -9.7296229708055 103
SKA2 SKA2 greenyellow 11.9335731038129 1.28468243274668 10.6488906710662 -9.36420823831955 104
STAT5B STAT5B greenyellow 11.4944503964529 1.28092668892672 10.2135237075262 -8.93259701859952 105
COA3 COA3 greenyellow 11.5204635125176 1.27564721761035 10.2448162949073 -8.96916907729693 106
AL021392.1 AL021392.1 greenyellow 12.0504043166203 1.27339199038544 10.7770123262348 -9.50362033584939 107
METTL2A METTL2A greenyellow 11.4199776419572 1.27189897993539 10.1480786620218 -8.87617968208645 108
BARX1-AS1 BARX1-AS1 greenyellow 11.5973461103211 1.27153198360449 10.3258141267166 -9.05428214311212 109
CHMP6 CHMP6 greenyellow 12.3960974094449 1.26762443680882 11.1284729726361 -9.86084853582729 110
TSPY26P TSPY26P greenyellow 11.4383173047849 1.24555922023863 10.1927580845463 -8.94719886430767 111
TMUB2 TMUB2 greenyellow 12.0296823383581 1.24396263633619 10.7857197020219 -9.54175706568573 112
FOXK2 FOXK2 greenyellow 11.4978534357285 1.23975176101627 10.2581016747122 -9.01834991369591 113
LINC01451 LINC01451 greenyellow 11.340350963292 1.23492491067833 10.1054260526137 -8.87050114193533 114
ZG16B ZG16B greenyellow 12.6234180175431 1.22285262568133 11.4005653918618 -10.1777127661805 115
ASPSCR1 ASPSCR1 greenyellow 11.0716770566297 1.22179545419155 9.84988160243814 -8.62808614824659 116
NOL11 NOL11 greenyellow 11.9943175745414 1.21400184615719 10.7803157283843 -9.56631388222707 117
PSMD11 PSMD11 greenyellow 11.5605987905201 1.19920964514112 10.361389145379 -9.16217950023783 118
PPM1D PPM1D greenyellow 12.1255117633354 1.19120924051404 10.9343025228214 -9.74309328230736 119
GDPD1 GDPD1 greenyellow 11.9026724469044 1.18878002497381 10.7138924219306 -9.5251123969568 120
TUBD1 TUBD1 greenyellow 11.7232089962784 1.18514872495164 10.5380602713268 -9.35291154637511 121
CWC25 CWC25 greenyellow 11.5663827765279 1.18065213294106 10.3857306435869 -9.20507851064579 122
PSME3 PSME3 greenyellow 11.6244956121664 1.17644142992695 10.4480541822394 -9.27161275231245 123
RNA5SP433 RNA5SP433 greenyellow 10.6403546587425 1.16380882920008 9.47654582954246 -8.31273700034238 124
GOSR1 GOSR1 greenyellow 11.3416017277424 1.16215896371008 10.1794427640323 -9.01728380032222 125
SPOP SPOP greenyellow 11.2918238963603 1.15957324947233 10.132250646888 -8.97267739741565 126
SCML4 SCML4 greenyellow 14.3566872696131 1.15932060051746 13.1973666690957 -12.0380460685782 127
HELZ HELZ greenyellow 11.8604080385315 1.15475726984072 10.7056507686908 -9.55089349885004 128
RETREG3 RETREG3 greenyellow 11.9334037082281 1.1342480654775 10.7991556427506 -9.66490757727312 129
MED24 MED24 greenyellow 11.1091475970294 1.13250595492427 9.97664164210511 -8.84413568718083 130
RFNG RFNG greenyellow 11.6962716558536 1.13240297298073 10.5638686828729 -9.43146570989218 131
DHX8 DHX8 greenyellow 11.1627433465685 1.129162837734 10.0335805088345 -8.90441767110051 132
CEP95 CEP95 greenyellow 11.9805308052209 1.10391788317703 10.8766129220438 -9.77269503886681 133
KANSL1 KANSL1 greenyellow 11.4561903732522 1.10236869428477 10.3538216789674 -9.25145298468263 134
ACOX1 ACOX1 greenyellow 11.5980064190138 1.09175731184274 10.5062491071711 -9.41449179532832 135
SPAG9 SPAG9 greenyellow 11.8438195689053 1.09023352298516 10.7535860459202 -9.66335252293502 136
POLG2 POLG2 greenyellow 11.2364534889387 1.08254846646342 10.1539050224753 -9.07135655601189 137
AL591896.1 AL591896.1 greenyellow 11.7447515415395 1.08238864886668 10.6623628926728 -9.57997424380611 138
CDC27 CDC27 greenyellow 11.6821950746732 1.07820360229009 10.6039914723831 -9.52578787009299 139
CCDC187 CCDC187 greenyellow 12.9107594344004 1.07315004757358 11.8376093868268 -10.7644593392532 140
FBXL20 FBXL20 greenyellow 11.7976818159412 1.06429496670725 10.733386849234 -9.66909188252671 141
NMT1 NMT1 greenyellow 10.9531509573611 1.06428400936629 9.88886694799485 -8.82458293862856 142
DDX52 DDX52 greenyellow 11.1509185038605 1.06356073745958 10.0873577664009 -9.02379702894135 143
ANAPC11 ANAPC11 greenyellow 11.7133443284546 1.05832222734257 10.655022101112 -9.59669987376947 144
MRPL45 MRPL45 greenyellow 11.1782214530946 1.05793759495409 10.1202838581405 -9.06234626318643 145
ARMC7 ARMC7 greenyellow 12.1805422730844 1.05707847350936 11.1234637995751 -10.0663853260657 146
TAOK1 TAOK1 greenyellow 11.3026352275849 1.05209878601962 10.2505364415653 -9.19843765554569 147
FAM104A FAM104A greenyellow 11.4074376896959 1.05198623035665 10.3554514593393 -9.30346522898263 148
UBE2O UBE2O greenyellow 11.154367753611 1.05197936118207 10.1023883924289 -9.05040903124686 149
UNK UNK greenyellow 11.7676684065887 1.05178342431652 10.7158849822722 -9.66410155795565 150
CUEDC1 CUEDC1 greenyellow 12.3139087819381 1.05048789049823 11.2634208914399 -10.2129330009417 151
LRRC37A16P LRRC37A16P greenyellow 11.8299013793536 1.03541756310359 10.79448381625 -9.75906625314639 152
TMEM94 TMEM94 greenyellow 10.9166938850572 1.03527416991144 9.88141971514571 -8.84614554523427 153
STAT3 STAT3 greenyellow 11.2631216374696 1.03127268144985 10.2318489560198 -9.2005762745699 154
TBCD TBCD greenyellow 11.0988076972908 1.02872558278087 10.07008211451 -9.0413565317291 155
NKIRAS2 NKIRAS2 greenyellow 11.481954482219 1.02523771800305 10.4567167642159 -9.4314790462129 156
MLX MLX greenyellow 11.1995952677483 1.01764292356394 10.1819523441844 -9.16430942062045 157
OGFOD3 OGFOD3 greenyellow 11.7405378204746 1.01531354055729 10.7252242799173 -9.70991073935997 158
MSL1 MSL1 greenyellow 11.5004967181691 1.01161271334309 10.488884004826 -9.47727129148288 159
DNAJC7 DNAJC7 greenyellow 11.35834607961 1.0088099879045 10.3495360917055 -9.34072610380103 160
PRKAR1A PRKAR1A greenyellow 11.7512595075979 1.00708674616405 10.7441727614338 -9.73708601526978 161
NAT9 NAT9 greenyellow 12.0235341573573 1.00526915939492 11.0182649979624 -10.0129958385675 162
POLDIP2 POLDIP2 greenyellow 12.4472597369393 1.0051189178263 11.442140819113 -10.4370219012867 163
RHOT1 RHOT1 greenyellow 11.005362658257 0.997052477021276 10.0083101812358 -9.01125770421448 164
GGNBP2 GGNBP2 greenyellow 10.8415396286617 0.993066131135628 9.84847349752606 -8.85540736639043 165
LRRC37B LRRC37B greenyellow 12.1730652657725 0.989318446142574 11.1837468196299 -10.1944283734873 166
AC009494.1 AC009494.1 greenyellow 11.9775568429956 0.985084587331668 10.9924722556639 -10.0073876683322 167
TUSC5 TUSC5 greenyellow 12.2030148221838 0.9808559600668 11.222158862117 -10.2413029020502 168
NF1 NF1 greenyellow 11.9372124159002 0.977178652598972 10.9600337633012 -9.98285511070224 169
CNTD1 CNTD1 greenyellow 10.9892406129338 0.976314240638557 10.0129263722953 -9.03661213165673 170
MRPL58 MRPL58 greenyellow 12.5351111263771 0.965779050196454 11.5693320761806 -10.6035530259842 171
ADGRD1 ADGRD1 greenyellow 11.6649779491873 0.962846375726591 10.7021315734607 -9.7392851977341 172
SMARCD2 SMARCD2 greenyellow 11.8238650942694 0.96225966364737 10.861605430622 -9.89934576697468 173
G6PC3 G6PC3 greenyellow 12.3170810341671 0.959996400832182 11.357084633335 -10.3970882325028 174
SDF2 SDF2 greenyellow 11.3335049036531 0.954752118463051 10.3787527851901 -9.42400066672701 175
PGAP3 PGAP3 greenyellow 10.783020581372 0.951027745209082 9.83199283616296 -8.88096509095388 176
PPM1E PPM1E greenyellow 12.2540294225974 0.943903454289415 11.310125968308 -10.3662225140186 177
PRPSAP1 PRPSAP1 greenyellow 11.4276572445038 0.941001591878723 10.486655652625 -9.54565406074631 178
LRBA LRBA greenyellow 12.0887405863902 0.939441426504032 11.1492991598862 -10.2098577333821 179
NT5C3B NT5C3B greenyellow 11.6466978523028 0.935393279548713 10.7113045727541 -9.77591129320542 180
ACACA ACACA greenyellow 11.3246706649099 0.927845929443288 10.3968247354666 -9.46897880602331 181
OXLD1 OXLD1 greenyellow 11.0804255505281 0.927094375480505 10.1533311750476 -9.22623679956709 182
C11orf21 C11orf21 greenyellow 10.702847241332 0.925980705101264 9.77686653623073 -8.85088583112947 183
EXOC7 EXOC7 greenyellow 12.2989216132942 0.923756999931729 11.3751646133624 -10.4514076134307 184
CCDC57 CCDC57 greenyellow 11.5648904424585 0.907220884462909 10.6576695579956 -9.75044867353272 185
TUBG1 TUBG1 greenyellow 11.1006961759737 0.904683374867625 10.1960128011061 -9.29132942623843 186
FAAP100 FAAP100 greenyellow 12.2598362480648 0.901336452689165 11.3584997953757 -10.4571633426865 187
AMZ2 AMZ2 greenyellow 11.5436581246308 0.892104469041928 10.6515536555889 -9.75944918654695 188
ZNHIT3 ZNHIT3 greenyellow 12.1336664483344 0.884521361712572 11.2491450866218 -10.3646237249092 189
SLC26A11 SLC26A11 greenyellow 12.1016033208147 0.884105027899064 11.2174982929156 -10.3333932650166 190
ATXN7L3 ATXN7L3 greenyellow 11.2006792561781 0.879985451702913 10.3206938044752 -9.4407083527723 191
LINC01993 LINC01993 greenyellow 10.8896821283011 0.877677476440318 10.0120046518608 -9.13432717542051 192
NUP85 NUP85 greenyellow 12.0845567005254 0.87551079641791 11.2090459041075 -10.3335351076896 193
PRAC2 PRAC2 greenyellow 10.4690964522341 0.874929472738662 9.59416697949549 -8.71923750675682 194
STARD3 STARD3 greenyellow 11.1836575144103 0.872819744005284 10.3108377704051 -9.43801802639977 195
SNF8 SNF8 greenyellow 11.9798188590125 0.872738605501843 11.1070802535106 -10.2343416480088 196
VEZF1 VEZF1 greenyellow 11.7645383594508 0.870045494265879 10.8944928651849 -10.024447370919 197
MCRIP1 MCRIP1 greenyellow 11.3060814933524 0.868073993706125 10.4380074996462 -9.56993350594011 198
UTP6 UTP6 greenyellow 11.4621106017963 0.866502055137794 10.5956085466585 -9.72910649152073 199
ASXL1 ASXL1 greenyellow 12.2132975346639 0.863052582691214 11.3502449519727 -10.4871923692815 200
PTRH2 PTRH2 greenyellow 11.8330382090149 0.860038670947235 10.9729995380677 -10.1129608671204 201
FTSJ3 FTSJ3 greenyellow 11.1739276532918 0.855971580087108 10.3179560732047 -9.46198449311762 202
COASY COASY greenyellow 10.8840456903523 0.855888927936263 10.028156762416 -9.17226783447973 203
COX11 COX11 greenyellow 10.9064614472219 0.854914007390348 10.0515474398315 -9.19663343244116 204
AC006449.6 AC006449.6 greenyellow 10.8027619078119 0.854897937804943 9.94786397000695 -9.09296603220201 205
DUS1L DUS1L greenyellow 11.4053014427547 0.849935158637353 10.5553662841174 -9.70543112548003 206
TSEN54 TSEN54 greenyellow 10.8668919124909 0.847080915661818 10.0198109968291 -9.17273008116731 207
SIRT7 SIRT7 greenyellow 11.3352086060283 0.846931693270767 10.4882769127576 -9.64134521948681 208
LINC00674 LINC00674 greenyellow 11.5905734682283 0.845666699401162 10.7449067688271 -9.89924006942594 209
HILS1 HILS1 greenyellow 10.9772103471515 0.84351404039034 10.1336963067611 -9.2901822663708 210
CCDC137 CCDC137 greenyellow 10.9200418768336 0.843298898018837 10.0767429788147 -9.23344408079588 211
HGS HGS greenyellow 11.7421582503876 0.841356004677204 10.9008022457104 -10.0594462410332 212
H3F3B H3F3B greenyellow 12.3274497357265 0.84079162963327 11.4866581060932 -10.6458664764599 213
MLLT6 MLLT6 greenyellow 11.1004475670553 0.838589615831977 10.2618579512234 -9.4232683353914 214
DLK1 DLK1 greenyellow 11.4209825269102 0.836536464139544 10.5844460627707 -9.74790959863116 215
GAST GAST greenyellow 10.7755369952189 0.833261395952235 9.94227559926665 -9.10901420331442 216
C17orf62 C17orf62 greenyellow 10.8384316292058 0.833076077784711 10.0053555514211 -9.17227947363639 217
LINC01623 LINC01623 greenyellow 11.3356104620881 0.832116167223685 10.5034942948644 -9.67137812764076 218
CELSR1 CELSR1 greenyellow 11.3283319013129 0.831021227253453 10.4973106740594 -9.66628944680598 219
RNU6-493P RNU6-493P greenyellow 10.3727823385416 0.830715391013737 9.54206694752791 -8.71135155651417 220
COPRS COPRS greenyellow 10.8195413439718 0.830491001841657 9.98905034213019 -9.15855934028853 221
MFSD11 MFSD11 greenyellow 10.9308819483236 0.828421965965683 10.1024599823579 -9.27403801639222 222
TMEM101 TMEM101 greenyellow 10.810396076802 0.825254539338851 9.9851415374631 -9.15988699812425 223
AC125257.1 AC125257.1 greenyellow 11.7989401910673 0.823905134166165 10.9750350569011 -10.151129922735 224
MRM1 MRM1 greenyellow 10.571042940448 0.821921336185413 9.74912160426256 -8.92720026807715 225
ERAL1 ERAL1 greenyellow 11.2783211363277 0.818842337187792 10.4594787991399 -9.64063646195215 226
BECN1 BECN1 greenyellow 12.1358856651755 0.81766157600442 11.3182240891711 -10.5005625131666 227
NCCRP1 NCCRP1 greenyellow 11.4462290402519 0.816426170242186 10.6298028700098 -9.81337669976757 228
CISD3 CISD3 greenyellow 11.4981032738018 0.815112235528707 10.6829910382731 -9.8678788027444 229
AC090643.1 AC090643.1 greenyellow 11.9496617307148 0.814403235869653 11.1352584948451 -10.3208552589755 230
NARF NARF greenyellow 10.6743703198357 0.814100542899341 9.86026977693639 -9.04616923403705 231
EPOR EPOR greenyellow 10.4554251661462 0.81402603083514 9.6413991353111 -8.82737310447596 232
PLEKHM1 PLEKHM1 greenyellow 11.5179358129248 0.809979893242397 10.7079559196824 -9.89797602644004 233
TEFM TEFM greenyellow 10.1593263433507 0.806641419521394 9.35268492382927 -8.54604350430787 234
SLC25A39 SLC25A39 greenyellow 11.1623327499926 0.8059822877245 10.3563504622681 -9.55036817454357 235
DCXR DCXR greenyellow 11.3436302133412 0.803133000322232 10.540497213019 -9.73736421269676 236
FER1L5 FER1L5 greenyellow 11.0191363344139 0.802493499060811 10.2166428353531 -9.41414933629227 237
WIPF2 WIPF2 greenyellow 10.5667525011839 0.799933839625958 9.76681866155791 -8.96688482193195 238
LINC00511 LINC00511 greenyellow 11.0562926096082 0.795215709523717 10.2610769000845 -9.46586119056074 239
RNU1-115P RNU1-115P greenyellow 10.3115781461932 0.793729829220799 9.51784831697245 -8.72411848775165 240
AC025048.4 AC025048.4 greenyellow 10.8845039511917 0.791121669139958 10.0933822820517 -9.30226061291177 241
CANT1 CANT1 greenyellow 10.9522145573883 0.788316643218803 10.1638979141695 -9.37558127095066 242
KAT7 KAT7 greenyellow 12.4476134364445 0.786283004003997 11.6613304324405 -10.8750474284365 243
SCRN2 SCRN2 greenyellow 11.6461220611554 0.785642043661022 10.8604800174944 -10.0748379738334 244
WNT11 WNT11 greenyellow 10.9402454465555 0.782280214106965 10.1579652324485 -9.37568501834155 245
EFTUD2 EFTUD2 greenyellow 11.1203003504045 0.775979816302297 10.3443205341022 -9.56834071779994 246
AC099850.1 AC099850.1 greenyellow 10.8260107112273 0.767761693183146 10.0582490180442 -9.29048732486103 247
ACSF2 ACSF2 greenyellow 10.4987756685645 0.76445071609609 9.7343249524684 -8.96987423637231 248
STX16-NPEPL1 STX16-NPEPL1 greenyellow 12.0023655464965 0.761873845075394 11.2404917014211 -10.4786178563457 249
AC009283.1 AC009283.1 greenyellow 11.2432865258031 0.757566833649324 10.4857196921538 -9.72815285850447 250
AC105118.1 AC105118.1 greenyellow 10.8325583227107 0.756222501359691 10.076335821351 -9.32011331999134 251
CASC3 CASC3 greenyellow 11.078945727214 0.75604335723059 10.3229023699834 -9.5668590127528 252
ACLY ACLY greenyellow 11.0900903207072 0.754682690236476 10.3354076304708 -9.58072494023429 253
COG1 COG1 greenyellow 11.0566216548962 0.752029541097882 10.3045921137983 -9.55256257270042 254
NUFIP2 NUFIP2 greenyellow 11.0126243065567 0.744034835901861 10.2685894706548 -9.52455463475293 255
SGSH SGSH greenyellow 11.4773790661435 0.743471659922995 10.7339074062205 -9.99043574629753 256
AC107032.2 AC107032.2 greenyellow 12.0109524464776 0.742156814915211 11.2687956315624 -10.5266388166472 257
LIG3 LIG3 greenyellow 10.5394967466404 0.738482390627468 9.80101435601297 -9.06253196538551 258
RNU6-111P RNU6-111P greenyellow 10.3385050111165 0.737333796826565 9.60117121428997 -8.8638374174634 259
PEX12 PEX12 greenyellow 10.770926658679 0.736724526689012 10.03420213199 -9.297477605301 260
TUBG2 TUBG2 greenyellow 11.510112336301 0.736709431974668 10.7734029043264 -10.0366934723517 261
SBK3 SBK3 greenyellow 12.1677036071899 0.733349055490434 11.4343545516995 -10.7010054962091 262
ARL16 ARL16 greenyellow 11.1762028136704 0.732603965912672 10.4435988477578 -9.71099488184509 263
MAFA-AS1 MAFA-AS1 greenyellow 10.8561944195784 0.731469330266808 10.1247250893116 -9.39325575904479 264
SUMO2 SUMO2 greenyellow 11.9866583230564 0.728644933631558 11.2580133894249 -10.5293684557933 265
MIR7-3HG MIR7-3HG greenyellow 10.9096683255323 0.728568882834242 10.1810994426981 -9.45253055986383 266
AKAP1 AKAP1 greenyellow 11.0768364203968 0.726536469945928 10.3502999504509 -9.62376348050494 267
CA10 CA10 greenyellow 11.0136705151229 0.72629576103881 10.2873747540841 -9.56107899304525 268
AL445989.1 AL445989.1 greenyellow 10.654138185184 0.725662658590276 9.92847552659372 -9.20281286800344 269
NT5C NT5C greenyellow 12.7047109266747 0.724015339709915 11.9806955869648 -11.2566802472549 270
BX537318.1 BX537318.1 greenyellow 10.5679519764726 0.721501738368133 9.84645023810452 -9.12494849973638 271
HEXDC HEXDC greenyellow 10.5683803139679 0.721027568296562 9.84735274567134 -9.12632517737478 272
ALYREF ALYREF greenyellow 11.069468827506 0.718797431374241 10.3506713961318 -9.63187396475757 273
CDH26 CDH26 greenyellow 12.338421329155 0.716391143500556 11.6220301856544 -10.9056390421539 274
BLMH BLMH greenyellow 10.5122591003636 0.715776096223417 9.79648300414017 -9.08070690791675 275
CASKIN2 CASKIN2 greenyellow 10.9991679764646 0.715437522463887 10.2837304540007 -9.56829293153682 276
BCAS4 BCAS4 greenyellow 11.7632438987443 0.715044638149355 11.0481992605949 -10.3331546224456 277
LINC02278 LINC02278 greenyellow 13.4305559695211 0.712073199938149 12.718482769583 -12.0064095696448 278
AC126696.1 AC126696.1 greenyellow 13.2290139584168 0.711520995930615 12.5174929624862 -11.8059719665556 279
FAM171A2 FAM171A2 greenyellow 11.5393946360854 0.709831826901906 10.8295628091834 -10.1197309822815 280
CALCOCO2 CALCOCO2 greenyellow 11.4397365151513 0.70974406533711 10.7299924498142 -10.0202483844771 281
KPNA2 KPNA2 greenyellow 11.2497550041305 0.708873523752175 10.5408814803784 -9.83200795662618 282
FGF8 FGF8 greenyellow 10.874024302788 0.70580690168109 10.1682174011069 -9.46241049942582 283
ERN1 ERN1 greenyellow 12.2805436151391 0.704734228344718 11.5758093867944 -10.8710751584497 284
SUPT6H SUPT6H greenyellow 10.8145352593939 0.702161402389845 10.1123738570041 -9.41021245461424 285
DCAKD DCAKD greenyellow 10.5992412335213 0.698514026575296 9.90072720694601 -9.20221318037071 286
OBSCN-AS1 OBSCN-AS1 greenyellow 11.524441112624 0.696210150740247 10.8282309618838 -10.1320208111435 287
NDUFAF8 NDUFAF8 greenyellow 12.1050810346809 0.695537469711151 11.4095435649697 -10.7140060952586 288
GNA13 GNA13 greenyellow 11.0561404194731 0.69368166828994 10.3624587511832 -9.66877708289323 289
EZH1 EZH1 greenyellow 11.4603193406508 0.692762744239189 10.7675565964116 -10.0747938521724 290
RNA5SP318 RNA5SP318 greenyellow 12.1086288491143 0.685973455300628 11.4226553938137 -10.7366819385131 291
ISM2 ISM2 greenyellow 11.4980160311565 0.683271200283469 10.8147448308731 -10.1314736305896 292
HEXIM2 HEXIM2 greenyellow 10.5850127834105 0.681627480096472 9.90338530331402 -9.22175782321754 293
SUZ12P1 SUZ12P1 greenyellow 10.1718844376236 0.678257849965094 9.49362658765849 -8.8153687376934 294
AC147067.1 AC147067.1 greenyellow 11.6775455654562 0.677321696576911 11.0002238688793 -10.3229021723024 295
OBSCN OBSCN greenyellow 12.1579925525171 0.674323247860581 11.4836693046565 -10.8093460567959 296
CEP131 CEP131 greenyellow 11.5040006052928 0.674108922444625 10.8298916828482 -10.1557827604036 297
MRPL10 MRPL10 greenyellow 11.2463464534194 0.668391096104036 10.5779553573154 -9.90956426121132 298
ANKFN1 ANKFN1 greenyellow 11.7052269328831 0.667936618946567 11.0372903139365 -10.36935369499 299
PGS1 PGS1 greenyellow 11.1272940661716 0.666690542019954 10.4606035241517 -9.79391298213173 300
KIAA0100 KIAA0100 greenyellow 10.687062662968 0.665890435217527 10.0211722277505 -9.35528179253295 301
LINC01197 LINC01197 greenyellow 11.4070683060514 0.665545899804337 10.741522406247 -10.0759765064427 302
LRRC14B LRRC14B greenyellow 11.9454483602502 0.665146132682993 11.2803022275672 -10.6151560948842 303
SCPEP1 SCPEP1 greenyellow 10.8005645860228 0.665017186208019 10.1355473998148 -9.47053021360679 304
CCDC47 CCDC47 greenyellow 11.4483663583628 0.664639574634225 10.7837267837286 -10.1190872090943 305
UBE2Z UBE2Z greenyellow 11.9949225895918 0.663680198941912 11.3312423906499 -10.667562191708 306
ARHGDIA ARHGDIA greenyellow 11.6993635054734 0.662139535529905 11.0372239699435 -10.3750844344136 307
MSI2 MSI2 greenyellow 11.231729730853 0.661490518201439 10.5702392126516 -9.90874869445014 308
AC011995.1 AC011995.1 greenyellow 10.8326609948606 0.66031499797805 10.1723459968826 -9.51203099890452 309
ANKRD40 ANKRD40 greenyellow 11.916908991174 0.657164110200784 11.2597448809733 -10.6025807707725 310
NLE1 NLE1 greenyellow 10.8487613220984 0.653134566116097 10.1956267559823 -9.54249218986618 311
SNX11 SNX11 greenyellow 10.4554860892538 0.649772417680299 9.80571367157352 -9.15594125389322 312
ACBD4 ACBD4 greenyellow 10.3045905351889 0.64902545823393 9.65556507695501 -9.00653961872108 313
AC015909.5 AC015909.5 greenyellow 10.6011517299893 0.646958076756886 9.95419365323241 -9.30723557647552 314
FASN FASN greenyellow 11.3831732866007 0.643964233223324 10.7392090533774 -10.0952448201541 315
RPS27P25 RPS27P25 greenyellow 10.5844739200798 0.643730190177432 9.94074372990236 -9.29701353972493 316
ZNF207 ZNF207 greenyellow 11.016494217329 0.641795465564595 10.3746987517644 -9.73290328619977 317
LRRC37A4P LRRC37A4P greenyellow 11.923933990155 0.64154473994477 11.2823892502103 -10.6408445102655 318
EPX EPX greenyellow 10.8848998510285 0.641349011108283 10.2435508399202 -9.60220182881193 319
OSBPL7 OSBPL7 greenyellow 11.2466149029499 0.635831531117891 10.610783371832 -9.97495184071411 320
HOXB13 HOXB13 greenyellow 10.8099627722668 0.632957193501885 10.1770055787649 -9.54404838526305 321
KAT2A KAT2A greenyellow 10.9482188017488 0.623646784133054 10.3245720176157 -9.70092523348269 322
LRRC45 LRRC45 greenyellow 11.1796666752714 0.622291828445616 10.5573748468258 -9.93508301838015 323
NFE2L1 NFE2L1 greenyellow 11.298614234351 0.620424600162858 10.6781896341881 -10.0577650340253 324
RPTOR RPTOR greenyellow 11.5522748868912 0.620136192805136 10.932138694086 -10.3120025012809 325
BAIAP2-AS1 BAIAP2-AS1 greenyellow 11.4267726213815 0.619842745067663 10.8069298763138 -10.1870871312462 326
CENPX CENPX greenyellow 10.8377247104386 0.619700863654726 10.2180238467838 -9.59832298312912 327
ARHGAP27P1-BPTFP1-KPNA2P3 ARHGAP27P1-BPTFP1-KPNA2P3 greenyellow 10.4683758378296 0.614880707287242 9.85349513054234 -9.2386144232551 328
PCYT2 PCYT2 greenyellow 10.9102139104218 0.613918771095725 10.2962951393261 -9.6823763682304 329
LSM12 LSM12 greenyellow 11.1471597858099 0.612782534754403 10.5343772510554 -9.92159471630105 330
AC015909.3 AC015909.3 greenyellow 10.4903771381097 0.612418823843433 9.87795831426626 -9.26553949042282 331
HMX2 HMX2 greenyellow 11.5592439377117 0.609908983914169 10.9493349537975 -10.3394259698834 332
LINC01198 LINC01198 greenyellow 10.7397813292097 0.609764203750795 10.1300171254589 -9.5202529217081 333
AC005562.1 AC005562.1 greenyellow 11.0424463488663 0.609034161649198 10.4334121872171 -9.8243780255679 334
RECQL5 RECQL5 greenyellow 10.1201094170798 0.608369342137954 9.5117400749418 -8.90337073280385 335
FAM222B FAM222B greenyellow 11.7733634926934 0.607768416982021 11.1655950757113 -10.5578266587293 336
PNLIPRP3 PNLIPRP3 greenyellow 11.0857006864876 0.606764487983233 10.4789361985044 -9.87217171052117 337
NOTUM NOTUM greenyellow 9.69738964479852 0.605194289531743 9.09219535526678 -8.48700106573504 338
PCTP PCTP greenyellow 10.5563714344919 0.603343424093789 9.95302801039808 -9.3496845863043 339
ENDOV ENDOV greenyellow 10.6595512131995 0.602185616835147 10.0573655963643 -9.45517997952919 340
PSMC3IP PSMC3IP greenyellow 10.8109078269985 0.601647937555066 10.2092598894434 -9.60761195188837 341
PVALEF PVALEF greenyellow 10.1152867619309 0.601560629830925 9.51372613209996 -8.91216550226903 342
NME1-NME2 NME1-NME2 greenyellow 10.4844898137763 0.598997994745082 9.88549181903122 -9.28649382428613 343
IGSF9 IGSF9 greenyellow 10.7768904095712 0.595106334431715 10.1817840751395 -9.58667774070781 344
METTL11B METTL11B greenyellow 12.4444937714352 0.593248233539455 11.8512455378958 -11.2579973043563 345
TEPSIN TEPSIN greenyellow 10.9730276169667 0.592950287657956 10.3800773293087 -9.78712704165076 346
UTS2R UTS2R greenyellow 10.1501541374326 0.591756543432007 9.55839759400055 -8.96664105056855 347
SAMD14 SAMD14 greenyellow 11.1594950024304 0.579900212626347 10.579594789804 -9.99969457717768 348
FZD2 FZD2 greenyellow 10.5065825112725 0.578529325197102 9.92805318607542 -9.34952386087831 349
MAFA MAFA greenyellow 10.6660732456185 0.578325860983605 10.0877473846349 -9.50942152365129 350
WBP2 WBP2 greenyellow 11.3847111224579 0.576546861732632 10.8081642607253 -10.2316173989927 351
PHF12 PHF12 greenyellow 11.3895974794047 0.576270851856077 10.8133266275487 -10.2370557756926 352
C16orf74 C16orf74 greenyellow 11.1659738451214 0.575703306508245 10.5902705386132 -10.0145672321049 353
GALK1 GALK1 greenyellow 11.1570383378286 0.574531033919919 10.5825073039086 -10.0079762699887 354
TBX1 TBX1 greenyellow 10.6851420724072 0.57349547878566 10.1116465936215 -9.53815111483586 355
SAP30BP SAP30BP greenyellow 11.235059956164 0.573271676945897 10.6617882792181 -10.0885166022722 356
ARID3A ARID3A greenyellow 11.2012929311402 0.5729352056907 10.6283577254495 -10.0554225197588 357
AC011921.1 AC011921.1 greenyellow 11.3086563981442 0.572245631293631 10.7364107668506 -10.164165135557 358
CMTM8 CMTM8 greenyellow 11.3699950130186 0.570040875801297 10.7999541372173 -10.229913261416 359
TNRC6C TNRC6C greenyellow 10.6855214021014 0.568045288724459 10.1174761133769 -9.54943082465247 360
KLHL11 KLHL11 greenyellow 10.338027531896 0.567830252411601 9.77019727948444 -9.20236702707284 361
AC091179.1 AC091179.1 greenyellow 10.411569673675 0.56586586539298 9.84570380828198 -9.279837942889 362
AC110609.1 AC110609.1 greenyellow 10.7589422656746 0.564367515759629 10.194574749915 -9.63020723415533 363
PPP1R9B PPP1R9B greenyellow 10.4298421504372 0.562124024931052 9.86771812550617 -9.30559410057511 364
TNFAIP1 TNFAIP1 greenyellow 11.5746763161516 0.557233276201219 11.0174430399503 -10.4602097637491 365
UBALD2 UBALD2 greenyellow 10.9381844909655 0.557166538362073 10.3810179526034 -9.82385141424134 366
LINC01096 LINC01096 greenyellow 10.4366237084934 0.556568523236639 9.88005518525677 -9.32348666202014 367
AC007114.1 AC007114.1 greenyellow 10.4976128951158 0.553019259233146 9.94459363588268 -9.39157437664953 368
RGL3 RGL3 greenyellow 10.1949647974413 0.551866484782626 9.64309831265869 -9.09123182787607 369
EIF4A3 EIF4A3 greenyellow 11.0120020259027 0.551044000516754 10.4609580253859 -9.9099140248692 370
SLC38A10 SLC38A10 greenyellow 11.2167082605194 0.549420264884632 10.6672879956348 -10.1178677307502 371
AC002540.1 AC002540.1 greenyellow 12.0713596066833 0.546176892843651 11.5251827138397 -10.979005820996 372
FN3K FN3K greenyellow 10.4380810964955 0.544865398642697 9.89321569785279 -9.34835029921009 373
ENPP7P10 ENPP7P10 greenyellow 9.96179411419671 0.544069687052492 9.41772442714422 -8.87365474009173 374
DYNC1I1 DYNC1I1 greenyellow 11.8818945538512 0.540418918312705 11.3414756355385 -10.8010567172258 375
SGCA SGCA greenyellow 10.2399004396203 0.53824836007541 9.70165207954492 -9.16340371946951 376
AC079905.1 AC079905.1 greenyellow 10.1247961473882 0.536894718691417 9.58790142869678 -9.05100671000536 377
AC104063.1 AC104063.1 greenyellow 10.7765064821681 0.53667851697167 10.2398279651965 -9.7031494482248 378
JAG2 JAG2 greenyellow 11.0447111018925 0.530080629115448 10.514630472777 -9.98454984366156 379
EIF4A3P1 EIF4A3P1 greenyellow 9.93896247989517 0.529060490489505 9.40990198940567 -8.88084149891617 380
KRT10 KRT10 greenyellow 11.151240252042 0.528340826560025 10.622899425482 -10.0945585989219 381
AC064836.2 AC064836.2 greenyellow 10.3777331487641 0.528335696633356 9.84939745213074 -9.32106175549739 382
SLC16A7 SLC16A7 greenyellow 10.6818800272975 0.528315718543029 10.1535643087545 -9.62524859021143 383
KPNB1 KPNB1 greenyellow 11.7294350999939 0.521920727552551 11.2075143724413 -10.6855936448888 384
AP000553.1 AP000553.1 greenyellow 10.7553854323087 0.520533551356561 10.2348518809521 -9.71431832959558 385
TBX3 TBX3 greenyellow 10.9447707435803 0.520498894859107 10.4242718487212 -9.90377295386211 386
LINC01965 LINC01965 greenyellow 11.7862540165146 0.520413708250612 11.265840308264 -10.7454266000133 387
HEXIM1 HEXIM1 greenyellow 10.2309063246975 0.51900725313197 9.71189907156554 -9.19289181843357 388
SEPT9 SEPT9 greenyellow 10.6130574821986 0.518112140821512 10.0949453413771 -9.57683320055555 389
CCDC154 CCDC154 greenyellow 10.6872182022102 0.517534477216176 10.169683724994 -9.65214924777781 390
MSANTD1 MSANTD1 greenyellow 10.7944559697105 0.517231774090559 10.2772241956199 -9.75999242152935 391
HID1 HID1 greenyellow 10.2177469242965 0.517047352159287 9.70069957213721 -9.18365221997792 392
PRKCA PRKCA greenyellow 10.9406749634832 0.515700969397679 10.4249739940855 -9.90927302468786 393
LINC01574 LINC01574 greenyellow 11.3168822976453 0.514350242616322 10.802532055029 -10.2881818124127 394
JPT1 JPT1 greenyellow 10.6336059262874 0.513987216065014 10.1196187102224 -9.60563149415737 395
COLEC11 COLEC11 greenyellow 11.0009880495746 0.511518400794272 10.4894696487804 -9.9779512479861 396
ATP6V0A1 ATP6V0A1 greenyellow 10.642288556716 0.511083738347241 10.1312048183688 -9.62012108002151 397
AC005670.1 AC005670.1 greenyellow 10.1650314710237 0.510431531670556 9.6545999393531 -9.14416840768254 398
MYO7A MYO7A greenyellow 10.6116561212624 0.508509628347702 10.1031464929147 -9.59463686456704 399
AL096816.1 AL096816.1 greenyellow 11.1970420632968 0.504044541949772 10.6929975213471 -10.1889529793973 400
SLC9A2 SLC9A2 greenyellow 10.5107668648184 0.503759867731245 10.0070069970872 -9.50324712935595 401
TBKBP1 TBKBP1 greenyellow 10.8348253442661 0.502654990683417 10.3321703535826 -9.82951536289923 402
KRT18P59 KRT18P59 greenyellow 11.3249386770279 0.502562758768253 10.8223759182596 -10.3198131594913 403
CD7 CD7 greenyellow 10.9251091526569 0.501609902899883 10.4234992497571 -9.92188934685718 404
CLPSL2 CLPSL2 greenyellow 10.582154890344 0.50075585266205 10.081399037682 -9.58064318501992 405
ARHGAP23 ARHGAP23 greenyellow 10.4677286955782 0.496131520344136 9.9715971752341 -9.47546565488996 406
CCND1 CCND1 greenyellow 10.4882873942142 0.496031950542628 9.99225544367162 -9.49622349312899 407
AC011298.1 AC011298.1 greenyellow 9.92211140142748 0.495776786132577 9.4263346152949 -8.93055782916233 408
AP002495.1 AP002495.1 greenyellow 10.6816737432602 0.489495314996784 10.1921784282634 -9.70268311326662 409
LINC02001 LINC02001 greenyellow 10.648961501609 0.487956542722896 10.1610049588861 -9.67304841616319 410
FLOT2 FLOT2 greenyellow 10.8595963509061 0.487492463601691 10.3721038873044 -9.88461142370272 411
CELP CELP greenyellow 12.01574590565 0.487269779506833 11.5284761261432 -11.0412063466363 412
ERBB2 ERBB2 greenyellow 10.6337332052887 0.486670438299715 10.1470627669889 -9.66039232868922 413
AC012616.1 AC012616.1 greenyellow 10.0577166113115 0.485371034916356 9.57234557639513 -9.08697454147877 414
AC005288.1 AC005288.1 greenyellow 9.82106252857976 0.482957659190358 9.3381048693894 -8.85514721019904 415
DHRS13 DHRS13 greenyellow 10.8826320627398 0.480714428075062 10.4019176346647 -9.92120320658969 416
RNF157 RNF157 greenyellow 10.8569708286998 0.478533651770688 10.3784371769291 -9.89990352515839 417
SLC12A7 SLC12A7 greenyellow 10.5347453869609 0.478422405626867 10.0563229813341 -9.57790057570719 418
SARM1 SARM1 greenyellow 10.7574007616026 0.478071265372153 10.2793294962304 -9.80125823085829 419
C2CD4C C2CD4C greenyellow 10.5007655386531 0.477823830332094 10.022941708321 -9.54511787798895 420
UBR3 UBR3 greenyellow 11.1143393520349 0.476081357584906 10.63825799445 -10.1621766368651 421
IFT20 IFT20 greenyellow 11.3059069343549 0.475513906000116 10.8303930283548 -10.3548791223546 422
ACTG1P23 ACTG1P23 greenyellow 10.4443127072561 0.475459670711658 9.96885303654445 -9.49339336583279 423
TEK TEK greenyellow 10.4323264499072 0.474705215561402 9.95762123434582 -9.48291601878442 424
AL121583.1 AL121583.1 greenyellow 10.1123454635413 0.473501108887429 9.63884435465386 -9.16534324576643 425
RNU4-27P RNU4-27P greenyellow 10.3479546646509 0.47220613162791 9.87574853302301 -9.4035424013951 426
AC073648.6 AC073648.6 greenyellow 10.025930913836 0.470922905280352 9.55500800855568 -9.08408510327533 427
AC021087.4 AC021087.4 greenyellow 11.5196901613549 0.467066111763943 11.052624049591 -10.585557937827 428
LINC02151 LINC02151 greenyellow 10.4330065451354 0.464984045511624 9.96802249962374 -9.50303845411212 429
IGFALS IGFALS greenyellow 10.5461191298743 0.46441242996743 10.0817066999069 -9.61729426993948 430
TMEM104 TMEM104 greenyellow 12.1699665895516 0.464290092670927 11.7056764968807 -11.2413864042098 431
LINC02073 LINC02073 greenyellow 10.7440387428695 0.462774718166352 10.2812640247031 -9.8184893065368 432
MSX1 MSX1 greenyellow 10.5576586471857 0.462058825227726 10.095599821958 -9.63354099673029 433
GNGT2 GNGT2 greenyellow 9.79746302244697 0.459334523625986 9.33812849882098 -8.878793975195 434
GATA5 GATA5 greenyellow 9.73383356348161 0.45877152165634 9.27506204182527 -8.81629052016893 435
TRIM65 TRIM65 greenyellow 10.7542685224009 0.457464772601197 10.2968037497997 -9.83933897719847 436
C19orf38 C19orf38 greenyellow 10.6013347162291 0.455926012043177 10.1454087041859 -9.68948269214274 437
RUNDC3A-AS1 RUNDC3A-AS1 greenyellow 9.80832504307715 0.454701150251836 9.35362389282531 -8.89892274257347 438
PDK2 PDK2 greenyellow 10.5211884258145 0.454481225233002 10.0667072005815 -9.61222597534846 439
AC015813.2 AC015813.2 greenyellow 10.7557459500667 0.451944378561924 10.3038015715048 -9.85185719294285 440
TOM1L1 TOM1L1 greenyellow 10.9866325967494 0.451174064946047 10.5354585318033 -10.0842844668573 441
VMP1 VMP1 greenyellow 10.8921830285799 0.450829710084599 10.4413533184953 -9.99052360841074 442
MSI1 MSI1 greenyellow 10.7592469753601 0.44969207144914 10.309554903911 -9.85986283246184 443
FN3KRP FN3KRP greenyellow 10.8098603767942 0.448710454464605 10.3611499223296 -9.91243946786502 444
GHDC GHDC greenyellow 9.82912510275396 0.44728719619105 9.38183790656291 -8.93455071037186 445
DHRS11 DHRS11 greenyellow 10.098370605614 0.447195765990205 9.65117483962376 -9.20397907363356 446
TCAP TCAP greenyellow 10.0956053463079 0.444272493084814 9.65133285322306 -9.20706036013825 447
TPSG1 TPSG1 greenyellow 10.2916021422945 0.441946467286415 9.84965567500805 -9.40770920772163 448
FAM72C FAM72C greenyellow 10.1596449663351 0.44061482255007 9.71903014378507 -9.278415321235 449
FBXL19-AS1 FBXL19-AS1 greenyellow 10.0752283402639 0.438621298538381 9.63660704172551 -9.19798574318713 450
ENGASE ENGASE greenyellow 10.5965166433801 0.4360365361994 10.1604801071807 -9.72444357098133 451
TMEM221 TMEM221 greenyellow 11.1460876018414 0.435642660530571 10.7104449413109 -10.2748022807803 452
ITGA2B ITGA2B greenyellow 10.5742503044272 0.435283944606146 10.138966359821 -9.70368241521489 453
AATF AATF greenyellow 10.6740648948565 0.434973339534467 10.239091555322 -9.80411821578754 454
TMEM59L TMEM59L greenyellow 10.7030270333772 0.431696241408365 10.2713307919689 -9.8396345505605 455
NUAK1 NUAK1 greenyellow 11.4545794376389 0.431695429958325 11.0228840076806 -10.5911885777222 456
SLC16A11 SLC16A11 greenyellow 10.4441582076783 0.425145089185269 10.0190131184931 -9.5938680293078 457
CDK5R1 CDK5R1 greenyellow 10.4034199979626 0.424942510583579 9.97847748737903 -9.55353497679545 458
RARA RARA greenyellow 10.5411305343723 0.424521629751742 10.1166089046206 -9.69208727486886 459
ABI3 ABI3 greenyellow 9.75017011871539 0.421235302722739 9.32893481599265 -8.90769951326991 460
RAPGEFL1 RAPGEFL1 greenyellow 10.9891303047372 0.421104801780913 10.5680255029563 -10.1469207011754 461
ASB16-AS1 ASB16-AS1 greenyellow 10.6595373199326 0.420297281933808 10.2392400379988 -9.81894275606495 462
PTGER1 PTGER1 greenyellow 9.69880542318952 0.41924361572041 9.27956180746911 -8.8603181917487 463
RFFL RFFL greenyellow 10.1657618964692 0.416159305121513 9.7496025913477 -9.33344328622618 464
PIPOX PIPOX greenyellow 10.398617572642 0.41534862275652 9.9832689498855 -9.56792032712898 465
USP36 USP36 greenyellow 10.3041197492165 0.412158351922049 9.89196139729445 -9.4798030453724 466
CEL CEL greenyellow 10.7210878516242 0.411262117879457 10.3098257337447 -9.89856361586524 467
FAM72D FAM72D greenyellow 9.8818702482432 0.406547464658925 9.47532278358427 -9.06877531892535 468
MAP3K14 MAP3K14 greenyellow 10.1510708937432 0.404999808119001 9.74607108562419 -9.34107127750519 469
AC025048.2 AC025048.2 greenyellow 9.70452701022409 0.403966378607417 9.30056063161667 -8.89659425300925 470
MYO19 MYO19 greenyellow 10.6826175358645 0.403616080659817 10.2790014552046 -9.87538537454482 471
AC008738.2 AC008738.2 greenyellow 9.89492100032613 0.401382206721947 9.49353879360418 -9.09215658688224 472
MIR4737 MIR4737 greenyellow 10.5236160321695 0.3998553871945 10.123760644975 -9.72390525778049 473
CEBPA-AS1 CEBPA-AS1 greenyellow 10.0145200589268 0.399650648317277 9.6148694106095 -9.21521876229222 474
NDUFB4P11 NDUFB4P11 greenyellow 10.2295542623473 0.398152112451644 9.83140214989569 -9.43325003744404 475
GAMT GAMT greenyellow 11.5689525279785 0.395237245953662 11.1737152820249 -10.7784780360712 476
SMIM10L2A SMIM10L2A greenyellow 10.6410880803134 0.394991875265033 10.2460962050483 -9.85110432978329 477
HMGB1P27 HMGB1P27 greenyellow 9.82586593675293 0.394089199306711 9.43177673744622 -9.03768753813951 478
MYH14 MYH14 greenyellow 10.6451303583692 0.393036904077902 10.2520934542913 -9.85905655021344 479
AC025048.3 AC025048.3 greenyellow 9.94591267470865 0.389918009334159 9.55599466537449 -9.16607665604033 480
RNU6-390P RNU6-390P greenyellow 10.0545387390985 0.387620819043125 9.66691792005537 -9.27929710101225 481
PRR31 PRR31 greenyellow 10.087792429011 0.387588514129356 9.70020391488164 -9.31261540075229 482
SEPT6 SEPT6 greenyellow 10.7684934358559 0.386791177233681 10.3817022586222 -9.99491108138853 483
EVI5 EVI5 greenyellow 11.1714978511529 0.38530186077344 10.7861959903795 -10.4008941296061 484
AC107081.3 AC107081.3 greenyellow 10.0174148984839 0.385046674559697 9.63236822392423 -9.24732154936453 485
NKX3-2 NKX3-2 greenyellow 10.1343974830668 0.384052188268061 9.75034529479869 -9.36629310653063 486
PCGF2 PCGF2 greenyellow 11.0292976268444 0.381694935989746 10.6476026908547 -10.2659077548649 487
AC087477.2 AC087477.2 greenyellow 11.4541909476765 0.379031874480081 11.0751590731964 -10.6961271987164 488
AC015813.5 AC015813.5 greenyellow 9.90675857871617 0.376832448175026 9.52992613054114 -9.15309368236611 489
LINC01976 LINC01976 greenyellow 9.74124499902646 0.376714500932228 9.36453049809423 -8.987815997162 490
TOB1 TOB1 greenyellow 9.77948993545313 0.373601305545874 9.40588862990725 -9.03228732436138 491
RPL9P5 RPL9P5 greenyellow 9.88688915356099 0.364451889956972 9.52243726360402 -9.15798537364705 492
AL353600.1 AL353600.1 greenyellow 9.60992617609155 0.363152214909275 9.24677396118228 -8.883621746273 493
THA1P THA1P greenyellow 9.36161011918441 0.361976690776008 8.9996334284084 -8.6376567376324 494
ZBTB42 ZBTB42 greenyellow 9.9362603723749 0.360147456250967 9.57611291612393 -9.21596545987297 495
RSL24D1P6 RSL24D1P6 greenyellow 10.6093864425272 0.351563243229508 10.2578231992977 -9.90625995606818 496
AL138781.1 AL138781.1 greenyellow 9.93526142173106 0.350520830992857 9.5847405907382 -9.23421975974535 497
CES1 CES1 greenyellow 10.4389029425363 0.349462374382878 10.0894405681534 -9.73997819377056 498
AC004477.3 AC004477.3 greenyellow 10.1662439058802 0.349043794592962 9.81720011128725 -9.46815631669429 499
MYO18A MYO18A greenyellow 10.5606800783165 0.349011119310033 10.2116689590065 -9.86265783969643 500
SLC25A10 SLC25A10 greenyellow 9.75075296374822 0.348300732021621 9.4024522317266 -9.05415149970498 501
PHACTR3 PHACTR3 greenyellow 11.0085032787097 0.347941934374332 10.6605613443354 -10.3126194099611 502
COL8A2 COL8A2 greenyellow 10.2789705491528 0.346976831822535 9.93199371733027 -9.58501688550774 503
AC097639.1 AC097639.1 greenyellow 9.91540996468231 0.346745648211877 9.56866431647044 -9.22191866825856 504
LINC01273 LINC01273 greenyellow 9.44646794342037 0.346674123569033 9.09979381985134 -8.75311969628231 505
AC064836.1 AC064836.1 greenyellow 10.1811812307665 0.345845385422889 9.83533584534366 -9.48949045992077 506
BAIAP2 BAIAP2 greenyellow 9.97274955623536 0.3437266891642 9.62902286707116 -9.28529617790696 507
SYCP2 SYCP2 greenyellow 10.7915550358597 0.343230368001722 10.4483246678579 -10.1050942998562 508
SLC18A2 SLC18A2 greenyellow 11.4639921011289 0.342396543280412 11.1215955578485 -10.7791990145681 509
AC156455.1 AC156455.1 greenyellow 10.4331690382384 0.342269902708139 10.0908991355303 -9.74862923282214 510
TNFSF9 TNFSF9 greenyellow 10.8397950091522 0.339315952763424 10.5004790563888 -10.1611631036253 511
NKX6-1 NKX6-1 greenyellow 10.4212803074794 0.337953009069651 10.0833272984098 -9.74537428934015 512
ELSPBP1 ELSPBP1 greenyellow 10.56760953647 0.336384685811139 10.2312248506589 -9.89484016484771 513
AC015909.2 AC015909.2 greenyellow 9.46595130446363 0.33565481683089 9.13029648763274 -8.79464167080185 514
PBX4 PBX4 greenyellow 10.4495286912867 0.329092185178053 10.1204365061086 -9.79134432093055 515
GFAP GFAP greenyellow 10.0339655677543 0.328371587874052 9.70559397988022 -9.37722239200617 516
LINC01529 LINC01529 greenyellow 10.0268149671657 0.328215562139135 9.69859940502655 -9.37038384288741 517
TMA16P1 TMA16P1 greenyellow 10.329075367567 0.324098332340881 10.0049770352262 -9.68087870288528 518
CLCN5 CLCN5 greenyellow 12.0386957295843 0.324013763421543 11.7146819661628 -11.3906682027412 519
SYDE1 SYDE1 greenyellow 10.7680338401861 0.323193668392898 10.4448401717932 -10.1216465034003 520
AC008622.2 AC008622.2 greenyellow 10.0320948195725 0.323042024779885 9.70905279479266 -9.38601077001278 521
AC139530.2 AC139530.2 greenyellow 9.714604106516 0.322949795869741 9.39165431064626 -9.06870451477652 522
HAP1 HAP1 greenyellow 10.1512338979602 0.321826013389167 9.82940788457101 -9.50758187118184 523
HSPB6 HSPB6 greenyellow 10.0142364073296 0.320078060455459 9.69415834687416 -9.3740802864187 524
CXorf40A CXorf40A greenyellow 9.77369018651766 0.319778185957854 9.4539120005598 -9.13413381460195 525
AC010641.1 AC010641.1 greenyellow 9.86021667033719 0.315528727295117 9.54468794304207 -9.22915921574695 526
TCIM TCIM greenyellow 10.0186832349921 0.314651828418716 9.70403140657339 -9.38937957815467 527
AC061992.1 AC061992.1 greenyellow 10.1506988898768 0.313802212235423 9.83689667764135 -9.52309446540592 528
AL732314.4 AL732314.4 greenyellow 9.72216826824651 0.31360919139809 9.40855907684842 -9.09494988545033 529
AL132800.1 AL132800.1 greenyellow 10.3665994290891 0.312724217093351 10.0538752119957 -9.74115099490237 530
CD79B CD79B greenyellow 10.0520484983552 0.312628406993999 9.73942009136119 -9.42679168436719 531
ECEL1 ECEL1 greenyellow 9.70287573068826 0.310555107954201 9.39232062273406 -9.08176551477986 532
CREB3L4 CREB3L4 greenyellow 10.4266402613853 0.310335515407839 10.1163047459774 -9.80596923056961 533
AC006449.5 AC006449.5 greenyellow 10.196505904582 0.309998833708596 9.88650707087337 -9.57650823716477 534
AC046185.2 AC046185.2 greenyellow 10.1689243945809 0.309485852428777 9.85943854215213 -9.54995268972335 535
PLCD3 PLCD3 greenyellow 10.4926155606908 0.304929170079637 10.1876863906112 -9.88275722053154 536
ZNF730 ZNF730 greenyellow 10.6513492260716 0.304629919605653 10.346719306466 -10.0420893868603 537
FAM72A FAM72A greenyellow 10.7725653086724 0.299915333439166 10.4726499752333 -10.1727346417941 538
CCDC151 CCDC151 greenyellow 10.1429677403776 0.299116372374052 9.84385136800354 -9.54473499562949 539
FAM72B FAM72B greenyellow 10.933907901485 0.298961336413573 10.6349465650714 -10.3359852286578 540
MORN3 MORN3 greenyellow 10.78414232695 0.294263531589647 10.4898787953604 -10.1956152637707 541
NCKAP1 NCKAP1 greenyellow 10.4815648582845 0.29247173775042 10.1890931205341 -9.8966213827837 542
PHOSPHO1 PHOSPHO1 greenyellow 9.90638265551796 0.289381911956916 9.61700074356104 -9.32761883160413 543
CAPN1 CAPN1 greenyellow 10.1565908060103 0.287284659773119 9.86930614623717 -9.58202148646405 544
SMKR1 SMKR1 greenyellow 9.81618678044764 0.28692724932041 9.52925953112723 -9.24233228180682 545
PRSS56 PRSS56 greenyellow 10.003151010883 0.285856561647287 9.71729444923567 -9.43143788758838 546
TP53I11 TP53I11 greenyellow 10.8414660658702 0.285786133336788 10.5556799325335 -10.2698937991967 547
RPL15P2 RPL15P2 greenyellow 9.49526085942755 0.285713170786505 9.20954768864105 -8.92383451785454 548
AC015936.2 AC015936.2 greenyellow 9.59697765847156 0.285075514828832 9.31190214364273 -9.0268266288139 549
RNY4 RNY4 greenyellow 10.1397916336524 0.281131663703363 9.858659969949 -9.57752830624564 550
LINC02086 LINC02086 greenyellow 11.0408492758449 0.275595424910122 10.7652538509347 -10.4896584260246 551
SH2D3C SH2D3C greenyellow 9.96123580516636 0.274274517164981 9.68696128800138 -9.41268677083639 552
TRIM47 TRIM47 greenyellow 10.478325085199 0.273292282248399 10.2050328029506 -9.93174052070217 553
AF228730.6 AF228730.6 greenyellow 8.53589751286155 0.269660234014925 8.26623727884662 -7.9965770448317 554
AL021368.4 AL021368.4 greenyellow 9.78909836864223 0.268710106691869 9.52038826195036 -9.25167815525849 555
PROCA1 PROCA1 greenyellow 9.59507175743448 0.266704234733992 9.32836752270049 -9.0616632879665 556
AF228730.4 AF228730.4 greenyellow 9.4587854604118 0.265169144541246 9.19361631587055 -8.92844717132931 557
LMO4 LMO4 greenyellow 10.1622211846866 0.263202976656832 9.89901820802978 -9.63581523137294 558
SHISA3 SHISA3 greenyellow 10.4757866536679 0.261708991187204 10.2140776624807 -9.95236867129353 559
SHC2 SHC2 greenyellow 10.0385765581803 0.256387073084311 9.78218948509604 -9.52580241201173 560
CRLF1 CRLF1 greenyellow 10.1013349290165 0.255537282392737 9.84579764662374 -9.590260364231 561
AC090618.1 AC090618.1 greenyellow 9.77922088200305 0.251898205584846 9.5273226764182 -9.27542447083336 562
AC011816.2 AC011816.2 greenyellow 9.7187802729528 0.242188217735123 9.47659205521768 -9.23440383748255 563
AP000785.2 AP000785.2 greenyellow 9.83346337781253 0.24039488188735 9.59306849592518 -9.35267361403784 564
EFNA3 EFNA3 greenyellow 10.2874927629603 0.238548831091024 10.0489439318692 -9.81039510077821 565
CAPN5 CAPN5 greenyellow 10.4942081739989 0.234315321683327 10.2598928523155 -10.0255775306322 566
CACNA1H CACNA1H greenyellow 9.87506436157881 0.23229649470718 9.64276786687163 -9.41047137216445 567
PDGFB PDGFB greenyellow 10.444774456202 0.232289787813138 10.2124846683888 -9.98019488057568 568
ASPDH ASPDH greenyellow 10.7118316501231 0.232085576201194 10.479746073922 -10.2476604977208 569
AC006548.1 AC006548.1 greenyellow 9.53936517936148 0.222586733896304 9.31677844546518 -9.09419171156887 570
RNA5SP36 RNA5SP36 greenyellow 9.30811943098953 0.221377616246287 9.08674181474324 -8.86536419849696 571
TMEM100 TMEM100 greenyellow 10.6538530048587 0.220028812181167 10.4338241926775 -10.2137953804964 572
RPS29P15 RPS29P15 greenyellow 9.38516572550335 0.21409583049223 9.17106989501112 -8.95697406451889 573
RSL24D1P2 RSL24D1P2 greenyellow 10.5055140541139 0.212487196863071 10.2930268572508 -10.0805396603878 574
LINC00575 LINC00575 greenyellow 9.94884920597093 0.203054208023314 9.74579499794761 -9.5427407899243 575
DBIL5P2 DBIL5P2 greenyellow 9.79510288848248 0.200385175517173 9.59471771296531 -9.39433253744813 576
Z93242.2 Z93242.2 greenyellow 10.2098631271046 0.189102369356103 10.0207607577485 -9.83165838839242 577
MIR34B MIR34B greenyellow 9.44148129224693 0.188530934324721 9.25295035792221 -9.06441942359749 578
RPL7L1P5 RPL7L1P5 greenyellow 10.0545228624442 0.172654531401697 9.88186833104248 -9.70921379964078 579
LINC00893 LINC00893 greenyellow 9.51211104178279 0.159492767163346 9.35261827461944 -9.1931255074561 580
CKS2 CKS2 greenyellow 9.90224813669685 0.152043837227272 9.75020429946958 -9.59816046224231 581
