PSID Gene Module kTotal kWithin kOut kDiff rank
AC127526.2 AC127526.2 HuAgeGBsplit_20 17.5196228574939 5.33948124629672 12.1801416111972 -6.84066036490047 1
ROPN1L ROPN1L HuAgeGBsplit_20 15.7441780340749 4.72508512592728 11.0190929081477 -6.29400778222038 2
TTC29 TTC29 HuAgeGBsplit_20 16.4832557425899 4.6749579145832 11.8082978280067 -7.13333991342347 3
CCDC33 CCDC33 HuAgeGBsplit_20 17.4981422733015 4.50183833342863 12.9963039398729 -8.49446560644427 4
DNAH12 DNAH12 HuAgeGBsplit_20 18.3534595539219 4.45123456490368 13.9022249890182 -9.45099042411454 5
LINC01513 LINC01513 HuAgeGBsplit_20 15.9978584620418 4.40432612879858 11.5935323332432 -7.18920620444466 6
RSPH10B RSPH10B HuAgeGBsplit_20 16.2305693980479 4.39653213969506 11.8340372583529 -7.43750511865783 7
IQANK1 IQANK1 HuAgeGBsplit_20 15.679690428566 4.31216236492623 11.3675280636398 -7.05536569871353 8
DYDC2 DYDC2 HuAgeGBsplit_20 15.7789038324233 4.12464666167933 11.6542571707439 -7.52961050906461 9
KIAA2012 KIAA2012 HuAgeGBsplit_20 15.6977316038683 4.09306967476135 11.604661929107 -7.51159225434562 10
PIH1D3 PIH1D3 HuAgeGBsplit_20 16.1360322561713 4.08839457199121 12.0476376841801 -7.95924311218887 11
AC096637.2 AC096637.2 HuAgeGBsplit_20 15.7524135296291 4.03381799027107 11.718595539358 -7.68477754908695 12
PPP1R42 PPP1R42 HuAgeGBsplit_20 16.2634986802712 3.93404972772519 12.329448952546 -8.39539922482082 13
DNAI2 DNAI2 HuAgeGBsplit_20 14.2444678245494 3.73774714091832 10.5067206836311 -6.76897354271279 14
ANKRD66 ANKRD66 HuAgeGBsplit_20 15.3616382824258 3.72749720100979 11.634141081416 -7.90664388040618 15
OR2B4P OR2B4P HuAgeGBsplit_20 16.4096486133562 3.54417775791069 12.8654708554455 -9.3212930975348 16
AL645937.1 AL645937.1 HuAgeGBsplit_20 14.2332751238691 3.48965728742316 10.7436178364459 -7.25396054902276 17
AL161618.1 AL161618.1 HuAgeGBsplit_20 13.9410974835759 3.34505087225993 10.596046611316 -7.25099573905606 18
SLC28A3 SLC28A3 HuAgeGBsplit_20 14.3583676598364 3.33418056226015 11.0241870975762 -7.69000653531606 19
SLC35G3 SLC35G3 HuAgeGBsplit_20 14.3853816765664 3.27915800544368 11.1062236711227 -7.82706566567907 20
RNU6-221P RNU6-221P HuAgeGBsplit_20 15.3145092738923 3.21190963249746 12.1025996413948 -8.89069000889736 21
STOML3 STOML3 HuAgeGBsplit_20 14.4775912441547 3.20374763492457 11.2738436092301 -8.07009597430558 22
CAPSL CAPSL HuAgeGBsplit_20 14.9294661520604 3.19203735738872 11.7374287946717 -8.545391437283 23
AKAP14 AKAP14 HuAgeGBsplit_20 14.7075272454302 3.17799174451509 11.5295355009151 -8.35154375639998 24
DNAJB13 DNAJB13 HuAgeGBsplit_20 14.7480584883593 3.17312940736687 11.5749290809924 -8.40179967362553 25
C11orf88 C11orf88 HuAgeGBsplit_20 14.4578863482411 3.13895026934212 11.318936078899 -8.17998580955689 26
CCDC39 CCDC39 HuAgeGBsplit_20 16.4930680063819 3.13516485601762 13.3579031503643 -10.2227382943467 27
CFAP52 CFAP52 HuAgeGBsplit_20 14.2408030787741 2.99635700042038 11.2444460783537 -8.2480890779333 28
WDR63 WDR63 HuAgeGBsplit_20 14.2076097283291 2.95969523356001 11.2479144947691 -8.28821926120911 29
AC006499.2 AC006499.2 HuAgeGBsplit_20 15.6927680065202 2.93742656343875 12.7553414430814 -9.81791487964268 30
SLC9C2 SLC9C2 HuAgeGBsplit_20 15.6684573057479 2.82655330165496 12.841904004093 -10.015350702438 31
AC008782.1 AC008782.1 HuAgeGBsplit_20 15.8874135133054 2.81290500925027 13.0745085040551 -10.2616034948049 32
FAM74A6 FAM74A6 HuAgeGBsplit_20 13.8473227722812 2.67576167686717 11.171561095414 -8.49579941854686 33
AL353765.1 AL353765.1 HuAgeGBsplit_20 13.404552502686 2.59408100273113 10.8104714999548 -8.21639049722371 34
AL132875.2 AL132875.2 HuAgeGBsplit_20 13.1541646988709 2.56431474269146 10.5898499561795 -8.02553521348802 35
CFAP161 CFAP161 HuAgeGBsplit_20 16.6736476564067 2.44648592682567 14.227161729581 -11.7806758027553 36
AL390240.1 AL390240.1 HuAgeGBsplit_20 13.6194086208363 2.42704008163698 11.1923685391994 -8.76532845756238 37
AC022916.3 AC022916.3 HuAgeGBsplit_20 14.0074389100874 2.40404403387332 11.6033948762141 -9.19935084234077 38
FAM74A4 FAM74A4 HuAgeGBsplit_20 13.3400996257493 2.39308666202071 10.9470129637286 -8.55392630170789 39
MAP3K19 MAP3K19 HuAgeGBsplit_20 13.6794512552024 2.3773145093799 11.3021367458225 -8.92482223644256 40
LRRC74B LRRC74B HuAgeGBsplit_20 14.2478243332436 2.33790489080898 11.9099194424347 -9.57201455162569 41
FANK1 FANK1 HuAgeGBsplit_20 13.4513911661034 2.28868840027353 11.1627027658298 -8.87401436555631 42
AC020911.2 AC020911.2 HuAgeGBsplit_20 14.434837968355 2.25260333940152 12.1822346289535 -9.92963128955198 43
OR2H4P OR2H4P HuAgeGBsplit_20 13.0539530217924 2.23336751092442 10.820585510868 -8.58721799994359 44
CFAP100 CFAP100 HuAgeGBsplit_20 13.0857840237488 2.22350033280085 10.8622836909479 -8.63878335814707 45
AC025554.1 AC025554.1 HuAgeGBsplit_20 14.0687943461335 2.15321232499737 11.9155820211362 -9.76236969613881 46
C11orf97 C11orf97 HuAgeGBsplit_20 13.5559036895719 2.15281919054061 11.4030844990312 -9.25026530849063 47
FAM216B FAM216B HuAgeGBsplit_20 12.532245386937 2.11998190433778 10.4122634825993 -8.29228157826147 48
IL5RA IL5RA HuAgeGBsplit_20 13.8200261966294 2.09260762012965 11.7274185764998 -9.63481095637011 49
CDHR4 CDHR4 HuAgeGBsplit_20 12.0822164691067 2.07928708973985 10.0029293793669 -7.92364228962701 50
AC010327.1 AC010327.1 HuAgeGBsplit_20 12.2162305723466 2.07272208415918 10.1435084881874 -8.07078640402825 51
LINC02056 LINC02056 HuAgeGBsplit_20 15.417724414073 2.07150838130191 13.3462160327711 -11.2747076514692 52
SPATA17 SPATA17 HuAgeGBsplit_20 13.5872176191702 2.03931773166043 11.5478998875098 -9.50858215584933 53
ZNF473 ZNF473 HuAgeGBsplit_20 12.5738868660574 1.97986768301688 10.5940191830406 -8.61415150002367 54
ANKUB1 ANKUB1 HuAgeGBsplit_20 12.5417850065835 1.97461651260895 10.5671684939746 -8.5925519813656 55
SVOPL SVOPL HuAgeGBsplit_20 15.3557522029954 1.97241543895172 13.3833367640437 -11.410921325092 56
CFAP54 CFAP54 HuAgeGBsplit_20 15.1191123760707 1.93937352711711 13.1797388489536 -11.2403653218365 57
AC104078.2 AC104078.2 HuAgeGBsplit_20 12.5885631230423 1.93539829834317 10.6531648246991 -8.71776652635593 58
IGKV7-3 IGKV7-3 HuAgeGBsplit_20 13.0180355378577 1.89926045487117 11.1187750829866 -9.2195146281154 59
DNAI1 DNAI1 HuAgeGBsplit_20 12.481187123973 1.88854130253744 10.5926458214355 -8.7041045188981 60
AC013470.2 AC013470.2 HuAgeGBsplit_20 14.1538709377494 1.87879345271139 12.275077485038 -10.3962840323266 61
SPAG17 SPAG17 HuAgeGBsplit_20 14.0683208531627 1.83588069748228 12.2324401556804 -10.3965594581981 62
AGR3 AGR3 HuAgeGBsplit_20 13.9348412793647 1.82157213589851 12.1132691434662 -10.2916970075677 63
TEKT1 TEKT1 HuAgeGBsplit_20 13.0953790874495 1.80951393355145 11.2858651538981 -9.47635122034663 64
NUP62CL NUP62CL HuAgeGBsplit_20 14.4333432584159 1.80196148987434 12.6313817685415 -10.8294202786672 65
EFCAB12 EFCAB12 HuAgeGBsplit_20 12.6078950206721 1.78275835312206 10.8251366675501 -9.04237831442802 66
C1orf189 C1orf189 HuAgeGBsplit_20 13.0528550670996 1.76489791836503 11.2879571487346 -9.52305923036958 67
RNU6ATAC15P RNU6ATAC15P HuAgeGBsplit_20 12.2323950859927 1.76319878833351 10.4691962976592 -8.70599750932568 68
RPS29P28 RPS29P28 HuAgeGBsplit_20 12.1659453594241 1.74666225746845 10.4192831019557 -8.67262084448724 69
C2orf70 C2orf70 HuAgeGBsplit_20 13.3987942710434 1.73427658913852 11.6645176819049 -9.93024109276638 70
DNAH6 DNAH6 HuAgeGBsplit_20 13.5986431159979 1.72281377082078 11.8758293451771 -10.1530155743563 71
ANKDD1B ANKDD1B HuAgeGBsplit_20 12.9182686344289 1.70794671615998 11.210321918269 -9.50237520210899 72
AC016813.1 AC016813.1 HuAgeGBsplit_20 17.0223506161953 1.61699373928286 15.4053568769124 -13.7883631376296 73
AC005487.1 AC005487.1 HuAgeGBsplit_20 12.5100198073806 1.60839286796009 10.9016269394205 -9.29323407146046 74
CCDC30 CCDC30 HuAgeGBsplit_20 13.6532937106195 1.5674136365479 12.0858800740716 -10.5184664375237 75
DNAH11 DNAH11 HuAgeGBsplit_20 12.5817689321422 1.55774520501394 11.0240237271283 -9.46627852211433 76
SSU72P7 SSU72P7 HuAgeGBsplit_20 12.3701703844879 1.53475816669312 10.8354122177947 -9.30065405110163 77
FAM92B FAM92B HuAgeGBsplit_20 11.9442469359447 1.52319531671679 10.4210516192279 -8.89785630251115 78
RN7SL14P RN7SL14P HuAgeGBsplit_20 11.1190764916997 1.51253747491888 9.60653901678086 -8.09400154186199 79
H1FOO H1FOO HuAgeGBsplit_20 13.3593508411101 1.49171725093625 11.8676335901738 -10.3759163392375 80
FAM74A1 FAM74A1 HuAgeGBsplit_20 13.3989189216918 1.46228907502948 11.9366298466624 -10.4743407716329 81
CFAP45 CFAP45 HuAgeGBsplit_20 12.5607279973758 1.45757031109507 11.1031576862807 -9.64558737518564 82
RNU6-1116P RNU6-1116P HuAgeGBsplit_20 13.3692707824752 1.45703072084422 11.9122400616309 -10.4552093407867 83
AC005281.1 AC005281.1 HuAgeGBsplit_20 12.8128798623455 1.44391501105713 11.3689648512884 -9.92504984023122 84
DNAH9 DNAH9 HuAgeGBsplit_20 12.1858005018188 1.42615481699271 10.7596456848261 -9.33349086783342 85
LINC01765 LINC01765 HuAgeGBsplit_20 12.9484469824254 1.42331207124249 11.5251349111829 -10.1018228399404 86
LRRIQ1 LRRIQ1 HuAgeGBsplit_20 13.1894894755256 1.41845891075453 11.7710305647711 -10.3525716540166 87
DTHD1 DTHD1 HuAgeGBsplit_20 12.4170925078376 1.41134882145036 11.0057436863872 -9.59439486493688 88
CATIP CATIP HuAgeGBsplit_20 11.8066609222555 1.40951388111664 10.3971470411389 -8.98763316002222 89
ADGB ADGB HuAgeGBsplit_20 15.482212564729 1.40935435651852 14.0728582082104 -12.6635038516919 90
C22orf15 C22orf15 HuAgeGBsplit_20 12.086815049202 1.40489132038516 10.6819237288168 -9.27703240843165 91
SDR42E2 SDR42E2 HuAgeGBsplit_20 11.4539743904682 1.38274119273571 10.0712331977325 -8.6884920049968 92
TSGA10 TSGA10 HuAgeGBsplit_20 13.4173756691061 1.37539487630681 12.0419807927993 -10.6665859164925 93
CFAP53 CFAP53 HuAgeGBsplit_20 12.3943909511555 1.36387175000873 11.0305192011468 -9.66664745113808 94
AC084346.1 AC084346.1 HuAgeGBsplit_20 12.1860438117583 1.36077235373195 10.8252714580264 -9.46449910429444 95
CFAP43 CFAP43 HuAgeGBsplit_20 12.1986490556855 1.35288888447946 10.845760171206 -9.49287128672655 96
VWA3B VWA3B HuAgeGBsplit_20 12.8085316726549 1.33967026679866 11.4688614058562 -10.1291911390576 97
AL049748.1 AL049748.1 HuAgeGBsplit_20 15.7300238479941 1.32875292039205 14.4012709276021 -13.07251800721 98
RFX2 RFX2 HuAgeGBsplit_20 12.5731621909578 1.3253713446102 11.2477908463476 -9.92241950173743 99
FAM183A FAM183A HuAgeGBsplit_20 12.3530799587046 1.32447551810783 11.0286044405968 -9.70412892248898 100
LINC00880 LINC00880 HuAgeGBsplit_20 11.8710186676634 1.32234576681263 10.5486729008508 -9.22632713403818 101
AL132801.1 AL132801.1 HuAgeGBsplit_20 12.6613485411483 1.27746376440768 11.3838847767406 -10.106421012333 102
AL513534.2 AL513534.2 HuAgeGBsplit_20 11.9740550184722 1.27636799919501 10.6976870192772 -9.42131902008219 103
AC010255.1 AC010255.1 HuAgeGBsplit_20 13.3176917448501 1.25534071925127 12.0623510255988 -10.8070103063476 104
CCDC146 CCDC146 HuAgeGBsplit_20 12.853206573211 1.24806000587161 11.6051465673394 -10.3570865614678 105
TTC34 TTC34 HuAgeGBsplit_20 12.213745264754 1.23691923471485 10.9768260300392 -9.73990679532434 106
ZBBX ZBBX HuAgeGBsplit_20 12.1542655394416 1.23577427228844 10.9184912671532 -9.68271699486473 107
AC010255.3 AC010255.3 HuAgeGBsplit_20 13.6504177661271 1.23478213385523 12.4156356322718 -11.1808534984166 108
DCDC2 DCDC2 HuAgeGBsplit_20 14.1644099145865 1.21159022032401 12.9528196942625 -11.7412294739385 109
AC005297.3 AC005297.3 HuAgeGBsplit_20 11.3303952219319 1.20786708321335 10.1225281387186 -8.91466105550522 110
AC078850.2 AC078850.2 HuAgeGBsplit_20 12.5587296749301 1.20291533782705 11.3558143371031 -10.152898999276 111
RPL9P21 RPL9P21 HuAgeGBsplit_20 11.9416960897057 1.19897099353438 10.7427250961713 -9.54375410263694 112
CFAP69 CFAP69 HuAgeGBsplit_20 12.6692151978946 1.18930896539747 11.4799062324971 -10.2905972670996 113
AC015818.3 AC015818.3 HuAgeGBsplit_20 11.9752689123511 1.18056005650601 10.7947088558451 -9.61414879933906 114
CSRP3 CSRP3 HuAgeGBsplit_20 11.7172188273575 1.17646666768635 10.5407521596712 -9.36428549198483 115
MORN5 MORN5 HuAgeGBsplit_20 11.7858376343181 1.16336321473289 10.6224744195852 -9.45911120485232 116
RNU6-756P RNU6-756P HuAgeGBsplit_20 13.6357959186549 1.15062096767332 12.4851749509816 -11.3345539833083 117
CDHR3 CDHR3 HuAgeGBsplit_20 13.0876711922438 1.1466522030258 11.941018989218 -10.7943667861922 118
KIF9-AS1 KIF9-AS1 HuAgeGBsplit_20 12.6425757804133 1.14663427499243 11.4959415054209 -10.3493072304284 119
AC010624.1 AC010624.1 HuAgeGBsplit_20 13.1037676514805 1.14410310796909 11.9596645435114 -10.8155614355423 120
CCDC162P CCDC162P HuAgeGBsplit_20 12.3708435854984 1.13356069170053 11.2372828937979 -10.1037222020974 121
RNU2-12P RNU2-12P HuAgeGBsplit_20 12.7096084411284 1.13288880749433 11.5767196336341 -10.4438308261397 122
NEK5 NEK5 HuAgeGBsplit_20 12.3086972079114 1.12902640632683 11.1796708015846 -10.0506443952577 123
AGBL2 AGBL2 HuAgeGBsplit_20 11.5958645662178 1.11226723267618 10.4835973335416 -9.37133010086547 124
FBXO15 FBXO15 HuAgeGBsplit_20 11.7857800144001 1.11092379610099 10.6748562182991 -9.56393242219807 125
AC105402.3 AC105402.3 HuAgeGBsplit_20 11.9742989246581 1.11029915456289 10.8639997700952 -9.75370061553234 126
EFHC2 EFHC2 HuAgeGBsplit_20 12.7400933806646 1.10849387166457 11.631599509 -10.5231056373355 127
AC108477.1 AC108477.1 HuAgeGBsplit_20 12.2844452647768 1.1072138588964 11.1772314058804 -10.070017546984 128
SCGB2A1 SCGB2A1 HuAgeGBsplit_20 11.6272319829711 1.09759769065348 10.5296342923176 -9.4320366016641 129
DNAAF1 DNAAF1 HuAgeGBsplit_20 10.6318077365322 1.09695558241411 9.53485215411808 -8.43789657170397 130
RNU6-655P RNU6-655P HuAgeGBsplit_20 10.9415361483822 1.09330676097089 9.84822938741126 -8.75492262644037 131
AL021391.1 AL021391.1 HuAgeGBsplit_20 11.0512805898667 1.08929578411716 9.96198480574955 -8.87268902163239 132
RPL30P12 RPL30P12 HuAgeGBsplit_20 11.4235419917883 1.08139429470688 10.3421476970814 -9.26075340237456 133
AC090281.1 AC090281.1 HuAgeGBsplit_20 12.0056898795316 1.07151377079632 10.9341761087353 -9.86266233793896 134
AL353705.1 AL353705.1 HuAgeGBsplit_20 11.217743516876 1.0676888214893 10.1500546953867 -9.08236587389741 135
C9orf24 C9orf24 HuAgeGBsplit_20 12.04582370057 1.066880125744 10.978943574826 -9.91206344908201 136
PPIAP58 PPIAP58 HuAgeGBsplit_20 12.6257683645902 1.05926113087573 11.5665072337144 -10.5072461028387 137
CFAP99 CFAP99 HuAgeGBsplit_20 13.4925185404619 1.05252914833144 12.4399893921304 -11.387460243799 138
C8orf34 C8orf34 HuAgeGBsplit_20 13.3286959780332 1.03918791302645 12.2895080650067 -11.2503201519803 139
AC087289.3 AC087289.3 HuAgeGBsplit_20 11.2880005877038 1.02999500309982 10.258005584604 -9.22801058150419 140
CCDC13 CCDC13 HuAgeGBsplit_20 11.8105701034037 1.02380294605506 10.7867671573487 -9.76296421129359 141
FAM74A3 FAM74A3 HuAgeGBsplit_20 11.1856094460059 1.00818502908812 10.1774244169178 -9.16923938782965 142
AC009292.2 AC009292.2 HuAgeGBsplit_20 12.3329305993699 1.00017118607367 11.3327594132962 -10.3325882272226 143
HSD3B1 HSD3B1 HuAgeGBsplit_20 11.8343721618542 0.997168213358253 10.8372039484959 -9.8400357351377 144
KCNE1B KCNE1B HuAgeGBsplit_20 11.4023785347645 0.993121132352146 10.4092574024124 -9.41613627006022 145
USP2-AS1 USP2-AS1 HuAgeGBsplit_20 12.2037072591185 0.987584244407389 11.2161230147111 -10.2285387703037 146
CCDC153 CCDC153 HuAgeGBsplit_20 11.1342404425987 0.987434655568859 10.1468057870299 -9.15937113146103 147
GAS2L1P2 GAS2L1P2 HuAgeGBsplit_20 10.8313301968472 0.986720738129337 9.84460945871789 -8.85788872058855 148
WDR78 WDR78 HuAgeGBsplit_20 11.8711800772776 0.98366863407007 10.8875114432076 -9.9038428091375 149
ARMC4 ARMC4 HuAgeGBsplit_20 13.7173602263549 0.982523338124515 12.7348368882304 -11.7523135501058 150
VTRNA3-1P VTRNA3-1P HuAgeGBsplit_20 11.2754969793585 0.981784088340086 10.2937128910184 -9.31192880267835 151
CDC20B CDC20B HuAgeGBsplit_20 11.7132097422689 0.974342759057679 10.7388669832112 -9.76452422415351 152
OR1D5 OR1D5 HuAgeGBsplit_20 11.2632330570164 0.956714991482255 10.3065180655342 -9.34980307405193 153
WDR93 WDR93 HuAgeGBsplit_20 12.1244662352381 0.939715713314646 11.1847505219234 -10.2450348086088 154
EFCAB6-AS1 EFCAB6-AS1 HuAgeGBsplit_20 11.4827688701744 0.936613206631668 10.5461556635427 -9.60954245691108 155
TMEM190 TMEM190 HuAgeGBsplit_20 12.1355327177253 0.913867642645205 11.2216650750801 -10.3077974324349 156
AC011491.1 AC011491.1 HuAgeGBsplit_20 11.3018246751066 0.908734806267839 10.3930898688387 -9.4843550625709 157
AL121899.1 AL121899.1 HuAgeGBsplit_20 11.8573654924755 0.905465740970711 10.9518997515048 -10.0464340105341 158
IQUB IQUB HuAgeGBsplit_20 12.2902885852748 0.902845329318373 11.3874432559564 -10.4845979266381 159
CSPP1 CSPP1 HuAgeGBsplit_20 12.3263283224714 0.901900826212595 11.4244274962588 -10.5225266700463 160
LRRC71 LRRC71 HuAgeGBsplit_20 11.9104980340329 0.901647034697383 11.0088509993356 -10.1072039646382 161
RN7SKP293 RN7SKP293 HuAgeGBsplit_20 12.2480294041664 0.901187610153435 11.3468417940129 -10.4456541838595 162
CHCHD2P8 CHCHD2P8 HuAgeGBsplit_20 12.1030034826661 0.881957793574025 11.2210456890921 -10.3390878955181 163
RNU6-675P RNU6-675P HuAgeGBsplit_20 10.5582605884611 0.87806293635162 9.68019765210943 -8.80213471575781 164
AC022217.2 AC022217.2 HuAgeGBsplit_20 11.7157972673572 0.873302807483574 10.8424944598736 -9.96919165239003 165
LRGUK LRGUK HuAgeGBsplit_20 12.7739124963219 0.866440375121348 11.9074721212006 -11.0410317460792 166
CCDC114 CCDC114 HuAgeGBsplit_20 11.354219963993 0.863744725075159 10.4904752389179 -9.62673051384271 167
RN7SKP213 RN7SKP213 HuAgeGBsplit_20 11.1883327061625 0.862856647461305 10.3254760587012 -9.46261941123988 168
FAM160A1-DT FAM160A1-DT HuAgeGBsplit_20 11.1868465936862 0.859045356460852 10.3278012372253 -9.46875588076448 169
KRT18P54 KRT18P54 HuAgeGBsplit_20 11.4746338642359 0.857865618134952 10.616768246101 -9.75890262796603 170
GRAMD2A GRAMD2A HuAgeGBsplit_20 10.9057419414519 0.853224417071003 10.0525175243809 -9.19929310730988 171
XG XG HuAgeGBsplit_20 12.0704838316775 0.853214883852977 11.2172689478245 -10.3640540639715 172
AC008687.8 AC008687.8 HuAgeGBsplit_20 12.8959528652297 0.826277740525275 12.0696751247044 -11.2433973841791 173
PRRT1B PRRT1B HuAgeGBsplit_20 12.2333553786669 0.821032356010078 11.4123230226568 -10.5912906666467 174
AC078828.1 AC078828.1 HuAgeGBsplit_20 10.6484706115087 0.820390392575837 9.82808021893289 -9.00768982635705 175
LRRC9 LRRC9 HuAgeGBsplit_20 13.3431083387781 0.818100501123167 12.5250078376549 -11.7069073365317 176
KCNE1 KCNE1 HuAgeGBsplit_20 11.6487074574109 0.816954416490208 10.8317530409207 -10.0147986244305 177
AL121785.1 AL121785.1 HuAgeGBsplit_20 11.8663269640667 0.813968586039562 11.0523583780271 -10.2383897919876 178
AC073333.2 AC073333.2 HuAgeGBsplit_20 13.0463819093206 0.809953989054321 12.2364279202663 -11.4264739312119 179
CCDC81 CCDC81 HuAgeGBsplit_20 11.8484516242632 0.80419931507237 11.0442523091909 -10.2400529941185 180
PPIAP45 PPIAP45 HuAgeGBsplit_20 10.9203077436087 0.803920491336793 10.1163872522719 -9.31246676093513 181
TEX9 TEX9 HuAgeGBsplit_20 12.2177116081316 0.794820349540611 11.422891258591 -10.6280709090504 182
MNS1 MNS1 HuAgeGBsplit_20 11.6351904823979 0.789458714773274 10.8457317676246 -10.0562730528513 183
FAM81B FAM81B HuAgeGBsplit_20 11.2428974086369 0.7860334452097 10.4568639634272 -9.67083051821751 184
AC007435.1 AC007435.1 HuAgeGBsplit_20 11.7021407209509 0.779212907036266 10.9229278139146 -10.1437149068783 185
AL353770.4 AL353770.4 HuAgeGBsplit_20 11.4315802710651 0.771436873724512 10.6601433973406 -9.8887065236161 186
AC107958.1 AC107958.1 HuAgeGBsplit_20 10.4749453998329 0.767013944337143 9.70793145549575 -8.9409175111586 187
FAM138B FAM138B HuAgeGBsplit_20 10.3835727725983 0.765870043229706 9.61770272936861 -8.8518326861389 188
AL589765.7 AL589765.7 HuAgeGBsplit_20 10.3143937130036 0.757211518463118 9.55718219454048 -8.79997067607736 189
SLC23A1 SLC23A1 HuAgeGBsplit_20 11.5546891932461 0.756960289362508 10.7977289038836 -10.0407686145211 190
RSU1P1 RSU1P1 HuAgeGBsplit_20 14.2868387725042 0.753886374802084 13.5329523977021 -12.7790660229 191
AC022706.1 AC022706.1 HuAgeGBsplit_20 11.3381009498161 0.748511807930084 10.589589141886 -9.84107733395593 192
CYP11A1 CYP11A1 HuAgeGBsplit_20 11.5456002660475 0.747866010384767 10.7977342556628 -10.049868245278 193
AC112204.3 AC112204.3 HuAgeGBsplit_20 10.388805934709 0.747332118621351 9.64147381608768 -8.89414169746633 194
AP005902.1 AP005902.1 HuAgeGBsplit_20 11.3305315237312 0.737367594271312 10.5931639294599 -9.85579633518858 195
NME9 NME9 HuAgeGBsplit_20 10.8143535910518 0.732818768333933 10.0815348227179 -9.34871605438393 196
AC021749.1 AC021749.1 HuAgeGBsplit_20 11.1875872697295 0.732672042655056 10.4549152270745 -9.72224318441941 197
C6 C6 HuAgeGBsplit_20 11.3412275456973 0.731020633585491 10.6102069121118 -9.87918627852631 198
TYMSP2 TYMSP2 HuAgeGBsplit_20 11.8841539872443 0.730384417355944 11.1537695698884 -10.4233851525324 199
TEKT3 TEKT3 HuAgeGBsplit_20 11.6122018509327 0.726743419944848 10.8854584309879 -10.158715011043 200
C8orf34-AS1 C8orf34-AS1 HuAgeGBsplit_20 11.7663149327157 0.726475024245452 11.0398399084703 -10.3133648842248 201
RPL32P3 RPL32P3 HuAgeGBsplit_20 10.1943102107943 0.725779920904842 9.46853028988948 -8.74275036898464 202
AC108673.1 AC108673.1 HuAgeGBsplit_20 11.3244209887243 0.725653691560727 10.5987672971635 -9.87311360560281 203
AC233724.15 AC233724.15 HuAgeGBsplit_20 12.7988984352115 0.722530812331409 12.0763676228801 -11.3538368105487 204
EFHC1 EFHC1 HuAgeGBsplit_20 12.405684173447 0.722205010697699 11.6834791627493 -10.9612741520516 205
WDR66 WDR66 HuAgeGBsplit_20 10.7086934857367 0.721540794128681 9.98715269160807 -9.26561189747939 206
AC093689.1 AC093689.1 HuAgeGBsplit_20 13.3585891690524 0.719903401463377 12.6386857675891 -11.9187823661257 207
CFAP65 CFAP65 HuAgeGBsplit_20 11.6007636473348 0.716693349047637 10.8840702982871 -10.1673769492395 208
TTC26 TTC26 HuAgeGBsplit_20 12.0043620301761 0.712306324708073 11.292055705468 -10.5797493807599 209
AC073648.4 AC073648.4 HuAgeGBsplit_20 10.5221749159827 0.696234123095208 9.82594079288748 -9.12970666979227 210
GAPDHP32 GAPDHP32 HuAgeGBsplit_20 10.9798811645969 0.691660613417521 10.2882205511794 -9.59655993776184 211
RNU6-857P RNU6-857P HuAgeGBsplit_20 10.7191150901348 0.682720610509137 10.0363944796257 -9.35367386911655 212
AC025043.1 AC025043.1 HuAgeGBsplit_20 12.3008857226587 0.6810833091141 11.6198024135446 -10.9387191044305 213
AC002064.1 AC002064.1 HuAgeGBsplit_20 10.7259450235642 0.680890266219045 10.0450547573451 -9.36416449112608 214
AC092436.3 AC092436.3 HuAgeGBsplit_20 13.7180139376295 0.680286338179828 13.0377275994497 -12.3574412612699 215
RSPH4A RSPH4A HuAgeGBsplit_20 12.5613228660315 0.677061735382181 11.8842611306493 -11.2071993952671 216
AC112204.1 AC112204.1 HuAgeGBsplit_20 10.4815602428524 0.67327662084069 9.80828362201167 -9.13500700117098 217
LINC02435 LINC02435 HuAgeGBsplit_20 13.0621415778544 0.673001743289702 12.3891398345647 -11.716138091275 218
CFAP61 CFAP61 HuAgeGBsplit_20 11.4951450173117 0.670320826196067 10.8248241911156 -10.1545033649196 219
C2orf73 C2orf73 HuAgeGBsplit_20 10.9462401738757 0.667027962181678 10.2792122116941 -9.61218424951238 220
C18orf25 C18orf25 HuAgeGBsplit_20 11.5453943007433 0.666803452198757 10.8785908485446 -10.2117873963458 221
AK7 AK7 HuAgeGBsplit_20 12.9850121572248 0.656590407202172 12.3284217500226 -11.6718313428205 222
AL807752.2 AL807752.2 HuAgeGBsplit_20 11.643175289285 0.653973448707858 10.9892018405771 -10.3352283918693 223
KRT18P25 KRT18P25 HuAgeGBsplit_20 10.2389295235748 0.648251738091622 9.59067778548322 -8.9424260473916 224
CFAP221 CFAP221 HuAgeGBsplit_20 10.7940233017013 0.643208872680624 10.1508144290207 -9.50760555634003 225
GMNC GMNC HuAgeGBsplit_20 11.2097167378322 0.642266620756453 10.5674501170757 -9.92518349631926 226
DRC7 DRC7 HuAgeGBsplit_20 10.8866164751382 0.640172846308106 10.2464436288301 -9.606270782522 227
SPEF2 SPEF2 HuAgeGBsplit_20 12.1395339075998 0.636969811504989 11.5025640960948 -10.8655942845899 228
AC005410.1 AC005410.1 HuAgeGBsplit_20 10.9692505020763 0.634246168941598 10.3350043331347 -9.70075816419311 229
RNU4-10P RNU4-10P HuAgeGBsplit_20 10.2634381665777 0.632850837580761 9.63058732899697 -8.99773649141621 230
KIF9 KIF9 HuAgeGBsplit_20 11.9684830357007 0.630919801473246 11.3375632342274 -10.7066434327542 231
AC011500.2 AC011500.2 HuAgeGBsplit_20 11.0192545816187 0.626162647121199 10.3930919344975 -9.76692928737631 232
RPL21P112 RPL21P112 HuAgeGBsplit_20 10.671701248721 0.624560779492599 10.0471404692284 -9.42257968973581 233
MUC12 MUC12 HuAgeGBsplit_20 11.1193317483433 0.623191632364121 10.4961401159792 -9.8729484836151 234
LDLRAD2 LDLRAD2 HuAgeGBsplit_20 10.7672708982387 0.615927491971974 10.1513434062667 -9.53541591429473 235
AC117454.1 AC117454.1 HuAgeGBsplit_20 10.9345429020344 0.612895412586647 10.3216474894477 -9.70875207686107 236
ATXN7L1 ATXN7L1 HuAgeGBsplit_20 13.8431346863529 0.609164623074237 13.2339700632787 -12.6248054402044 237
OGFR-AS1 OGFR-AS1 HuAgeGBsplit_20 11.1916121579749 0.604720636262238 10.5868915217126 -9.98217088545041 238
DRC1 DRC1 HuAgeGBsplit_20 11.5581862747231 0.600971950112479 10.9572143246106 -10.3562423744981 239
ROCR ROCR HuAgeGBsplit_20 10.6444566434145 0.59981360152483 10.0446430418897 -9.44482944036486 240
AL138966.1 AL138966.1 HuAgeGBsplit_20 10.7761798920245 0.598556157078371 10.1776237349461 -9.57906757786771 241
AL831784.1 AL831784.1 HuAgeGBsplit_20 12.1235766528743 0.58355538663953 11.5400212662348 -10.9564658795952 242
GTF2IRD1P1 GTF2IRD1P1 HuAgeGBsplit_20 11.6628250930079 0.581282527955733 11.0815425650522 -10.5002600370965 243
AGR2 AGR2 HuAgeGBsplit_20 13.9015093213482 0.580672152647444 13.3208371687008 -12.7401650160533 244
AC004817.3 AC004817.3 HuAgeGBsplit_20 10.8069857028238 0.5799357362501 10.2270499665737 -9.64711423032363 245
HIGD1AP10 HIGD1AP10 HuAgeGBsplit_20 10.4054314802376 0.567999983797228 9.83743149644032 -9.26943151264309 246
AL049767.1 AL049767.1 HuAgeGBsplit_20 11.0506741317659 0.563300532582239 10.4873735991836 -9.92407306660138 247
AC233290.2 AC233290.2 HuAgeGBsplit_20 10.4736081101003 0.562884225617475 9.9107238844828 -9.34783965886533 248
RNU105C RNU105C HuAgeGBsplit_20 12.3083576143685 0.558866219335243 11.7494913950332 -11.190625175698 249
AC106782.4 AC106782.4 HuAgeGBsplit_20 9.6600844569315 0.557007459097961 9.10307699783353 -8.54606953873557 250
CFAP73 CFAP73 HuAgeGBsplit_20 10.4634812494153 0.555319849804755 9.90816139961057 -9.35284154980581 251
AC023310.1 AC023310.1 HuAgeGBsplit_20 10.8547758750579 0.554142383850643 10.3006334912073 -9.74649110735666 252
CCDC170 CCDC170 HuAgeGBsplit_20 12.1028100061911 0.54662414699752 11.5561858591936 -11.009561712196 253
PRKCH PRKCH HuAgeGBsplit_20 12.8668256184732 0.546333614566504 12.3204920039067 -11.7741583893402 254
AL935212.4 AL935212.4 HuAgeGBsplit_20 11.3140413036808 0.544842041470999 10.7691992622098 -10.2243572207388 255
RIIAD1 RIIAD1 HuAgeGBsplit_20 11.0575054104869 0.541438996986638 10.5160664135003 -9.97462741651362 256
ANGPTL5 ANGPTL5 HuAgeGBsplit_20 11.0704037092606 0.540071904529505 10.5303318047311 -9.99025990020157 257
IGHJ2 IGHJ2 HuAgeGBsplit_20 10.2127644326151 0.537997939317693 9.67476649329741 -9.13676855397971 258
VSTM1 VSTM1 HuAgeGBsplit_20 11.0485879258483 0.536034409373332 10.512553516475 -9.97651910710164 259
AC008758.4 AC008758.4 HuAgeGBsplit_20 10.641016851427 0.535609387632558 10.1054074637944 -9.56979807616185 260
ENO4 ENO4 HuAgeGBsplit_20 11.6101138078668 0.534546014756363 11.0755677931105 -10.5410217783541 261
AL160191.2 AL160191.2 HuAgeGBsplit_20 10.2924720158725 0.533146229541054 9.75932578633144 -9.22617955679038 262
TTC25 TTC25 HuAgeGBsplit_20 11.0632131482324 0.53083329189091 10.5323798563415 -10.0015465644505 263
AC114489.1 AC114489.1 HuAgeGBsplit_20 10.5331743187362 0.527785283904744 10.0053890348314 -9.47760375092667 264
RNA5SP31 RNA5SP31 HuAgeGBsplit_20 10.6286904818588 0.5263940269133 10.1022964549455 -9.57590242803223 265
PRR29 PRR29 HuAgeGBsplit_20 9.99432469137919 0.52469357399176 9.46963111738743 -8.94493754339567 266
AC074338.1 AC074338.1 HuAgeGBsplit_20 10.6465939333135 0.524481838288365 10.1221120950251 -9.59763025673674 267
AC004840.1 AC004840.1 HuAgeGBsplit_20 11.1088896199613 0.518558520385629 10.5903310995757 -10.0717725791901 268
GCC2-AS1 GCC2-AS1 HuAgeGBsplit_20 11.114711992359 0.516871119589495 10.5978408727696 -10.0809697531801 269
TMEM67 TMEM67 HuAgeGBsplit_20 11.3386036966113 0.509214288684715 10.8293894079266 -10.3201751192419 270
PPIAP74 PPIAP74 HuAgeGBsplit_20 9.93314890421395 0.507245121609307 9.42590378260464 -8.91865866099533 271
PPIAP9 PPIAP9 HuAgeGBsplit_20 11.1376566039764 0.503585976054934 10.6340706279214 -10.1304846518665 272
AC129492.3 AC129492.3 HuAgeGBsplit_20 11.0000862509764 0.500627789693802 10.4994584612826 -9.9988306715888 273
INSL5 INSL5 HuAgeGBsplit_20 11.0194545645413 0.49841573390265 10.5210388306386 -10.022623096736 274
LINC01088 LINC01088 HuAgeGBsplit_20 10.9668124001095 0.496503029258721 10.4703093708508 -9.97380634159203 275
CDCA7L CDCA7L HuAgeGBsplit_20 10.6985029497873 0.496240101471039 10.2022628483162 -9.70602274684518 276
AC004817.2 AC004817.2 HuAgeGBsplit_20 10.3238635791909 0.494618341892271 9.82924523729863 -9.33462689540636 277
OR56B4 OR56B4 HuAgeGBsplit_20 10.382553608375 0.494260264110207 9.8882933442648 -9.3940330801546 278
PPP1R32 PPP1R32 HuAgeGBsplit_20 10.6824010897647 0.494161391932868 10.1882396978318 -9.69407830589895 279
AC008278.2 AC008278.2 HuAgeGBsplit_20 11.738132870018 0.492811314976772 11.2453215550413 -10.7525102400645 280
RIBC2 RIBC2 HuAgeGBsplit_20 10.2460789975478 0.491882247267493 9.75419675028032 -9.26231450301283 281
ACTRT1 ACTRT1 HuAgeGBsplit_20 10.2677401402119 0.491126364366042 9.77661377584589 -9.28548741147985 282
ZNF341-AS1 ZNF341-AS1 HuAgeGBsplit_20 10.6440058980693 0.490062240241433 10.1539436578278 -9.66388141758639 283
RNVU1-17 RNVU1-17 HuAgeGBsplit_20 11.0272990217667 0.489260786420117 10.5380382353466 -10.0487774489265 284
FAM166B FAM166B HuAgeGBsplit_20 10.636008625827 0.481683797311472 10.1543248285156 -9.6726410312041 285
AC007906.2 AC007906.2 HuAgeGBsplit_20 11.5211044885845 0.48160446799298 11.0395000205915 -10.5578955525985 286
FNDC7 FNDC7 HuAgeGBsplit_20 11.5467047194879 0.481213982299992 11.0654907371879 -10.5842767548879 287
AL590822.1 AL590822.1 HuAgeGBsplit_20 10.0423249604739 0.477440107480946 9.56488485299298 -9.08744474551204 288
SPAG8 SPAG8 HuAgeGBsplit_20 10.9342122860795 0.474802444134753 10.4594098419448 -9.98460739781003 289
LINC01058 LINC01058 HuAgeGBsplit_20 11.4315436689903 0.471553647174404 10.9599900218159 -10.4884363746415 290
OR7E4P OR7E4P HuAgeGBsplit_20 11.1515150539218 0.469397388605108 10.6821176653167 -10.2127202767116 291
ALS2CR12 ALS2CR12 HuAgeGBsplit_20 11.5005557148241 0.467627825450567 11.0329278893736 -10.565300063923 292
AC074121.1 AC074121.1 HuAgeGBsplit_20 10.2435735242789 0.465976502311224 9.77759702196771 -9.31162051965648 293
AL442224.1 AL442224.1 HuAgeGBsplit_20 9.99448296053741 0.464547024725643 9.52993593581177 -9.06538891108613 294
CDS1 CDS1 HuAgeGBsplit_20 11.3310597013154 0.46312901676727 10.8679306845481 -10.4048016677808 295
VN1R51P VN1R51P HuAgeGBsplit_20 9.50720401203861 0.460659489656782 9.04654452238183 -8.58588503272505 296
AL929410.1 AL929410.1 HuAgeGBsplit_20 10.7302155617516 0.459042568726903 10.2711729930247 -9.81213042429783 297
AC068492.1 AC068492.1 HuAgeGBsplit_20 9.67788274907938 0.458642091251349 9.21924065782803 -8.76059856657669 298
GP5 GP5 HuAgeGBsplit_20 11.1669887397406 0.447166390628433 10.7198223491121 -10.2726559584837 299
AL356867.1 AL356867.1 HuAgeGBsplit_20 11.2332897741587 0.446817379613252 10.7864723945454 -10.3396550149322 300
C5orf60 C5orf60 HuAgeGBsplit_20 10.3026846822462 0.443713905316508 9.85897077692968 -9.41525687161317 301
AC114801.3 AC114801.3 HuAgeGBsplit_20 10.0283620381653 0.441291669457017 9.5870703687083 -9.14577869925129 302
AC093249.1 AC093249.1 HuAgeGBsplit_20 9.64518652921815 0.438200972772079 9.20698555644607 -8.76878458367399 303
C9orf116 C9orf116 HuAgeGBsplit_20 10.8956941995011 0.435688476226804 10.4600057232743 -10.0243172470475 304
NEK11 NEK11 HuAgeGBsplit_20 11.2736297692511 0.435534293709415 10.8380954755417 -10.4025611818323 305
ZP1 ZP1 HuAgeGBsplit_20 9.99213698280518 0.434534110625125 9.55760287218005 -9.12306876155493 306
IGLJ2 IGLJ2 HuAgeGBsplit_20 10.6396137234534 0.431675665339746 10.2079380581136 -9.77626239277389 307
NPHP1 NPHP1 HuAgeGBsplit_20 11.1064478002665 0.430089811464442 10.6763579888021 -10.2462681773376 308
RPS3AP25 RPS3AP25 HuAgeGBsplit_20 10.6289530041967 0.424688522158179 10.2042644820385 -9.7795759598803 309
CCDC40 CCDC40 HuAgeGBsplit_20 11.0613496482678 0.420265480848079 10.6410841674198 -10.2208186865717 310
AC011891.2 AC011891.2 HuAgeGBsplit_20 10.4002431378921 0.41605020635142 9.98419293154068 -9.56814272518926 311
LINC02265 LINC02265 HuAgeGBsplit_20 10.4646266773655 0.414886741284007 10.0497399360815 -9.63485319479751 312
AC133794.1 AC133794.1 HuAgeGBsplit_20 9.96675087354219 0.412259689235314 9.55449118430687 -9.14223149507156 313
UBE2L5 UBE2L5 HuAgeGBsplit_20 10.70115624864 0.405582016717623 10.2955742319224 -9.88999221520473 314
PRR29-AS1 PRR29-AS1 HuAgeGBsplit_20 10.4871878246544 0.404893897279576 10.0822939273748 -9.67740003009526 315
AL445670.1 AL445670.1 HuAgeGBsplit_20 10.0684230612255 0.39818091414447 9.67024214708103 -9.27206123293656 316
AC135628.1 AC135628.1 HuAgeGBsplit_20 12.6724339107459 0.396103489533475 12.2763304212125 -11.880226931679 317
IQCG IQCG HuAgeGBsplit_20 9.92141373206867 0.394272649481878 9.52714108258679 -9.13286843310492 318
MYCBPAP MYCBPAP HuAgeGBsplit_20 10.2230662396512 0.390896057126577 9.83217018252465 -9.44127412539807 319
TTC21B TTC21B HuAgeGBsplit_20 11.0828922897868 0.389987898182411 10.6929043916044 -10.302916493422 320
MIR890 MIR890 HuAgeGBsplit_20 10.6460648818426 0.384837664787987 10.2612272170546 -9.87638955226665 321
AC010655.1 AC010655.1 HuAgeGBsplit_20 9.51302474982264 0.384415276969601 9.12860947285304 -8.74419419588344 322
VWA3A VWA3A HuAgeGBsplit_20 10.6922832259923 0.383623039205092 10.3086601867872 -9.92503714758212 323
SHF SHF HuAgeGBsplit_20 10.6583119269082 0.382360597762406 10.2759513291458 -9.89359073138342 324
SPEF1 SPEF1 HuAgeGBsplit_20 10.1564249374184 0.379657261474209 9.77676767594419 -9.39711041446998 325
MDH1B MDH1B HuAgeGBsplit_20 10.6722458138779 0.378629499919581 10.2936163139583 -9.91498681403875 326
FMO3 FMO3 HuAgeGBsplit_20 10.9199029239724 0.378381860672939 10.5415210632994 -10.1631392026265 327
BNIPL BNIPL HuAgeGBsplit_20 10.7350237972655 0.376944346892679 10.3580794503728 -9.98113510348013 328
PARP15 PARP15 HuAgeGBsplit_20 10.974492136423 0.373593755836062 10.6008983805869 -10.2273046247508 329
AL080243.1 AL080243.1 HuAgeGBsplit_20 10.4410625886147 0.366627626925976 10.0744349616887 -9.70780733476276 330
WDR19 WDR19 HuAgeGBsplit_20 11.5484040680413 0.364019112735375 11.184384955306 -10.8203658425706 331
LRRC43 LRRC43 HuAgeGBsplit_20 11.0518471147758 0.363938971336377 10.6879081434394 -10.323969172103 332
SMC2-AS1 SMC2-AS1 HuAgeGBsplit_20 10.0253272252365 0.358447034851252 9.66688019038521 -9.30843315553395 333
AC096920.1 AC096920.1 HuAgeGBsplit_20 10.4662972185684 0.356564138714821 10.1097330798536 -9.75316894113874 334
MAPK15 MAPK15 HuAgeGBsplit_20 10.5833699230162 0.351047121791862 10.2323228012244 -9.88127567943252 335
OCM OCM HuAgeGBsplit_20 11.216026608681 0.349222685718075 10.8668039229629 -10.5175812372449 336
EFCC1 EFCC1 HuAgeGBsplit_20 11.0084419233751 0.348067201413369 10.6603747219617 -10.3123075205483 337
AC026774.1 AC026774.1 HuAgeGBsplit_20 11.0117235834461 0.347177332855805 10.6645462505903 -10.3173689177345 338
AC004836.1 AC004836.1 HuAgeGBsplit_20 10.2392889143472 0.345113360517489 9.89417555382971 -9.54906219331222 339
LINC00354 LINC00354 HuAgeGBsplit_20 10.4051222320421 0.340587942251245 10.0645342897908 -9.7239463475396 340
Z95331.1 Z95331.1 HuAgeGBsplit_20 11.1563271496726 0.333929566605233 10.8223975830674 -10.4884680164622 341
AP003171.1 AP003171.1 HuAgeGBsplit_20 10.4939188205871 0.332962185673288 10.1609566349138 -9.82799444924053 342
OSCP1 OSCP1 HuAgeGBsplit_20 10.6315881387752 0.33204444856381 10.2995436902113 -9.96749924164754 343
RN7SKP44 RN7SKP44 HuAgeGBsplit_20 9.70821054992541 0.325230269666937 9.38298028025847 -9.05775001059154 344
LRRC6 LRRC6 HuAgeGBsplit_20 11.0679651543161 0.32126926246125 10.7466958918548 -10.4254266293936 345
C1orf194 C1orf194 HuAgeGBsplit_20 10.2025303051866 0.319421668208823 9.88310863697775 -9.56368696876893 346
RNU1-74P RNU1-74P HuAgeGBsplit_20 9.56562176754801 0.313056168170868 9.25256559937714 -8.93950943120627 347
SPAG16 SPAG16 HuAgeGBsplit_20 12.3979407613078 0.312736151367456 12.0852046099403 -11.7724684585729 348
TSPAN19 TSPAN19 HuAgeGBsplit_20 11.8505801886817 0.310973813988429 11.5396063746933 -11.2286325607049 349
OR1F12 OR1F12 HuAgeGBsplit_20 10.1612400770909 0.310785351095419 9.8504547259955 -9.53966937490008 350
CCDC181 CCDC181 HuAgeGBsplit_20 11.1889868684121 0.307656423252929 10.8813304451591 -10.5736740219062 351
C2orf50 C2orf50 HuAgeGBsplit_20 9.91538948180055 0.306325369122905 9.60906411267764 -9.30273874355473 352
AL356488.1 AL356488.1 HuAgeGBsplit_20 9.33237689077183 0.305556858150727 9.02682003262111 -8.72126317447038 353
CCDC190 CCDC190 HuAgeGBsplit_20 12.5445346374615 0.304992409148932 12.2395422283125 -11.9345498191636 354
ALOX15B ALOX15B HuAgeGBsplit_20 10.3933907765303 0.29836355617982 10.0950272203505 -9.79666366417071 355
TTC23L TTC23L HuAgeGBsplit_20 11.85265213893 0.297002656779427 11.5556494821506 -11.2586468253712 356
SOX9-AS1 SOX9-AS1 HuAgeGBsplit_20 10.8930233822254 0.292573510519347 10.6004498717061 -10.3078763611867 357
NME5 NME5 HuAgeGBsplit_20 11.2138479538026 0.291153998055469 10.9226939557472 -10.6315399576917 358
RABL2A RABL2A HuAgeGBsplit_20 9.84372497873006 0.287450118188165 9.55627486054189 -9.26882474235373 359
TEKT2 TEKT2 HuAgeGBsplit_20 10.2079438545901 0.287390832519754 9.92055302207034 -9.63316218955059 360
CFAP36 CFAP36 HuAgeGBsplit_20 11.3973954445635 0.285826453940943 11.1115689906225 -10.8257425366816 361
AC097637.2 AC097637.2 HuAgeGBsplit_20 10.146019191319 0.277798600012798 9.8682205913062 -9.59042199129341 362
SIGLEC18P SIGLEC18P HuAgeGBsplit_20 10.1622088036617 0.277302611473648 9.88490619218803 -9.60760358071438 363
AC095052.1 AC095052.1 HuAgeGBsplit_20 10.458143001621 0.274588729520905 10.1835542721 -9.90896554257914 364
AC008105.3 AC008105.3 HuAgeGBsplit_20 9.93756748363945 0.273563999069475 9.66400348456998 -9.3904394855005 365
FAM220CP FAM220CP HuAgeGBsplit_20 9.40807059359798 0.273327027404762 9.13474356619322 -8.86141653878846 366
FBXO36 FBXO36 HuAgeGBsplit_20 10.8801438741021 0.272992088019952 10.6071517860822 -10.3341596980622 367
RPL23AP27 RPL23AP27 HuAgeGBsplit_20 9.917579716601 0.259542601799192 9.65803711480181 -9.39849451300261 368
LINC02102 LINC02102 HuAgeGBsplit_20 10.159266377334 0.259075166523164 9.9001912108108 -9.64111604428763 369
CAPS CAPS HuAgeGBsplit_20 10.0370264548962 0.257445565368528 9.77958088952762 -9.5221353241591 370
PPIAP72 PPIAP72 HuAgeGBsplit_20 9.87170985108791 0.253614348775879 9.61809550231203 -9.36448115353615 371
OR7E36P OR7E36P HuAgeGBsplit_20 9.85888587835818 0.253262160183826 9.60562371817436 -9.35236155799053 372
ADAMTSL4-AS1 ADAMTSL4-AS1 HuAgeGBsplit_20 10.6330669109158 0.244418600338906 10.3886483105769 -10.144229710238 373
AC026464.3 AC026464.3 HuAgeGBsplit_20 10.4165003675545 0.242550079786919 10.1739502877676 -9.93140020798071 374
AC140113.4 AC140113.4 HuAgeGBsplit_20 9.91556479400882 0.234859783086009 9.68070501092281 -9.4458452278368 375
RNU2-41P RNU2-41P HuAgeGBsplit_20 9.65524004748618 0.205879472260748 9.44936057522543 -9.24348110296468 376
AC092329.2 AC092329.2 HuAgeGBsplit_20 9.97098759048287 0.20413427466535 9.76685331581752 -9.56271904115217 377
MIR1263 MIR1263 HuAgeGBsplit_20 9.67661622796519 0.202227453501642 9.47438877446355 -9.27216132096191 378
ICAM2 ICAM2 HuAgeGBsplit_20 10.1780073811882 0.18412250383696 9.99388487735123 -9.80976237351427 379
RNU6-927P RNU6-927P HuAgeGBsplit_20 9.95636207869831 0.154236451196703 9.80212562750161 -9.64788917630491 380
AL590705.1 AL590705.1 HuAgeGBsplit_20 9.65313696417509 0.111539896575671 9.54159706759942 -9.43005717102375 381
