"","HuAgeGBsplit_01....c1_HuAgeGBsplitRnaseq_605__"
"1","AC069304.3"
"2","AP001527.2"
"3","C11orf70"
"4","COL12A1"
"5","EFNB2"
"6","EIF4BP3"
"7","MLPH"
"8","NDN"
"9","PPP1R1AP2"
"10","RILP"
"11","RNF165"
"12","RNU6ATAC"
"13","TUSC3"
"14","YAP1"
