"","HuAgeGBsplit_04....c1_HuAgeGBsplitRnaseq_1195__"
"1","AC005014.1"
"2","AL031584.1"
"3","AL096861.1"
"4","AL353803.3"
"5","APOA4"
"6","LINC02138"
"7","MIR4752"
"8","MIR519D"
"9","MIR522"
"10","MT1B"
"11","OR13C7"
"12","OR6C74"
"13","SCGB2A2"
"14","SLC25A38P1"
