"","HuAgeGBsplit_09....c1_HuAgeGBsplitRnaseq_5__"
"1","AC096582.1"
"2","AL022722.2"
"3","AL139317.1"
"4","AL390719.2"
"5","AP003041.1"
"6","FZD10"
"7","OR7E31P"
"8","PPM1AP1"
"9","RN7SL783P"
"10","TMEM106B"
