"","HuAgeGBsplit_01....c1_HuAgeGBsplitRnaseq_25__"
"1","AC004408.2"
"2","AC005586.1"
"3","AC006077.1"
"4","AC006987.1"
"5","AC008011.1"
"6","AC008040.1"
"7","AC008556.1"
"8","AC008571.1"
"9","AC009563.1"
"10","AC009812.1"
"11","AC011450.1"
"12","AC011458.2"
"13","AC012306.1"
"14","AC012339.2"
"15","AC013643.3"
"16","AC013762.1"
"17","AC015818.1"
"18","AC018846.1"
"19","AC021613.1"
"20","AC022498.1"
"21","AC023932.2"
"22","AC025768.1"
"23","AC025884.3"
"24","AC037459.2"
"25","AC067838.1"
"26","AC069304.3"
"27","AC079395.1"
"28","AC079780.1"
"29","AC084024.3"
"30","AC087685.1"
"31","AC090204.1"
"32","AC090525.3"
"33","AC091185.1"
"34","AC092070.4"
"35","AC092634.6"
"36","AC092944.1"
"37","AC096644.2"
"38","AC105206.2"
"39","AC109454.4"
"40","AC109492.1"
"41","AC124067.4"
"42","AC128713.1"
"43","AC141257.3"
"44","AC233724.12"
"45","AC243964.2"
"46","ADAM9"
"47","ADAMTS17"
"48","ADAMTSL5"
"49","ADRA2A"
"50","AGL"
"51","AIFM3"
"52","AL022313.3"
"53","AL118508.4"
"54","AL138726.1"
"55","AL138900.2"
"56","AL139142.1"
"57","AL161912.4"
"58","AL162376.1"
"59","AL353072.1"
"60","AL445490.1"
"61","AL663061.1"
"62","AL928921.1"
"63","AMOT"
"64","ANKRD45"
"65","AP001527.2"
"66","AP001595.1"
"67","AP001979.2"
"68","AP001999.3"
"69","AP003084.1"
"70","AP003774.1"
"71","ARMC1"
"72","ASH2L"
"73","ASPH"
"74","ATP2C2"
"75","ATP6V1H"
"76","BRF2"
"77","C11orf70"
"78","C17orf82"
"79","C1orf232"
"80","C8orf58"
"81","C9orf47"
"82","CACNA2D4"
"83","CCAR2"
"84","CCDC129"
"85","CDH4"
"86","CGB7"
"87","CHD7"
"88","CHMP7"
"89","CKB"
"90","CLU"
"91","CNOT7"
"92","COL11A1"
"93","COL12A1"
"94","COPS5"
"95","CYCSP53"
"96","DCTN6"
"97","DDHD2"
"98","DKKL1"
"99","DLC1"
"100","DLGAP1"
"101","DSC2"
"102","EFNB2"
"103","EHBP1"
"104","EIF4BP3"
"105","ELOC"
"106","ELOVL2"
"107","ELP3"
"108","ENTPD4"
"109","ERICH1"
"110","ERLIN2"
"111","EXTL3"
"112","FAM160B2"
"113","FBXO25"
"114","FFAR3"
"115","FGF1"
"116","FGFR3"
"117","FMNL2"
"118","FNTA"
"119","FURIN"
"120","FUT10"
"121","FZD3"
"122","GABRG1"
"123","GOLGA7"
"124","GPAT4"
"125","GPR42"
"126","GSR"
"127","GTF2E2"
"128","GTF3AP6"
"129","HCN4"
"130","HGSNAT"
"131","HMBOX1"
"132","HMGB1P20"
"133","HMGB1P32"
"134","HOOK3"
"135","IGHGP"
"136","IKBKB"
"137","IMPA1"
"138","IMPAD1"
"139","INTS10"
"140","INTS9"
"141","JPH1"
"142","KAT6A"
"143","KCNB1"
"144","KCNE2"
"145","KCNE5"
"146","KCNK13"
"147","KCTD9"
"148","KLHL29"
"149","KLK4"
"150","KPNA4"
"151","LEPROTL1"
"152","LGR6"
"153","LINC01121"
"154","LINC01186"
"155","LINC01384"
"156","LINC01413"
"157","LINC02072"
"158","LINC02074"
"159","LSM1"
"160","LYPLA1"
"161","MAPRE3"
"162","MCPH1"
"163","MFHAS1"
"164","MIR4445"
"165","MIR514A1"
"166","MLPH"
"167","MTMR9"
"168","MZB1"
"169","NDN"
"170","NDUFB10P1"
"171","NEBL"
"172","NEIL2"
"173","NIFKP3"
"174","NOX3"
"175","NPM1P14"
"176","NSD3"
"177","NSMAF"
"178","NWD1"
"179","NXN"
"180","OR5M14P"
"181","OR7E156P"
"182","PAWRP1"
"183","PCM1"
"184","PCMTD1"
"185","PEX2"
"186","PIGPP4"
"187","PKMP4"
"188","PLCXD3"
"189","PLIN1"
"190","PLPBP"
"191","PNMA3"
"192","PNMA6A"
"193","PNMT"
"194","POLR3D"
"195","PPIAL4C"
"196","PPIAP7"
"197","PPP1R1AP2"
"198","PPP1R1B"
"199","PPP2CB"
"200","PPP2R2A"
"201","PPP3CC"
"202","PRELID3BP4"
"203","PSD3"
"204","PURG"
"205","PYGM"
"206","R3HCC1"
"207","RAB2A"
"208","RBPMS"
"209","RCC2P8"
"210","RILP"
"211","RN7SKP146"
"212","RN7SKP155"
"213","RN7SKP203"
"214","RN7SKP298"
"215","RN7SL705P"
"216","RNA5SP116"
"217","RNA5SP266"
"218","RNA5SP382"
"219","RNA5SP45"
"220","RNF122"
"221","RNF165"
"222","RNF170"
"223","RNU4ATAC6P"
"224","RNU6ATAC"
"225","RPL10P19"
"226","RPL10P9"
"227","RPL36AP40"
"228","RPS27P5"
"229","RPS29P10"
"230","RSPO2"
"231","SARAF"
"232","SCARA3"
"233","SEMA3A"
"234","SGK3"
"235","SLC13A5"
"236","SLC20A2"
"237","SLC22A6"
"238","SLC24A4"
"239","SLC2A4"
"240","SLC6A16"
"241","SLC7A10"
"242","SMIM19"
"243","SMYD2"
"244","SNX31"
"245","SORBS2"
"246","SORBS3"
"247","SPIDR"
"248","STAU2"
"249","STK39"
"250","SYPL2"
"251","TACC3"
"252","TCEA1"
"253","TDRP"
"254","TEAD2"
"255","TERF1"
"256","TFAP2C"
"257","THAP1"
"258","TM2D2"
"259","TMEM68"
"260","TMEM70"
"261","TNKS"
"262","TPT1P4"
"263","TRAM1"
"264","TRAV11"
"265","TRAV30"
"266","TRBD1"
"267","TRBV18"
"268","TRIM35"
"269","TSPYL2"
"270","TTI2"
"271","TUNAR"
"272","TUSC3"
"273","UBBP1"
"274","UBE2V2"
"275","UBXN2B"
"276","UBXN8"
"277","VANGL1"
"278","VCX"
"279","VDAC3"
"280","VEPH1"
"281","VPS37A"
"282","WFDC1"
"283","WRN"
"284","WT1"
"285","XPO7"
"286","YAP1"
"287","YBX2"
"288","YTHDF3"
"289","ZBTB10"
"290","ZNF596"
