"","HuAgeGBsplit_02....c1_HuAgeGBsplitRnaseq_342__"
"1","AC004552.1"
"2","AC008155.1"
"3","AC069157.1"
"4","DEFB132"
"5","ELK1P1"
"6","FAM218BP"
"7","LRP2BP"
"8","MIR378F"
"9","MIR4678"
"10","RPL21P108"
"11","TLX1NB"
"12","TRAJ13"
