"","HuAgeGBsplit_01....c1_HuAgeGBsplitRnaseq_103__"
"1","AC078993.1"
"2","AL844170.1"
"3","GRPR"
"4","KRT18P50"
"5","LINC01432"
"6","LINC02156"
"7","MFRP"
"8","PLRG1"
"9","RN7SKP204"
"10","S1PR3"
"11","SLC2A12"
