"","HuAgeGBsplit_01....c1_HuAgeGBsplitRnaseq_253__"
"1","AC087645.1"
"2","ATP1A2"
"3","C19orf57"
"4","COL9A3"
"5","GLMP"
"6","MAN2B1"
"7","NADK2"
"8","PARD6B"
"9","PROM2"
"10","RBM38"
"11","SIX2"
"12","STMN3"
"13","TCFL5"
"14","TTLL4"
