"","HuAgeGBsplit_21....c1_HuAgeGBsplitRnaseq_360__"
"1","AC006363.1"
"2","AC009779.6"
"3","AL731768.1"
"4","B3GNTL1P2"
"5","BCAR4"
"6","FAM86MP"
"7","HMGB3P12"
"8","HMGB3P23"
"9","MIR4460"
"10","Z98742.1"
