"","HuAgeGBsplit_31....c1_HuAgeGBsplitRnaseq_64__"
"1","AC011979.2"
"2","AC092473.1"
"3","AC114755.2"
"4","AL122127.1"
"5","AL606490.3"
"6","AP002791.1"
"7","AP004607.1"
"8","ATP5MC1P7"
"9","KRT18P49"
"10","KRT8P5"
"11","RF00406"
"12","RN7SL163P"
"13","RNA5SP369"
