"","HuAgeGBsplit_01....c1_HuAgeGBsplitRnaseq_47__"
"1","AC008663.2"
"2","AC010207.1"
"3","AL590004.4"
"4","AP000708.1"
"5","CLIP4"
"6","GABRQ"
"7","GLB1L2"
"8","IGSF9B"
"9","JPT2"
"10","MIR100HG"
"11","MIR4697HG"
"12","RPL39P5"
"13","SLC37A4"
"14","SLN"
"15","SMO"
"16","TECTA"
