"","HuAgeGBsplit_24....c1_HuAgeGBsplitRnaseq_11__"
"1","AC025175.1"
"2","AC090825.1"
"3","AC090877.2"
"4","AC117489.1"
"5","ARL15"
"6","GREM1"
"7","HMGN2P19"
"8","NECAB1"
"9","PDZRN3"
"10","SERPINI1"
