"","HuAgeGBsplit_01....c1_HuAgeGBsplitRnaseq_832__"
"1","AL121758.1"
"2","AP000766.1"
"3","DTNBP1"
"4","EEF1A1P34"
"5","EIF5B"
"6","ESF1"
"7","GNRH2"
"8","RETSAT"
"9","SLC24A3"
"10","TBX6"
"11","TOP1"
"12","ZC3H11B"
