"","HuAgeGBsplit_01....c1_HuAgeGBsplitRnaseq_329__"
"1","ARFGEF3"
"2","DCLRE1B"
"3","EFCAB14"
"4","GRIN3B"
"5","PCOLCE"
"6","PON1"
"7","PON3"
"8","RHBDL2"
"9","RRAGD"
"10","SCG2"
"11","SERTAD2"
"12","TET3"
"13","TRIP6"
"14","TRRAP"
"15","VGF"
"16","WDR86"
