"","HuAgeGBsplit_02....c1_HuAgeGBsplitRnaseq_11__"
"1","ABHD17AP6"
"2","AC002486.2"
"3","AC005674.2"
"4","AC005920.1"
"5","AC006499.5"
"6","AC007749.1"
"7","AC008438.2"
"8","AC008505.1"
"9","AC008751.2"
"10","AC009163.4"
"11","AC010997.2"
"12","AC011742.2"
"13","AC013248.1"
"14","AC015712.5"
"15","AC016877.3"
"16","AC018716.2"
"17","AC018868.2"
"18","AC018946.2"
"19","AC019129.2"
"20","AC019193.3"
"21","AC021106.1"
"22","AC021106.3"
"23","AC022167.4"
"24","AC022390.1"
"25","AC023141.8"
"26","AC024580.2"
"27","AC026320.1"
"28","AC026826.1"
"29","AC027449.1"
"30","AC027601.3"
"31","AC027801.1"
"32","AC027801.3"
"33","AC027801.5"
"34","AC037471.1"
"35","AC064871.1"
"36","AC069154.1"
"37","AC074327.1"
"38","AC078881.1"
"39","AC079921.2"
"40","AC084082.1"
"41","AC087499.2"
"42","AC090630.1"
"43","AC092327.1"
"44","AC093323.1"
"45","AC095057.3"
"46","AC097381.1"
"47","AC099654.11"
"48","AC103855.3"
"49","AC104417.2"
"50","AC104836.1"
"51","AC105345.1"
"52","AC106791.2"
"53","AC107079.1"
"54","AC108062.1"
"55","AC108471.2"
"56","AC113347.1"
"57","AC114973.1"
"58","AC116353.1"
"59","AC118282.2"
"60","AC127381.1"
"61","AC131281.1"
"62","AC138466.3"
"63","AC139530.1"
"64","AC139887.2"
"65","AC245187.2"
"66","AC245407.3"
"67","AC245519.1"
"68","AC246817.2"
"69","ADGRA3"
"70","AF254983.2"
"71","AFAP1"
"72","AL022161.1"
"73","AL023284.4"
"74","AL024508.2"
"75","AL033523.1"
"76","AL109810.1"
"77","AL118511.2"
"78","AL121656.1"
"79","AL136379.1"
"80","AL137000.1"
"81","AL137783.1"
"82","AL138881.1"
"83","AL139327.2"
"84","AL158077.1"
"85","AL158210.1"
"86","AL158801.5"
"87","AL160291.1"
"88","AL161447.1"
"89","AL161670.2"
"90","AL161751.1"
"91","AL162391.1"
"92","AL353133.2"
"93","AL353732.1"
"94","AL356094.1"
"95","AL356292.1"
"96","AL358613.2"
"97","AL390195.1"
"98","AL390195.2"
"99","AL445426.1"
"100","AL445483.1"
"101","AL513128.2"
"102","AL627230.1"
"103","AL627230.5"
"104","AL807752.7"
"105","ANAPC4"
"106","AP000343.1"
"107","AP001340.1"
"108","AP001360.1"
"109","AP002963.1"
"110","AP002981.1"
"111","AP003097.2"
"112","AP006287.1"
"113","APBB2"
"114","APOOP2"
"115","ARF4P4"
"116","ARL2BPP2"
"117","ARMC4P1"
"118","ART1"
"119","ATP8A1"
"120","B3GALNT1"
"121","BDH2"
"122","BTBD16"
"123","C10orf90"
"124","C8orf88"
"125","CABP4"
"126","CAPN13"
"127","CASC6"
"128","CCDC144NL"
"129","CCNI2"
"130","CCT6B"
"131","CDK5R2"
"132","CDO1"
"133","CENPUP1"
"134","CISD2"
"135","CLCA4"
"136","CLCN4"
"137","CLMN"
"138","CLYBL"
"139","COMMD1"
"140","CR848007.3"
"141","CYP2J2"
"142","DGKQ"
"143","DHX15"
"144","DMBT1"
"145","DNAJC6"
"146","DUSP19"
"147","DYSF"
"148","EMILIN1"
"149","EPHX4"
"150","FAM200B"
"151","FAM25E"
"152","FBXL5"
"153","FTH1P10"
"154","GAPDHP52"
"155","GHSR"
"156","GIPR"
"157","GNPDA2"
"158","GPN3P1"
"159","GRPEL1"
"160","HHIP"
"161","HIGD1AP18"
"162","HIST2H2AA3"
"163","HMGN1P16"
"164","HPN"
"165","HSPA12A"
"166","HSPD1P8"
"167","IFNA12P"
"168","IFNA13"
"169","IFNA2"
"170","IFNA6"
"171","IGLL3P"
"172","KCNH8"
"173","KLF3"
"174","KLRG1"
"175","LCNL1"
"176","LDHAP3"
"177","LETM1"
"178","LINC00320"
"179","LINC00427"
"180","LINC00601"
"181","LINC00706"
"182","LINC00877"
"183","LINC00904"
"184","LINC01251"
"185","LINC01657"
"186","LINC02248"
"187","LRP2"
"188","LRRC37A6P"
"189","LSP1P1"
"190","MAN2B2"
"191","MIPEPP1"
"192","MTAPP1"
"193","N4BP2"
"194","NFXL1"
"195","NXPE4"
"196","OPALIN"
"197","OR2AT4"
"198","OR7E29P"
"199","OVGP1"
"200","P2RX6P"
"201","PACRGL"
"202","PCDH9"
"203","PDE1C"
"204","PDE8A"
"205","PDS5A"
"206","PGM2"
"207","PI4K2B"
"208","PIP5KL1"
"209","POLR2D"
"210","PPP1R14BP5"
"211","PRKCQ"
"212","PTGES3P3"
"213","RAB28"
"214","RASAL1"
"215","RBPJ"
"216","RF00284"
"217","RFC1"
"218","RN7SKP140"
"219","RN7SKP48"
"220","RN7SL415P"
"221","RN7SL868P"
"222","RPL23AP71"
"223","RPL31P41"
"224","RPL36AP36"
"225","RPL7P55"
"226","RPS27AP11"
"227","RPS2P4"
"228","SCGB1D5P"
"229","SEPSECS"
"230","SETD6P1"
"231","SH3TC2"
"232","SHTN1"
"233","SLC30A9"
"234","SLC39A11"
"235","SLC9A9"
"236","SLC9B1"
"237","SMIM14"
"238","SMIM20"
"239","SNHG25"
"240","SNHG9"
"241","SNRPD2P2"
"242","SNX19P3"
"243","SPDYE7P"
"244","STIM2"
"245","STXBP3"
"246","TADA2B"
"247","TBC1D1"
"248","TBC1D12"
"249","TBC1D19"
"250","TEX46"
"251","TEX48"
"252","TMEM256P1"
"253","TMEM33"
"254","TRAF5"
"255","TRIM59"
"256","TRMT44"
"257","TVP23A"
"258","TWF1P1"
"259","UBE2FP3"
"260","UBE2K"
"261","UBTFL9"
"262","UGDH"
"263","VARS2"
"264","VILL"
"265","VSTM5"
"266","XKR8"
"267","YWHAZP4"
"268","Z99497.1"
"269","Z99497.2"
"270","ZCCHC24"
"271","ZCCHC4"
"272","ZDHHC9"
"273","ZFP57"
"274","ZKSCAN7"
"275","ZNF141"
"276","ZNF718"
