"","HuAgeGBsplit_38....c1_HuAgeGBsplitRnaseq_11__"
"1","AC005829.1"
"2","AC005829.2"
"3","AC103810.1"
"4","AC107222.1"
"5","AC126544.1"
"6","AL117336.1"
"7","AP000688.1"
"8","ARL17B"
"9","AVP"
"10","DND1P1"
"11","MAPK8IP1P1"
"12","MAPK8IP1P2"
"13","MRPL19"
"14","Z95118.1"
