"","HuAgeGBsplit_09....c1_HuAgeGBsplitRnaseq_15__"
"1","AC020922.4"
"2","AC110491.3"
"3","AC126773.1"
"4","AC126773.4"
"5","AGO4"
"6","AP001330.3"
"7","CRYBB2"
"8","DGKB"
"9","MIR5694"
"10","Z99916.1"
