"","HuAgeGBsplit_09....c1_HuAgeGBsplitRnaseq_22__"
"1","AC005332.2"
"2","AL118511.1"
"3","AL670729.1"
"4","C1orf198"
"5","ITPKB"
"6","LINC01181"
"7","MVP"
"8","OR7E136P"
"9","TRIM11"
"10","TRIM17"
"11","UNC93B2"
"12","USP6"
