"","HuAgeGBsplit_02....c1_HuAgeGBsplitRnaseq_1421__"
"1","AC009570.1"
"2","AC010336.5"
"3","AC010468.1"
"4","AC091917.2"
"5","AC105277.1"
"6","AC112907.2"
"7","BCHE"
"8","C2CD2"
"9","HDHD3"
"10","HSPD1P4"
"11","LINC02200"
"12","MIR320D1"
"13","S100A14"
"14","ZBTB21"
