"","HuAgeGBsplit_27....c1_HuAgeGBsplitRnaseq_10__"
"1","AC008687.4"
"2","AC010273.1"
"3","ACOX2"
"4","B4GALNT3"
"5","CBLN4"
"6","ERBB3"
"7","EXTL1"
"8","IL17B"
"9","NUTF2P7"
"10","RBMS1"
"11","ROPN1B"
"12","SPHK1"
"13","TMEM53"
