"","HuAgeGBsplit_08....c1_HuAgeGBsplitRnaseq_15__"
"1","AC011595.2"
"2","AC069213.2"
"3","AC213203.1"
"4","AL391845.2"
"5","GABRD"
"6","GPS2P1"
"7","LINC01783"
"8","RHOXF1P3"
"9","RNA5SP502"
"10","RPS6KA4"
"11","SNORA50D"
