"","HuAgeGBsplit_28....c1_HuAgeGBsplitRnaseq_18__"
"1","AC023141.12"
"2","AC064862.2"
"3","AC069285.1"
"4","AC092447.5"
"5","AC097504.2"
"6","AC109588.1"
"7","AC237221.1"
"8","AC237221.2"
"9","AL356585.4"
"10","GLUD2"
"11","LINC02432"
"12","NLRC3"
"13","RNA5SP536"
"14","SELENOOLP"
"15","UBE2V1P9"
