"","HuAgeGBsplit_02....c1_HuAgeGBsplitRnaseq_59__"
"1","AC004453.2"
"2","AC105339.3"
"3","AQP1"
"4","ATF7IP"
"5","CBFB"
"6","CRYBG3"
"7","GYG1"
"8","MRVI1"
"9","RIOX2"
"10","SHISA7"
"11","SLC35F2"
"12","SRSF9P1"
"13","SSPO"
"14","ZMYM1"
