"","HuAgeGBsplit_03....c1_HuAgeGBsplitRnaseq_100__"
"1","AC133104.2"
"2","AL603865.2"
"3","AL772337.3"
"4","CTSLP8"
"5","FBXO36P1"
"6","HAUS6P1"
"7","MYCLP2"
"8","MYO3A"
"9","NBEAL2"
"10","NLRC4"
"11","PIWIL3"
"12","RF00334"
"13","RPL13P2"
"14","SPINK6"
