"","HuAgeGBsplit_01....c1_HuAgeGBsplitRnaseq_107__"
"1","AC005597.1"
"2","AC008080.2"
"3","AC012506.2"
"4","AC066613.2"
"5","AC091953.5"
"6","AC092687.1"
"7","AC106872.4"
"8","AL031599.1"
"9","AL133373.1"
"10","HYLS1"
"11","PQLC1P1"
"12","PSMA2P1"
"13","UBE2FP2"
