"","HuAgeGBsplit_08....c1_HuAgeGBsplitRnaseq_191__"
"1","AC061961.1"
"2","AC104024.2"
"3","ATP2B3"
"4","DOC2A"
"5","GABRA1"
"6","GABRB2"
"7","HRH3"
"8","KCNJ3"
"9","LLGL2"
"10","MAP7D2"
"11","NSF"
"12","SPINT2"
"13","STXBP5"
"14","SV2B"
